%!PS-Adobe-3.0 EPSF-3.0
%%BoundingBox: (atend)
%%LanguageLevel: 2
%%Creator: Grace-5.1.22
%%CreationDate: Sun Nov 16 23:46:01 2014
%%DocumentData: Clean8Bit
%%Orientation: Portrait
%%Title: fit-gph.agr
%%For: wfr
%%DocumentNeededResources: (atend)
%%EndComments
%%BeginProlog
/m {moveto} def
/l {lineto} def
/s {stroke} def
/n {newpath} def
/c {closepath} def
/RL {rlineto} def
/SLW {setlinewidth} def
/GS {gsave} def
/GR {grestore} def
/SC {setcolor} def
/SGRY {setgray} def
/SRGB {setrgbcolor} def
/SD {setdash} def
/SLC {setlinecap} def
/SLJ {setlinejoin} def
/SCS {setcolorspace} def
/FFSF {findfont setfont} def
/CC {concat} def
/PXL {n m 0 0 RL s} def
/Color0 {1.0000 1.0000 1.0000} def
/Color1 {0.0000 0.0000 0.0000} def
/Color2 {1.0000 0.0000 0.0000} def
/Color3 {0.0000 1.0000 0.0000} def
/Color4 {0.0000 0.0000 1.0000} def
/Color5 {1.0000 1.0000 0.0000} def
/Color6 {0.7373 0.5608 0.5608} def
/Color7 {0.8627 0.8627 0.8627} def
/Color8 {0.5804 0.0000 0.8275} def
/Color9 {0.0000 1.0000 1.0000} def
/Color10 {1.0000 0.0000 1.0000} def
/Color11 {1.0000 0.6471 0.0000} def
/Color12 {0.4471 0.1294 0.7373} def
/Color13 {0.4039 0.0275 0.2824} def
/Color14 {0.2510 0.8784 0.8157} def
/Color15 {0.0000 0.5451 0.0000} def
/PTRN {
 /pat_bits exch def 
 <<
  /PaintType 2
  /PatternType 1 /TilingType 1
  /BBox[0 0 16 16]
  /XStep 16 /YStep 16
  /PaintProc {
   pop
   16 16 true [-1 0 0 -1 16 16] pat_bits imagemask
  }
 >>
 [0.0017 0 0 0.0017 0 0]
 makepattern
} def
/Pattern0 {<0000000000000000000000000000000000000000000000000000000000000000> PTRN} bind def
/Pattern1 {<ffffffffffffffffffffffffffffffffffffffffffffffffffffffffffffffff> PTRN} bind def
/Pattern2 {<eeeeffffbbbbffffeeeeffffbbbbffffeeeeffffbbbbffffeeeeffffbbbbffff> PTRN} bind def
/Pattern3 {<eeeebbbbeeeebbbbeeeebbbbeeeebbbbeeeebbbbeeeebbbbeeeebbbbeeeebbbb> PTRN} bind def
/Pattern4 {<5555aaaa5555aaaa5555aaaa5555aaaa5555aaaa5555aaaa5555aaaa5555aaaa> PTRN} bind def
/Pattern5 {<1111444411114444111144441111444411114444111144441111444411114444> PTRN} bind def
/Pattern6 {<1111000044440000111100004444000011110000444400001111000044440000> PTRN} bind def
/Pattern7 {<1010000000000000010100000000000010100000000000000101000000000000> PTRN} bind def
/Pattern8 {<0000000000000000000000000000000000000000000000000000000000000000> PTRN} bind def
/Pattern9 {<1e1e0f0f8787c3c3e1e1f0f078783c3c1e1e0f0f8787c3c3e1e1f0f078783c3c> PTRN} bind def
/Pattern10 {<7878f0f0e1e1c3c387870f0f1e1e3c3c7878f0f0e1e1c3c387870f0f1e1e3c3c> PTRN} bind def
/Pattern11 {<3333333333333333333333333333333333333333333333333333333333333333> PTRN} bind def
/Pattern12 {<ffffffff00000000ffffffff00000000ffffffff00000000ffffffff00000000> PTRN} bind def
/Pattern13 {<8181424224241818181824244242818181814242242418181818242442428181> PTRN} bind def
/Pattern14 {<8080404020201010080804040202010180804040202010100808040402020101> PTRN} bind def
/Pattern15 {<0101020204040808101020204040808001010202040408081010202040408080> PTRN} bind def
/Pattern16 {<2222222222222222222222222222222222222222222222222222222222222222> PTRN} bind def
/Pattern17 {<0000ffff000000000000ffff000000000000ffff000000000000ffff00000000> PTRN} bind def
/Pattern18 {<2222ffff222222222222ffff222222222222ffff222222222222ffff22222222> PTRN} bind def
/Pattern19 {<ffffffff33333333ffffffff33333333ffffffff33333333ffffffff33333333> PTRN} bind def
/Pattern20 {<0f0f0f0f0f0f0f0ff0f0f0f0f0f0f0f00f0f0f0f0f0f0f0ff0f0f0f0f0f0f0f0> PTRN} bind def
/Pattern21 {<ff00ff00ff00ff00ff00ff00ff00ff0000ff00ff00ff00ff00ff00ff00ff00ff> PTRN} bind def
/Pattern22 {<8001800180018001800180018001ffffffff8001800180018001800180018001> PTRN} bind def
/Pattern23 {<c003c003c003c003c003c003ffffffffffffffffc003c003c003c003c003c003> PTRN} bind def
/Pattern24 {<040404040404ffff404040404040ffff040404040404ffff404040404040ffff> PTRN} bind def
/Pattern25 {<180018001800180018001800ffffffff001800180018001800180018ffffffff> PTRN} bind def
/Pattern26 {<1111b8b87c7c3a3a1111a3a3c7c78b8b1111b8b87c7c3a3a1111a3a3c7c78b8b> PTRN} bind def
/Pattern27 {<101010102828c7c70101010182827c7c101010102828c7c70101010182827c7c> PTRN} bind def
/Pattern28 {<1c1c121211112121c1c12121111112121c1c121211112121c1c1212111111212> PTRN} bind def
/Pattern29 {<3e3e414180808080e3e31414080808083e3e414180808080e3e3141408080808> PTRN} bind def
/Pattern30 {<4848888884848383848488884848383848488888848483838484888848483838> PTRN} bind def
/Pattern31 {<03030404080808080c0c12122121c0c003030404080808080c0c12122121c0c0> PTRN} bind def
/ellipsedict 8 dict def
ellipsedict /mtrx matrix put
/EARC {
 ellipsedict begin
  /endangle exch def
  /startangle exch def
  /yrad exch def
  /xrad exch def
  /y exch def
  /x exch def
  /savematrix mtrx currentmatrix def
  x y translate
  xrad yrad scale
  0 0 1 startangle endangle arc
  savematrix setmatrix
 end
} def
/TL {
  /kcomp exch def
  /linewidth exch def
  /offset exch def
  GS
  0 offset rmoveto
  linewidth SLW
  dup stringwidth exch kcomp add exch RL s
  GR
} def
/KINIT
{
 /kvector exch def
 /kid 0 def
} def
/KPROC
{
 pop pop
 kvector kid get
 0 rmoveto
 /kid 1 kid add def
} def
/DefEncoding [
 /.notdef
 /.notdef
 /.notdef
 /.notdef
 /.notdef
 /.notdef
 /.notdef
 /.notdef
 /.notdef
 /.notdef
 /.notdef
 /.notdef
 /.notdef
 /.notdef
 /.notdef
 /.notdef
 /.notdef
 /.notdef
 /.notdef
 /.notdef
 /.notdef
 /.notdef
 /.notdef
 /.notdef
 /.notdef
 /.notdef
 /.notdef
 /.notdef
 /.notdef
 /.notdef
 /.notdef
 /.notdef
 /space
 /exclam
 /quotedbl
 /numbersign
 /dollar
 /percent
 /ampersand
 /quoteright
 /parenleft
 /parenright
 /asterisk
 /plus
 /comma
 /hyphen
 /period
 /slash
 /zero
 /one
 /two
 /three
 /four
 /five
 /six
 /seven
 /eight
 /nine
 /colon
 /semicolon
 /less
 /equal
 /greater
 /question
 /at
 /A
 /B
 /C
 /D
 /E
 /F
 /G
 /H
 /I
 /J
 /K
 /L
 /M
 /N
 /O
 /P
 /Q
 /R
 /S
 /T
 /U
 /V
 /W
 /X
 /Y
 /Z
 /bracketleft
 /backslash
 /bracketright
 /asciicircum
 /underscore
 /grave
 /a
 /b
 /c
 /d
 /e
 /f
 /g
 /h
 /i
 /j
 /k
 /l
 /m
 /n
 /o
 /p
 /q
 /r
 /s
 /t
 /u
 /v
 /w
 /x
 /y
 /z
 /braceleft
 /bar
 /braceright
 /asciitilde
 /.notdef
 /.notdef
 /.notdef
 /.notdef
 /.notdef
 /.notdef
 /.notdef
 /.notdef
 /.notdef
 /.notdef
 /.notdef
 /.notdef
 /.notdef
 /.notdef
 /.notdef
 /.notdef
 /.notdef
 /.notdef
 /.notdef
 /.notdef
 /.notdef
 /.notdef
 /.notdef
 /.notdef
 /.notdef
 /.notdef
 /.notdef
 /.notdef
 /.notdef
 /.notdef
 /.notdef
 /.notdef
 /.notdef
 /space
 /exclamdown
 /cent
 /sterling
 /currency
 /yen
 /brokenbar
 /section
 /dieresis
 /copyright
 /ordfeminine
 /guillemotleft
 /logicalnot
 /hyphen
 /registered
 /macron
 /degree
 /plusminus
 /twosuperior
 /threesuperior
 /acute
 /mu
 /paragraph
 /periodcentered
 /cedilla
 /onesuperior
 /ordmasculine
 /guillemotright
 /onequarter
 /onehalf
 /threequarters
 /questiondown
 /Agrave
 /Aacute
 /Acircumflex
 /Atilde
 /Adieresis
 /Aring
 /AE
 /Ccedilla
 /Egrave
 /Eacute
 /Ecircumflex
 /Edieresis
 /Igrave
 /Iacute
 /Icircumflex
 /Idieresis
 /Eth
 /Ntilde
 /Ograve
 /Oacute
 /Ocircumflex
 /Otilde
 /Odieresis
 /multiply
 /Oslash
 /Ugrave
 /Uacute
 /Ucircumflex
 /Udieresis
 /Yacute
 /Thorn
 /germandbls
 /agrave
 /aacute
 /acircumflex
 /atilde
 /adieresis
 /aring
 /ae
 /ccedilla
 /egrave
 /eacute
 /ecircumflex
 /edieresis
 /igrave
 /iacute
 /icircumflex
 /idieresis
 /eth
 /ntilde
 /ograve
 /oacute
 /ocircumflex
 /otilde
 /odieresis
 /divide
 /oslash
 /ugrave
 /uacute
 /ucircumflex
 /udieresis
 /yacute
 /thorn
 /ydieresis
] def
%%EndProlog
%%BeginSetup
%%EndSetup
600.00 600.00 scale
n
0.0000 0.0000 m
0.0000 1.0000 l
1.2884 1.0000 l
1.2884 0.0000 l
c
[/DeviceRGB] SCS
Color0 SC
fill
[/DeviceRGB] SCS
Color1 SC
[] 0 SD
0.0015 SLW
0 SLC
0 SLJ
n
0.2074 0.1700 m
0.2074 0.1745 l
s
n
0.1974 0.1745 m
0.2174 0.1745 l
s
n
0.2074 0.1700 m
0.2074 0.1656 l
s
n
0.2174 0.1656 m
0.1974 0.1656 l
s
n
0.3419 0.2883 m
0.3419 0.2928 l
s
n
0.3319 0.2928 m
0.3519 0.2928 l
s
n
0.3419 0.2883 m
0.3419 0.2839 l
s
n
0.3519 0.2839 m
0.3319 0.2839 l
s
n
0.4764 0.3940 m
0.4764 0.3984 l
s
n
0.4664 0.3984 m
0.4864 0.3984 l
s
n
0.4764 0.3940 m
0.4764 0.3895 l
s
n
0.4864 0.3895 m
0.4664 0.3895 l
s
n
0.6108 0.4923 m
0.6108 0.4968 l
s
n
0.6008 0.4968 m
0.6208 0.4968 l
s
n
0.6108 0.4923 m
0.6108 0.4879 l
s
n
0.6208 0.4879 m
0.6008 0.4879 l
s
n
0.7453 0.6042 m
0.7453 0.6086 l
s
n
0.7353 0.6086 m
0.7553 0.6086 l
s
n
0.7453 0.6042 m
0.7453 0.5997 l
s
n
0.7553 0.5997 m
0.7353 0.5997 l
s
n
0.8797 0.7221 m
0.8797 0.7265 l
s
n
0.8697 0.7265 m
0.8897 0.7265 l
s
n
0.8797 0.7221 m
0.8797 0.7176 l
s
n
0.8897 0.7176 m
0.8697 0.7176 l
s
n
1.0142 0.8299 m
1.0142 0.8344 l
s
n
1.0042 0.8344 m
1.0242 0.8344 l
s
n
1.0142 0.8299 m
1.0142 0.8255 l
s
n
1.0242 0.8255 m
1.0042 0.8255 l
s
[] 0 SD
0.0030 SLW
n 0.2074 0.1700 0.0100 0.0100 0 360 EARC s
n 0.3419 0.2883 0.0100 0.0100 0 360 EARC s
n 0.4764 0.3940 0.0100 0.0100 0 360 EARC s
n 0.6108 0.4923 0.0100 0.0100 0 360 EARC s
n 0.7453 0.6042 0.0100 0.0100 0 360 EARC s
n 0.8797 0.7221 0.0100 0.0100 0 360 EARC s
n 1.0142 0.8299 0.0100 0.0100 0 360 EARC s
[/DeviceRGB] SCS
Color2 SC
[] 0 SD
0.0015 SLW
n
0.1832 0.1529 m
0.1919 0.1599 l
0.2005 0.1669 l
0.2092 0.1739 l
0.2178 0.1809 l
0.2264 0.1879 l
0.2351 0.1950 l
0.2437 0.2020 l
0.2524 0.2090 l
0.2610 0.2160 l
0.2696 0.2230 l
0.2783 0.2300 l
0.2869 0.2370 l
0.2955 0.2441 l
0.3042 0.2511 l
0.3128 0.2581 l
0.3215 0.2651 l
0.3301 0.2721 l
0.3387 0.2791 l
0.3474 0.2861 l
0.3560 0.2932 l
0.3646 0.3002 l
0.3733 0.3072 l
0.3819 0.3142 l
0.3906 0.3212 l
0.3992 0.3282 l
0.4078 0.3353 l
0.4165 0.3423 l
0.4251 0.3493 l
0.4337 0.3563 l
0.4424 0.3633 l
0.4510 0.3703 l
0.4597 0.3773 l
0.4683 0.3844 l
0.4769 0.3914 l
0.4856 0.3984 l
0.4942 0.4054 l
0.5029 0.4124 l
0.5115 0.4194 l
0.5201 0.4264 l
0.5288 0.4335 l
0.5374 0.4405 l
0.5460 0.4475 l
0.5547 0.4545 l
0.5633 0.4615 l
0.5720 0.4685 l
0.5806 0.4755 l
0.5892 0.4826 l
0.5979 0.4896 l
0.6065 0.4966 l
0.6151 0.5036 l
0.6238 0.5106 l
0.6324 0.5176 l
0.6410 0.5247 l
0.6497 0.5317 l
0.6583 0.5387 l
0.6670 0.5457 l
0.6756 0.5527 l
0.6842 0.5597 l
0.6929 0.5667 l
0.7015 0.5738 l
0.7102 0.5808 l
0.7188 0.5878 l
0.7274 0.5948 l
0.7361 0.6018 l
0.7447 0.6088 l
0.7533 0.6158 l
0.7620 0.6229 l
0.7706 0.6299 l
0.7793 0.6369 l
0.7879 0.6439 l
0.7965 0.6509 l
0.8052 0.6579 l
0.8138 0.6649 l
0.8224 0.6720 l
0.8311 0.6790 l
0.8397 0.6860 l
0.8484 0.6930 l
0.8570 0.7000 l
0.8656 0.7070 l
0.8743 0.7141 l
0.8829 0.7211 l
0.8916 0.7281 l
0.9002 0.7351 l
0.9088 0.7421 l
0.9175 0.7491 l
0.9261 0.7561 l
0.9347 0.7632 l
0.9434 0.7702 l
0.9520 0.7772 l
0.9607 0.7842 l
0.9693 0.7912 l
0.9779 0.7982 l
0.9866 0.8052 l
0.9952 0.8123 l
1.0038 0.8193 l
1.0125 0.8263 l
1.0211 0.8333 l
1.0298 0.8403 l
1.0384 0.8473 l
s
[/DeviceRGB] SCS
Color1 SC
[] 0 SD
0.0030 SLW
n
0.1832 0.1529 m
0.1919 0.1599 l
0.2005 0.1669 l
0.2092 0.1739 l
0.2178 0.1809 l
0.2264 0.1879 l
0.2351 0.1950 l
0.2437 0.2020 l
0.2524 0.2090 l
0.2610 0.2160 l
0.2696 0.2230 l
0.2783 0.2300 l
0.2869 0.2370 l
0.2955 0.2441 l
0.3042 0.2511 l
0.3128 0.2581 l
0.3215 0.2651 l
0.3301 0.2721 l
0.3387 0.2791 l
0.3474 0.2861 l
0.3560 0.2932 l
0.3646 0.3002 l
0.3733 0.3072 l
0.3819 0.3142 l
0.3906 0.3212 l
0.3992 0.3282 l
0.4078 0.3353 l
0.4165 0.3423 l
0.4251 0.3493 l
0.4337 0.3563 l
0.4424 0.3633 l
0.4510 0.3703 l
0.4597 0.3773 l
0.4683 0.3844 l
0.4769 0.3914 l
0.4856 0.3984 l
0.4942 0.4054 l
0.5029 0.4124 l
0.5115 0.4194 l
0.5201 0.4264 l
0.5288 0.4335 l
0.5374 0.4405 l
0.5460 0.4475 l
0.5547 0.4545 l
0.5633 0.4615 l
0.5720 0.4685 l
0.5806 0.4755 l
0.5892 0.4826 l
0.5979 0.4896 l
0.6065 0.4966 l
0.6151 0.5036 l
0.6238 0.5106 l
0.6324 0.5176 l
0.6410 0.5247 l
0.6497 0.5317 l
0.6583 0.5387 l
0.6670 0.5457 l
0.6756 0.5527 l
0.6842 0.5597 l
0.6929 0.5667 l
0.7015 0.5738 l
0.7102 0.5808 l
0.7188 0.5878 l
0.7274 0.5948 l
0.7361 0.6018 l
0.7447 0.6088 l
0.7533 0.6158 l
0.7620 0.6229 l
0.7706 0.6299 l
0.7793 0.6369 l
0.7879 0.6439 l
0.7965 0.6509 l
0.8052 0.6579 l
0.8138 0.6649 l
0.8224 0.6720 l
0.8311 0.6790 l
0.8397 0.6860 l
0.8484 0.6930 l
0.8570 0.7000 l
0.8656 0.7070 l
0.8743 0.7141 l
0.8829 0.7211 l
0.8916 0.7281 l
0.9002 0.7351 l
0.9088 0.7421 l
0.9175 0.7491 l
0.9261 0.7561 l
0.9347 0.7632 l
0.9434 0.7702 l
0.9520 0.7772 l
0.9607 0.7842 l
0.9693 0.7912 l
0.9779 0.7982 l
0.9866 0.8052 l
0.9952 0.8123 l
1.0038 0.8193 l
1.0125 0.8263 l
1.0211 0.8333 l
1.0298 0.8403 l
1.0384 0.8473 l
s
n
0.2747 0.1500 m
0.2747 0.1700 l
s
n
0.2747 0.8500 m
0.2747 0.8300 l
s
n
0.4091 0.1500 m
0.4091 0.1700 l
s
n
0.4091 0.8500 m
0.4091 0.8300 l
s
n
0.5436 0.1500 m
0.5436 0.1700 l
s
n
0.5436 0.8500 m
0.5436 0.8300 l
s
n
0.6781 0.1500 m
0.6781 0.1700 l
s
n
0.6781 0.8500 m
0.6781 0.8300 l
s
n
0.8125 0.1500 m
0.8125 0.1700 l
s
n
0.8125 0.8500 m
0.8125 0.8300 l
s
n
0.9470 0.1500 m
0.9470 0.1700 l
s
n
0.9470 0.8500 m
0.9470 0.8300 l
s
n
0.2074 0.1500 m
0.2074 0.1800 l
s
n
0.2074 0.8500 m
0.2074 0.8200 l
s
n
0.3419 0.1500 m
0.3419 0.1800 l
s
n
0.3419 0.8500 m
0.3419 0.8200 l
s
n
0.4764 0.1500 m
0.4764 0.1800 l
s
n
0.4764 0.8500 m
0.4764 0.8200 l
s
n
0.6108 0.1500 m
0.6108 0.1800 l
s
n
0.6108 0.8500 m
0.6108 0.8200 l
s
n
0.7453 0.1500 m
0.7453 0.1800 l
s
n
0.7453 0.8500 m
0.7453 0.8200 l
s
n
0.8797 0.1500 m
0.8797 0.1800 l
s
n
0.8797 0.8500 m
0.8797 0.8200 l
s
n
1.0142 0.1500 m
1.0142 0.1800 l
s
n
1.0142 0.8500 m
1.0142 0.8200 l
s
/Helvetica findfont
dup length dict begin
 {1 index /FID ne {def} {pop pop} ifelse} forall
 /Encoding DefEncoding def
 currentdict
end
/Font12 exch definefont pop
/Font12 FFSF
0.1790 0.1104 m
GS
[0.0420 0.0000 0.0000 0.0420 0 0] CC
(9.0) show
GR
/Font12 FFSF
0.3019 0.1104 m
GS
[0.0420 0.0000 0.0000 0.0420 0 0] CC
(10.0) show
GR
/Font12 FFSF
0.4364 0.1104 m
GS
[0.0420 0.0000 0.0000 0.0420 0 0] CC
(11.0) show
GR
/Font12 FFSF
0.5708 0.1104 m
GS
[0.0420 0.0000 0.0000 0.0420 0 0] CC
(12.0) show
GR
/Font12 FFSF
0.7053 0.1104 m
GS
[0.0420 0.0000 0.0000 0.0420 0 0] CC
(13.0) show
GR
/Font12 FFSF
0.8397 0.1104 m
GS
[0.0420 0.0000 0.0000 0.0420 0 0] CC
(14.0) show
GR
/Font12 FFSF
0.9742 0.1104 m
GS
[0.0420 0.0000 0.0000 0.0420 0 0] CC
(15.0) show
GR
/Font12 FFSF
0.6006 0.0768 m
GS
[0.0420 0.0000 0.0000 0.0420 0 0] CC
(n) show
GR
n
0.1832 0.2561 m
0.2032 0.2561 l
s
n
1.0384 0.2561 m
1.0184 0.2561 l
s
n
0.1832 0.3895 m
0.2032 0.3895 l
s
n
1.0384 0.3895 m
1.0184 0.3895 l
s
n
0.1832 0.5230 m
0.2032 0.5230 l
s
n
1.0384 0.5230 m
1.0184 0.5230 l
s
n
0.1832 0.6565 m
0.2032 0.6565 l
s
n
1.0384 0.6565 m
1.0184 0.6565 l
s
n
0.1832 0.7899 m
0.2032 0.7899 l
s
n
1.0384 0.7899 m
1.0184 0.7899 l
s
n
0.1832 0.1894 m
0.2132 0.1894 l
s
n
1.0384 0.1894 m
1.0084 0.1894 l
s
n
0.1832 0.3228 m
0.2132 0.3228 l
s
n
1.0384 0.3228 m
1.0084 0.3228 l
s
n
0.1832 0.4563 m
0.2132 0.4563 l
s
n
1.0384 0.4563 m
1.0084 0.4563 l
s
n
0.1832 0.5897 m
0.2132 0.5897 l
s
n
1.0384 0.5897 m
1.0084 0.5897 l
s
n
0.1832 0.7232 m
0.2132 0.7232 l
s
n
1.0384 0.7232 m
1.0084 0.7232 l
s
/Font12 FFSF
0.0816 0.1750 m
GS
[0.0420 0.0000 0.0000 0.0420 0 0] CC
(2100) show
GR
/Font12 FFSF
0.0816 0.3084 m
GS
[0.0420 0.0000 0.0000 0.0420 0 0] CC
(2400) show
GR
/Font12 FFSF
0.0816 0.4419 m
GS
[0.0420 0.0000 0.0000 0.0420 0 0] CC
(2700) show
GR
/Font12 FFSF
0.0816 0.5753 m
GS
[0.0420 0.0000 0.0000 0.0420 0 0] CC
(3000) show
GR
/Font12 FFSF
0.0816 0.7088 m
GS
[0.0420 0.0000 0.0000 0.0420 0 0] CC
(3300) show
GR
/Font12 FFSF
0.0704 0.4636 m
GS
[0.0000 0.0420 -0.0420 0.0000 0 0] CC
(f/Hz) show
GR
n
0.1832 0.1500 m
0.1832 0.8500 l
1.0384 0.8500 l
1.0384 0.1500 l
0.1832 0.1500 l
c
s
%%Trailer
%%BoundingBox: 22 45 634 512
%%DocumentNeededResources: font Helvetica
%%EOF
