%!PS-Adobe-3.0 EPSF-3.0
%%BoundingBox: (atend)
%%LanguageLevel: 2
%%Creator: Grace-5.1.22
%%CreationDate: Sun Nov 16 02:41:06 2014
%%DocumentData: Clean8Bit
%%Orientation: Portrait
%%Title: fit-gph.agr
%%For: wfr
%%DocumentNeededResources: (atend)
%%EndComments
%%BeginProlog
/m {moveto} def
/l {lineto} def
/s {stroke} def
/n {newpath} def
/c {closepath} def
/RL {rlineto} def
/SLW {setlinewidth} def
/GS {gsave} def
/GR {grestore} def
/SC {setcolor} def
/SGRY {setgray} def
/SRGB {setrgbcolor} def
/SD {setdash} def
/SLC {setlinecap} def
/SLJ {setlinejoin} def
/SCS {setcolorspace} def
/FFSF {findfont setfont} def
/CC {concat} def
/PXL {n m 0 0 RL s} def
/Color0 {1.0000 1.0000 1.0000} def
/Color1 {0.0000 0.0000 0.0000} def
/Color2 {1.0000 0.0000 0.0000} def
/Color3 {0.0000 1.0000 0.0000} def
/Color4 {0.0000 0.0000 1.0000} def
/Color5 {1.0000 1.0000 0.0000} def
/Color6 {0.7373 0.5608 0.5608} def
/Color7 {0.8627 0.8627 0.8627} def
/Color8 {0.5804 0.0000 0.8275} def
/Color9 {0.0000 1.0000 1.0000} def
/Color10 {1.0000 0.0000 1.0000} def
/Color11 {1.0000 0.6471 0.0000} def
/Color12 {0.4471 0.1294 0.7373} def
/Color13 {0.4039 0.0275 0.2824} def
/Color14 {0.2510 0.8784 0.8157} def
/Color15 {0.0000 0.5451 0.0000} def
/PTRN {
 /pat_bits exch def 
 <<
  /PaintType 2
  /PatternType 1 /TilingType 1
  /BBox[0 0 16 16]
  /XStep 16 /YStep 16
  /PaintProc {
   pop
   16 16 true [-1 0 0 -1 16 16] pat_bits imagemask
  }
 >>
 [0.0017 0 0 0.0017 0 0]
 makepattern
} def
/Pattern0 {<0000000000000000000000000000000000000000000000000000000000000000> PTRN} bind def
/Pattern1 {<ffffffffffffffffffffffffffffffffffffffffffffffffffffffffffffffff> PTRN} bind def
/Pattern2 {<eeeeffffbbbbffffeeeeffffbbbbffffeeeeffffbbbbffffeeeeffffbbbbffff> PTRN} bind def
/Pattern3 {<eeeebbbbeeeebbbbeeeebbbbeeeebbbbeeeebbbbeeeebbbbeeeebbbbeeeebbbb> PTRN} bind def
/Pattern4 {<5555aaaa5555aaaa5555aaaa5555aaaa5555aaaa5555aaaa5555aaaa5555aaaa> PTRN} bind def
/Pattern5 {<1111444411114444111144441111444411114444111144441111444411114444> PTRN} bind def
/Pattern6 {<1111000044440000111100004444000011110000444400001111000044440000> PTRN} bind def
/Pattern7 {<1010000000000000010100000000000010100000000000000101000000000000> PTRN} bind def
/Pattern8 {<0000000000000000000000000000000000000000000000000000000000000000> PTRN} bind def
/Pattern9 {<1e1e0f0f8787c3c3e1e1f0f078783c3c1e1e0f0f8787c3c3e1e1f0f078783c3c> PTRN} bind def
/Pattern10 {<7878f0f0e1e1c3c387870f0f1e1e3c3c7878f0f0e1e1c3c387870f0f1e1e3c3c> PTRN} bind def
/Pattern11 {<3333333333333333333333333333333333333333333333333333333333333333> PTRN} bind def
/Pattern12 {<ffffffff00000000ffffffff00000000ffffffff00000000ffffffff00000000> PTRN} bind def
/Pattern13 {<8181424224241818181824244242818181814242242418181818242442428181> PTRN} bind def
/Pattern14 {<8080404020201010080804040202010180804040202010100808040402020101> PTRN} bind def
/Pattern15 {<0101020204040808101020204040808001010202040408081010202040408080> PTRN} bind def
/Pattern16 {<2222222222222222222222222222222222222222222222222222222222222222> PTRN} bind def
/Pattern17 {<0000ffff000000000000ffff000000000000ffff000000000000ffff00000000> PTRN} bind def
/Pattern18 {<2222ffff222222222222ffff222222222222ffff222222222222ffff22222222> PTRN} bind def
/Pattern19 {<ffffffff33333333ffffffff33333333ffffffff33333333ffffffff33333333> PTRN} bind def
/Pattern20 {<0f0f0f0f0f0f0f0ff0f0f0f0f0f0f0f00f0f0f0f0f0f0f0ff0f0f0f0f0f0f0f0> PTRN} bind def
/Pattern21 {<ff00ff00ff00ff00ff00ff00ff00ff0000ff00ff00ff00ff00ff00ff00ff00ff> PTRN} bind def
/Pattern22 {<8001800180018001800180018001ffffffff8001800180018001800180018001> PTRN} bind def
/Pattern23 {<c003c003c003c003c003c003ffffffffffffffffc003c003c003c003c003c003> PTRN} bind def
/Pattern24 {<040404040404ffff404040404040ffff040404040404ffff404040404040ffff> PTRN} bind def
/Pattern25 {<180018001800180018001800ffffffff001800180018001800180018ffffffff> PTRN} bind def
/Pattern26 {<1111b8b87c7c3a3a1111a3a3c7c78b8b1111b8b87c7c3a3a1111a3a3c7c78b8b> PTRN} bind def
/Pattern27 {<101010102828c7c70101010182827c7c101010102828c7c70101010182827c7c> PTRN} bind def
/Pattern28 {<1c1c121211112121c1c12121111112121c1c121211112121c1c1212111111212> PTRN} bind def
/Pattern29 {<3e3e414180808080e3e31414080808083e3e414180808080e3e3141408080808> PTRN} bind def
/Pattern30 {<4848888884848383848488884848383848488888848483838484888848483838> PTRN} bind def
/Pattern31 {<03030404080808080c0c12122121c0c003030404080808080c0c12122121c0c0> PTRN} bind def
/ellipsedict 8 dict def
ellipsedict /mtrx matrix put
/EARC {
 ellipsedict begin
  /endangle exch def
  /startangle exch def
  /yrad exch def
  /xrad exch def
  /y exch def
  /x exch def
  /savematrix mtrx currentmatrix def
  x y translate
  xrad yrad scale
  0 0 1 startangle endangle arc
  savematrix setmatrix
 end
} def
/TL {
  /kcomp exch def
  /linewidth exch def
  /offset exch def
  GS
  0 offset rmoveto
  linewidth SLW
  dup stringwidth exch kcomp add exch RL s
  GR
} def
/KINIT
{
 /kvector exch def
 /kid 0 def
} def
/KPROC
{
 pop pop
 kvector kid get
 0 rmoveto
 /kid 1 kid add def
} def
/DefEncoding [
 /.notdef
 /.notdef
 /.notdef
 /.notdef
 /.notdef
 /.notdef
 /.notdef
 /.notdef
 /.notdef
 /.notdef
 /.notdef
 /.notdef
 /.notdef
 /.notdef
 /.notdef
 /.notdef
 /.notdef
 /.notdef
 /.notdef
 /.notdef
 /.notdef
 /.notdef
 /.notdef
 /.notdef
 /.notdef
 /.notdef
 /.notdef
 /.notdef
 /.notdef
 /.notdef
 /.notdef
 /.notdef
 /space
 /exclam
 /quotedbl
 /numbersign
 /dollar
 /percent
 /ampersand
 /quoteright
 /parenleft
 /parenright
 /asterisk
 /plus
 /comma
 /hyphen
 /period
 /slash
 /zero
 /one
 /two
 /three
 /four
 /five
 /six
 /seven
 /eight
 /nine
 /colon
 /semicolon
 /less
 /equal
 /greater
 /question
 /at
 /A
 /B
 /C
 /D
 /E
 /F
 /G
 /H
 /I
 /J
 /K
 /L
 /M
 /N
 /O
 /P
 /Q
 /R
 /S
 /T
 /U
 /V
 /W
 /X
 /Y
 /Z
 /bracketleft
 /backslash
 /bracketright
 /asciicircum
 /underscore
 /grave
 /a
 /b
 /c
 /d
 /e
 /f
 /g
 /h
 /i
 /j
 /k
 /l
 /m
 /n
 /o
 /p
 /q
 /r
 /s
 /t
 /u
 /v
 /w
 /x
 /y
 /z
 /braceleft
 /bar
 /braceright
 /asciitilde
 /.notdef
 /.notdef
 /.notdef
 /.notdef
 /.notdef
 /.notdef
 /.notdef
 /.notdef
 /.notdef
 /.notdef
 /.notdef
 /.notdef
 /.notdef
 /.notdef
 /.notdef
 /.notdef
 /.notdef
 /.notdef
 /.notdef
 /.notdef
 /.notdef
 /.notdef
 /.notdef
 /.notdef
 /.notdef
 /.notdef
 /.notdef
 /.notdef
 /.notdef
 /.notdef
 /.notdef
 /.notdef
 /.notdef
 /space
 /exclamdown
 /cent
 /sterling
 /currency
 /yen
 /brokenbar
 /section
 /dieresis
 /copyright
 /ordfeminine
 /guillemotleft
 /logicalnot
 /hyphen
 /registered
 /macron
 /degree
 /plusminus
 /twosuperior
 /threesuperior
 /acute
 /mu
 /paragraph
 /periodcentered
 /cedilla
 /onesuperior
 /ordmasculine
 /guillemotright
 /onequarter
 /onehalf
 /threequarters
 /questiondown
 /Agrave
 /Aacute
 /Acircumflex
 /Atilde
 /Adieresis
 /Aring
 /AE
 /Ccedilla
 /Egrave
 /Eacute
 /Ecircumflex
 /Edieresis
 /Igrave
 /Iacute
 /Icircumflex
 /Idieresis
 /Eth
 /Ntilde
 /Ograve
 /Oacute
 /Ocircumflex
 /Otilde
 /Odieresis
 /multiply
 /Oslash
 /Ugrave
 /Uacute
 /Ucircumflex
 /Udieresis
 /Yacute
 /Thorn
 /germandbls
 /agrave
 /aacute
 /acircumflex
 /atilde
 /adieresis
 /aring
 /ae
 /ccedilla
 /egrave
 /eacute
 /ecircumflex
 /edieresis
 /igrave
 /iacute
 /icircumflex
 /idieresis
 /eth
 /ntilde
 /ograve
 /oacute
 /ocircumflex
 /otilde
 /odieresis
 /divide
 /oslash
 /ugrave
 /uacute
 /ucircumflex
 /udieresis
 /yacute
 /thorn
 /ydieresis
] def
%%EndProlog
%%BeginSetup
%%EndSetup
600.00 600.00 scale
n
0.0000 0.0000 m
0.0000 1.0000 l
1.2884 1.0000 l
1.2884 0.0000 l
c
[/DeviceRGB] SCS
Color0 SC
fill
[/DeviceRGB] SCS
Color1 SC
[] 0 SD
0.0015 SLW
0 SLC
0 SLJ
n
0.9817 0.8195 m
0.9817 0.8246 l
s
n
0.9717 0.8246 m
0.9917 0.8246 l
s
n
0.9817 0.8195 m
0.9817 0.8144 l
s
n
0.9917 0.8144 m
0.9717 0.8144 l
s
n
0.9607 0.8105 m
0.9607 0.8155 l
s
n
0.9507 0.8155 m
0.9707 0.8155 l
s
n
0.9607 0.8105 m
0.9607 0.8055 l
s
n
0.9707 0.8055 m
0.9507 0.8055 l
s
n
0.9510 0.8059 m
0.9510 0.8108 l
s
n
0.9410 0.8108 m
0.9610 0.8108 l
s
n
0.9510 0.8059 m
0.9510 0.8010 l
s
n
0.9610 0.8010 m
0.9410 0.8010 l
s
n
0.9422 0.8032 m
0.9422 0.8080 l
s
n
0.9322 0.8080 m
0.9522 0.8080 l
s
n
0.9422 0.8032 m
0.9422 0.7983 l
s
n
0.9522 0.7983 m
0.9322 0.7983 l
s
n
0.9339 0.7975 m
0.9339 0.8023 l
s
n
0.9239 0.8023 m
0.9439 0.8023 l
s
n
0.9339 0.7975 m
0.9339 0.7928 l
s
n
0.9439 0.7928 m
0.9239 0.7928 l
s
n
0.9269 0.7965 m
0.9269 0.8013 l
s
n
0.9169 0.8013 m
0.9369 0.8013 l
s
n
0.9269 0.7965 m
0.9269 0.7918 l
s
n
0.9369 0.7918 m
0.9169 0.7918 l
s
n
0.9205 0.7933 m
0.9205 0.7980 l
s
n
0.9105 0.7980 m
0.9305 0.7980 l
s
n
0.9205 0.7933 m
0.9205 0.7886 l
s
n
0.9305 0.7886 m
0.9105 0.7886 l
s
n
0.9137 0.7910 m
0.9137 0.7957 l
s
n
0.9037 0.7957 m
0.9237 0.7957 l
s
n
0.9137 0.7910 m
0.9137 0.7864 l
s
n
0.9237 0.7864 m
0.9037 0.7864 l
s
n
0.9045 0.7856 m
0.9045 0.7903 l
s
n
0.8945 0.7903 m
0.9145 0.7903 l
s
n
0.9045 0.7856 m
0.9045 0.7810 l
s
n
0.9145 0.7810 m
0.8945 0.7810 l
s
n
0.8927 0.7805 m
0.8927 0.7850 l
s
n
0.8827 0.7850 m
0.9027 0.7850 l
s
n
0.8927 0.7805 m
0.8927 0.7759 l
s
n
0.9027 0.7759 m
0.8827 0.7759 l
s
n
0.8809 0.7752 m
0.8809 0.7797 l
s
n
0.8709 0.7797 m
0.8909 0.7797 l
s
n
0.8809 0.7752 m
0.8809 0.7708 l
s
n
0.8909 0.7708 m
0.8709 0.7708 l
s
n
0.8583 0.7650 m
0.8583 0.7694 l
s
n
0.8483 0.7694 m
0.8683 0.7694 l
s
n
0.8583 0.7650 m
0.8583 0.7607 l
s
n
0.8683 0.7607 m
0.8483 0.7607 l
s
n
0.8484 0.7599 m
0.8484 0.7642 l
s
n
0.8384 0.7642 m
0.8584 0.7642 l
s
n
0.8484 0.7599 m
0.8484 0.7557 l
s
n
0.8584 0.7557 m
0.8384 0.7557 l
s
n
0.8370 0.7573 m
0.8370 0.7615 l
s
n
0.8270 0.7615 m
0.8470 0.7615 l
s
n
0.8370 0.7573 m
0.8370 0.7531 l
s
n
0.8470 0.7531 m
0.8270 0.7531 l
s
n
0.8212 0.7501 m
0.8212 0.7542 l
s
n
0.8112 0.7542 m
0.8312 0.7542 l
s
n
0.8212 0.7501 m
0.8212 0.7460 l
s
n
0.8312 0.7460 m
0.8112 0.7460 l
s
n
0.8208 0.7503 m
0.8208 0.7545 l
s
n
0.8108 0.7545 m
0.8308 0.7545 l
s
n
0.8208 0.7503 m
0.8208 0.7462 l
s
n
0.8308 0.7462 m
0.8108 0.7462 l
s
[] 0 SD
0.0030 SLW
n 0.9817 0.8195 0.0100 0.0100 0 360 EARC s
n 0.9607 0.8105 0.0100 0.0100 0 360 EARC s
n 0.9510 0.8059 0.0100 0.0100 0 360 EARC s
n 0.9422 0.8032 0.0100 0.0100 0 360 EARC s
n 0.9339 0.7975 0.0100 0.0100 0 360 EARC s
n 0.9269 0.7965 0.0100 0.0100 0 360 EARC s
n 0.9205 0.7933 0.0100 0.0100 0 360 EARC s
n 0.9137 0.7910 0.0100 0.0100 0 360 EARC s
n 0.9045 0.7856 0.0100 0.0100 0 360 EARC s
n 0.8927 0.7805 0.0100 0.0100 0 360 EARC s
n 0.8809 0.7752 0.0100 0.0100 0 360 EARC s
n 0.8583 0.7650 0.0100 0.0100 0 360 EARC s
n 0.8484 0.7599 0.0100 0.0100 0 360 EARC s
n 0.8370 0.7573 0.0100 0.0100 0 360 EARC s
n 0.8212 0.7501 0.0100 0.0100 0 360 EARC s
n 0.8208 0.7503 0.0100 0.0100 0 360 EARC s
[/DeviceRGB] SCS
Color2 SC
[] 0 SD
0.0015 SLW
n
0.1832 0.1500 m
0.1919 0.2196 l
0.2005 0.2485 l
0.2092 0.2706 l
0.2178 0.2893 l
0.2264 0.3057 l
0.2351 0.3206 l
0.2437 0.3343 l
0.2524 0.3470 l
0.2610 0.3589 l
0.2696 0.3702 l
0.2783 0.3810 l
0.2869 0.3913 l
0.2955 0.4011 l
0.3042 0.4106 l
0.3128 0.4197 l
0.3215 0.4286 l
0.3301 0.4372 l
0.3387 0.4455 l
0.3474 0.4536 l
0.3560 0.4615 l
0.3646 0.4692 l
0.3733 0.4767 l
0.3819 0.4840 l
0.3906 0.4912 l
0.3992 0.4982 l
0.4078 0.5051 l
0.4165 0.5119 l
0.4251 0.5185 l
0.4337 0.5251 l
0.4424 0.5315 l
0.4510 0.5378 l
0.4597 0.5440 l
0.4683 0.5501 l
0.4769 0.5561 l
0.4856 0.5620 l
0.4942 0.5679 l
0.5028 0.5736 l
0.5115 0.5793 l
0.5201 0.5849 l
0.5288 0.5905 l
0.5374 0.5959 l
0.5460 0.6014 l
0.5547 0.6067 l
0.5633 0.6120 l
0.5720 0.6172 l
0.5806 0.6224 l
0.5892 0.6275 l
0.5979 0.6325 l
0.6065 0.6375 l
0.6151 0.6425 l
0.6238 0.6474 l
0.6324 0.6522 l
0.6411 0.6570 l
0.6497 0.6618 l
0.6583 0.6665 l
0.6670 0.6712 l
0.6756 0.6758 l
0.6842 0.6804 l
0.6929 0.6850 l
0.7015 0.6895 l
0.7102 0.6940 l
0.7188 0.6984 l
0.7274 0.7028 l
0.7361 0.7072 l
0.7447 0.7115 l
0.7533 0.7158 l
0.7620 0.7201 l
0.7706 0.7243 l
0.7793 0.7285 l
0.7879 0.7327 l
0.7965 0.7368 l
0.8052 0.7410 l
0.8138 0.7451 l
0.8224 0.7491 l
0.8311 0.7532 l
0.8397 0.7572 l
0.8484 0.7611 l
0.8570 0.7651 l
0.8656 0.7690 l
0.8743 0.7729 l
0.8829 0.7768 l
0.8916 0.7807 l
0.9002 0.7845 l
0.9088 0.7883 l
0.9175 0.7921 l
0.9261 0.7959 l
0.9347 0.7996 l
0.9434 0.8033 l
0.9520 0.8070 l
0.9607 0.8107 l
0.9693 0.8144 l
0.9779 0.8180 l
0.9866 0.8216 l
0.9952 0.8252 l
1.0038 0.8288 l
1.0125 0.8324 l
1.0211 0.8359 l
1.0298 0.8395 l
1.0384 0.8430 l
s
[/DeviceRGB] SCS
Color1 SC
[] 0 SD
0.0030 SLW
n
0.1832 0.1500 m
0.1919 0.2196 l
0.2005 0.2485 l
0.2092 0.2706 l
0.2178 0.2893 l
0.2264 0.3057 l
0.2351 0.3206 l
0.2437 0.3343 l
0.2524 0.3470 l
0.2610 0.3589 l
0.2696 0.3702 l
0.2783 0.3810 l
0.2869 0.3913 l
0.2955 0.4011 l
0.3042 0.4106 l
0.3128 0.4197 l
0.3215 0.4286 l
0.3301 0.4372 l
0.3387 0.4455 l
0.3474 0.4536 l
0.3560 0.4615 l
0.3646 0.4692 l
0.3733 0.4767 l
0.3819 0.4840 l
0.3906 0.4912 l
0.3992 0.4982 l
0.4078 0.5051 l
0.4165 0.5119 l
0.4251 0.5185 l
0.4337 0.5251 l
0.4424 0.5315 l
0.4510 0.5378 l
0.4597 0.5440 l
0.4683 0.5501 l
0.4769 0.5561 l
0.4856 0.5620 l
0.4942 0.5679 l
0.5028 0.5736 l
0.5115 0.5793 l
0.5201 0.5849 l
0.5288 0.5905 l
0.5374 0.5959 l
0.5460 0.6014 l
0.5547 0.6067 l
0.5633 0.6120 l
0.5720 0.6172 l
0.5806 0.6224 l
0.5892 0.6275 l
0.5979 0.6325 l
0.6065 0.6375 l
0.6151 0.6425 l
0.6238 0.6474 l
0.6324 0.6522 l
0.6411 0.6570 l
0.6497 0.6618 l
0.6583 0.6665 l
0.6670 0.6712 l
0.6756 0.6758 l
0.6842 0.6804 l
0.6929 0.6850 l
0.7015 0.6895 l
0.7102 0.6940 l
0.7188 0.6984 l
0.7274 0.7028 l
0.7361 0.7072 l
0.7447 0.7115 l
0.7533 0.7158 l
0.7620 0.7201 l
0.7706 0.7243 l
0.7793 0.7285 l
0.7879 0.7327 l
0.7965 0.7368 l
0.8052 0.7410 l
0.8138 0.7451 l
0.8224 0.7491 l
0.8311 0.7532 l
0.8397 0.7572 l
0.8484 0.7611 l
0.8570 0.7651 l
0.8656 0.7690 l
0.8743 0.7729 l
0.8829 0.7768 l
0.8916 0.7807 l
0.9002 0.7845 l
0.9088 0.7883 l
0.9175 0.7921 l
0.9261 0.7959 l
0.9347 0.7996 l
0.9434 0.8033 l
0.9520 0.8070 l
0.9607 0.8107 l
0.9693 0.8144 l
0.9779 0.8180 l
0.9866 0.8216 l
0.9952 0.8252 l
1.0038 0.8288 l
1.0125 0.8324 l
1.0211 0.8359 l
1.0298 0.8395 l
1.0384 0.8430 l
s
n
0.2381 0.1500 m
0.2381 0.1700 l
s
n
0.2381 0.8500 m
0.2381 0.8300 l
s
n
0.3477 0.1500 m
0.3477 0.1700 l
s
n
0.3477 0.8500 m
0.3477 0.8300 l
s
n
0.4573 0.1500 m
0.4573 0.1700 l
s
n
0.4573 0.8500 m
0.4573 0.8300 l
s
n
0.5670 0.1500 m
0.5670 0.1700 l
s
n
0.5670 0.8500 m
0.5670 0.8300 l
s
n
0.6766 0.1500 m
0.6766 0.1700 l
s
n
0.6766 0.8500 m
0.6766 0.8300 l
s
n
0.7862 0.1500 m
0.7862 0.1700 l
s
n
0.7862 0.8500 m
0.7862 0.8300 l
s
n
0.8959 0.1500 m
0.8959 0.1700 l
s
n
0.8959 0.8500 m
0.8959 0.8300 l
s
n
1.0055 0.1500 m
1.0055 0.1700 l
s
n
1.0055 0.8500 m
1.0055 0.8300 l
s
n
0.1832 0.1500 m
0.1832 0.1800 l
s
n
0.1832 0.8500 m
0.1832 0.8200 l
s
n
0.2929 0.1500 m
0.2929 0.1800 l
s
n
0.2929 0.8500 m
0.2929 0.8200 l
s
n
0.4025 0.1500 m
0.4025 0.1800 l
s
n
0.4025 0.8500 m
0.4025 0.8200 l
s
n
0.5122 0.1500 m
0.5122 0.1800 l
s
n
0.5122 0.8500 m
0.5122 0.8200 l
s
n
0.6218 0.1500 m
0.6218 0.1800 l
s
n
0.6218 0.8500 m
0.6218 0.8200 l
s
n
0.7314 0.1500 m
0.7314 0.1800 l
s
n
0.7314 0.8500 m
0.7314 0.8200 l
s
n
0.8411 0.1500 m
0.8411 0.1800 l
s
n
0.8411 0.8500 m
0.8411 0.8200 l
s
n
0.9507 0.1500 m
0.9507 0.1800 l
s
n
0.9507 0.8500 m
0.9507 0.8200 l
s
/Helvetica findfont
dup length dict begin
 {1 index /FID ne {def} {pop pop} ifelse} forall
 /Encoding DefEncoding def
 currentdict
end
/Font12 exch definefont pop
/Font12 FFSF
0.1724 0.1104 m
GS
[0.0420 0.0000 0.0000 0.0420 0 0] CC
(0) show
GR
/Font12 FFSF
0.2705 0.1104 m
GS
[0.0420 0.0000 0.0000 0.0420 0 0] CC
(50) show
GR
/Font12 FFSF
0.3683 0.1104 m
GS
[0.0420 0.0000 0.0000 0.0420 0 0] CC
(100) show
GR
/Font12 FFSF
0.4780 0.1104 m
GS
[0.0420 0.0000 0.0000 0.0420 0 0] CC
(150) show
GR
/Font12 FFSF
0.5876 0.1104 m
GS
[0.0420 0.0000 0.0000 0.0420 0 0] CC
(200) show
GR
/Font12 FFSF
0.6972 0.1104 m
GS
[0.0420 0.0000 0.0000 0.0420 0 0] CC
(250) show
GR
/Font12 FFSF
0.8069 0.1104 m
GS
[0.0420 0.0000 0.0000 0.0420 0 0] CC
(300) show
GR
/Font12 FFSF
0.9165 0.1104 m
GS
[0.0420 0.0000 0.0000 0.0420 0 0] CC
(350) show
GR
/Font12 FFSF
0.5784 0.0688 m
GS
[0.0420 0.0000 0.0000 0.0420 0 0] CC
(T/K) show
GR
n
0.1832 0.1937 m
0.2032 0.1937 l
s
n
1.0384 0.1937 m
1.0184 0.1937 l
s
n
0.1832 0.2812 m
0.2032 0.2812 l
s
n
1.0384 0.2812 m
1.0184 0.2812 l
s
n
0.1832 0.3687 m
0.2032 0.3687 l
s
n
1.0384 0.3687 m
1.0184 0.3687 l
s
n
0.1832 0.4562 m
0.2032 0.4562 l
s
n
1.0384 0.4562 m
1.0184 0.4562 l
s
n
0.1832 0.5437 m
0.2032 0.5437 l
s
n
1.0384 0.5437 m
1.0184 0.5437 l
s
n
0.1832 0.6312 m
0.2032 0.6312 l
s
n
1.0384 0.6312 m
1.0184 0.6312 l
s
n
0.1832 0.7187 m
0.2032 0.7187 l
s
n
1.0384 0.7187 m
1.0184 0.7187 l
s
n
0.1832 0.8062 m
0.2032 0.8062 l
s
n
1.0384 0.8062 m
1.0184 0.8062 l
s
n
0.1832 0.1500 m
0.2132 0.1500 l
s
n
1.0384 0.1500 m
1.0084 0.1500 l
s
n
0.1832 0.2375 m
0.2132 0.2375 l
s
n
1.0384 0.2375 m
1.0084 0.2375 l
s
n
0.1832 0.3250 m
0.2132 0.3250 l
s
n
1.0384 0.3250 m
1.0084 0.3250 l
s
n
0.1832 0.4125 m
0.2132 0.4125 l
s
n
1.0384 0.4125 m
1.0084 0.4125 l
s
n
0.1832 0.5000 m
0.2132 0.5000 l
s
n
1.0384 0.5000 m
1.0084 0.5000 l
s
n
0.1832 0.5875 m
0.2132 0.5875 l
s
n
1.0384 0.5875 m
1.0084 0.5875 l
s
n
0.1832 0.6750 m
0.2132 0.6750 l
s
n
1.0384 0.6750 m
1.0084 0.6750 l
s
n
0.1832 0.7625 m
0.2132 0.7625 l
s
n
1.0384 0.7625 m
1.0084 0.7625 l
s
n
0.1832 0.8500 m
0.2132 0.8500 l
s
n
1.0384 0.8500 m
1.0084 0.8500 l
s
/Font12 FFSF
0.1164 0.1356 m
GS
[0.0420 0.0000 0.0000 0.0420 0 0] CC
(0.0) show
GR
/Font12 FFSF
0.0932 0.2231 m
GS
[0.0420 0.0000 0.0000 0.0420 0 0] CC
(50.0) show
GR
/Font12 FFSF
0.0700 0.3106 m
GS
[0.0420 0.0000 0.0000 0.0420 0 0] CC
(100.0) show
GR
/Font12 FFSF
0.0700 0.3981 m
GS
[0.0420 0.0000 0.0000 0.0420 0 0] CC
(150.0) show
GR
/Font12 FFSF
0.0700 0.4856 m
GS
[0.0420 0.0000 0.0000 0.0420 0 0] CC
(200.0) show
GR
/Font12 FFSF
0.0700 0.5731 m
GS
[0.0420 0.0000 0.0000 0.0420 0 0] CC
(250.0) show
GR
/Font12 FFSF
0.0700 0.6606 m
GS
[0.0420 0.0000 0.0000 0.0420 0 0] CC
(300.0) show
GR
/Font12 FFSF
0.0700 0.7481 m
GS
[0.0420 0.0000 0.0000 0.0420 0 0] CC
(350.0) show
GR
/Font12 FFSF
0.0700 0.8356 m
GS
[0.0420 0.0000 0.0000 0.0420 0 0] CC
(400.0) show
GR
/Font12 FFSF
0.0592 0.4398 m
GS
[0.0000 0.0420 -0.0420 0.0000 0 0] CC
(v/m s) show
GR
/Font12 FFSF
0.0340 0.5402 m
GS
[0.0000 0.0297 -0.0297 0.0000 0 0] CC
(-1) show
GR
n
0.1832 0.1500 m
0.1832 0.8500 l
1.0384 0.8500 l
1.0384 0.1500 l
0.1832 0.1500 l
c
s
%%Trailer
%%BoundingBox: 6 39 625 521
%%DocumentNeededResources: font Helvetica
%%EOF
