%!PS-Adobe-3.0 EPSF-3.0
%%BoundingBox: (atend)
%%LanguageLevel: 2
%%Creator: Grace-5.1.22
%%CreationDate: Sun Nov 16 02:50:29 2014
%%DocumentData: Clean8Bit
%%Orientation: Portrait
%%Title: fit-gph.agr
%%For: wfr
%%DocumentNeededResources: (atend)
%%EndComments
%%BeginProlog
/m {moveto} def
/l {lineto} def
/s {stroke} def
/n {newpath} def
/c {closepath} def
/RL {rlineto} def
/SLW {setlinewidth} def
/GS {gsave} def
/GR {grestore} def
/SC {setcolor} def
/SGRY {setgray} def
/SRGB {setrgbcolor} def
/SD {setdash} def
/SLC {setlinecap} def
/SLJ {setlinejoin} def
/SCS {setcolorspace} def
/FFSF {findfont setfont} def
/CC {concat} def
/PXL {n m 0 0 RL s} def
/Color0 {1.0000 1.0000 1.0000} def
/Color1 {0.0000 0.0000 0.0000} def
/Color2 {1.0000 0.0000 0.0000} def
/Color3 {0.0000 1.0000 0.0000} def
/Color4 {0.0000 0.0000 1.0000} def
/Color5 {1.0000 1.0000 0.0000} def
/Color6 {0.7373 0.5608 0.5608} def
/Color7 {0.8627 0.8627 0.8627} def
/Color8 {0.5804 0.0000 0.8275} def
/Color9 {0.0000 1.0000 1.0000} def
/Color10 {1.0000 0.0000 1.0000} def
/Color11 {1.0000 0.6471 0.0000} def
/Color12 {0.4471 0.1294 0.7373} def
/Color13 {0.4039 0.0275 0.2824} def
/Color14 {0.2510 0.8784 0.8157} def
/Color15 {0.0000 0.5451 0.0000} def
/PTRN {
 /pat_bits exch def 
 <<
  /PaintType 2
  /PatternType 1 /TilingType 1
  /BBox[0 0 16 16]
  /XStep 16 /YStep 16
  /PaintProc {
   pop
   16 16 true [-1 0 0 -1 16 16] pat_bits imagemask
  }
 >>
 [0.0017 0 0 0.0017 0 0]
 makepattern
} def
/Pattern0 {<0000000000000000000000000000000000000000000000000000000000000000> PTRN} bind def
/Pattern1 {<ffffffffffffffffffffffffffffffffffffffffffffffffffffffffffffffff> PTRN} bind def
/Pattern2 {<eeeeffffbbbbffffeeeeffffbbbbffffeeeeffffbbbbffffeeeeffffbbbbffff> PTRN} bind def
/Pattern3 {<eeeebbbbeeeebbbbeeeebbbbeeeebbbbeeeebbbbeeeebbbbeeeebbbbeeeebbbb> PTRN} bind def
/Pattern4 {<5555aaaa5555aaaa5555aaaa5555aaaa5555aaaa5555aaaa5555aaaa5555aaaa> PTRN} bind def
/Pattern5 {<1111444411114444111144441111444411114444111144441111444411114444> PTRN} bind def
/Pattern6 {<1111000044440000111100004444000011110000444400001111000044440000> PTRN} bind def
/Pattern7 {<1010000000000000010100000000000010100000000000000101000000000000> PTRN} bind def
/Pattern8 {<0000000000000000000000000000000000000000000000000000000000000000> PTRN} bind def
/Pattern9 {<1e1e0f0f8787c3c3e1e1f0f078783c3c1e1e0f0f8787c3c3e1e1f0f078783c3c> PTRN} bind def
/Pattern10 {<7878f0f0e1e1c3c387870f0f1e1e3c3c7878f0f0e1e1c3c387870f0f1e1e3c3c> PTRN} bind def
/Pattern11 {<3333333333333333333333333333333333333333333333333333333333333333> PTRN} bind def
/Pattern12 {<ffffffff00000000ffffffff00000000ffffffff00000000ffffffff00000000> PTRN} bind def
/Pattern13 {<8181424224241818181824244242818181814242242418181818242442428181> PTRN} bind def
/Pattern14 {<8080404020201010080804040202010180804040202010100808040402020101> PTRN} bind def
/Pattern15 {<0101020204040808101020204040808001010202040408081010202040408080> PTRN} bind def
/Pattern16 {<2222222222222222222222222222222222222222222222222222222222222222> PTRN} bind def
/Pattern17 {<0000ffff000000000000ffff000000000000ffff000000000000ffff00000000> PTRN} bind def
/Pattern18 {<2222ffff222222222222ffff222222222222ffff222222222222ffff22222222> PTRN} bind def
/Pattern19 {<ffffffff33333333ffffffff33333333ffffffff33333333ffffffff33333333> PTRN} bind def
/Pattern20 {<0f0f0f0f0f0f0f0ff0f0f0f0f0f0f0f00f0f0f0f0f0f0f0ff0f0f0f0f0f0f0f0> PTRN} bind def
/Pattern21 {<ff00ff00ff00ff00ff00ff00ff00ff0000ff00ff00ff00ff00ff00ff00ff00ff> PTRN} bind def
/Pattern22 {<8001800180018001800180018001ffffffff8001800180018001800180018001> PTRN} bind def
/Pattern23 {<c003c003c003c003c003c003ffffffffffffffffc003c003c003c003c003c003> PTRN} bind def
/Pattern24 {<040404040404ffff404040404040ffff040404040404ffff404040404040ffff> PTRN} bind def
/Pattern25 {<180018001800180018001800ffffffff001800180018001800180018ffffffff> PTRN} bind def
/Pattern26 {<1111b8b87c7c3a3a1111a3a3c7c78b8b1111b8b87c7c3a3a1111a3a3c7c78b8b> PTRN} bind def
/Pattern27 {<101010102828c7c70101010182827c7c101010102828c7c70101010182827c7c> PTRN} bind def
/Pattern28 {<1c1c121211112121c1c12121111112121c1c121211112121c1c1212111111212> PTRN} bind def
/Pattern29 {<3e3e414180808080e3e31414080808083e3e414180808080e3e3141408080808> PTRN} bind def
/Pattern30 {<4848888884848383848488884848383848488888848483838484888848483838> PTRN} bind def
/Pattern31 {<03030404080808080c0c12122121c0c003030404080808080c0c12122121c0c0> PTRN} bind def
/ellipsedict 8 dict def
ellipsedict /mtrx matrix put
/EARC {
 ellipsedict begin
  /endangle exch def
  /startangle exch def
  /yrad exch def
  /xrad exch def
  /y exch def
  /x exch def
  /savematrix mtrx currentmatrix def
  x y translate
  xrad yrad scale
  0 0 1 startangle endangle arc
  savematrix setmatrix
 end
} def
/TL {
  /kcomp exch def
  /linewidth exch def
  /offset exch def
  GS
  0 offset rmoveto
  linewidth SLW
  dup stringwidth exch kcomp add exch RL s
  GR
} def
/KINIT
{
 /kvector exch def
 /kid 0 def
} def
/KPROC
{
 pop pop
 kvector kid get
 0 rmoveto
 /kid 1 kid add def
} def
/DefEncoding [
 /.notdef
 /.notdef
 /.notdef
 /.notdef
 /.notdef
 /.notdef
 /.notdef
 /.notdef
 /.notdef
 /.notdef
 /.notdef
 /.notdef
 /.notdef
 /.notdef
 /.notdef
 /.notdef
 /.notdef
 /.notdef
 /.notdef
 /.notdef
 /.notdef
 /.notdef
 /.notdef
 /.notdef
 /.notdef
 /.notdef
 /.notdef
 /.notdef
 /.notdef
 /.notdef
 /.notdef
 /.notdef
 /space
 /exclam
 /quotedbl
 /numbersign
 /dollar
 /percent
 /ampersand
 /quoteright
 /parenleft
 /parenright
 /asterisk
 /plus
 /comma
 /hyphen
 /period
 /slash
 /zero
 /one
 /two
 /three
 /four
 /five
 /six
 /seven
 /eight
 /nine
 /colon
 /semicolon
 /less
 /equal
 /greater
 /question
 /at
 /A
 /B
 /C
 /D
 /E
 /F
 /G
 /H
 /I
 /J
 /K
 /L
 /M
 /N
 /O
 /P
 /Q
 /R
 /S
 /T
 /U
 /V
 /W
 /X
 /Y
 /Z
 /bracketleft
 /backslash
 /bracketright
 /asciicircum
 /underscore
 /grave
 /a
 /b
 /c
 /d
 /e
 /f
 /g
 /h
 /i
 /j
 /k
 /l
 /m
 /n
 /o
 /p
 /q
 /r
 /s
 /t
 /u
 /v
 /w
 /x
 /y
 /z
 /braceleft
 /bar
 /braceright
 /asciitilde
 /.notdef
 /.notdef
 /.notdef
 /.notdef
 /.notdef
 /.notdef
 /.notdef
 /.notdef
 /.notdef
 /.notdef
 /.notdef
 /.notdef
 /.notdef
 /.notdef
 /.notdef
 /.notdef
 /.notdef
 /.notdef
 /.notdef
 /.notdef
 /.notdef
 /.notdef
 /.notdef
 /.notdef
 /.notdef
 /.notdef
 /.notdef
 /.notdef
 /.notdef
 /.notdef
 /.notdef
 /.notdef
 /.notdef
 /space
 /exclamdown
 /cent
 /sterling
 /currency
 /yen
 /brokenbar
 /section
 /dieresis
 /copyright
 /ordfeminine
 /guillemotleft
 /logicalnot
 /hyphen
 /registered
 /macron
 /degree
 /plusminus
 /twosuperior
 /threesuperior
 /acute
 /mu
 /paragraph
 /periodcentered
 /cedilla
 /onesuperior
 /ordmasculine
 /guillemotright
 /onequarter
 /onehalf
 /threequarters
 /questiondown
 /Agrave
 /Aacute
 /Acircumflex
 /Atilde
 /Adieresis
 /Aring
 /AE
 /Ccedilla
 /Egrave
 /Eacute
 /Ecircumflex
 /Edieresis
 /Igrave
 /Iacute
 /Icircumflex
 /Idieresis
 /Eth
 /Ntilde
 /Ograve
 /Oacute
 /Ocircumflex
 /Otilde
 /Odieresis
 /multiply
 /Oslash
 /Ugrave
 /Uacute
 /Ucircumflex
 /Udieresis
 /Yacute
 /Thorn
 /germandbls
 /agrave
 /aacute
 /acircumflex
 /atilde
 /adieresis
 /aring
 /ae
 /ccedilla
 /egrave
 /eacute
 /ecircumflex
 /edieresis
 /igrave
 /iacute
 /icircumflex
 /idieresis
 /eth
 /ntilde
 /ograve
 /oacute
 /ocircumflex
 /otilde
 /odieresis
 /divide
 /oslash
 /ugrave
 /uacute
 /ucircumflex
 /udieresis
 /yacute
 /thorn
 /ydieresis
] def
%%EndProlog
%%BeginSetup
%%EndSetup
600.00 600.00 scale
n
0.0000 0.0000 m
0.0000 1.0000 l
1.2884 1.0000 l
1.2884 0.0000 l
c
[/DeviceRGB] SCS
Color0 SC
fill
[/DeviceRGB] SCS
Color1 SC
[] 0 SD
0.0015 SLW
0 SLC
0 SLJ
n
0.2074 0.1704 m
0.2074 0.1752 l
s
n
0.1974 0.1752 m
0.2174 0.1752 l
s
n
0.2074 0.1704 m
0.2074 0.1655 l
s
n
0.2174 0.1655 m
0.1974 0.1655 l
s
n
0.2579 0.2140 m
0.2579 0.2188 l
s
n
0.2479 0.2188 m
0.2679 0.2188 l
s
n
0.2579 0.2140 m
0.2579 0.2091 l
s
n
0.2679 0.2091 m
0.2479 0.2091 l
s
n
0.3083 0.2576 m
0.3083 0.2625 l
s
n
0.2983 0.2625 m
0.3183 0.2625 l
s
n
0.3083 0.2576 m
0.3083 0.2528 l
s
n
0.3183 0.2528 m
0.2983 0.2528 l
s
n
0.3587 0.2964 m
0.3587 0.3012 l
s
n
0.3487 0.3012 m
0.3687 0.3012 l
s
n
0.3587 0.2964 m
0.3587 0.2915 l
s
n
0.3687 0.2915 m
0.3487 0.2915 l
s
n
0.4091 0.3352 m
0.4091 0.3400 l
s
n
0.3991 0.3400 m
0.4191 0.3400 l
s
n
0.4091 0.3352 m
0.4091 0.3303 l
s
n
0.4191 0.3303 m
0.3991 0.3303 l
s
n
0.4596 0.3788 m
0.4596 0.3836 l
s
n
0.4496 0.3836 m
0.4696 0.3836 l
s
n
0.4596 0.3788 m
0.4596 0.3739 l
s
n
0.4696 0.3739 m
0.4496 0.3739 l
s
n
0.5100 0.4176 m
0.5100 0.4224 l
s
n
0.5000 0.4224 m
0.5200 0.4224 l
s
n
0.5100 0.4176 m
0.5100 0.4127 l
s
n
0.5200 0.4127 m
0.5000 0.4127 l
s
n
0.5604 0.4612 m
0.5604 0.4660 l
s
n
0.5504 0.4660 m
0.5704 0.4660 l
s
n
0.5604 0.4612 m
0.5604 0.4564 l
s
n
0.5704 0.4564 m
0.5504 0.4564 l
s
n
0.6108 0.4951 m
0.6108 0.5000 l
s
n
0.6008 0.5000 m
0.6208 0.5000 l
s
n
0.6108 0.4951 m
0.6108 0.4903 l
s
n
0.6208 0.4903 m
0.6008 0.4903 l
s
n
0.6612 0.5388 m
0.6612 0.5436 l
s
n
0.6512 0.5436 m
0.6712 0.5436 l
s
n
0.6612 0.5388 m
0.6612 0.5339 l
s
n
0.6712 0.5339 m
0.6512 0.5339 l
s
n
0.7117 0.5775 m
0.7117 0.5824 l
s
n
0.7017 0.5824 m
0.7217 0.5824 l
s
n
0.7117 0.5775 m
0.7117 0.5727 l
s
n
0.7217 0.5727 m
0.7017 0.5727 l
s
n
0.7621 0.6212 m
0.7621 0.6260 l
s
n
0.7521 0.6260 m
0.7721 0.6260 l
s
n
0.7621 0.6212 m
0.7621 0.6163 l
s
n
0.7721 0.6163 m
0.7521 0.6163 l
s
n
0.8125 0.6599 m
0.8125 0.6648 l
s
n
0.8025 0.6648 m
0.8225 0.6648 l
s
n
0.8125 0.6599 m
0.8125 0.6551 l
s
n
0.8225 0.6551 m
0.8025 0.6551 l
s
n
0.8629 0.7036 m
0.8629 0.7084 l
s
n
0.8529 0.7084 m
0.8729 0.7084 l
s
n
0.8629 0.7036 m
0.8629 0.6987 l
s
n
0.8729 0.6987 m
0.8529 0.6987 l
s
n
0.9134 0.7424 m
0.9134 0.7472 l
s
n
0.9034 0.7472 m
0.9234 0.7472 l
s
n
0.9134 0.7424 m
0.9134 0.7375 l
s
n
0.9234 0.7375 m
0.9034 0.7375 l
s
n
0.9638 0.7840 m
0.9638 0.7889 l
s
n
0.9538 0.7889 m
0.9738 0.7889 l
s
n
0.9638 0.7840 m
0.9638 0.7792 l
s
n
0.9738 0.7792 m
0.9538 0.7792 l
s
n
1.0142 0.8296 m
1.0142 0.8345 l
s
n
1.0042 0.8345 m
1.0242 0.8345 l
s
n
1.0142 0.8296 m
1.0142 0.8248 l
s
n
1.0242 0.8248 m
1.0042 0.8248 l
s
[] 0 SD
0.0030 SLW
n 0.2074 0.1704 0.0100 0.0100 0 360 EARC s
n 0.2579 0.2140 0.0100 0.0100 0 360 EARC s
n 0.3083 0.2576 0.0100 0.0100 0 360 EARC s
n 0.3587 0.2964 0.0100 0.0100 0 360 EARC s
n 0.4091 0.3352 0.0100 0.0100 0 360 EARC s
n 0.4596 0.3788 0.0100 0.0100 0 360 EARC s
n 0.5100 0.4176 0.0100 0.0100 0 360 EARC s
n 0.5604 0.4612 0.0100 0.0100 0 360 EARC s
n 0.6108 0.4951 0.0100 0.0100 0 360 EARC s
n 0.6612 0.5388 0.0100 0.0100 0 360 EARC s
n 0.7117 0.5775 0.0100 0.0100 0 360 EARC s
n 0.7621 0.6212 0.0100 0.0100 0 360 EARC s
n 0.8125 0.6599 0.0100 0.0100 0 360 EARC s
n 0.8629 0.7036 0.0100 0.0100 0 360 EARC s
n 0.9134 0.7424 0.0100 0.0100 0 360 EARC s
n 0.9638 0.7840 0.0100 0.0100 0 360 EARC s
n 1.0142 0.8296 0.0100 0.0100 0 360 EARC s
[/DeviceRGB] SCS
Color2 SC
[] 0 SD
0.0015 SLW
n
0.1832 0.1533 m
0.1919 0.1603 l
0.2005 0.1673 l
0.2092 0.1743 l
0.2178 0.1812 l
0.2264 0.1882 l
0.2351 0.1952 l
0.2437 0.2022 l
0.2524 0.2092 l
0.2610 0.2162 l
0.2696 0.2231 l
0.2783 0.2301 l
0.2869 0.2371 l
0.2955 0.2441 l
0.3042 0.2511 l
0.3128 0.2581 l
0.3215 0.2651 l
0.3301 0.2720 l
0.3387 0.2790 l
0.3474 0.2860 l
0.3560 0.2930 l
0.3646 0.3000 l
0.3733 0.3070 l
0.3819 0.3139 l
0.3906 0.3209 l
0.3992 0.3279 l
0.4078 0.3349 l
0.4165 0.3419 l
0.4251 0.3489 l
0.4337 0.3558 l
0.4424 0.3628 l
0.4510 0.3698 l
0.4597 0.3768 l
0.4683 0.3838 l
0.4769 0.3908 l
0.4856 0.3977 l
0.4942 0.4047 l
0.5028 0.4117 l
0.5115 0.4187 l
0.5201 0.4257 l
0.5288 0.4327 l
0.5374 0.4396 l
0.5460 0.4466 l
0.5547 0.4536 l
0.5633 0.4606 l
0.5720 0.4676 l
0.5806 0.4746 l
0.5892 0.4815 l
0.5979 0.4885 l
0.6065 0.4955 l
0.6151 0.5025 l
0.6238 0.5095 l
0.6324 0.5165 l
0.6411 0.5235 l
0.6497 0.5304 l
0.6583 0.5374 l
0.6670 0.5444 l
0.6756 0.5514 l
0.6842 0.5584 l
0.6929 0.5654 l
0.7015 0.5723 l
0.7102 0.5793 l
0.7188 0.5863 l
0.7274 0.5933 l
0.7361 0.6003 l
0.7447 0.6073 l
0.7533 0.6142 l
0.7620 0.6212 l
0.7706 0.6282 l
0.7793 0.6352 l
0.7879 0.6422 l
0.7965 0.6492 l
0.8052 0.6561 l
0.8138 0.6631 l
0.8225 0.6701 l
0.8311 0.6771 l
0.8397 0.6841 l
0.8484 0.6911 l
0.8570 0.6980 l
0.8656 0.7050 l
0.8743 0.7120 l
0.8829 0.7190 l
0.8916 0.7260 l
0.9002 0.7330 l
0.9088 0.7400 l
0.9175 0.7469 l
0.9261 0.7539 l
0.9347 0.7609 l
0.9434 0.7679 l
0.9520 0.7749 l
0.9607 0.7819 l
0.9693 0.7888 l
0.9779 0.7958 l
0.9866 0.8028 l
0.9952 0.8098 l
1.0038 0.8168 l
1.0125 0.8238 l
1.0211 0.8307 l
1.0298 0.8377 l
1.0384 0.8447 l
s
[/DeviceRGB] SCS
Color1 SC
[] 0 SD
0.0030 SLW
n
0.1832 0.1533 m
0.1919 0.1603 l
0.2005 0.1673 l
0.2092 0.1743 l
0.2178 0.1812 l
0.2264 0.1882 l
0.2351 0.1952 l
0.2437 0.2022 l
0.2524 0.2092 l
0.2610 0.2162 l
0.2696 0.2231 l
0.2783 0.2301 l
0.2869 0.2371 l
0.2955 0.2441 l
0.3042 0.2511 l
0.3128 0.2581 l
0.3215 0.2651 l
0.3301 0.2720 l
0.3387 0.2790 l
0.3474 0.2860 l
0.3560 0.2930 l
0.3646 0.3000 l
0.3733 0.3070 l
0.3819 0.3139 l
0.3906 0.3209 l
0.3992 0.3279 l
0.4078 0.3349 l
0.4165 0.3419 l
0.4251 0.3489 l
0.4337 0.3558 l
0.4424 0.3628 l
0.4510 0.3698 l
0.4597 0.3768 l
0.4683 0.3838 l
0.4769 0.3908 l
0.4856 0.3977 l
0.4942 0.4047 l
0.5028 0.4117 l
0.5115 0.4187 l
0.5201 0.4257 l
0.5288 0.4327 l
0.5374 0.4396 l
0.5460 0.4466 l
0.5547 0.4536 l
0.5633 0.4606 l
0.5720 0.4676 l
0.5806 0.4746 l
0.5892 0.4815 l
0.5979 0.4885 l
0.6065 0.4955 l
0.6151 0.5025 l
0.6238 0.5095 l
0.6324 0.5165 l
0.6411 0.5235 l
0.6497 0.5304 l
0.6583 0.5374 l
0.6670 0.5444 l
0.6756 0.5514 l
0.6842 0.5584 l
0.6929 0.5654 l
0.7015 0.5723 l
0.7102 0.5793 l
0.7188 0.5863 l
0.7274 0.5933 l
0.7361 0.6003 l
0.7447 0.6073 l
0.7533 0.6142 l
0.7620 0.6212 l
0.7706 0.6282 l
0.7793 0.6352 l
0.7879 0.6422 l
0.7965 0.6492 l
0.8052 0.6561 l
0.8138 0.6631 l
0.8225 0.6701 l
0.8311 0.6771 l
0.8397 0.6841 l
0.8484 0.6911 l
0.8570 0.6980 l
0.8656 0.7050 l
0.8743 0.7120 l
0.8829 0.7190 l
0.8916 0.7260 l
0.9002 0.7330 l
0.9088 0.7400 l
0.9175 0.7469 l
0.9261 0.7539 l
0.9347 0.7609 l
0.9434 0.7679 l
0.9520 0.7749 l
0.9607 0.7819 l
0.9693 0.7888 l
0.9779 0.7958 l
0.9866 0.8028 l
0.9952 0.8098 l
1.0038 0.8168 l
1.0125 0.8238 l
1.0211 0.8307 l
1.0298 0.8377 l
1.0384 0.8447 l
s
n
0.2074 0.1500 m
0.2074 0.1700 l
s
n
0.2074 0.8500 m
0.2074 0.8300 l
s
n
0.3083 0.1500 m
0.3083 0.1700 l
s
n
0.3083 0.8500 m
0.3083 0.8300 l
s
n
0.4091 0.1500 m
0.4091 0.1700 l
s
n
0.4091 0.8500 m
0.4091 0.8300 l
s
n
0.5100 0.1500 m
0.5100 0.1700 l
s
n
0.5100 0.8500 m
0.5100 0.8300 l
s
n
0.6108 0.1500 m
0.6108 0.1700 l
s
n
0.6108 0.8500 m
0.6108 0.8300 l
s
n
0.7117 0.1500 m
0.7117 0.1700 l
s
n
0.7117 0.8500 m
0.7117 0.8300 l
s
n
0.8125 0.1500 m
0.8125 0.1700 l
s
n
0.8125 0.8500 m
0.8125 0.8300 l
s
n
0.9134 0.1500 m
0.9134 0.1700 l
s
n
0.9134 0.8500 m
0.9134 0.8300 l
s
n
1.0142 0.1500 m
1.0142 0.1700 l
s
n
1.0142 0.8500 m
1.0142 0.8300 l
s
n
0.2579 0.1500 m
0.2579 0.1800 l
s
n
0.2579 0.8500 m
0.2579 0.8200 l
s
n
0.3587 0.1500 m
0.3587 0.1800 l
s
n
0.3587 0.8500 m
0.3587 0.8200 l
s
n
0.4596 0.1500 m
0.4596 0.1800 l
s
n
0.4596 0.8500 m
0.4596 0.8200 l
s
n
0.5604 0.1500 m
0.5604 0.1800 l
s
n
0.5604 0.8500 m
0.5604 0.8200 l
s
n
0.6612 0.1500 m
0.6612 0.1800 l
s
n
0.6612 0.8500 m
0.6612 0.8200 l
s
n
0.7621 0.1500 m
0.7621 0.1800 l
s
n
0.7621 0.8500 m
0.7621 0.8200 l
s
n
0.8629 0.1500 m
0.8629 0.1800 l
s
n
0.8629 0.8500 m
0.8629 0.8200 l
s
n
0.9638 0.1500 m
0.9638 0.1800 l
s
n
0.9638 0.8500 m
0.9638 0.8200 l
s
/Helvetica findfont
dup length dict begin
 {1 index /FID ne {def} {pop pop} ifelse} forall
 /Encoding DefEncoding def
 currentdict
end
/Font12 exch definefont pop
/Font12 FFSF
0.2471 0.1104 m
GS
[0.0420 0.0000 0.0000 0.0420 0 0] CC
(2) show
GR
/Font12 FFSF
0.3477 0.1104 m
GS
[0.0420 0.0000 0.0000 0.0420 0 0] CC
(4) show
GR
/Font12 FFSF
0.4488 0.1104 m
GS
[0.0420 0.0000 0.0000 0.0420 0 0] CC
(6) show
GR
/Font12 FFSF
0.5496 0.1104 m
GS
[0.0420 0.0000 0.0000 0.0420 0 0] CC
(8) show
GR
/Font12 FFSF
0.6388 0.1104 m
GS
[0.0420 0.0000 0.0000 0.0420 0 0] CC
(10) show
GR
/Font12 FFSF
0.7397 0.1104 m
GS
[0.0420 0.0000 0.0000 0.0420 0 0] CC
(12) show
GR
/Font12 FFSF
0.8403 0.1104 m
GS
[0.0420 0.0000 0.0000 0.0420 0 0] CC
(14) show
GR
/Font12 FFSF
0.9414 0.1104 m
GS
[0.0420 0.0000 0.0000 0.0420 0 0] CC
(16) show
GR
/Font12 FFSF
0.6006 0.0768 m
GS
[0.0420 0.0000 0.0000 0.0420 0 0] CC
(n) show
GR
n
0.1832 0.1994 m
0.2032 0.1994 l
s
n
1.0384 0.1994 m
1.0184 0.1994 l
s
n
0.1832 0.2964 m
0.2032 0.2964 l
s
n
1.0384 0.2964 m
1.0184 0.2964 l
s
n
0.1832 0.3933 m
0.2032 0.3933 l
s
n
1.0384 0.3933 m
1.0184 0.3933 l
s
n
0.1832 0.4903 m
0.2032 0.4903 l
s
n
1.0384 0.4903 m
1.0184 0.4903 l
s
n
0.1832 0.5872 m
0.2032 0.5872 l
s
n
1.0384 0.5872 m
1.0184 0.5872 l
s
n
0.1832 0.6842 m
0.2032 0.6842 l
s
n
1.0384 0.6842 m
1.0184 0.6842 l
s
n
0.1832 0.7811 m
0.2032 0.7811 l
s
n
1.0384 0.7811 m
1.0184 0.7811 l
s
n
0.1832 0.1510 m
0.2132 0.1510 l
s
n
1.0384 0.1510 m
1.0084 0.1510 l
s
n
0.1832 0.2479 m
0.2132 0.2479 l
s
n
1.0384 0.2479 m
1.0084 0.2479 l
s
n
0.1832 0.3449 m
0.2132 0.3449 l
s
n
1.0384 0.3449 m
1.0084 0.3449 l
s
n
0.1832 0.4418 m
0.2132 0.4418 l
s
n
1.0384 0.4418 m
1.0084 0.4418 l
s
n
0.1832 0.5388 m
0.2132 0.5388 l
s
n
1.0384 0.5388 m
1.0084 0.5388 l
s
n
0.1832 0.6357 m
0.2132 0.6357 l
s
n
1.0384 0.6357 m
1.0084 0.6357 l
s
n
0.1832 0.7327 m
0.2132 0.7327 l
s
n
1.0384 0.7327 m
1.0084 0.7327 l
s
n
0.1832 0.8296 m
0.2132 0.8296 l
s
n
1.0384 0.8296 m
1.0084 0.8296 l
s
/Font12 FFSF
0.1164 0.1366 m
GS
[0.0420 0.0000 0.0000 0.0420 0 0] CC
(0.0) show
GR
/Font12 FFSF
0.1236 0.2335 m
GS
[0.0420 0.0000 0.0000 0.0420 0 0] CC
(0.1) show
GR
/Font12 FFSF
0.1164 0.3305 m
GS
[0.0420 0.0000 0.0000 0.0420 0 0] CC
(0.2) show
GR
/Font12 FFSF
0.1168 0.4274 m
GS
[0.0420 0.0000 0.0000 0.0420 0 0] CC
(0.3) show
GR
/Font12 FFSF
0.1160 0.5244 m
GS
[0.0420 0.0000 0.0000 0.0420 0 0] CC
(0.4) show
GR
/Font12 FFSF
0.1164 0.6213 m
GS
[0.0420 0.0000 0.0000 0.0420 0 0] CC
(0.5) show
GR
/Font12 FFSF
0.1164 0.7183 m
GS
[0.0420 0.0000 0.0000 0.0420 0 0] CC
(0.6) show
GR
/Font12 FFSF
0.1160 0.8152 m
GS
[0.0420 0.0000 0.0000 0.0420 0 0] CC
(0.7) show
GR
/Font12 FFSF
0.0884 0.4572 m
GS
[0.0000 0.0420 -0.0420 0.0000 0 0] CC
(x) show
GR
/Font12 FFSF
0.1052 0.4780 m
GS
[0.0000 0.0297 -0.0297 0.0000 0 0] CC
(nodo) show
GR
n
0.1832 0.1500 m
0.1832 0.8500 l
1.0384 0.8500 l
1.0384 0.1500 l
0.1832 0.1500 l
c
s
%%Trailer
%%BoundingBox: 38 45 625 512
%%DocumentNeededResources: font Helvetica
%%EOF
