%!PS-Adobe-3.0 EPSF-3.0
%%BoundingBox: (atend)
%%LanguageLevel: 2
%%Creator: Grace-5.1.22
%%CreationDate: Wed Oct 15 20:20:04 2014
%%DocumentData: Clean8Bit
%%Orientation: Portrait
%%Title: fit-gph-1.agr
%%For: wfr
%%DocumentNeededResources: (atend)
%%EndComments
%%BeginProlog
/m {moveto} def
/l {lineto} def
/s {stroke} def
/n {newpath} def
/c {closepath} def
/RL {rlineto} def
/SLW {setlinewidth} def
/GS {gsave} def
/GR {grestore} def
/SC {setcolor} def
/SGRY {setgray} def
/SRGB {setrgbcolor} def
/SD {setdash} def
/SLC {setlinecap} def
/SLJ {setlinejoin} def
/SCS {setcolorspace} def
/FFSF {findfont setfont} def
/CC {concat} def
/PXL {n m 0 0 RL s} def
/Color0 {1.0000 1.0000 1.0000} def
/Color1 {0.0000 0.0000 0.0000} def
/Color2 {1.0000 0.0000 0.0000} def
/Color3 {0.0000 1.0000 0.0000} def
/Color4 {0.0000 0.0000 1.0000} def
/Color5 {1.0000 1.0000 0.0000} def
/Color6 {0.7373 0.5608 0.5608} def
/Color7 {0.8627 0.8627 0.8627} def
/Color8 {0.5804 0.0000 0.8275} def
/Color9 {0.0000 1.0000 1.0000} def
/Color10 {1.0000 0.0000 1.0000} def
/Color11 {1.0000 0.6471 0.0000} def
/Color12 {0.4471 0.1294 0.7373} def
/Color13 {0.4039 0.0275 0.2824} def
/Color14 {0.2510 0.8784 0.8157} def
/Color15 {0.0000 0.5451 0.0000} def
/PTRN {
 /pat_bits exch def 
 <<
  /PaintType 2
  /PatternType 1 /TilingType 1
  /BBox[0 0 16 16]
  /XStep 16 /YStep 16
  /PaintProc {
   pop
   16 16 true [-1 0 0 -1 16 16] pat_bits imagemask
  }
 >>
 [0.0017 0 0 0.0017 0 0]
 makepattern
} def
/Pattern0 {<0000000000000000000000000000000000000000000000000000000000000000> PTRN} bind def
/Pattern1 {<ffffffffffffffffffffffffffffffffffffffffffffffffffffffffffffffff> PTRN} bind def
/Pattern2 {<eeeeffffbbbbffffeeeeffffbbbbffffeeeeffffbbbbffffeeeeffffbbbbffff> PTRN} bind def
/Pattern3 {<eeeebbbbeeeebbbbeeeebbbbeeeebbbbeeeebbbbeeeebbbbeeeebbbbeeeebbbb> PTRN} bind def
/Pattern4 {<5555aaaa5555aaaa5555aaaa5555aaaa5555aaaa5555aaaa5555aaaa5555aaaa> PTRN} bind def
/Pattern5 {<1111444411114444111144441111444411114444111144441111444411114444> PTRN} bind def
/Pattern6 {<1111000044440000111100004444000011110000444400001111000044440000> PTRN} bind def
/Pattern7 {<1010000000000000010100000000000010100000000000000101000000000000> PTRN} bind def
/Pattern8 {<0000000000000000000000000000000000000000000000000000000000000000> PTRN} bind def
/Pattern9 {<1e1e0f0f8787c3c3e1e1f0f078783c3c1e1e0f0f8787c3c3e1e1f0f078783c3c> PTRN} bind def
/Pattern10 {<7878f0f0e1e1c3c387870f0f1e1e3c3c7878f0f0e1e1c3c387870f0f1e1e3c3c> PTRN} bind def
/Pattern11 {<3333333333333333333333333333333333333333333333333333333333333333> PTRN} bind def
/Pattern12 {<ffffffff00000000ffffffff00000000ffffffff00000000ffffffff00000000> PTRN} bind def
/Pattern13 {<8181424224241818181824244242818181814242242418181818242442428181> PTRN} bind def
/Pattern14 {<8080404020201010080804040202010180804040202010100808040402020101> PTRN} bind def
/Pattern15 {<0101020204040808101020204040808001010202040408081010202040408080> PTRN} bind def
/Pattern16 {<2222222222222222222222222222222222222222222222222222222222222222> PTRN} bind def
/Pattern17 {<0000ffff000000000000ffff000000000000ffff000000000000ffff00000000> PTRN} bind def
/Pattern18 {<2222ffff222222222222ffff222222222222ffff222222222222ffff22222222> PTRN} bind def
/Pattern19 {<ffffffff33333333ffffffff33333333ffffffff33333333ffffffff33333333> PTRN} bind def
/Pattern20 {<0f0f0f0f0f0f0f0ff0f0f0f0f0f0f0f00f0f0f0f0f0f0f0ff0f0f0f0f0f0f0f0> PTRN} bind def
/Pattern21 {<ff00ff00ff00ff00ff00ff00ff00ff0000ff00ff00ff00ff00ff00ff00ff00ff> PTRN} bind def
/Pattern22 {<8001800180018001800180018001ffffffff8001800180018001800180018001> PTRN} bind def
/Pattern23 {<c003c003c003c003c003c003ffffffffffffffffc003c003c003c003c003c003> PTRN} bind def
/Pattern24 {<040404040404ffff404040404040ffff040404040404ffff404040404040ffff> PTRN} bind def
/Pattern25 {<180018001800180018001800ffffffff001800180018001800180018ffffffff> PTRN} bind def
/Pattern26 {<1111b8b87c7c3a3a1111a3a3c7c78b8b1111b8b87c7c3a3a1111a3a3c7c78b8b> PTRN} bind def
/Pattern27 {<101010102828c7c70101010182827c7c101010102828c7c70101010182827c7c> PTRN} bind def
/Pattern28 {<1c1c121211112121c1c12121111112121c1c121211112121c1c1212111111212> PTRN} bind def
/Pattern29 {<3e3e414180808080e3e31414080808083e3e414180808080e3e3141408080808> PTRN} bind def
/Pattern30 {<4848888884848383848488884848383848488888848483838484888848483838> PTRN} bind def
/Pattern31 {<03030404080808080c0c12122121c0c003030404080808080c0c12122121c0c0> PTRN} bind def
/ellipsedict 8 dict def
ellipsedict /mtrx matrix put
/EARC {
 ellipsedict begin
  /endangle exch def
  /startangle exch def
  /yrad exch def
  /xrad exch def
  /y exch def
  /x exch def
  /savematrix mtrx currentmatrix def
  x y translate
  xrad yrad scale
  0 0 1 startangle endangle arc
  savematrix setmatrix
 end
} def
/TL {
  /kcomp exch def
  /linewidth exch def
  /offset exch def
  GS
  0 offset rmoveto
  linewidth SLW
  dup stringwidth exch kcomp add exch RL s
  GR
} def
/KINIT
{
 /kvector exch def
 /kid 0 def
} def
/KPROC
{
 pop pop
 kvector kid get
 0 rmoveto
 /kid 1 kid add def
} def
/DefEncoding [
 /.notdef
 /.notdef
 /.notdef
 /.notdef
 /.notdef
 /.notdef
 /.notdef
 /.notdef
 /.notdef
 /.notdef
 /.notdef
 /.notdef
 /.notdef
 /.notdef
 /.notdef
 /.notdef
 /.notdef
 /.notdef
 /.notdef
 /.notdef
 /.notdef
 /.notdef
 /.notdef
 /.notdef
 /.notdef
 /.notdef
 /.notdef
 /.notdef
 /.notdef
 /.notdef
 /.notdef
 /.notdef
 /space
 /exclam
 /quotedbl
 /numbersign
 /dollar
 /percent
 /ampersand
 /quoteright
 /parenleft
 /parenright
 /asterisk
 /plus
 /comma
 /hyphen
 /period
 /slash
 /zero
 /one
 /two
 /three
 /four
 /five
 /six
 /seven
 /eight
 /nine
 /colon
 /semicolon
 /less
 /equal
 /greater
 /question
 /at
 /A
 /B
 /C
 /D
 /E
 /F
 /G
 /H
 /I
 /J
 /K
 /L
 /M
 /N
 /O
 /P
 /Q
 /R
 /S
 /T
 /U
 /V
 /W
 /X
 /Y
 /Z
 /bracketleft
 /backslash
 /bracketright
 /asciicircum
 /underscore
 /grave
 /a
 /b
 /c
 /d
 /e
 /f
 /g
 /h
 /i
 /j
 /k
 /l
 /m
 /n
 /o
 /p
 /q
 /r
 /s
 /t
 /u
 /v
 /w
 /x
 /y
 /z
 /braceleft
 /bar
 /braceright
 /asciitilde
 /.notdef
 /.notdef
 /.notdef
 /.notdef
 /.notdef
 /.notdef
 /.notdef
 /.notdef
 /.notdef
 /.notdef
 /.notdef
 /.notdef
 /.notdef
 /.notdef
 /.notdef
 /.notdef
 /.notdef
 /.notdef
 /.notdef
 /.notdef
 /.notdef
 /.notdef
 /.notdef
 /.notdef
 /.notdef
 /.notdef
 /.notdef
 /.notdef
 /.notdef
 /.notdef
 /.notdef
 /.notdef
 /.notdef
 /space
 /exclamdown
 /cent
 /sterling
 /currency
 /yen
 /brokenbar
 /section
 /dieresis
 /copyright
 /ordfeminine
 /guillemotleft
 /logicalnot
 /hyphen
 /registered
 /macron
 /degree
 /plusminus
 /twosuperior
 /threesuperior
 /acute
 /mu
 /paragraph
 /periodcentered
 /cedilla
 /onesuperior
 /ordmasculine
 /guillemotright
 /onequarter
 /onehalf
 /threequarters
 /questiondown
 /Agrave
 /Aacute
 /Acircumflex
 /Atilde
 /Adieresis
 /Aring
 /AE
 /Ccedilla
 /Egrave
 /Eacute
 /Ecircumflex
 /Edieresis
 /Igrave
 /Iacute
 /Icircumflex
 /Idieresis
 /Eth
 /Ntilde
 /Ograve
 /Oacute
 /Ocircumflex
 /Otilde
 /Odieresis
 /multiply
 /Oslash
 /Ugrave
 /Uacute
 /Ucircumflex
 /Udieresis
 /Yacute
 /Thorn
 /germandbls
 /agrave
 /aacute
 /acircumflex
 /atilde
 /adieresis
 /aring
 /ae
 /ccedilla
 /egrave
 /eacute
 /ecircumflex
 /edieresis
 /igrave
 /iacute
 /icircumflex
 /idieresis
 /eth
 /ntilde
 /ograve
 /oacute
 /ocircumflex
 /otilde
 /odieresis
 /divide
 /oslash
 /ugrave
 /uacute
 /ucircumflex
 /udieresis
 /yacute
 /thorn
 /ydieresis
] def
%%EndProlog
%%BeginSetup
%%EndSetup
600.00 600.00 scale
n
0.0000 0.0000 m
0.0000 1.0000 l
1.2884 1.0000 l
1.2884 0.0000 l
c
[/DeviceRGB] SCS
Color0 SC
fill
[/DeviceRGB] SCS
Color1 SC
[] 0 SD
0.0015 SLW
0 SLC
0 SLJ
n
0.2073 0.7800 m
0.2073 0.7916 l
s
n
0.1973 0.7916 m
0.2173 0.7916 l
s
n
0.2073 0.7800 m
0.2073 0.7683 l
s
n
0.2173 0.7683 m
0.1973 0.7683 l
s
n
0.2095 0.7683 m
0.2095 0.7800 l
s
n
0.1995 0.7800 m
0.2195 0.7800 l
s
n
0.2095 0.7683 m
0.2095 0.7566 l
s
n
0.2195 0.7566 m
0.1995 0.7566 l
s
n
0.2117 0.7566 m
0.2117 0.7683 l
s
n
0.2017 0.7683 m
0.2217 0.7683 l
s
n
0.2117 0.7566 m
0.2117 0.7450 l
s
n
0.2217 0.7450 m
0.2017 0.7450 l
s
n
0.2138 0.7450 m
0.2138 0.7566 l
s
n
0.2038 0.7566 m
0.2238 0.7566 l
s
n
0.2138 0.7450 m
0.2138 0.7333 l
s
n
0.2238 0.7333 m
0.2038 0.7333 l
s
n
0.2160 0.7333 m
0.2160 0.7450 l
s
n
0.2060 0.7450 m
0.2260 0.7450 l
s
n
0.2160 0.7333 m
0.2160 0.7216 l
s
n
0.2260 0.7216 m
0.2060 0.7216 l
s
n
0.2204 0.7216 m
0.2204 0.7333 l
s
n
0.2104 0.7333 m
0.2304 0.7333 l
s
n
0.2204 0.7216 m
0.2204 0.7100 l
s
n
0.2304 0.7100 m
0.2104 0.7100 l
s
n
0.2248 0.7100 m
0.2248 0.7216 l
s
n
0.2148 0.7216 m
0.2348 0.7216 l
s
n
0.2248 0.7100 m
0.2248 0.6983 l
s
n
0.2348 0.6983 m
0.2148 0.6983 l
s
n
0.2270 0.7041 m
0.2270 0.7158 l
s
n
0.2170 0.7158 m
0.2370 0.7158 l
s
n
0.2270 0.7041 m
0.2270 0.6925 l
s
n
0.2370 0.6925 m
0.2170 0.6925 l
s
n
0.2292 0.6983 m
0.2292 0.7100 l
s
n
0.2192 0.7100 m
0.2392 0.7100 l
s
n
0.2292 0.6983 m
0.2292 0.6866 l
s
n
0.2392 0.6866 m
0.2192 0.6866 l
s
n
0.2336 0.6925 m
0.2336 0.7041 l
s
n
0.2236 0.7041 m
0.2436 0.7041 l
s
n
0.2336 0.6925 m
0.2336 0.6808 l
s
n
0.2436 0.6808 m
0.2236 0.6808 l
s
n
0.2358 0.6808 m
0.2358 0.6925 l
s
n
0.2258 0.6925 m
0.2458 0.6925 l
s
n
0.2358 0.6808 m
0.2358 0.6691 l
s
n
0.2458 0.6691 m
0.2258 0.6691 l
s
n
0.2380 0.6750 m
0.2380 0.6866 l
s
n
0.2280 0.6866 m
0.2480 0.6866 l
s
n
0.2380 0.6750 m
0.2380 0.6633 l
s
n
0.2480 0.6633 m
0.2280 0.6633 l
s
n
0.2424 0.6633 m
0.2424 0.6750 l
s
n
0.2324 0.6750 m
0.2524 0.6750 l
s
n
0.2424 0.6633 m
0.2424 0.6516 l
s
n
0.2524 0.6516 m
0.2324 0.6516 l
s
n
0.2446 0.6575 m
0.2446 0.6691 l
s
n
0.2346 0.6691 m
0.2546 0.6691 l
s
n
0.2446 0.6575 m
0.2446 0.6458 l
s
n
0.2546 0.6458 m
0.2346 0.6458 l
s
n
0.2489 0.6516 m
0.2489 0.6633 l
s
n
0.2389 0.6633 m
0.2589 0.6633 l
s
n
0.2489 0.6516 m
0.2489 0.6400 l
s
n
0.2589 0.6400 m
0.2389 0.6400 l
s
n
0.2511 0.6458 m
0.2511 0.6575 l
s
n
0.2411 0.6575 m
0.2611 0.6575 l
s
n
0.2511 0.6458 m
0.2511 0.6341 l
s
n
0.2611 0.6341 m
0.2411 0.6341 l
s
n
0.2533 0.6400 m
0.2533 0.6516 l
s
n
0.2433 0.6516 m
0.2633 0.6516 l
s
n
0.2533 0.6400 m
0.2533 0.6283 l
s
n
0.2633 0.6283 m
0.2433 0.6283 l
s
n
0.2555 0.6341 m
0.2555 0.6458 l
s
n
0.2455 0.6458 m
0.2655 0.6458 l
s
n
0.2555 0.6341 m
0.2555 0.6225 l
s
n
0.2655 0.6225 m
0.2455 0.6225 l
s
n
0.2577 0.6283 m
0.2577 0.6400 l
s
n
0.2477 0.6400 m
0.2677 0.6400 l
s
n
0.2577 0.6283 m
0.2577 0.6166 l
s
n
0.2677 0.6166 m
0.2477 0.6166 l
s
n
0.2621 0.6166 m
0.2621 0.6283 l
s
n
0.2521 0.6283 m
0.2721 0.6283 l
s
n
0.2621 0.6166 m
0.2621 0.6050 l
s
n
0.2721 0.6050 m
0.2521 0.6050 l
s
n
0.2643 0.6108 m
0.2643 0.6225 l
s
n
0.2543 0.6225 m
0.2743 0.6225 l
s
n
0.2643 0.6108 m
0.2643 0.5991 l
s
n
0.2743 0.5991 m
0.2543 0.5991 l
s
n
0.2665 0.6050 m
0.2665 0.6166 l
s
n
0.2565 0.6166 m
0.2765 0.6166 l
s
n
0.2665 0.6050 m
0.2665 0.5933 l
s
n
0.2765 0.5933 m
0.2565 0.5933 l
s
n
0.2709 0.5991 m
0.2709 0.6108 l
s
n
0.2609 0.6108 m
0.2809 0.6108 l
s
n
0.2709 0.5991 m
0.2709 0.5875 l
s
n
0.2809 0.5875 m
0.2609 0.5875 l
s
n
0.2731 0.5933 m
0.2731 0.6050 l
s
n
0.2631 0.6050 m
0.2831 0.6050 l
s
n
0.2731 0.5933 m
0.2731 0.5816 l
s
n
0.2831 0.5816 m
0.2631 0.5816 l
s
n
0.2753 0.5875 m
0.2753 0.5991 l
s
n
0.2653 0.5991 m
0.2853 0.5991 l
s
n
0.2753 0.5875 m
0.2753 0.5758 l
s
n
0.2853 0.5758 m
0.2653 0.5758 l
s
n
0.2775 0.5816 m
0.2775 0.5933 l
s
n
0.2675 0.5933 m
0.2875 0.5933 l
s
n
0.2775 0.5816 m
0.2775 0.5700 l
s
n
0.2875 0.5700 m
0.2675 0.5700 l
s
n
0.2818 0.5758 m
0.2818 0.5875 l
s
n
0.2718 0.5875 m
0.2918 0.5875 l
s
n
0.2818 0.5758 m
0.2818 0.5641 l
s
n
0.2918 0.5641 m
0.2718 0.5641 l
s
n
0.2862 0.5700 m
0.2862 0.5816 l
s
n
0.2762 0.5816 m
0.2962 0.5816 l
s
n
0.2862 0.5700 m
0.2862 0.5583 l
s
n
0.2962 0.5583 m
0.2762 0.5583 l
s
n
0.2906 0.5641 m
0.2906 0.5758 l
s
n
0.2806 0.5758 m
0.3006 0.5758 l
s
n
0.2906 0.5641 m
0.2906 0.5525 l
s
n
0.3006 0.5525 m
0.2806 0.5525 l
s
n
0.2950 0.5583 m
0.2950 0.5700 l
s
n
0.2850 0.5700 m
0.3050 0.5700 l
s
n
0.2950 0.5583 m
0.2950 0.5466 l
s
n
0.3050 0.5466 m
0.2850 0.5466 l
s
n
0.2994 0.5525 m
0.2994 0.5641 l
s
n
0.2894 0.5641 m
0.3094 0.5641 l
s
n
0.2994 0.5525 m
0.2994 0.5408 l
s
n
0.3094 0.5408 m
0.2894 0.5408 l
s
n
0.3016 0.5466 m
0.3016 0.5583 l
s
n
0.2916 0.5583 m
0.3116 0.5583 l
s
n
0.3016 0.5466 m
0.3016 0.5350 l
s
n
0.3116 0.5350 m
0.2916 0.5350 l
s
n
0.3038 0.5408 m
0.3038 0.5525 l
s
n
0.2938 0.5525 m
0.3138 0.5525 l
s
n
0.3038 0.5408 m
0.3038 0.5291 l
s
n
0.3138 0.5291 m
0.2938 0.5291 l
s
n
0.3060 0.5350 m
0.3060 0.5466 l
s
n
0.2960 0.5466 m
0.3160 0.5466 l
s
n
0.3060 0.5350 m
0.3060 0.5233 l
s
n
0.3160 0.5233 m
0.2960 0.5233 l
s
n
0.3103 0.5291 m
0.3103 0.5408 l
s
n
0.3003 0.5408 m
0.3203 0.5408 l
s
n
0.3103 0.5291 m
0.3103 0.5175 l
s
n
0.3203 0.5175 m
0.3003 0.5175 l
s
n
0.3147 0.5233 m
0.3147 0.5350 l
s
n
0.3047 0.5350 m
0.3247 0.5350 l
s
n
0.3147 0.5233 m
0.3147 0.5116 l
s
n
0.3247 0.5116 m
0.3047 0.5116 l
s
n
0.3191 0.5175 m
0.3191 0.5291 l
s
n
0.3091 0.5291 m
0.3291 0.5291 l
s
n
0.3191 0.5175 m
0.3191 0.5058 l
s
n
0.3291 0.5058 m
0.3091 0.5058 l
s
n
0.3257 0.5116 m
0.3257 0.5233 l
s
n
0.3157 0.5233 m
0.3357 0.5233 l
s
n
0.3257 0.5116 m
0.3257 0.5000 l
s
n
0.3357 0.5000 m
0.3157 0.5000 l
s
n
0.3323 0.5058 m
0.3323 0.5175 l
s
n
0.3223 0.5175 m
0.3423 0.5175 l
s
n
0.3323 0.5058 m
0.3323 0.4941 l
s
n
0.3423 0.4941 m
0.3223 0.4941 l
s
n
0.3367 0.5000 m
0.3367 0.5116 l
s
n
0.3267 0.5116 m
0.3467 0.5116 l
s
n
0.3367 0.5000 m
0.3367 0.4883 l
s
n
0.3467 0.4883 m
0.3267 0.4883 l
s
n
0.3411 0.4941 m
0.3411 0.5058 l
s
n
0.3311 0.5058 m
0.3511 0.5058 l
s
n
0.3411 0.4941 m
0.3411 0.4825 l
s
n
0.3511 0.4825 m
0.3311 0.4825 l
s
n
0.3454 0.4883 m
0.3454 0.5000 l
s
n
0.3354 0.5000 m
0.3554 0.5000 l
s
n
0.3454 0.4883 m
0.3454 0.4766 l
s
n
0.3554 0.4766 m
0.3354 0.4766 l
s
n
0.3498 0.4825 m
0.3498 0.4941 l
s
n
0.3398 0.4941 m
0.3598 0.4941 l
s
n
0.3498 0.4825 m
0.3498 0.4708 l
s
n
0.3598 0.4708 m
0.3398 0.4708 l
s
n
0.3542 0.4766 m
0.3542 0.4883 l
s
n
0.3442 0.4883 m
0.3642 0.4883 l
s
n
0.3542 0.4766 m
0.3542 0.4650 l
s
n
0.3642 0.4650 m
0.3442 0.4650 l
s
n
0.3586 0.4708 m
0.3586 0.4825 l
s
n
0.3486 0.4825 m
0.3686 0.4825 l
s
n
0.3586 0.4708 m
0.3586 0.4591 l
s
n
0.3686 0.4591 m
0.3486 0.4591 l
s
n
0.3630 0.4650 m
0.3630 0.4766 l
s
n
0.3530 0.4766 m
0.3730 0.4766 l
s
n
0.3630 0.4650 m
0.3630 0.4533 l
s
n
0.3730 0.4533 m
0.3530 0.4533 l
s
n
0.3652 0.4591 m
0.3652 0.4708 l
s
n
0.3552 0.4708 m
0.3752 0.4708 l
s
n
0.3652 0.4591 m
0.3652 0.4475 l
s
n
0.3752 0.4475 m
0.3552 0.4475 l
s
n
0.3740 0.4533 m
0.3740 0.4650 l
s
n
0.3640 0.4650 m
0.3840 0.4650 l
s
n
0.3740 0.4533 m
0.3740 0.4416 l
s
n
0.3840 0.4416 m
0.3640 0.4416 l
s
n
0.3761 0.4475 m
0.3761 0.4591 l
s
n
0.3661 0.4591 m
0.3861 0.4591 l
s
n
0.3761 0.4475 m
0.3761 0.4358 l
s
n
0.3861 0.4358 m
0.3661 0.4358 l
s
n
0.3827 0.4416 m
0.3827 0.4533 l
s
n
0.3727 0.4533 m
0.3927 0.4533 l
s
n
0.3827 0.4416 m
0.3827 0.4300 l
s
n
0.3927 0.4300 m
0.3727 0.4300 l
s
n
0.3871 0.4358 m
0.3871 0.4475 l
s
n
0.3771 0.4475 m
0.3971 0.4475 l
s
n
0.3871 0.4358 m
0.3871 0.4241 l
s
n
0.3971 0.4241 m
0.3771 0.4241 l
s
n
0.3937 0.4300 m
0.3937 0.4416 l
s
n
0.3837 0.4416 m
0.4037 0.4416 l
s
n
0.3937 0.4300 m
0.3937 0.4183 l
s
n
0.4037 0.4183 m
0.3837 0.4183 l
s
n
0.3981 0.4241 m
0.3981 0.4358 l
s
n
0.3881 0.4358 m
0.4081 0.4358 l
s
n
0.3981 0.4241 m
0.3981 0.4125 l
s
n
0.4081 0.4125 m
0.3881 0.4125 l
s
n
0.4047 0.4183 m
0.4047 0.4300 l
s
n
0.3947 0.4300 m
0.4147 0.4300 l
s
n
0.4047 0.4183 m
0.4047 0.4066 l
s
n
0.4147 0.4066 m
0.3947 0.4066 l
s
n
0.4134 0.4125 m
0.4134 0.4241 l
s
n
0.4034 0.4241 m
0.4234 0.4241 l
s
n
0.4134 0.4125 m
0.4134 0.4008 l
s
n
0.4234 0.4008 m
0.4034 0.4008 l
s
n
0.4222 0.4066 m
0.4222 0.4183 l
s
n
0.4122 0.4183 m
0.4322 0.4183 l
s
n
0.4222 0.4066 m
0.4222 0.3950 l
s
n
0.4322 0.3950 m
0.4122 0.3950 l
s
n
0.4244 0.4008 m
0.4244 0.4125 l
s
n
0.4144 0.4125 m
0.4344 0.4125 l
s
n
0.4244 0.4008 m
0.4244 0.3892 l
s
n
0.4344 0.3892 m
0.4144 0.3892 l
s
n
0.4332 0.3950 m
0.4332 0.4066 l
s
n
0.4232 0.4066 m
0.4432 0.4066 l
s
n
0.4332 0.3950 m
0.4332 0.3833 l
s
n
0.4432 0.3833 m
0.4232 0.3833 l
s
n
0.4398 0.3892 m
0.4398 0.4008 l
s
n
0.4298 0.4008 m
0.4498 0.4008 l
s
n
0.4398 0.3892 m
0.4398 0.3775 l
s
n
0.4498 0.3775 m
0.4298 0.3775 l
s
n
0.4507 0.3833 m
0.4507 0.3950 l
s
n
0.4407 0.3950 m
0.4607 0.3950 l
s
n
0.4507 0.3833 m
0.4507 0.3717 l
s
n
0.4607 0.3717 m
0.4407 0.3717 l
s
n
0.4551 0.3775 m
0.4551 0.3892 l
s
n
0.4451 0.3892 m
0.4651 0.3892 l
s
n
0.4551 0.3775 m
0.4551 0.3658 l
s
n
0.4651 0.3658 m
0.4451 0.3658 l
s
n
0.4683 0.3717 m
0.4683 0.3833 l
s
n
0.4583 0.3833 m
0.4783 0.3833 l
s
n
0.4683 0.3717 m
0.4683 0.3600 l
s
n
0.4783 0.3600 m
0.4583 0.3600 l
s
n
0.4726 0.3658 m
0.4726 0.3775 l
s
n
0.4626 0.3775 m
0.4826 0.3775 l
s
n
0.4726 0.3658 m
0.4726 0.3542 l
s
n
0.4826 0.3542 m
0.4626 0.3542 l
s
n
0.4858 0.3600 m
0.4858 0.3717 l
s
n
0.4758 0.3717 m
0.4958 0.3717 l
s
n
0.4858 0.3600 m
0.4858 0.3483 l
s
n
0.4958 0.3483 m
0.4758 0.3483 l
s
n
0.4880 0.3542 m
0.4880 0.3658 l
s
n
0.4780 0.3658 m
0.4980 0.3658 l
s
n
0.4880 0.3542 m
0.4880 0.3425 l
s
n
0.4980 0.3425 m
0.4780 0.3425 l
s
n
0.5055 0.3483 m
0.5055 0.3600 l
s
n
0.4955 0.3600 m
0.5155 0.3600 l
s
n
0.5055 0.3483 m
0.5055 0.3367 l
s
n
0.5155 0.3367 m
0.4955 0.3367 l
s
n
0.5165 0.3425 m
0.5165 0.3542 l
s
n
0.5065 0.3542 m
0.5265 0.3542 l
s
n
0.5165 0.3425 m
0.5165 0.3308 l
s
n
0.5265 0.3308 m
0.5065 0.3308 l
s
n
0.5341 0.3367 m
0.5341 0.3483 l
s
n
0.5241 0.3483 m
0.5441 0.3483 l
s
n
0.5341 0.3367 m
0.5341 0.3250 l
s
n
0.5441 0.3250 m
0.5241 0.3250 l
s
n
0.5384 0.3308 m
0.5384 0.3425 l
s
n
0.5284 0.3425 m
0.5484 0.3425 l
s
n
0.5384 0.3308 m
0.5384 0.3192 l
s
n
0.5484 0.3192 m
0.5284 0.3192 l
s
n
0.5582 0.3250 m
0.5582 0.3367 l
s
n
0.5482 0.3367 m
0.5682 0.3367 l
s
n
0.5582 0.3250 m
0.5582 0.3133 l
s
n
0.5682 0.3133 m
0.5482 0.3133 l
s
n
0.5713 0.3192 m
0.5713 0.3308 l
s
n
0.5613 0.3308 m
0.5813 0.3308 l
s
n
0.5713 0.3192 m
0.5713 0.3075 l
s
n
0.5813 0.3075 m
0.5613 0.3075 l
s
n
0.5977 0.3133 m
0.5977 0.3250 l
s
n
0.5877 0.3250 m
0.6077 0.3250 l
s
n
0.5977 0.3133 m
0.5977 0.3017 l
s
n
0.6077 0.3017 m
0.5877 0.3017 l
s
n
0.5999 0.3075 m
0.5999 0.3192 l
s
n
0.5899 0.3192 m
0.6099 0.3192 l
s
n
0.5999 0.3075 m
0.5999 0.2958 l
s
n
0.6099 0.2958 m
0.5899 0.2958 l
s
n
0.6306 0.3017 m
0.6306 0.3133 l
s
n
0.6206 0.3133 m
0.6406 0.3133 l
s
n
0.6306 0.3017 m
0.6306 0.2900 l
s
n
0.6406 0.2900 m
0.6206 0.2900 l
s
n
0.6437 0.2958 m
0.6437 0.3075 l
s
n
0.6337 0.3075 m
0.6537 0.3075 l
s
n
0.6437 0.2958 m
0.6437 0.2842 l
s
n
0.6537 0.2842 m
0.6337 0.2842 l
s
n
0.6678 0.2900 m
0.6678 0.3017 l
s
n
0.6578 0.3017 m
0.6778 0.3017 l
s
n
0.6678 0.2900 m
0.6678 0.2783 l
s
n
0.6778 0.2783 m
0.6578 0.2783 l
s
n
0.6722 0.2842 m
0.6722 0.2958 l
s
n
0.6622 0.2958 m
0.6822 0.2958 l
s
n
0.6722 0.2842 m
0.6722 0.2725 l
s
n
0.6822 0.2725 m
0.6622 0.2725 l
s
n
0.7029 0.2783 m
0.7029 0.2900 l
s
n
0.6929 0.2900 m
0.7129 0.2900 l
s
n
0.7029 0.2783 m
0.7029 0.2667 l
s
n
0.7129 0.2667 m
0.6929 0.2667 l
s
n
0.7139 0.2725 m
0.7139 0.2842 l
s
n
0.7039 0.2842 m
0.7239 0.2842 l
s
n
0.7139 0.2725 m
0.7139 0.2608 l
s
n
0.7239 0.2608 m
0.7039 0.2608 l
s
n
0.7512 0.2667 m
0.7512 0.2783 l
s
n
0.7412 0.2783 m
0.7612 0.2783 l
s
n
0.7512 0.2667 m
0.7512 0.2550 l
s
n
0.7612 0.2550 m
0.7412 0.2550 l
s
n
0.7534 0.2608 m
0.7534 0.2725 l
s
n
0.7434 0.2725 m
0.7634 0.2725 l
s
n
0.7534 0.2608 m
0.7534 0.2492 l
s
n
0.7634 0.2492 m
0.7434 0.2492 l
s
n
0.7972 0.2550 m
0.7972 0.2667 l
s
n
0.7872 0.2667 m
0.8072 0.2667 l
s
n
0.7972 0.2550 m
0.7972 0.2433 l
s
n
0.8072 0.2433 m
0.7872 0.2433 l
s
n
0.8192 0.2492 m
0.8192 0.2608 l
s
n
0.8092 0.2608 m
0.8292 0.2608 l
s
n
0.8192 0.2492 m
0.8192 0.2375 l
s
n
0.8292 0.2375 m
0.8092 0.2375 l
s
n
0.8543 0.2433 m
0.8543 0.2550 l
s
n
0.8443 0.2550 m
0.8643 0.2550 l
s
n
0.8543 0.2433 m
0.8543 0.2317 l
s
n
0.8643 0.2317 m
0.8443 0.2317 l
s
n
0.8718 0.2375 m
0.8718 0.2492 l
s
n
0.8618 0.2492 m
0.8818 0.2492 l
s
n
0.8718 0.2375 m
0.8718 0.2258 l
s
n
0.8818 0.2258 m
0.8618 0.2258 l
s
n
0.9201 0.2317 m
0.9201 0.2433 l
s
n
0.9101 0.2433 m
0.9301 0.2433 l
s
n
0.9201 0.2317 m
0.9201 0.2200 l
s
n
0.9301 0.2200 m
0.9101 0.2200 l
s
n
0.9464 0.2258 m
0.9464 0.2375 l
s
n
0.9364 0.2375 m
0.9564 0.2375 l
s
n
0.9464 0.2258 m
0.9464 0.2142 l
s
n
0.9564 0.2142 m
0.9364 0.2142 l
s
n
1.0078 0.2200 m
1.0078 0.2317 l
s
n
0.9978 0.2317 m
1.0178 0.2317 l
s
n
1.0078 0.2200 m
1.0078 0.2083 l
s
n
1.0178 0.2083 m
0.9978 0.2083 l
s
n
1.0144 0.2142 m
1.0144 0.2258 l
s
n
1.0044 0.2258 m
1.0244 0.2258 l
s
n
1.0144 0.2142 m
1.0144 0.2025 l
s
n
1.0244 0.2025 m
1.0044 0.2025 l
s
[] 0 SD
0.0030 SLW
n 0.2073 0.7800 0.0010 0.0010 0 360 EARC s
n 0.2095 0.7683 0.0010 0.0010 0 360 EARC s
n 0.2117 0.7566 0.0010 0.0010 0 360 EARC s
n 0.2138 0.7450 0.0010 0.0010 0 360 EARC s
n 0.2160 0.7333 0.0010 0.0010 0 360 EARC s
n 0.2204 0.7216 0.0010 0.0010 0 360 EARC s
n 0.2248 0.7100 0.0010 0.0010 0 360 EARC s
n 0.2270 0.7041 0.0010 0.0010 0 360 EARC s
n 0.2292 0.6983 0.0010 0.0010 0 360 EARC s
n 0.2336 0.6925 0.0010 0.0010 0 360 EARC s
n 0.2358 0.6808 0.0010 0.0010 0 360 EARC s
n 0.2380 0.6750 0.0010 0.0010 0 360 EARC s
n 0.2424 0.6633 0.0010 0.0010 0 360 EARC s
n 0.2446 0.6575 0.0010 0.0010 0 360 EARC s
n 0.2489 0.6516 0.0010 0.0010 0 360 EARC s
n 0.2511 0.6458 0.0010 0.0010 0 360 EARC s
n 0.2533 0.6400 0.0010 0.0010 0 360 EARC s
n 0.2555 0.6341 0.0010 0.0010 0 360 EARC s
n 0.2577 0.6283 0.0010 0.0010 0 360 EARC s
n 0.2621 0.6166 0.0010 0.0010 0 360 EARC s
n 0.2643 0.6108 0.0010 0.0010 0 360 EARC s
n 0.2665 0.6050 0.0010 0.0010 0 360 EARC s
n 0.2709 0.5991 0.0010 0.0010 0 360 EARC s
n 0.2731 0.5933 0.0010 0.0010 0 360 EARC s
n 0.2753 0.5875 0.0010 0.0010 0 360 EARC s
n 0.2775 0.5816 0.0010 0.0010 0 360 EARC s
n 0.2818 0.5758 0.0010 0.0010 0 360 EARC s
n 0.2862 0.5700 0.0010 0.0010 0 360 EARC s
n 0.2906 0.5641 0.0010 0.0010 0 360 EARC s
n 0.2950 0.5583 0.0010 0.0010 0 360 EARC s
n 0.2994 0.5525 0.0010 0.0010 0 360 EARC s
n 0.3016 0.5466 0.0010 0.0010 0 360 EARC s
n 0.3038 0.5408 0.0010 0.0010 0 360 EARC s
n 0.3060 0.5350 0.0010 0.0010 0 360 EARC s
n 0.3103 0.5291 0.0010 0.0010 0 360 EARC s
n 0.3147 0.5233 0.0010 0.0010 0 360 EARC s
n 0.3191 0.5175 0.0010 0.0010 0 360 EARC s
n 0.3257 0.5116 0.0010 0.0010 0 360 EARC s
n 0.3323 0.5058 0.0010 0.0010 0 360 EARC s
n 0.3367 0.5000 0.0010 0.0010 0 360 EARC s
n 0.3411 0.4941 0.0010 0.0010 0 360 EARC s
n 0.3454 0.4883 0.0010 0.0010 0 360 EARC s
n 0.3498 0.4825 0.0010 0.0010 0 360 EARC s
n 0.3542 0.4766 0.0010 0.0010 0 360 EARC s
n 0.3586 0.4708 0.0010 0.0010 0 360 EARC s
n 0.3630 0.4650 0.0010 0.0010 0 360 EARC s
n 0.3652 0.4591 0.0010 0.0010 0 360 EARC s
n 0.3740 0.4533 0.0010 0.0010 0 360 EARC s
n 0.3761 0.4475 0.0010 0.0010 0 360 EARC s
n 0.3827 0.4416 0.0010 0.0010 0 360 EARC s
n 0.3871 0.4358 0.0010 0.0010 0 360 EARC s
n 0.3937 0.4300 0.0010 0.0010 0 360 EARC s
n 0.3981 0.4241 0.0010 0.0010 0 360 EARC s
n 0.4047 0.4183 0.0010 0.0010 0 360 EARC s
n 0.4134 0.4125 0.0010 0.0010 0 360 EARC s
n 0.4222 0.4066 0.0010 0.0010 0 360 EARC s
n 0.4244 0.4008 0.0010 0.0010 0 360 EARC s
n 0.4332 0.3950 0.0010 0.0010 0 360 EARC s
n 0.4398 0.3892 0.0010 0.0010 0 360 EARC s
n 0.4507 0.3833 0.0010 0.0010 0 360 EARC s
n 0.4551 0.3775 0.0010 0.0010 0 360 EARC s
n 0.4683 0.3717 0.0010 0.0010 0 360 EARC s
n 0.4726 0.3658 0.0010 0.0010 0 360 EARC s
n 0.4858 0.3600 0.0010 0.0010 0 360 EARC s
n 0.4880 0.3542 0.0010 0.0010 0 360 EARC s
n 0.5055 0.3483 0.0010 0.0010 0 360 EARC s
n 0.5165 0.3425 0.0010 0.0010 0 360 EARC s
n 0.5341 0.3367 0.0010 0.0010 0 360 EARC s
n 0.5384 0.3308 0.0010 0.0010 0 360 EARC s
n 0.5582 0.3250 0.0010 0.0010 0 360 EARC s
n 0.5713 0.3192 0.0010 0.0010 0 360 EARC s
n 0.5977 0.3133 0.0010 0.0010 0 360 EARC s
n 0.5999 0.3075 0.0010 0.0010 0 360 EARC s
n 0.6306 0.3017 0.0010 0.0010 0 360 EARC s
n 0.6437 0.2958 0.0010 0.0010 0 360 EARC s
n 0.6678 0.2900 0.0010 0.0010 0 360 EARC s
n 0.6722 0.2842 0.0010 0.0010 0 360 EARC s
n 0.7029 0.2783 0.0010 0.0010 0 360 EARC s
n 0.7139 0.2725 0.0010 0.0010 0 360 EARC s
n 0.7512 0.2667 0.0010 0.0010 0 360 EARC s
n 0.7534 0.2608 0.0010 0.0010 0 360 EARC s
n 0.7972 0.2550 0.0010 0.0010 0 360 EARC s
n 0.8192 0.2492 0.0010 0.0010 0 360 EARC s
n 0.8543 0.2433 0.0010 0.0010 0 360 EARC s
n 0.8718 0.2375 0.0010 0.0010 0 360 EARC s
n 0.9201 0.2317 0.0010 0.0010 0 360 EARC s
n 0.9464 0.2258 0.0010 0.0010 0 360 EARC s
n 1.0078 0.2200 0.0010 0.0010 0 360 EARC s
n 1.0144 0.2142 0.0010 0.0010 0 360 EARC s
[/DeviceRGB] SCS
Color2 SC
[] 0 SD
0.0015 SLW
n
0.1832 0.8225 m
0.1867 0.8121 l
0.1901 0.8019 l
0.1936 0.7918 l
0.1970 0.7819 l
0.2004 0.7722 l
0.2039 0.7627 l
0.2073 0.7533 l
0.2107 0.7441 l
0.2142 0.7351 l
0.2176 0.7262 l
0.2210 0.7174 l
0.2245 0.7089 l
0.2279 0.7004 l
0.2313 0.6922 l
0.2348 0.6840 l
0.2382 0.6761 l
0.2416 0.6682 l
0.2451 0.6605 l
0.2485 0.6529 l
0.2519 0.6455 l
0.2554 0.6382 l
0.2588 0.6310 l
0.2622 0.6239 l
0.2657 0.6170 l
0.2691 0.6102 l
0.2725 0.6035 l
0.2760 0.5970 l
0.2794 0.5905 l
0.2828 0.5842 l
0.2863 0.5779 l
0.2897 0.5718 l
0.2931 0.5658 l
0.2966 0.5599 l
0.3000 0.5541 l
0.3034 0.5484 l
0.3069 0.5428 l
0.3103 0.5373 l
0.3138 0.5319 l
0.3172 0.5266 l
0.3206 0.5214 l
0.3241 0.5163 l
0.3275 0.5112 l
0.3309 0.5063 l
0.3344 0.5014 l
0.3378 0.4966 l
0.3412 0.4920 l
0.3447 0.4874 l
0.3481 0.4828 l
0.3515 0.4784 l
0.3550 0.4740 l
0.3584 0.4697 l
0.3618 0.4655 l
0.3653 0.4614 l
0.3687 0.4573 l
0.3721 0.4533 l
0.3756 0.4494 l
0.3790 0.4455 l
0.3824 0.4417 l
0.3859 0.4380 l
0.3893 0.4344 l
0.3927 0.4308 l
0.3962 0.4273 l
0.3996 0.4238 l
0.4030 0.4204 l
0.4065 0.4170 l
0.4099 0.4138 l
0.4133 0.4105 l
0.4168 0.4074 l
0.4202 0.4042 l
0.4237 0.4012 l
0.4271 0.3982 l
0.4305 0.3952 l
0.4340 0.3923 l
0.4374 0.3895 l
0.4408 0.3867 l
0.4443 0.3839 l
0.4477 0.3812 l
0.4511 0.3786 l
0.4546 0.3759 l
0.4580 0.3734 l
0.4614 0.3709 l
0.4649 0.3684 l
0.4683 0.3660 l
0.4717 0.3636 l
0.4752 0.3612 l
0.4786 0.3589 l
0.4820 0.3567 l
0.4855 0.3544 l
0.4889 0.3523 l
0.4923 0.3501 l
0.4958 0.3480 l
0.4992 0.3459 l
0.5026 0.3439 l
0.5061 0.3419 l
0.5095 0.3399 l
0.5129 0.3380 l
0.5164 0.3361 l
0.5198 0.3342 l
0.5232 0.3324 l
0.5267 0.3306 l
0.5301 0.3289 l
0.5335 0.3271 l
0.5370 0.3254 l
0.5404 0.3237 l
0.5439 0.3221 l
0.5473 0.3205 l
0.5507 0.3189 l
0.5542 0.3173 l
0.5576 0.3158 l
0.5610 0.3143 l
0.5645 0.3128 l
0.5679 0.3114 l
0.5713 0.3100 l
0.5748 0.3086 l
0.5782 0.3072 l
0.5816 0.3058 l
0.5851 0.3045 l
0.5885 0.3032 l
0.5919 0.3019 l
0.5954 0.3006 l
0.5988 0.2994 l
0.6022 0.2982 l
0.6057 0.2970 l
0.6091 0.2958 l
0.6125 0.2947 l
0.6160 0.2935 l
0.6194 0.2924 l
0.6228 0.2913 l
0.6263 0.2903 l
0.6297 0.2892 l
0.6331 0.2882 l
0.6366 0.2872 l
0.6400 0.2862 l
0.6434 0.2852 l
0.6469 0.2842 l
0.6503 0.2833 l
0.6538 0.2823 l
0.6572 0.2814 l
0.6606 0.2805 l
0.6641 0.2796 l
0.6675 0.2788 l
0.6709 0.2779 l
0.6744 0.2771 l
0.6778 0.2763 l
0.6812 0.2754 l
0.6847 0.2747 l
0.6881 0.2739 l
0.6915 0.2731 l
0.6950 0.2724 l
0.6984 0.2716 l
0.7018 0.2709 l
0.7053 0.2702 l
0.7087 0.2695 l
0.7121 0.2688 l
0.7156 0.2681 l
0.7190 0.2674 l
0.7224 0.2668 l
0.7259 0.2662 l
0.7293 0.2655 l
0.7327 0.2649 l
0.7362 0.2643 l
0.7396 0.2637 l
0.7430 0.2631 l
0.7465 0.2625 l
0.7499 0.2620 l
0.7533 0.2614 l
0.7568 0.2609 l
0.7602 0.2603 l
0.7637 0.2598 l
0.7671 0.2593 l
0.7705 0.2588 l
0.7740 0.2583 l
0.7774 0.2578 l
0.7808 0.2573 l
0.7843 0.2568 l
0.7877 0.2564 l
0.7911 0.2559 l
0.7946 0.2555 l
0.7980 0.2550 l
0.8014 0.2546 l
0.8049 0.2542 l
0.8083 0.2537 l
0.8117 0.2533 l
0.8152 0.2529 l
0.8186 0.2525 l
0.8220 0.2521 l
0.8255 0.2517 l
0.8289 0.2514 l
0.8323 0.2510 l
0.8358 0.2506 l
0.8392 0.2503 l
0.8426 0.2499 l
0.8461 0.2496 l
0.8495 0.2493 l
0.8529 0.2489 l
0.8564 0.2486 l
0.8598 0.2483 l
0.8632 0.2480 l
0.8667 0.2476 l
0.8701 0.2473 l
0.8735 0.2470 l
0.8770 0.2467 l
0.8804 0.2465 l
0.8839 0.2462 l
0.8873 0.2459 l
0.8907 0.2456 l
0.8942 0.2454 l
0.8976 0.2451 l
0.9010 0.2448 l
0.9045 0.2446 l
0.9079 0.2443 l
0.9113 0.2441 l
0.9148 0.2438 l
0.9182 0.2436 l
0.9216 0.2434 l
0.9251 0.2431 l
0.9285 0.2429 l
0.9319 0.2427 l
0.9354 0.2425 l
0.9388 0.2423 l
0.9422 0.2421 l
0.9457 0.2419 l
0.9491 0.2416 l
0.9525 0.2415 l
0.9560 0.2413 l
0.9594 0.2411 l
0.9628 0.2409 l
0.9663 0.2407 l
0.9697 0.2405 l
0.9731 0.2403 l
0.9766 0.2402 l
0.9800 0.2400 l
0.9834 0.2398 l
0.9869 0.2396 l
0.9903 0.2395 l
0.9937 0.2393 l
0.9972 0.2392 l
1.0006 0.2390 l
1.0041 0.2389 l
1.0075 0.2387 l
1.0109 0.2386 l
1.0144 0.2384 l
1.0178 0.2383 l
1.0212 0.2381 l
1.0247 0.2380 l
1.0281 0.2379 l
1.0315 0.2377 l
1.0350 0.2376 l
1.0384 0.2375 l
s
[/DeviceRGB] SCS
Color1 SC
[] 0 SD
0.0030 SLW
n
0.1832 0.8225 m
0.1867 0.8121 l
0.1901 0.8019 l
0.1936 0.7918 l
0.1970 0.7819 l
0.2004 0.7722 l
0.2039 0.7627 l
0.2073 0.7533 l
0.2107 0.7441 l
0.2142 0.7351 l
0.2176 0.7262 l
0.2210 0.7174 l
0.2245 0.7089 l
0.2279 0.7004 l
0.2313 0.6922 l
0.2348 0.6840 l
0.2382 0.6761 l
0.2416 0.6682 l
0.2451 0.6605 l
0.2485 0.6529 l
0.2519 0.6455 l
0.2554 0.6382 l
0.2588 0.6310 l
0.2622 0.6239 l
0.2657 0.6170 l
0.2691 0.6102 l
0.2725 0.6035 l
0.2760 0.5970 l
0.2794 0.5905 l
0.2828 0.5842 l
0.2863 0.5779 l
0.2897 0.5718 l
0.2931 0.5658 l
0.2966 0.5599 l
0.3000 0.5541 l
0.3034 0.5484 l
0.3069 0.5428 l
0.3103 0.5373 l
0.3138 0.5319 l
0.3172 0.5266 l
0.3206 0.5214 l
0.3241 0.5163 l
0.3275 0.5112 l
0.3309 0.5063 l
0.3344 0.5014 l
0.3378 0.4966 l
0.3412 0.4920 l
0.3447 0.4874 l
0.3481 0.4828 l
0.3515 0.4784 l
0.3550 0.4740 l
0.3584 0.4697 l
0.3618 0.4655 l
0.3653 0.4614 l
0.3687 0.4573 l
0.3721 0.4533 l
0.3756 0.4494 l
0.3790 0.4455 l
0.3824 0.4417 l
0.3859 0.4380 l
0.3893 0.4344 l
0.3927 0.4308 l
0.3962 0.4273 l
0.3996 0.4238 l
0.4030 0.4204 l
0.4065 0.4170 l
0.4099 0.4138 l
0.4133 0.4105 l
0.4168 0.4074 l
0.4202 0.4042 l
0.4237 0.4012 l
0.4271 0.3982 l
0.4305 0.3952 l
0.4340 0.3923 l
0.4374 0.3895 l
0.4408 0.3867 l
0.4443 0.3839 l
0.4477 0.3812 l
0.4511 0.3786 l
0.4546 0.3759 l
0.4580 0.3734 l
0.4614 0.3709 l
0.4649 0.3684 l
0.4683 0.3660 l
0.4717 0.3636 l
0.4752 0.3612 l
0.4786 0.3589 l
0.4820 0.3567 l
0.4855 0.3544 l
0.4889 0.3523 l
0.4923 0.3501 l
0.4958 0.3480 l
0.4992 0.3459 l
0.5026 0.3439 l
0.5061 0.3419 l
0.5095 0.3399 l
0.5129 0.3380 l
0.5164 0.3361 l
0.5198 0.3342 l
0.5232 0.3324 l
0.5267 0.3306 l
0.5301 0.3289 l
0.5335 0.3271 l
0.5370 0.3254 l
0.5404 0.3237 l
0.5439 0.3221 l
0.5473 0.3205 l
0.5507 0.3189 l
0.5542 0.3173 l
0.5576 0.3158 l
0.5610 0.3143 l
0.5645 0.3128 l
0.5679 0.3114 l
0.5713 0.3100 l
0.5748 0.3086 l
0.5782 0.3072 l
0.5816 0.3058 l
0.5851 0.3045 l
0.5885 0.3032 l
0.5919 0.3019 l
0.5954 0.3006 l
0.5988 0.2994 l
0.6022 0.2982 l
0.6057 0.2970 l
0.6091 0.2958 l
0.6125 0.2947 l
0.6160 0.2935 l
0.6194 0.2924 l
0.6228 0.2913 l
0.6263 0.2903 l
0.6297 0.2892 l
0.6331 0.2882 l
0.6366 0.2872 l
0.6400 0.2862 l
0.6434 0.2852 l
0.6469 0.2842 l
0.6503 0.2833 l
0.6538 0.2823 l
0.6572 0.2814 l
0.6606 0.2805 l
0.6641 0.2796 l
0.6675 0.2788 l
0.6709 0.2779 l
0.6744 0.2771 l
0.6778 0.2763 l
0.6812 0.2754 l
0.6847 0.2747 l
0.6881 0.2739 l
0.6915 0.2731 l
0.6950 0.2724 l
0.6984 0.2716 l
0.7018 0.2709 l
0.7053 0.2702 l
0.7087 0.2695 l
0.7121 0.2688 l
0.7156 0.2681 l
0.7190 0.2674 l
0.7224 0.2668 l
0.7259 0.2662 l
0.7293 0.2655 l
0.7327 0.2649 l
0.7362 0.2643 l
0.7396 0.2637 l
0.7430 0.2631 l
0.7465 0.2625 l
0.7499 0.2620 l
0.7533 0.2614 l
0.7568 0.2609 l
0.7602 0.2603 l
0.7637 0.2598 l
0.7671 0.2593 l
0.7705 0.2588 l
0.7740 0.2583 l
0.7774 0.2578 l
0.7808 0.2573 l
0.7843 0.2568 l
0.7877 0.2564 l
0.7911 0.2559 l
0.7946 0.2555 l
0.7980 0.2550 l
0.8014 0.2546 l
0.8049 0.2542 l
0.8083 0.2537 l
0.8117 0.2533 l
0.8152 0.2529 l
0.8186 0.2525 l
0.8220 0.2521 l
0.8255 0.2517 l
0.8289 0.2514 l
0.8323 0.2510 l
0.8358 0.2506 l
0.8392 0.2503 l
0.8426 0.2499 l
0.8461 0.2496 l
0.8495 0.2493 l
0.8529 0.2489 l
0.8564 0.2486 l
0.8598 0.2483 l
0.8632 0.2480 l
0.8667 0.2476 l
0.8701 0.2473 l
0.8735 0.2470 l
0.8770 0.2467 l
0.8804 0.2465 l
0.8839 0.2462 l
0.8873 0.2459 l
0.8907 0.2456 l
0.8942 0.2454 l
0.8976 0.2451 l
0.9010 0.2448 l
0.9045 0.2446 l
0.9079 0.2443 l
0.9113 0.2441 l
0.9148 0.2438 l
0.9182 0.2436 l
0.9216 0.2434 l
0.9251 0.2431 l
0.9285 0.2429 l
0.9319 0.2427 l
0.9354 0.2425 l
0.9388 0.2423 l
0.9422 0.2421 l
0.9457 0.2419 l
0.9491 0.2416 l
0.9525 0.2415 l
0.9560 0.2413 l
0.9594 0.2411 l
0.9628 0.2409 l
0.9663 0.2407 l
0.9697 0.2405 l
0.9731 0.2403 l
0.9766 0.2402 l
0.9800 0.2400 l
0.9834 0.2398 l
0.9869 0.2396 l
0.9903 0.2395 l
0.9937 0.2393 l
0.9972 0.2392 l
1.0006 0.2390 l
1.0041 0.2389 l
1.0075 0.2387 l
1.0109 0.2386 l
1.0144 0.2384 l
1.0178 0.2383 l
1.0212 0.2381 l
1.0247 0.2380 l
1.0281 0.2379 l
1.0315 0.2377 l
1.0350 0.2376 l
1.0384 0.2375 l
s
n
0.2926 0.1500 m
0.2926 0.1700 l
s
n
0.2926 0.8500 m
0.2926 0.8300 l
s
n
0.4631 0.1500 m
0.4631 0.1700 l
s
n
0.4631 0.8500 m
0.4631 0.8300 l
s
n
0.6337 0.1500 m
0.6337 0.1700 l
s
n
0.6337 0.8500 m
0.6337 0.8300 l
s
n
0.8043 0.1500 m
0.8043 0.1700 l
s
n
0.8043 0.8500 m
0.8043 0.8300 l
s
n
0.9749 0.1500 m
0.9749 0.1700 l
s
n
0.9749 0.8500 m
0.9749 0.8300 l
s
n
0.2073 0.1500 m
0.2073 0.1800 l
s
n
0.2073 0.8500 m
0.2073 0.8200 l
s
n
0.3779 0.1500 m
0.3779 0.1800 l
s
n
0.3779 0.8500 m
0.3779 0.8200 l
s
n
0.5484 0.1500 m
0.5484 0.1800 l
s
n
0.5484 0.8500 m
0.5484 0.8200 l
s
n
0.7190 0.1500 m
0.7190 0.1800 l
s
n
0.7190 0.8500 m
0.7190 0.8200 l
s
n
0.8896 0.1500 m
0.8896 0.1800 l
s
n
0.8896 0.8500 m
0.8896 0.8200 l
s
/Helvetica findfont
dup length dict begin
 {1 index /FID ne {def} {pop pop} ifelse} forall
 /Encoding DefEncoding def
 currentdict
end
/Font12 exch definefont pop
/Font12 FFSF
0.1965 0.1104 m
GS
[0.0420 0.0000 0.0000 0.0420 0 0] CC
(0) show
GR
/Font12 FFSF
0.3557 0.1104 m
GS
[0.0420 0.0000 0.0000 0.0420 0 0] CC
(49) show
GR
/Font12 FFSF
0.5260 0.1104 m
GS
[0.0420 0.0000 0.0000 0.0420 0 0] CC
(98) show
GR
/Font12 FFSF
0.6846 0.1104 m
GS
[0.0420 0.0000 0.0000 0.0420 0 0] CC
(147) show
GR
/Font12 FFSF
0.8554 0.1104 m
GS
[0.0420 0.0000 0.0000 0.0420 0 0] CC
(196) show
GR
/Font12 FFSF
0.5168 0.0688 m
GS
[0.0420 0.0000 0.0000 0.0420 0 0] CC
(Tempo \(s\)) show
GR
n
0.1832 0.2696 m
0.2032 0.2696 l
s
n
1.0384 0.2696 m
1.0184 0.2696 l
s
n
0.1832 0.3921 m
0.2032 0.3921 l
s
n
1.0384 0.3921 m
1.0184 0.3921 l
s
n
0.1832 0.5146 m
0.2032 0.5146 l
s
n
1.0384 0.5146 m
1.0184 0.5146 l
s
n
0.1832 0.6371 m
0.2032 0.6371 l
s
n
1.0384 0.6371 m
1.0184 0.6371 l
s
n
0.1832 0.7596 m
0.2032 0.7596 l
s
n
1.0384 0.7596 m
1.0184 0.7596 l
s
n
0.1832 0.2083 m
0.2132 0.2083 l
s
n
1.0384 0.2083 m
1.0084 0.2083 l
s
n
0.1832 0.3308 m
0.2132 0.3308 l
s
n
1.0384 0.3308 m
1.0084 0.3308 l
s
n
0.1832 0.4533 m
0.2132 0.4533 l
s
n
1.0384 0.4533 m
1.0084 0.4533 l
s
n
0.1832 0.5758 m
0.2132 0.5758 l
s
n
1.0384 0.5758 m
1.0084 0.5758 l
s
n
0.1832 0.6983 m
0.2132 0.6983 l
s
n
1.0384 0.6983 m
1.0084 0.6983 l
s
n
0.1832 0.8208 m
0.2132 0.8208 l
s
n
1.0384 0.8208 m
1.0084 0.8208 l
s
/Font12 FFSF
0.0700 0.1939 m
GS
[0.0420 0.0000 0.0000 0.0420 0 0] CC
(0.000) show
GR
/Font12 FFSF
0.0772 0.3164 m
GS
[0.0420 0.0000 0.0000 0.0420 0 0] CC
(0.021) show
GR
/Font12 FFSF
0.0700 0.4389 m
GS
[0.0420 0.0000 0.0000 0.0420 0 0] CC
(0.042) show
GR
/Font12 FFSF
0.0704 0.5614 m
GS
[0.0420 0.0000 0.0000 0.0420 0 0] CC
(0.063) show
GR
/Font12 FFSF
0.0696 0.6839 m
GS
[0.0420 0.0000 0.0000 0.0420 0 0] CC
(0.084) show
GR
/Font12 FFSF
0.0700 0.8064 m
GS
[0.0420 0.0000 0.0000 0.0420 0 0] CC
(0.105) show
GR
/Font12 FFSF
0.0504 0.3710 m
GS
[0.0000 0.0420 -0.0420 0.0000 0 0] CC
(Amplitude \(m\)) show
GR
n
0.1832 0.1500 m
0.1832 0.8500 l
1.0384 0.8500 l
1.0384 0.1500 l
0.1832 0.1500 l
c
s
%%Trailer
%%BoundingBox: 10 34 625 512
%%DocumentNeededResources: font Helvetica
%%EOF
