%!PS-Adobe-3.0 EPSF-3.0
%%BoundingBox: (atend)
%%LanguageLevel: 2
%%Creator: Grace-5.1.22
%%CreationDate: Wed Oct 15 22:56:19 2014
%%DocumentData: Clean8Bit
%%Orientation: Portrait
%%Title: fit-gph-1.agr
%%For: wfr
%%DocumentNeededResources: (atend)
%%EndComments
%%BeginProlog
/m {moveto} def
/l {lineto} def
/s {stroke} def
/n {newpath} def
/c {closepath} def
/RL {rlineto} def
/SLW {setlinewidth} def
/GS {gsave} def
/GR {grestore} def
/SC {setcolor} def
/SGRY {setgray} def
/SRGB {setrgbcolor} def
/SD {setdash} def
/SLC {setlinecap} def
/SLJ {setlinejoin} def
/SCS {setcolorspace} def
/FFSF {findfont setfont} def
/CC {concat} def
/PXL {n m 0 0 RL s} def
/Color0 {1.0000 1.0000 1.0000} def
/Color1 {0.0000 0.0000 0.0000} def
/Color2 {1.0000 0.0000 0.0000} def
/Color3 {0.0000 1.0000 0.0000} def
/Color4 {0.0000 0.0000 1.0000} def
/Color5 {1.0000 1.0000 0.0000} def
/Color6 {0.7373 0.5608 0.5608} def
/Color7 {0.8627 0.8627 0.8627} def
/Color8 {0.5804 0.0000 0.8275} def
/Color9 {0.0000 1.0000 1.0000} def
/Color10 {1.0000 0.0000 1.0000} def
/Color11 {1.0000 0.6471 0.0000} def
/Color12 {0.4471 0.1294 0.7373} def
/Color13 {0.4039 0.0275 0.2824} def
/Color14 {0.2510 0.8784 0.8157} def
/Color15 {0.0000 0.5451 0.0000} def
/PTRN {
 /pat_bits exch def 
 <<
  /PaintType 2
  /PatternType 1 /TilingType 1
  /BBox[0 0 16 16]
  /XStep 16 /YStep 16
  /PaintProc {
   pop
   16 16 true [-1 0 0 -1 16 16] pat_bits imagemask
  }
 >>
 [0.0017 0 0 0.0017 0 0]
 makepattern
} def
/Pattern0 {<0000000000000000000000000000000000000000000000000000000000000000> PTRN} bind def
/Pattern1 {<ffffffffffffffffffffffffffffffffffffffffffffffffffffffffffffffff> PTRN} bind def
/Pattern2 {<eeeeffffbbbbffffeeeeffffbbbbffffeeeeffffbbbbffffeeeeffffbbbbffff> PTRN} bind def
/Pattern3 {<eeeebbbbeeeebbbbeeeebbbbeeeebbbbeeeebbbbeeeebbbbeeeebbbbeeeebbbb> PTRN} bind def
/Pattern4 {<5555aaaa5555aaaa5555aaaa5555aaaa5555aaaa5555aaaa5555aaaa5555aaaa> PTRN} bind def
/Pattern5 {<1111444411114444111144441111444411114444111144441111444411114444> PTRN} bind def
/Pattern6 {<1111000044440000111100004444000011110000444400001111000044440000> PTRN} bind def
/Pattern7 {<1010000000000000010100000000000010100000000000000101000000000000> PTRN} bind def
/Pattern8 {<0000000000000000000000000000000000000000000000000000000000000000> PTRN} bind def
/Pattern9 {<1e1e0f0f8787c3c3e1e1f0f078783c3c1e1e0f0f8787c3c3e1e1f0f078783c3c> PTRN} bind def
/Pattern10 {<7878f0f0e1e1c3c387870f0f1e1e3c3c7878f0f0e1e1c3c387870f0f1e1e3c3c> PTRN} bind def
/Pattern11 {<3333333333333333333333333333333333333333333333333333333333333333> PTRN} bind def
/Pattern12 {<ffffffff00000000ffffffff00000000ffffffff00000000ffffffff00000000> PTRN} bind def
/Pattern13 {<8181424224241818181824244242818181814242242418181818242442428181> PTRN} bind def
/Pattern14 {<8080404020201010080804040202010180804040202010100808040402020101> PTRN} bind def
/Pattern15 {<0101020204040808101020204040808001010202040408081010202040408080> PTRN} bind def
/Pattern16 {<2222222222222222222222222222222222222222222222222222222222222222> PTRN} bind def
/Pattern17 {<0000ffff000000000000ffff000000000000ffff000000000000ffff00000000> PTRN} bind def
/Pattern18 {<2222ffff222222222222ffff222222222222ffff222222222222ffff22222222> PTRN} bind def
/Pattern19 {<ffffffff33333333ffffffff33333333ffffffff33333333ffffffff33333333> PTRN} bind def
/Pattern20 {<0f0f0f0f0f0f0f0ff0f0f0f0f0f0f0f00f0f0f0f0f0f0f0ff0f0f0f0f0f0f0f0> PTRN} bind def
/Pattern21 {<ff00ff00ff00ff00ff00ff00ff00ff0000ff00ff00ff00ff00ff00ff00ff00ff> PTRN} bind def
/Pattern22 {<8001800180018001800180018001ffffffff8001800180018001800180018001> PTRN} bind def
/Pattern23 {<c003c003c003c003c003c003ffffffffffffffffc003c003c003c003c003c003> PTRN} bind def
/Pattern24 {<040404040404ffff404040404040ffff040404040404ffff404040404040ffff> PTRN} bind def
/Pattern25 {<180018001800180018001800ffffffff001800180018001800180018ffffffff> PTRN} bind def
/Pattern26 {<1111b8b87c7c3a3a1111a3a3c7c78b8b1111b8b87c7c3a3a1111a3a3c7c78b8b> PTRN} bind def
/Pattern27 {<101010102828c7c70101010182827c7c101010102828c7c70101010182827c7c> PTRN} bind def
/Pattern28 {<1c1c121211112121c1c12121111112121c1c121211112121c1c1212111111212> PTRN} bind def
/Pattern29 {<3e3e414180808080e3e31414080808083e3e414180808080e3e3141408080808> PTRN} bind def
/Pattern30 {<4848888884848383848488884848383848488888848483838484888848483838> PTRN} bind def
/Pattern31 {<03030404080808080c0c12122121c0c003030404080808080c0c12122121c0c0> PTRN} bind def
/ellipsedict 8 dict def
ellipsedict /mtrx matrix put
/EARC {
 ellipsedict begin
  /endangle exch def
  /startangle exch def
  /yrad exch def
  /xrad exch def
  /y exch def
  /x exch def
  /savematrix mtrx currentmatrix def
  x y translate
  xrad yrad scale
  0 0 1 startangle endangle arc
  savematrix setmatrix
 end
} def
/TL {
  /kcomp exch def
  /linewidth exch def
  /offset exch def
  GS
  0 offset rmoveto
  linewidth SLW
  dup stringwidth exch kcomp add exch RL s
  GR
} def
/KINIT
{
 /kvector exch def
 /kid 0 def
} def
/KPROC
{
 pop pop
 kvector kid get
 0 rmoveto
 /kid 1 kid add def
} def
/DefEncoding [
 /.notdef
 /.notdef
 /.notdef
 /.notdef
 /.notdef
 /.notdef
 /.notdef
 /.notdef
 /.notdef
 /.notdef
 /.notdef
 /.notdef
 /.notdef
 /.notdef
 /.notdef
 /.notdef
 /.notdef
 /.notdef
 /.notdef
 /.notdef
 /.notdef
 /.notdef
 /.notdef
 /.notdef
 /.notdef
 /.notdef
 /.notdef
 /.notdef
 /.notdef
 /.notdef
 /.notdef
 /.notdef
 /space
 /exclam
 /quotedbl
 /numbersign
 /dollar
 /percent
 /ampersand
 /quoteright
 /parenleft
 /parenright
 /asterisk
 /plus
 /comma
 /hyphen
 /period
 /slash
 /zero
 /one
 /two
 /three
 /four
 /five
 /six
 /seven
 /eight
 /nine
 /colon
 /semicolon
 /less
 /equal
 /greater
 /question
 /at
 /A
 /B
 /C
 /D
 /E
 /F
 /G
 /H
 /I
 /J
 /K
 /L
 /M
 /N
 /O
 /P
 /Q
 /R
 /S
 /T
 /U
 /V
 /W
 /X
 /Y
 /Z
 /bracketleft
 /backslash
 /bracketright
 /asciicircum
 /underscore
 /grave
 /a
 /b
 /c
 /d
 /e
 /f
 /g
 /h
 /i
 /j
 /k
 /l
 /m
 /n
 /o
 /p
 /q
 /r
 /s
 /t
 /u
 /v
 /w
 /x
 /y
 /z
 /braceleft
 /bar
 /braceright
 /asciitilde
 /.notdef
 /.notdef
 /.notdef
 /.notdef
 /.notdef
 /.notdef
 /.notdef
 /.notdef
 /.notdef
 /.notdef
 /.notdef
 /.notdef
 /.notdef
 /.notdef
 /.notdef
 /.notdef
 /.notdef
 /.notdef
 /.notdef
 /.notdef
 /.notdef
 /.notdef
 /.notdef
 /.notdef
 /.notdef
 /.notdef
 /.notdef
 /.notdef
 /.notdef
 /.notdef
 /.notdef
 /.notdef
 /.notdef
 /space
 /exclamdown
 /cent
 /sterling
 /currency
 /yen
 /brokenbar
 /section
 /dieresis
 /copyright
 /ordfeminine
 /guillemotleft
 /logicalnot
 /hyphen
 /registered
 /macron
 /degree
 /plusminus
 /twosuperior
 /threesuperior
 /acute
 /mu
 /paragraph
 /periodcentered
 /cedilla
 /onesuperior
 /ordmasculine
 /guillemotright
 /onequarter
 /onehalf
 /threequarters
 /questiondown
 /Agrave
 /Aacute
 /Acircumflex
 /Atilde
 /Adieresis
 /Aring
 /AE
 /Ccedilla
 /Egrave
 /Eacute
 /Ecircumflex
 /Edieresis
 /Igrave
 /Iacute
 /Icircumflex
 /Idieresis
 /Eth
 /Ntilde
 /Ograve
 /Oacute
 /Ocircumflex
 /Otilde
 /Odieresis
 /multiply
 /Oslash
 /Ugrave
 /Uacute
 /Ucircumflex
 /Udieresis
 /Yacute
 /Thorn
 /germandbls
 /agrave
 /aacute
 /acircumflex
 /atilde
 /adieresis
 /aring
 /ae
 /ccedilla
 /egrave
 /eacute
 /ecircumflex
 /edieresis
 /igrave
 /iacute
 /icircumflex
 /idieresis
 /eth
 /ntilde
 /ograve
 /oacute
 /ocircumflex
 /otilde
 /odieresis
 /divide
 /oslash
 /ugrave
 /uacute
 /ucircumflex
 /udieresis
 /yacute
 /thorn
 /ydieresis
] def
%%EndProlog
%%BeginSetup
%%EndSetup
600.00 600.00 scale
n
0.0000 0.0000 m
0.0000 1.0000 l
1.2884 1.0000 l
1.2884 0.0000 l
c
[/DeviceRGB] SCS
Color0 SC
fill
[/DeviceRGB] SCS
Color1 SC
[] 0 SD
0.0015 SLW
0 SLC
0 SLJ
n
0.2074 0.1698 m
0.2074 0.1968 l
s
n
0.1974 0.1968 m
0.2174 0.1968 l
s
n
0.2074 0.1698 m
0.2074 0.1499 l
s
n
0.2397 0.1833 m
0.2397 0.2102 l
s
n
0.2297 0.2102 m
0.2497 0.2102 l
s
n
0.2397 0.1833 m
0.2397 0.1563 l
s
n
0.2497 0.1563 m
0.2297 0.1563 l
s
n
0.2881 0.1968 m
0.2881 0.2237 l
s
n
0.2781 0.2237 m
0.2981 0.2237 l
s
n
0.2881 0.1968 m
0.2881 0.1698 l
s
n
0.2981 0.1698 m
0.2781 0.1698 l
s
n
0.3204 0.2507 m
0.3204 0.2776 l
s
n
0.3104 0.2776 m
0.3304 0.2776 l
s
n
0.3204 0.2507 m
0.3204 0.2237 l
s
n
0.3304 0.2237 m
0.3104 0.2237 l
s
n
0.3688 0.3046 m
0.3688 0.3315 l
s
n
0.3588 0.3315 m
0.3788 0.3315 l
s
n
0.3688 0.3046 m
0.3688 0.2776 l
s
n
0.3788 0.2776 m
0.3588 0.2776 l
s
n
0.4011 0.3180 m
0.4011 0.3450 l
s
n
0.3911 0.3450 m
0.4111 0.3450 l
s
n
0.4011 0.3180 m
0.4011 0.2911 l
s
n
0.4111 0.2911 m
0.3911 0.2911 l
s
n
0.4495 0.3315 m
0.4495 0.3585 l
s
n
0.4395 0.3585 m
0.4595 0.3585 l
s
n
0.4495 0.3315 m
0.4495 0.3046 l
s
n
0.4595 0.3046 m
0.4395 0.3046 l
s
n
0.4817 0.3854 m
0.4817 0.4124 l
s
n
0.4717 0.4124 m
0.4917 0.4124 l
s
n
0.4817 0.3854 m
0.4817 0.3585 l
s
n
0.4917 0.3585 m
0.4717 0.3585 l
s
n
0.5301 0.4393 m
0.5301 0.4663 l
s
n
0.5201 0.4663 m
0.5401 0.4663 l
s
n
0.5301 0.4393 m
0.5301 0.4124 l
s
n
0.5401 0.4124 m
0.5201 0.4124 l
s
n
0.6108 0.4663 m
0.6108 0.4932 l
s
n
0.6008 0.4932 m
0.6208 0.4932 l
s
n
0.6108 0.4663 m
0.6108 0.4393 l
s
n
0.6208 0.4393 m
0.6008 0.4393 l
s
n
0.6915 0.5606 m
0.6915 0.5876 l
s
n
0.6815 0.5876 m
0.7015 0.5876 l
s
n
0.6915 0.5606 m
0.6915 0.5337 l
s
n
0.7015 0.5337 m
0.6815 0.5337 l
s
n
0.7722 0.6011 m
0.7722 0.6280 l
s
n
0.7622 0.6280 m
0.7822 0.6280 l
s
n
0.7722 0.6011 m
0.7722 0.5741 l
s
n
0.7822 0.5741 m
0.7622 0.5741 l
s
n
0.8528 0.6954 m
0.8528 0.7223 l
s
n
0.8428 0.7223 m
0.8628 0.7223 l
s
n
0.8528 0.6954 m
0.8528 0.6684 l
s
n
0.8628 0.6684 m
0.8428 0.6684 l
s
n
0.9335 0.7358 m
0.9335 0.7628 l
s
n
0.9235 0.7628 m
0.9435 0.7628 l
s
n
0.9335 0.7358 m
0.9335 0.7089 l
s
n
0.9435 0.7089 m
0.9235 0.7089 l
s
n
1.0142 0.8302 m
1.0142 0.8501 l
s
n
1.0142 0.8302 m
1.0142 0.8032 l
s
n
1.0242 0.8032 m
1.0042 0.8032 l
s
[] 0 SD
0.0030 SLW
n 0.2074 0.1698 0.0050 0.0050 0 360 EARC s
n 0.2397 0.1833 0.0050 0.0050 0 360 EARC s
n 0.2881 0.1968 0.0050 0.0050 0 360 EARC s
n 0.3204 0.2507 0.0050 0.0050 0 360 EARC s
n 0.3688 0.3046 0.0050 0.0050 0 360 EARC s
n 0.4011 0.3180 0.0050 0.0050 0 360 EARC s
n 0.4495 0.3315 0.0050 0.0050 0 360 EARC s
n 0.4817 0.3854 0.0050 0.0050 0 360 EARC s
n 0.5301 0.4393 0.0050 0.0050 0 360 EARC s
n 0.6108 0.4663 0.0050 0.0050 0 360 EARC s
n 0.6915 0.5606 0.0050 0.0050 0 360 EARC s
n 0.7722 0.6011 0.0050 0.0050 0 360 EARC s
n 0.8528 0.6954 0.0050 0.0050 0 360 EARC s
n 0.9335 0.7358 0.0050 0.0050 0 360 EARC s
n 1.0142 0.8302 0.0050 0.0050 0 360 EARC s
[/DeviceRGB] SCS
Color2 SC
[] 0 SD
0.0015 SLW
n
0.1980 0.1499 m
0.2004 0.1519 l
0.2039 0.1547 l
0.2073 0.1575 l
0.2107 0.1603 l
0.2142 0.1631 l
0.2176 0.1659 l
0.2210 0.1686 l
0.2245 0.1714 l
0.2279 0.1742 l
0.2313 0.1770 l
0.2348 0.1798 l
0.2382 0.1826 l
0.2416 0.1854 l
0.2451 0.1882 l
0.2485 0.1910 l
0.2519 0.1938 l
0.2554 0.1966 l
0.2588 0.1994 l
0.2622 0.2021 l
0.2657 0.2049 l
0.2691 0.2077 l
0.2725 0.2105 l
0.2760 0.2133 l
0.2794 0.2161 l
0.2828 0.2189 l
0.2863 0.2217 l
0.2897 0.2245 l
0.2931 0.2273 l
0.2966 0.2301 l
0.3000 0.2328 l
0.3034 0.2356 l
0.3069 0.2384 l
0.3103 0.2412 l
0.3138 0.2440 l
0.3172 0.2468 l
0.3206 0.2496 l
0.3241 0.2524 l
0.3275 0.2552 l
0.3309 0.2580 l
0.3344 0.2608 l
0.3378 0.2635 l
0.3412 0.2663 l
0.3447 0.2691 l
0.3481 0.2719 l
0.3515 0.2747 l
0.3550 0.2775 l
0.3584 0.2803 l
0.3618 0.2831 l
0.3653 0.2859 l
0.3687 0.2887 l
0.3721 0.2915 l
0.3756 0.2943 l
0.3790 0.2970 l
0.3824 0.2998 l
0.3859 0.3026 l
0.3893 0.3054 l
0.3927 0.3082 l
0.3962 0.3110 l
0.3996 0.3138 l
0.4030 0.3166 l
0.4065 0.3194 l
0.4099 0.3222 l
0.4133 0.3250 l
0.4168 0.3277 l
0.4202 0.3305 l
0.4237 0.3333 l
0.4271 0.3361 l
0.4305 0.3389 l
0.4340 0.3417 l
0.4374 0.3445 l
0.4408 0.3473 l
0.4443 0.3501 l
0.4477 0.3529 l
0.4511 0.3557 l
0.4546 0.3585 l
0.4580 0.3612 l
0.4614 0.3640 l
0.4649 0.3668 l
0.4683 0.3696 l
0.4717 0.3724 l
0.4752 0.3752 l
0.4786 0.3780 l
0.4820 0.3808 l
0.4855 0.3836 l
0.4889 0.3864 l
0.4923 0.3892 l
0.4958 0.3919 l
0.4992 0.3947 l
0.5026 0.3975 l
0.5061 0.4003 l
0.5095 0.4031 l
0.5129 0.4059 l
0.5164 0.4087 l
0.5198 0.4115 l
0.5232 0.4143 l
0.5267 0.4171 l
0.5301 0.4199 l
0.5335 0.4227 l
0.5370 0.4254 l
0.5404 0.4282 l
0.5439 0.4310 l
0.5473 0.4338 l
0.5507 0.4366 l
0.5542 0.4394 l
0.5576 0.4422 l
0.5610 0.4450 l
0.5645 0.4478 l
0.5679 0.4506 l
0.5713 0.4534 l
0.5748 0.4561 l
0.5782 0.4589 l
0.5816 0.4617 l
0.5851 0.4645 l
0.5885 0.4673 l
0.5919 0.4701 l
0.5954 0.4729 l
0.5988 0.4757 l
0.6022 0.4785 l
0.6057 0.4813 l
0.6091 0.4841 l
0.6125 0.4868 l
0.6160 0.4896 l
0.6194 0.4924 l
0.6228 0.4952 l
0.6263 0.4980 l
0.6297 0.5008 l
0.6331 0.5036 l
0.6366 0.5064 l
0.6400 0.5092 l
0.6434 0.5120 l
0.6469 0.5148 l
0.6503 0.5176 l
0.6538 0.5203 l
0.6572 0.5231 l
0.6606 0.5259 l
0.6641 0.5287 l
0.6675 0.5315 l
0.6709 0.5343 l
0.6744 0.5371 l
0.6778 0.5399 l
0.6812 0.5427 l
0.6847 0.5455 l
0.6881 0.5483 l
0.6915 0.5510 l
0.6950 0.5538 l
0.6984 0.5566 l
0.7018 0.5594 l
0.7053 0.5622 l
0.7087 0.5650 l
0.7121 0.5678 l
0.7156 0.5706 l
0.7190 0.5734 l
0.7224 0.5762 l
0.7259 0.5790 l
0.7293 0.5818 l
0.7327 0.5845 l
0.7362 0.5873 l
0.7396 0.5901 l
0.7430 0.5929 l
0.7465 0.5957 l
0.7499 0.5985 l
0.7533 0.6013 l
0.7568 0.6041 l
0.7602 0.6069 l
0.7637 0.6097 l
0.7671 0.6125 l
0.7705 0.6152 l
0.7740 0.6180 l
0.7774 0.6208 l
0.7808 0.6236 l
0.7843 0.6264 l
0.7877 0.6292 l
0.7911 0.6320 l
0.7946 0.6348 l
0.7980 0.6376 l
0.8014 0.6404 l
0.8049 0.6432 l
0.8083 0.6460 l
0.8117 0.6487 l
0.8152 0.6515 l
0.8186 0.6543 l
0.8220 0.6571 l
0.8255 0.6599 l
0.8289 0.6627 l
0.8323 0.6655 l
0.8358 0.6683 l
0.8392 0.6711 l
0.8426 0.6739 l
0.8461 0.6767 l
0.8495 0.6794 l
0.8529 0.6822 l
0.8564 0.6850 l
0.8598 0.6878 l
0.8632 0.6906 l
0.8667 0.6934 l
0.8701 0.6962 l
0.8735 0.6990 l
0.8770 0.7018 l
0.8804 0.7046 l
0.8839 0.7074 l
0.8873 0.7101 l
0.8907 0.7129 l
0.8942 0.7157 l
0.8976 0.7185 l
0.9010 0.7213 l
0.9045 0.7241 l
0.9079 0.7269 l
0.9113 0.7297 l
0.9148 0.7325 l
0.9182 0.7353 l
0.9216 0.7381 l
0.9251 0.7409 l
0.9285 0.7436 l
0.9319 0.7464 l
0.9354 0.7492 l
0.9388 0.7520 l
0.9422 0.7548 l
0.9457 0.7576 l
0.9491 0.7604 l
0.9525 0.7632 l
0.9560 0.7660 l
0.9594 0.7688 l
0.9628 0.7716 l
0.9663 0.7743 l
0.9697 0.7771 l
0.9731 0.7799 l
0.9766 0.7827 l
0.9800 0.7855 l
0.9834 0.7883 l
0.9869 0.7911 l
0.9903 0.7939 l
0.9938 0.7967 l
0.9972 0.7995 l
1.0006 0.8023 l
1.0041 0.8051 l
1.0075 0.8078 l
1.0109 0.8106 l
1.0144 0.8134 l
1.0178 0.8162 l
1.0212 0.8190 l
1.0247 0.8218 l
1.0281 0.8246 l
1.0315 0.8274 l
1.0350 0.8302 l
1.0384 0.8330 l
s
[/DeviceRGB] SCS
Color1 SC
[] 0 SD
0.0030 SLW
n
0.1980 0.1499 m
0.2004 0.1519 l
0.2039 0.1547 l
0.2073 0.1575 l
0.2107 0.1603 l
0.2142 0.1631 l
0.2176 0.1659 l
0.2210 0.1686 l
0.2245 0.1714 l
0.2279 0.1742 l
0.2313 0.1770 l
0.2348 0.1798 l
0.2382 0.1826 l
0.2416 0.1854 l
0.2451 0.1882 l
0.2485 0.1910 l
0.2519 0.1938 l
0.2554 0.1966 l
0.2588 0.1994 l
0.2622 0.2021 l
0.2657 0.2049 l
0.2691 0.2077 l
0.2725 0.2105 l
0.2760 0.2133 l
0.2794 0.2161 l
0.2828 0.2189 l
0.2863 0.2217 l
0.2897 0.2245 l
0.2931 0.2273 l
0.2966 0.2301 l
0.3000 0.2328 l
0.3034 0.2356 l
0.3069 0.2384 l
0.3103 0.2412 l
0.3138 0.2440 l
0.3172 0.2468 l
0.3206 0.2496 l
0.3241 0.2524 l
0.3275 0.2552 l
0.3309 0.2580 l
0.3344 0.2608 l
0.3378 0.2635 l
0.3412 0.2663 l
0.3447 0.2691 l
0.3481 0.2719 l
0.3515 0.2747 l
0.3550 0.2775 l
0.3584 0.2803 l
0.3618 0.2831 l
0.3653 0.2859 l
0.3687 0.2887 l
0.3721 0.2915 l
0.3756 0.2943 l
0.3790 0.2970 l
0.3824 0.2998 l
0.3859 0.3026 l
0.3893 0.3054 l
0.3927 0.3082 l
0.3962 0.3110 l
0.3996 0.3138 l
0.4030 0.3166 l
0.4065 0.3194 l
0.4099 0.3222 l
0.4133 0.3250 l
0.4168 0.3277 l
0.4202 0.3305 l
0.4237 0.3333 l
0.4271 0.3361 l
0.4305 0.3389 l
0.4340 0.3417 l
0.4374 0.3445 l
0.4408 0.3473 l
0.4443 0.3501 l
0.4477 0.3529 l
0.4511 0.3557 l
0.4546 0.3585 l
0.4580 0.3612 l
0.4614 0.3640 l
0.4649 0.3668 l
0.4683 0.3696 l
0.4717 0.3724 l
0.4752 0.3752 l
0.4786 0.3780 l
0.4820 0.3808 l
0.4855 0.3836 l
0.4889 0.3864 l
0.4923 0.3892 l
0.4958 0.3919 l
0.4992 0.3947 l
0.5026 0.3975 l
0.5061 0.4003 l
0.5095 0.4031 l
0.5129 0.4059 l
0.5164 0.4087 l
0.5198 0.4115 l
0.5232 0.4143 l
0.5267 0.4171 l
0.5301 0.4199 l
0.5335 0.4227 l
0.5370 0.4254 l
0.5404 0.4282 l
0.5439 0.4310 l
0.5473 0.4338 l
0.5507 0.4366 l
0.5542 0.4394 l
0.5576 0.4422 l
0.5610 0.4450 l
0.5645 0.4478 l
0.5679 0.4506 l
0.5713 0.4534 l
0.5748 0.4561 l
0.5782 0.4589 l
0.5816 0.4617 l
0.5851 0.4645 l
0.5885 0.4673 l
0.5919 0.4701 l
0.5954 0.4729 l
0.5988 0.4757 l
0.6022 0.4785 l
0.6057 0.4813 l
0.6091 0.4841 l
0.6125 0.4868 l
0.6160 0.4896 l
0.6194 0.4924 l
0.6228 0.4952 l
0.6263 0.4980 l
0.6297 0.5008 l
0.6331 0.5036 l
0.6366 0.5064 l
0.6400 0.5092 l
0.6434 0.5120 l
0.6469 0.5148 l
0.6503 0.5176 l
0.6538 0.5203 l
0.6572 0.5231 l
0.6606 0.5259 l
0.6641 0.5287 l
0.6675 0.5315 l
0.6709 0.5343 l
0.6744 0.5371 l
0.6778 0.5399 l
0.6812 0.5427 l
0.6847 0.5455 l
0.6881 0.5483 l
0.6915 0.5510 l
0.6950 0.5538 l
0.6984 0.5566 l
0.7018 0.5594 l
0.7053 0.5622 l
0.7087 0.5650 l
0.7121 0.5678 l
0.7156 0.5706 l
0.7190 0.5734 l
0.7224 0.5762 l
0.7259 0.5790 l
0.7293 0.5818 l
0.7327 0.5845 l
0.7362 0.5873 l
0.7396 0.5901 l
0.7430 0.5929 l
0.7465 0.5957 l
0.7499 0.5985 l
0.7533 0.6013 l
0.7568 0.6041 l
0.7602 0.6069 l
0.7637 0.6097 l
0.7671 0.6125 l
0.7705 0.6152 l
0.7740 0.6180 l
0.7774 0.6208 l
0.7808 0.6236 l
0.7843 0.6264 l
0.7877 0.6292 l
0.7911 0.6320 l
0.7946 0.6348 l
0.7980 0.6376 l
0.8014 0.6404 l
0.8049 0.6432 l
0.8083 0.6460 l
0.8117 0.6487 l
0.8152 0.6515 l
0.8186 0.6543 l
0.8220 0.6571 l
0.8255 0.6599 l
0.8289 0.6627 l
0.8323 0.6655 l
0.8358 0.6683 l
0.8392 0.6711 l
0.8426 0.6739 l
0.8461 0.6767 l
0.8495 0.6794 l
0.8529 0.6822 l
0.8564 0.6850 l
0.8598 0.6878 l
0.8632 0.6906 l
0.8667 0.6934 l
0.8701 0.6962 l
0.8735 0.6990 l
0.8770 0.7018 l
0.8804 0.7046 l
0.8839 0.7074 l
0.8873 0.7101 l
0.8907 0.7129 l
0.8942 0.7157 l
0.8976 0.7185 l
0.9010 0.7213 l
0.9045 0.7241 l
0.9079 0.7269 l
0.9113 0.7297 l
0.9148 0.7325 l
0.9182 0.7353 l
0.9216 0.7381 l
0.9251 0.7409 l
0.9285 0.7436 l
0.9319 0.7464 l
0.9354 0.7492 l
0.9388 0.7520 l
0.9422 0.7548 l
0.9457 0.7576 l
0.9491 0.7604 l
0.9525 0.7632 l
0.9560 0.7660 l
0.9594 0.7688 l
0.9628 0.7716 l
0.9663 0.7743 l
0.9697 0.7771 l
0.9731 0.7799 l
0.9766 0.7827 l
0.9800 0.7855 l
0.9834 0.7883 l
0.9869 0.7911 l
0.9903 0.7939 l
0.9938 0.7967 l
0.9972 0.7995 l
1.0006 0.8023 l
1.0041 0.8051 l
1.0075 0.8078 l
1.0109 0.8106 l
1.0144 0.8134 l
1.0178 0.8162 l
1.0212 0.8190 l
1.0247 0.8218 l
1.0281 0.8246 l
1.0315 0.8274 l
1.0350 0.8302 l
1.0384 0.8330 l
s
n
0.1994 0.1500 m
0.1994 0.1700 l
s
n
0.1994 0.8500 m
0.1994 0.8300 l
s
n
0.3769 0.1500 m
0.3769 0.1700 l
s
n
0.3769 0.8500 m
0.3769 0.8300 l
s
n
0.5543 0.1500 m
0.5543 0.1700 l
s
n
0.5543 0.8500 m
0.5543 0.8300 l
s
n
0.7318 0.1500 m
0.7318 0.1700 l
s
n
0.7318 0.8500 m
0.7318 0.8300 l
s
n
0.9093 0.1500 m
0.9093 0.1700 l
s
n
0.9093 0.8500 m
0.9093 0.8300 l
s
n
0.2881 0.1500 m
0.2881 0.1800 l
s
n
0.2881 0.8500 m
0.2881 0.8200 l
s
n
0.4656 0.1500 m
0.4656 0.1800 l
s
n
0.4656 0.8500 m
0.4656 0.8200 l
s
n
0.6431 0.1500 m
0.6431 0.1800 l
s
n
0.6431 0.8500 m
0.6431 0.8200 l
s
n
0.8206 0.1500 m
0.8206 0.1800 l
s
n
0.8206 0.8500 m
0.8206 0.8200 l
s
n
0.9981 0.1500 m
0.9981 0.1800 l
s
n
0.9981 0.8500 m
0.9981 0.8200 l
s
/Helvetica findfont
dup length dict begin
 {1 index /FID ne {def} {pop pop} ifelse} forall
 /Encoding DefEncoding def
 currentdict
end
/Font12 exch definefont pop
/Font12 FFSF
0.2365 0.1104 m
GS
[0.0420 0.0000 0.0000 0.0420 0 0] CC
(0.055) show
GR
/Font12 FFSF
0.4140 0.1104 m
GS
[0.0420 0.0000 0.0000 0.0420 0 0] CC
(0.066) show
GR
/Font12 FFSF
0.5913 0.1104 m
GS
[0.0420 0.0000 0.0000 0.0420 0 0] CC
(0.077) show
GR
/Font12 FFSF
0.7690 0.1104 m
GS
[0.0420 0.0000 0.0000 0.0420 0 0] CC
(0.088) show
GR
/Font12 FFSF
0.9467 0.1104 m
GS
[0.0420 0.0000 0.0000 0.0420 0 0] CC
(0.099) show
GR
/Font12 FFSF
0.5588 0.0688 m
GS
[0.0420 0.0000 0.0000 0.0420 0 0] CC
(m\(kg\)) show
GR
n
0.1832 0.2507 m
0.2032 0.2507 l
s
n
1.0384 0.2507 m
1.0184 0.2507 l
s
n
0.1832 0.3854 m
0.2032 0.3854 l
s
n
1.0384 0.3854 m
1.0184 0.3854 l
s
n
0.1832 0.5202 m
0.2032 0.5202 l
s
n
1.0384 0.5202 m
1.0184 0.5202 l
s
n
0.1832 0.6550 m
0.2032 0.6550 l
s
n
1.0384 0.6550 m
1.0184 0.6550 l
s
n
0.1832 0.7897 m
0.2032 0.7897 l
s
n
1.0384 0.7897 m
1.0184 0.7897 l
s
n
0.1832 0.1833 m
0.2132 0.1833 l
s
n
1.0384 0.1833 m
1.0084 0.1833 l
s
n
0.1832 0.3180 m
0.2132 0.3180 l
s
n
1.0384 0.3180 m
1.0084 0.3180 l
s
n
0.1832 0.4528 m
0.2132 0.4528 l
s
n
1.0384 0.4528 m
1.0084 0.4528 l
s
n
0.1832 0.5876 m
0.2132 0.5876 l
s
n
1.0384 0.5876 m
1.0084 0.5876 l
s
n
0.1832 0.7223 m
0.2132 0.7223 l
s
n
1.0384 0.7223 m
1.0084 0.7223 l
s
/Font12 FFSF
0.0932 0.1689 m
GS
[0.0420 0.0000 0.0000 0.0420 0 0] CC
(0.05) show
GR
/Font12 FFSF
0.0932 0.3036 m
GS
[0.0420 0.0000 0.0000 0.0420 0 0] CC
(0.06) show
GR
/Font12 FFSF
0.0928 0.4384 m
GS
[0.0420 0.0000 0.0000 0.0420 0 0] CC
(0.07) show
GR
/Font12 FFSF
0.0932 0.5732 m
GS
[0.0420 0.0000 0.0000 0.0420 0 0] CC
(0.08) show
GR
/Font12 FFSF
0.0936 0.7079 m
GS
[0.0420 0.0000 0.0000 0.0420 0 0] CC
(0.09) show
GR
/Symbol findfont
/Font28 exch definefont pop
/Font28 FFSF
0.0740 0.4526 m
GS
[0.0000 0.0420 -0.0420 0.0000 0 0] CC
(D) show
GR
/Font12 FFSF
0.0740 0.4782 m
GS
[0.0000 0.0420 -0.0420 0.0000 0 0] CC
(l\(m\)) show
GR
n
0.1832 0.1500 m
0.1832 0.8500 l
1.0384 0.8500 l
1.0384 0.1500 l
0.1832 0.1500 l
c
s
%%Trailer
%%BoundingBox: 24 34 631 512
%%DocumentNeededResources: font Helvetica
%%+ font Symbol
%%EOF
