%!PS-Adobe-3.0 EPSF-3.0
%%BoundingBox: (atend)
%%LanguageLevel: 2
%%Creator: Grace-5.1.22
%%CreationDate: Wed Oct 15 20:05:57 2014
%%DocumentData: Clean8Bit
%%Orientation: Portrait
%%Title: fit-gph-1.agr
%%For: wfr
%%DocumentNeededResources: (atend)
%%EndComments
%%BeginProlog
/m {moveto} def
/l {lineto} def
/s {stroke} def
/n {newpath} def
/c {closepath} def
/RL {rlineto} def
/SLW {setlinewidth} def
/GS {gsave} def
/GR {grestore} def
/SC {setcolor} def
/SGRY {setgray} def
/SRGB {setrgbcolor} def
/SD {setdash} def
/SLC {setlinecap} def
/SLJ {setlinejoin} def
/SCS {setcolorspace} def
/FFSF {findfont setfont} def
/CC {concat} def
/PXL {n m 0 0 RL s} def
/Color0 {1.0000 1.0000 1.0000} def
/Color1 {0.0000 0.0000 0.0000} def
/Color2 {1.0000 0.0000 0.0000} def
/Color3 {0.0000 1.0000 0.0000} def
/Color4 {0.0000 0.0000 1.0000} def
/Color5 {1.0000 1.0000 0.0000} def
/Color6 {0.7373 0.5608 0.5608} def
/Color7 {0.8627 0.8627 0.8627} def
/Color8 {0.5804 0.0000 0.8275} def
/Color9 {0.0000 1.0000 1.0000} def
/Color10 {1.0000 0.0000 1.0000} def
/Color11 {1.0000 0.6471 0.0000} def
/Color12 {0.4471 0.1294 0.7373} def
/Color13 {0.4039 0.0275 0.2824} def
/Color14 {0.2510 0.8784 0.8157} def
/Color15 {0.0000 0.5451 0.0000} def
/PTRN {
 /pat_bits exch def 
 <<
  /PaintType 2
  /PatternType 1 /TilingType 1
  /BBox[0 0 16 16]
  /XStep 16 /YStep 16
  /PaintProc {
   pop
   16 16 true [-1 0 0 -1 16 16] pat_bits imagemask
  }
 >>
 [0.0017 0 0 0.0017 0 0]
 makepattern
} def
/Pattern0 {<0000000000000000000000000000000000000000000000000000000000000000> PTRN} bind def
/Pattern1 {<ffffffffffffffffffffffffffffffffffffffffffffffffffffffffffffffff> PTRN} bind def
/Pattern2 {<eeeeffffbbbbffffeeeeffffbbbbffffeeeeffffbbbbffffeeeeffffbbbbffff> PTRN} bind def
/Pattern3 {<eeeebbbbeeeebbbbeeeebbbbeeeebbbbeeeebbbbeeeebbbbeeeebbbbeeeebbbb> PTRN} bind def
/Pattern4 {<5555aaaa5555aaaa5555aaaa5555aaaa5555aaaa5555aaaa5555aaaa5555aaaa> PTRN} bind def
/Pattern5 {<1111444411114444111144441111444411114444111144441111444411114444> PTRN} bind def
/Pattern6 {<1111000044440000111100004444000011110000444400001111000044440000> PTRN} bind def
/Pattern7 {<1010000000000000010100000000000010100000000000000101000000000000> PTRN} bind def
/Pattern8 {<0000000000000000000000000000000000000000000000000000000000000000> PTRN} bind def
/Pattern9 {<1e1e0f0f8787c3c3e1e1f0f078783c3c1e1e0f0f8787c3c3e1e1f0f078783c3c> PTRN} bind def
/Pattern10 {<7878f0f0e1e1c3c387870f0f1e1e3c3c7878f0f0e1e1c3c387870f0f1e1e3c3c> PTRN} bind def
/Pattern11 {<3333333333333333333333333333333333333333333333333333333333333333> PTRN} bind def
/Pattern12 {<ffffffff00000000ffffffff00000000ffffffff00000000ffffffff00000000> PTRN} bind def
/Pattern13 {<8181424224241818181824244242818181814242242418181818242442428181> PTRN} bind def
/Pattern14 {<8080404020201010080804040202010180804040202010100808040402020101> PTRN} bind def
/Pattern15 {<0101020204040808101020204040808001010202040408081010202040408080> PTRN} bind def
/Pattern16 {<2222222222222222222222222222222222222222222222222222222222222222> PTRN} bind def
/Pattern17 {<0000ffff000000000000ffff000000000000ffff000000000000ffff00000000> PTRN} bind def
/Pattern18 {<2222ffff222222222222ffff222222222222ffff222222222222ffff22222222> PTRN} bind def
/Pattern19 {<ffffffff33333333ffffffff33333333ffffffff33333333ffffffff33333333> PTRN} bind def
/Pattern20 {<0f0f0f0f0f0f0f0ff0f0f0f0f0f0f0f00f0f0f0f0f0f0f0ff0f0f0f0f0f0f0f0> PTRN} bind def
/Pattern21 {<ff00ff00ff00ff00ff00ff00ff00ff0000ff00ff00ff00ff00ff00ff00ff00ff> PTRN} bind def
/Pattern22 {<8001800180018001800180018001ffffffff8001800180018001800180018001> PTRN} bind def
/Pattern23 {<c003c003c003c003c003c003ffffffffffffffffc003c003c003c003c003c003> PTRN} bind def
/Pattern24 {<040404040404ffff404040404040ffff040404040404ffff404040404040ffff> PTRN} bind def
/Pattern25 {<180018001800180018001800ffffffff001800180018001800180018ffffffff> PTRN} bind def
/Pattern26 {<1111b8b87c7c3a3a1111a3a3c7c78b8b1111b8b87c7c3a3a1111a3a3c7c78b8b> PTRN} bind def
/Pattern27 {<101010102828c7c70101010182827c7c101010102828c7c70101010182827c7c> PTRN} bind def
/Pattern28 {<1c1c121211112121c1c12121111112121c1c121211112121c1c1212111111212> PTRN} bind def
/Pattern29 {<3e3e414180808080e3e31414080808083e3e414180808080e3e3141408080808> PTRN} bind def
/Pattern30 {<4848888884848383848488884848383848488888848483838484888848483838> PTRN} bind def
/Pattern31 {<03030404080808080c0c12122121c0c003030404080808080c0c12122121c0c0> PTRN} bind def
/ellipsedict 8 dict def
ellipsedict /mtrx matrix put
/EARC {
 ellipsedict begin
  /endangle exch def
  /startangle exch def
  /yrad exch def
  /xrad exch def
  /y exch def
  /x exch def
  /savematrix mtrx currentmatrix def
  x y translate
  xrad yrad scale
  0 0 1 startangle endangle arc
  savematrix setmatrix
 end
} def
/TL {
  /kcomp exch def
  /linewidth exch def
  /offset exch def
  GS
  0 offset rmoveto
  linewidth SLW
  dup stringwidth exch kcomp add exch RL s
  GR
} def
/KINIT
{
 /kvector exch def
 /kid 0 def
} def
/KPROC
{
 pop pop
 kvector kid get
 0 rmoveto
 /kid 1 kid add def
} def
/DefEncoding [
 /.notdef
 /.notdef
 /.notdef
 /.notdef
 /.notdef
 /.notdef
 /.notdef
 /.notdef
 /.notdef
 /.notdef
 /.notdef
 /.notdef
 /.notdef
 /.notdef
 /.notdef
 /.notdef
 /.notdef
 /.notdef
 /.notdef
 /.notdef
 /.notdef
 /.notdef
 /.notdef
 /.notdef
 /.notdef
 /.notdef
 /.notdef
 /.notdef
 /.notdef
 /.notdef
 /.notdef
 /.notdef
 /space
 /exclam
 /quotedbl
 /numbersign
 /dollar
 /percent
 /ampersand
 /quoteright
 /parenleft
 /parenright
 /asterisk
 /plus
 /comma
 /hyphen
 /period
 /slash
 /zero
 /one
 /two
 /three
 /four
 /five
 /six
 /seven
 /eight
 /nine
 /colon
 /semicolon
 /less
 /equal
 /greater
 /question
 /at
 /A
 /B
 /C
 /D
 /E
 /F
 /G
 /H
 /I
 /J
 /K
 /L
 /M
 /N
 /O
 /P
 /Q
 /R
 /S
 /T
 /U
 /V
 /W
 /X
 /Y
 /Z
 /bracketleft
 /backslash
 /bracketright
 /asciicircum
 /underscore
 /grave
 /a
 /b
 /c
 /d
 /e
 /f
 /g
 /h
 /i
 /j
 /k
 /l
 /m
 /n
 /o
 /p
 /q
 /r
 /s
 /t
 /u
 /v
 /w
 /x
 /y
 /z
 /braceleft
 /bar
 /braceright
 /asciitilde
 /.notdef
 /.notdef
 /.notdef
 /.notdef
 /.notdef
 /.notdef
 /.notdef
 /.notdef
 /.notdef
 /.notdef
 /.notdef
 /.notdef
 /.notdef
 /.notdef
 /.notdef
 /.notdef
 /.notdef
 /.notdef
 /.notdef
 /.notdef
 /.notdef
 /.notdef
 /.notdef
 /.notdef
 /.notdef
 /.notdef
 /.notdef
 /.notdef
 /.notdef
 /.notdef
 /.notdef
 /.notdef
 /.notdef
 /space
 /exclamdown
 /cent
 /sterling
 /currency
 /yen
 /brokenbar
 /section
 /dieresis
 /copyright
 /ordfeminine
 /guillemotleft
 /logicalnot
 /hyphen
 /registered
 /macron
 /degree
 /plusminus
 /twosuperior
 /threesuperior
 /acute
 /mu
 /paragraph
 /periodcentered
 /cedilla
 /onesuperior
 /ordmasculine
 /guillemotright
 /onequarter
 /onehalf
 /threequarters
 /questiondown
 /Agrave
 /Aacute
 /Acircumflex
 /Atilde
 /Adieresis
 /Aring
 /AE
 /Ccedilla
 /Egrave
 /Eacute
 /Ecircumflex
 /Edieresis
 /Igrave
 /Iacute
 /Icircumflex
 /Idieresis
 /Eth
 /Ntilde
 /Ograve
 /Oacute
 /Ocircumflex
 /Otilde
 /Odieresis
 /multiply
 /Oslash
 /Ugrave
 /Uacute
 /Ucircumflex
 /Udieresis
 /Yacute
 /Thorn
 /germandbls
 /agrave
 /aacute
 /acircumflex
 /atilde
 /adieresis
 /aring
 /ae
 /ccedilla
 /egrave
 /eacute
 /ecircumflex
 /edieresis
 /igrave
 /iacute
 /icircumflex
 /idieresis
 /eth
 /ntilde
 /ograve
 /oacute
 /ocircumflex
 /otilde
 /odieresis
 /divide
 /oslash
 /ugrave
 /uacute
 /ucircumflex
 /udieresis
 /yacute
 /thorn
 /ydieresis
] def
%%EndProlog
%%BeginSetup
%%EndSetup
600.00 600.00 scale
n
0.0000 0.0000 m
0.0000 1.0000 l
1.2884 1.0000 l
1.2884 0.0000 l
c
[/DeviceRGB] SCS
Color0 SC
fill
[/DeviceRGB] SCS
Color1 SC
[] 0 SD
0.0015 SLW
0 SLC
0 SLJ
n
0.2071 0.1695 m
0.2071 0.1795 l
s
n
0.1971 0.1795 m
0.2171 0.1795 l
s
n
0.2071 0.1695 m
0.2071 0.1596 l
s
n
0.2171 0.1596 m
0.1971 0.1596 l
s
n
0.2683 0.1695 m
0.2683 0.1800 l
s
n
0.2583 0.1800 m
0.2783 0.1800 l
s
n
0.2683 0.1695 m
0.2683 0.1591 l
s
n
0.2783 0.1591 m
0.2583 0.1591 l
s
n
0.3294 0.1695 m
0.3294 0.1797 l
s
n
0.3194 0.1797 m
0.3394 0.1797 l
s
n
0.3294 0.1695 m
0.3294 0.1593 l
s
n
0.3394 0.1593 m
0.3194 0.1593 l
s
n
0.3906 0.1788 m
0.3906 0.1908 l
s
n
0.3806 0.1908 m
0.4006 0.1908 l
s
n
0.3906 0.1788 m
0.3906 0.1669 l
s
n
0.4006 0.1669 m
0.3806 0.1669 l
s
n
0.4273 0.1882 m
0.4273 0.1994 l
s
n
0.4173 0.1994 m
0.4373 0.1994 l
s
n
0.4273 0.1882 m
0.4273 0.1769 l
s
n
0.4373 0.1769 m
0.4173 0.1769 l
s
n
0.4518 0.1882 m
0.4518 0.1977 l
s
n
0.4418 0.1977 m
0.4618 0.1977 l
s
n
0.4518 0.1882 m
0.4518 0.1786 l
s
n
0.4618 0.1786 m
0.4418 0.1786 l
s
n
0.4762 0.1882 m
0.4762 0.1978 l
s
n
0.4662 0.1978 m
0.4862 0.1978 l
s
n
0.4762 0.1882 m
0.4762 0.1785 l
s
n
0.4862 0.1785 m
0.4662 0.1785 l
s
n
0.5252 0.1882 m
0.5252 0.1992 l
s
n
0.5152 0.1992 m
0.5352 0.1992 l
s
n
0.5252 0.1882 m
0.5252 0.1771 l
s
n
0.5352 0.1771 m
0.5152 0.1771 l
s
n
0.5497 0.1975 m
0.5497 0.2093 l
s
n
0.5397 0.2093 m
0.5597 0.2093 l
s
n
0.5497 0.1975 m
0.5497 0.1857 l
s
n
0.5597 0.1857 m
0.5397 0.1857 l
s
n
0.5741 0.1975 m
0.5741 0.2091 l
s
n
0.5641 0.2091 m
0.5841 0.2091 l
s
n
0.5741 0.1975 m
0.5741 0.1858 l
s
n
0.5841 0.1858 m
0.5641 0.1858 l
s
n
0.5986 0.2068 m
0.5986 0.2184 l
s
n
0.5886 0.2184 m
0.6086 0.2184 l
s
n
0.5986 0.2068 m
0.5986 0.1951 l
s
n
0.6086 0.1951 m
0.5886 0.1951 l
s
n
0.6231 0.2068 m
0.6231 0.2180 l
s
n
0.6131 0.2180 m
0.6331 0.2180 l
s
n
0.6231 0.2068 m
0.6231 0.1955 l
s
n
0.6331 0.1955 m
0.6131 0.1955 l
s
n
0.6475 0.2161 m
0.6475 0.2283 l
s
n
0.6375 0.2283 m
0.6575 0.2283 l
s
n
0.6475 0.2161 m
0.6475 0.2039 l
s
n
0.6575 0.2039 m
0.6375 0.2039 l
s
n
0.6720 0.2254 m
0.6720 0.2494 l
s
n
0.6620 0.2494 m
0.6820 0.2494 l
s
n
0.6720 0.2254 m
0.6720 0.2013 l
s
n
0.6820 0.2013 m
0.6620 0.2013 l
s
n
0.6903 0.2812 m
0.6903 0.3514 l
s
n
0.6803 0.3514 m
0.7003 0.3514 l
s
n
0.6903 0.2812 m
0.6903 0.2110 l
s
n
0.7003 0.2110 m
0.6803 0.2110 l
s
n
0.7209 0.4488 m
0.7209 0.5105 l
s
n
0.7109 0.5105 m
0.7309 0.5105 l
s
n
0.7209 0.4488 m
0.7209 0.3871 l
s
n
0.7309 0.3871 m
0.7109 0.3871 l
s
n
0.7454 0.5419 m
0.7454 0.6560 l
s
n
0.7354 0.6560 m
0.7554 0.6560 l
s
n
0.7454 0.5419 m
0.7454 0.4277 l
s
n
0.7554 0.4277 m
0.7354 0.4277 l
s
n
0.7699 0.8211 m
0.7699 0.8501 l
s
n
0.7699 0.8211 m
0.7699 0.7490 l
s
n
0.7799 0.7490 m
0.7599 0.7490 l
s
n
0.8066 0.8304 m
0.8066 0.8469 l
s
n
0.7966 0.8469 m
0.8166 0.8469 l
s
n
0.8066 0.8304 m
0.8066 0.8140 l
s
n
0.8166 0.8140 m
0.7966 0.8140 l
s
n
0.8310 0.8304 m
0.8310 0.8400 l
s
n
0.8210 0.8400 m
0.8410 0.8400 l
s
n
0.8310 0.8304 m
0.8310 0.8208 l
s
n
0.8410 0.8208 m
0.8210 0.8208 l
s
n
0.8677 0.8304 m
0.8677 0.8397 l
s
n
0.8577 0.8397 m
0.8777 0.8397 l
s
n
0.8677 0.8304 m
0.8677 0.8211 l
s
n
0.8777 0.8211 m
0.8577 0.8211 l
s
n
0.9044 0.8304 m
0.9044 0.8397 l
s
n
0.8944 0.8397 m
0.9144 0.8397 l
s
n
0.9044 0.8304 m
0.9044 0.8211 l
s
n
0.9144 0.8211 m
0.8944 0.8211 l
s
n
0.9656 0.8304 m
0.9656 0.8397 l
s
n
0.9556 0.8397 m
0.9756 0.8397 l
s
n
0.9656 0.8304 m
0.9656 0.8211 l
s
n
0.9756 0.8211 m
0.9556 0.8211 l
s
n
1.0145 0.8304 m
1.0145 0.8397 l
s
n
1.0045 0.8397 m
1.0245 0.8397 l
s
n
1.0145 0.8304 m
1.0145 0.8211 l
s
n
1.0245 0.8211 m
1.0045 0.8211 l
s
[] 0 SD
0.0030 SLW
n 0.2071 0.1695 0.0010 0.0010 0 360 EARC s
n 0.2683 0.1695 0.0010 0.0010 0 360 EARC s
n 0.3294 0.1695 0.0010 0.0010 0 360 EARC s
n 0.3906 0.1788 0.0010 0.0010 0 360 EARC s
n 0.4273 0.1882 0.0010 0.0010 0 360 EARC s
n 0.4518 0.1882 0.0010 0.0010 0 360 EARC s
n 0.4762 0.1882 0.0010 0.0010 0 360 EARC s
n 0.5252 0.1882 0.0010 0.0010 0 360 EARC s
n 0.5497 0.1975 0.0010 0.0010 0 360 EARC s
n 0.5741 0.1975 0.0010 0.0010 0 360 EARC s
n 0.5986 0.2068 0.0010 0.0010 0 360 EARC s
n 0.6231 0.2068 0.0010 0.0010 0 360 EARC s
n 0.6475 0.2161 0.0010 0.0010 0 360 EARC s
n 0.6720 0.2254 0.0010 0.0010 0 360 EARC s
n 0.6903 0.2812 0.0010 0.0010 0 360 EARC s
n 0.7209 0.4488 0.0010 0.0010 0 360 EARC s
n 0.7454 0.5419 0.0010 0.0010 0 360 EARC s
n 0.7699 0.8211 0.0010 0.0010 0 360 EARC s
n 0.8066 0.8304 0.0010 0.0010 0 360 EARC s
n 0.8310 0.8304 0.0010 0.0010 0 360 EARC s
n 0.8677 0.8304 0.0010 0.0010 0 360 EARC s
n 0.9044 0.8304 0.0010 0.0010 0 360 EARC s
n 0.9656 0.8304 0.0010 0.0010 0 360 EARC s
n 1.0145 0.8304 0.0010 0.0010 0 360 EARC s
[/DeviceRGB] SCS
Color2 SC
[] 0 SD
0.0015 SLW
n
0.1832 0.1804 m
0.1867 0.1804 l
0.1901 0.1805 l
0.1935 0.1805 l
0.1970 0.1805 l
0.2004 0.1806 l
0.2038 0.1806 l
0.2073 0.1806 l
0.2107 0.1807 l
0.2142 0.1807 l
0.2176 0.1808 l
0.2210 0.1808 l
0.2245 0.1808 l
0.2279 0.1809 l
0.2313 0.1809 l
0.2348 0.1810 l
0.2382 0.1810 l
0.2416 0.1810 l
0.2451 0.1811 l
0.2485 0.1811 l
0.2519 0.1812 l
0.2554 0.1812 l
0.2588 0.1812 l
0.2622 0.1813 l
0.2657 0.1813 l
0.2691 0.1814 l
0.2725 0.1814 l
0.2760 0.1815 l
0.2794 0.1815 l
0.2828 0.1816 l
0.2863 0.1816 l
0.2897 0.1817 l
0.2931 0.1817 l
0.2966 0.1818 l
0.3000 0.1818 l
0.3034 0.1819 l
0.3069 0.1819 l
0.3103 0.1820 l
0.3137 0.1820 l
0.3172 0.1821 l
0.3206 0.1822 l
0.3241 0.1822 l
0.3275 0.1823 l
0.3309 0.1823 l
0.3344 0.1824 l
0.3378 0.1825 l
0.3412 0.1825 l
0.3447 0.1826 l
0.3481 0.1827 l
0.3515 0.1827 l
0.3550 0.1828 l
0.3584 0.1829 l
0.3618 0.1829 l
0.3653 0.1830 l
0.3687 0.1831 l
0.3721 0.1832 l
0.3756 0.1832 l
0.3790 0.1833 l
0.3824 0.1834 l
0.3859 0.1835 l
0.3893 0.1836 l
0.3927 0.1836 l
0.3962 0.1837 l
0.3996 0.1838 l
0.4030 0.1839 l
0.4065 0.1840 l
0.4099 0.1841 l
0.4133 0.1842 l
0.4168 0.1843 l
0.4202 0.1844 l
0.4237 0.1845 l
0.4271 0.1846 l
0.4305 0.1847 l
0.4340 0.1848 l
0.4374 0.1849 l
0.4408 0.1850 l
0.4443 0.1852 l
0.4477 0.1853 l
0.4511 0.1854 l
0.4546 0.1855 l
0.4580 0.1857 l
0.4614 0.1858 l
0.4649 0.1859 l
0.4683 0.1861 l
0.4717 0.1862 l
0.4752 0.1864 l
0.4786 0.1865 l
0.4820 0.1867 l
0.4855 0.1868 l
0.4889 0.1870 l
0.4923 0.1872 l
0.4958 0.1874 l
0.4992 0.1875 l
0.5026 0.1877 l
0.5061 0.1879 l
0.5095 0.1881 l
0.5129 0.1883 l
0.5164 0.1885 l
0.5198 0.1888 l
0.5233 0.1890 l
0.5267 0.1892 l
0.5301 0.1895 l
0.5336 0.1897 l
0.5370 0.1900 l
0.5404 0.1903 l
0.5439 0.1905 l
0.5473 0.1908 l
0.5507 0.1911 l
0.5542 0.1915 l
0.5576 0.1918 l
0.5610 0.1921 l
0.5645 0.1925 l
0.5679 0.1929 l
0.5713 0.1933 l
0.5748 0.1937 l
0.5782 0.1941 l
0.5816 0.1945 l
0.5851 0.1950 l
0.5885 0.1955 l
0.5919 0.1960 l
0.5954 0.1966 l
0.5988 0.1971 l
0.6022 0.1977 l
0.6057 0.1984 l
0.6091 0.1991 l
0.6125 0.1998 l
0.6160 0.2006 l
0.6194 0.2014 l
0.6228 0.2022 l
0.6263 0.2032 l
0.6297 0.2042 l
0.6331 0.2052 l
0.6366 0.2064 l
0.6400 0.2076 l
0.6434 0.2090 l
0.6469 0.2105 l
0.6503 0.2121 l
0.6538 0.2138 l
0.6572 0.2157 l
0.6606 0.2179 l
0.6641 0.2202 l
0.6675 0.2229 l
0.6709 0.2258 l
0.6744 0.2292 l
0.6778 0.2330 l
0.6812 0.2373 l
0.6847 0.2424 l
0.6881 0.2483 l
0.6915 0.2554 l
0.6950 0.2638 l
0.6984 0.2741 l
0.7018 0.2869 l
0.7053 0.3031 l
0.7087 0.3238 l
0.7121 0.3508 l
0.7156 0.3860 l
0.7190 0.4309 l
0.7224 0.4845 l
0.7259 0.5415 l
0.7293 0.5945 l
0.7327 0.6385 l
0.7362 0.6730 l
0.7396 0.6994 l
0.7430 0.7196 l
0.7465 0.7354 l
0.7499 0.7480 l
0.7533 0.7581 l
0.7568 0.7664 l
0.7602 0.7734 l
0.7636 0.7792 l
0.7671 0.7842 l
0.7705 0.7885 l
0.7739 0.7923 l
0.7774 0.7956 l
0.7808 0.7985 l
0.7843 0.8011 l
0.7877 0.8035 l
0.7911 0.8056 l
0.7946 0.8075 l
0.7980 0.8092 l
0.8014 0.8108 l
0.8049 0.8123 l
0.8083 0.8136 l
0.8117 0.8148 l
0.8152 0.8160 l
0.8186 0.8171 l
0.8220 0.8181 l
0.8255 0.8190 l
0.8289 0.8198 l
0.8323 0.8207 l
0.8358 0.8214 l
0.8392 0.8221 l
0.8426 0.8228 l
0.8461 0.8235 l
0.8495 0.8241 l
0.8529 0.8246 l
0.8564 0.8252 l
0.8598 0.8257 l
0.8632 0.8262 l
0.8667 0.8267 l
0.8701 0.8271 l
0.8735 0.8275 l
0.8770 0.8279 l
0.8804 0.8283 l
0.8838 0.8287 l
0.8873 0.8290 l
0.8907 0.8294 l
0.8942 0.8297 l
0.8976 0.8300 l
0.9010 0.8303 l
0.9045 0.8306 l
0.9079 0.8309 l
0.9113 0.8312 l
0.9148 0.8314 l
0.9182 0.8317 l
0.9216 0.8319 l
0.9251 0.8322 l
0.9285 0.8324 l
0.9319 0.8326 l
0.9354 0.8328 l
0.9388 0.8330 l
0.9422 0.8332 l
0.9457 0.8334 l
0.9491 0.8336 l
0.9525 0.8338 l
0.9560 0.8340 l
0.9594 0.8341 l
0.9628 0.8343 l
0.9663 0.8345 l
0.9697 0.8346 l
0.9731 0.8348 l
0.9766 0.8349 l
0.9800 0.8351 l
0.9834 0.8352 l
0.9869 0.8354 l
0.9903 0.8355 l
0.9938 0.8356 l
0.9972 0.8357 l
1.0006 0.8359 l
1.0041 0.8360 l
1.0075 0.8361 l
1.0109 0.8362 l
1.0144 0.8363 l
1.0178 0.8364 l
1.0212 0.8366 l
1.0247 0.8367 l
1.0281 0.8368 l
1.0315 0.8369 l
1.0350 0.8370 l
1.0384 0.8371 l
s
[/DeviceRGB] SCS
Color1 SC
[] 0 SD
0.0030 SLW
n
0.1832 0.1804 m
0.1867 0.1804 l
0.1901 0.1805 l
0.1935 0.1805 l
0.1970 0.1805 l
0.2004 0.1806 l
0.2038 0.1806 l
0.2073 0.1806 l
0.2107 0.1807 l
0.2142 0.1807 l
0.2176 0.1808 l
0.2210 0.1808 l
0.2245 0.1808 l
0.2279 0.1809 l
0.2313 0.1809 l
0.2348 0.1810 l
0.2382 0.1810 l
0.2416 0.1810 l
0.2451 0.1811 l
0.2485 0.1811 l
0.2519 0.1812 l
0.2554 0.1812 l
0.2588 0.1812 l
0.2622 0.1813 l
0.2657 0.1813 l
0.2691 0.1814 l
0.2725 0.1814 l
0.2760 0.1815 l
0.2794 0.1815 l
0.2828 0.1816 l
0.2863 0.1816 l
0.2897 0.1817 l
0.2931 0.1817 l
0.2966 0.1818 l
0.3000 0.1818 l
0.3034 0.1819 l
0.3069 0.1819 l
0.3103 0.1820 l
0.3137 0.1820 l
0.3172 0.1821 l
0.3206 0.1822 l
0.3241 0.1822 l
0.3275 0.1823 l
0.3309 0.1823 l
0.3344 0.1824 l
0.3378 0.1825 l
0.3412 0.1825 l
0.3447 0.1826 l
0.3481 0.1827 l
0.3515 0.1827 l
0.3550 0.1828 l
0.3584 0.1829 l
0.3618 0.1829 l
0.3653 0.1830 l
0.3687 0.1831 l
0.3721 0.1832 l
0.3756 0.1832 l
0.3790 0.1833 l
0.3824 0.1834 l
0.3859 0.1835 l
0.3893 0.1836 l
0.3927 0.1836 l
0.3962 0.1837 l
0.3996 0.1838 l
0.4030 0.1839 l
0.4065 0.1840 l
0.4099 0.1841 l
0.4133 0.1842 l
0.4168 0.1843 l
0.4202 0.1844 l
0.4237 0.1845 l
0.4271 0.1846 l
0.4305 0.1847 l
0.4340 0.1848 l
0.4374 0.1849 l
0.4408 0.1850 l
0.4443 0.1852 l
0.4477 0.1853 l
0.4511 0.1854 l
0.4546 0.1855 l
0.4580 0.1857 l
0.4614 0.1858 l
0.4649 0.1859 l
0.4683 0.1861 l
0.4717 0.1862 l
0.4752 0.1864 l
0.4786 0.1865 l
0.4820 0.1867 l
0.4855 0.1868 l
0.4889 0.1870 l
0.4923 0.1872 l
0.4958 0.1874 l
0.4992 0.1875 l
0.5026 0.1877 l
0.5061 0.1879 l
0.5095 0.1881 l
0.5129 0.1883 l
0.5164 0.1885 l
0.5198 0.1888 l
0.5233 0.1890 l
0.5267 0.1892 l
0.5301 0.1895 l
0.5336 0.1897 l
0.5370 0.1900 l
0.5404 0.1903 l
0.5439 0.1905 l
0.5473 0.1908 l
0.5507 0.1911 l
0.5542 0.1915 l
0.5576 0.1918 l
0.5610 0.1921 l
0.5645 0.1925 l
0.5679 0.1929 l
0.5713 0.1933 l
0.5748 0.1937 l
0.5782 0.1941 l
0.5816 0.1945 l
0.5851 0.1950 l
0.5885 0.1955 l
0.5919 0.1960 l
0.5954 0.1966 l
0.5988 0.1971 l
0.6022 0.1977 l
0.6057 0.1984 l
0.6091 0.1991 l
0.6125 0.1998 l
0.6160 0.2006 l
0.6194 0.2014 l
0.6228 0.2022 l
0.6263 0.2032 l
0.6297 0.2042 l
0.6331 0.2052 l
0.6366 0.2064 l
0.6400 0.2076 l
0.6434 0.2090 l
0.6469 0.2105 l
0.6503 0.2121 l
0.6538 0.2138 l
0.6572 0.2157 l
0.6606 0.2179 l
0.6641 0.2202 l
0.6675 0.2229 l
0.6709 0.2258 l
0.6744 0.2292 l
0.6778 0.2330 l
0.6812 0.2373 l
0.6847 0.2424 l
0.6881 0.2483 l
0.6915 0.2554 l
0.6950 0.2638 l
0.6984 0.2741 l
0.7018 0.2869 l
0.7053 0.3031 l
0.7087 0.3238 l
0.7121 0.3508 l
0.7156 0.3860 l
0.7190 0.4309 l
0.7224 0.4845 l
0.7259 0.5415 l
0.7293 0.5945 l
0.7327 0.6385 l
0.7362 0.6730 l
0.7396 0.6994 l
0.7430 0.7196 l
0.7465 0.7354 l
0.7499 0.7480 l
0.7533 0.7581 l
0.7568 0.7664 l
0.7602 0.7734 l
0.7636 0.7792 l
0.7671 0.7842 l
0.7705 0.7885 l
0.7739 0.7923 l
0.7774 0.7956 l
0.7808 0.7985 l
0.7843 0.8011 l
0.7877 0.8035 l
0.7911 0.8056 l
0.7946 0.8075 l
0.7980 0.8092 l
0.8014 0.8108 l
0.8049 0.8123 l
0.8083 0.8136 l
0.8117 0.8148 l
0.8152 0.8160 l
0.8186 0.8171 l
0.8220 0.8181 l
0.8255 0.8190 l
0.8289 0.8198 l
0.8323 0.8207 l
0.8358 0.8214 l
0.8392 0.8221 l
0.8426 0.8228 l
0.8461 0.8235 l
0.8495 0.8241 l
0.8529 0.8246 l
0.8564 0.8252 l
0.8598 0.8257 l
0.8632 0.8262 l
0.8667 0.8267 l
0.8701 0.8271 l
0.8735 0.8275 l
0.8770 0.8279 l
0.8804 0.8283 l
0.8838 0.8287 l
0.8873 0.8290 l
0.8907 0.8294 l
0.8942 0.8297 l
0.8976 0.8300 l
0.9010 0.8303 l
0.9045 0.8306 l
0.9079 0.8309 l
0.9113 0.8312 l
0.9148 0.8314 l
0.9182 0.8317 l
0.9216 0.8319 l
0.9251 0.8322 l
0.9285 0.8324 l
0.9319 0.8326 l
0.9354 0.8328 l
0.9388 0.8330 l
0.9422 0.8332 l
0.9457 0.8334 l
0.9491 0.8336 l
0.9525 0.8338 l
0.9560 0.8340 l
0.9594 0.8341 l
0.9628 0.8343 l
0.9663 0.8345 l
0.9697 0.8346 l
0.9731 0.8348 l
0.9766 0.8349 l
0.9800 0.8351 l
0.9834 0.8352 l
0.9869 0.8354 l
0.9903 0.8355 l
0.9938 0.8356 l
0.9972 0.8357 l
1.0006 0.8359 l
1.0041 0.8360 l
1.0075 0.8361 l
1.0109 0.8362 l
1.0144 0.8363 l
1.0178 0.8364 l
1.0212 0.8366 l
1.0247 0.8367 l
1.0281 0.8368 l
1.0315 0.8369 l
1.0350 0.8370 l
1.0384 0.8371 l
s
n
0.1949 0.1500 m
0.1949 0.1700 l
s
n
0.1949 0.8500 m
0.1949 0.8300 l
s
n
0.3661 0.1500 m
0.3661 0.1700 l
s
n
0.3661 0.8500 m
0.3661 0.8300 l
s
n
0.5374 0.1500 m
0.5374 0.1700 l
s
n
0.5374 0.8500 m
0.5374 0.8300 l
s
n
0.7087 0.1500 m
0.7087 0.1700 l
s
n
0.7087 0.8500 m
0.7087 0.8300 l
s
n
0.8800 0.1500 m
0.8800 0.1700 l
s
n
0.8800 0.8500 m
0.8800 0.8300 l
s
n
0.2805 0.1500 m
0.2805 0.1800 l
s
n
0.2805 0.8500 m
0.2805 0.8200 l
s
n
0.4518 0.1500 m
0.4518 0.1800 l
s
n
0.4518 0.8500 m
0.4518 0.8200 l
s
n
0.6231 0.1500 m
0.6231 0.1800 l
s
n
0.6231 0.8500 m
0.6231 0.8200 l
s
n
0.7943 0.1500 m
0.7943 0.1800 l
s
n
0.7943 0.8500 m
0.7943 0.8200 l
s
n
0.9656 0.1500 m
0.9656 0.1800 l
s
n
0.9656 0.8500 m
0.9656 0.8200 l
s
/Helvetica findfont
dup length dict begin
 {1 index /FID ne {def} {pop pop} ifelse} forall
 /Encoding DefEncoding def
 currentdict
end
/Font12 exch definefont pop
/Font12 FFSF
0.2405 0.1104 m
GS
[0.0420 0.0000 0.0000 0.0420 0 0] CC
(1.26) show
GR
/Font12 FFSF
0.4118 0.1104 m
GS
[0.0420 0.0000 0.0000 0.0420 0 0] CC
(1.40) show
GR
/Font12 FFSF
0.5829 0.1104 m
GS
[0.0420 0.0000 0.0000 0.0420 0 0] CC
(1.54) show
GR
/Font12 FFSF
0.7543 0.1104 m
GS
[0.0420 0.0000 0.0000 0.0420 0 0] CC
(1.68) show
GR
/Font12 FFSF
0.9256 0.1104 m
GS
[0.0420 0.0000 0.0000 0.0420 0 0] CC
(1.82) show
GR
/Font12 FFSF
0.5670 0.0684 m
GS
[0.0420 0.0000 0.0000 0.0420 0 0] CC
(f\(Hz\)) show
GR
n
0.1832 0.2142 m
0.2032 0.2142 l
s
n
1.0384 0.2142 m
1.0184 0.2142 l
s
n
0.1832 0.3557 m
0.2032 0.3557 l
s
n
1.0384 0.3557 m
1.0184 0.3557 l
s
n
0.1832 0.4972 m
0.2032 0.4972 l
s
n
1.0384 0.4972 m
1.0184 0.4972 l
s
n
0.1832 0.6387 m
0.2032 0.6387 l
s
n
1.0384 0.6387 m
1.0184 0.6387 l
s
n
0.1832 0.7802 m
0.2032 0.7802 l
s
n
1.0384 0.7802 m
1.0184 0.7802 l
s
n
0.1832 0.2850 m
0.2132 0.2850 l
s
n
1.0384 0.2850 m
1.0084 0.2850 l
s
n
0.1832 0.4264 m
0.2132 0.4264 l
s
n
1.0384 0.4264 m
1.0084 0.4264 l
s
n
0.1832 0.5679 m
0.2132 0.5679 l
s
n
1.0384 0.5679 m
1.0084 0.5679 l
s
n
0.1832 0.7094 m
0.2132 0.7094 l
s
n
1.0384 0.7094 m
1.0084 0.7094 l
s
/Font12 FFSF
0.1284 0.2706 m
GS
[0.0420 0.0000 0.0000 0.0420 0 0] CC
(76) show
GR
/Font12 FFSF
0.1044 0.4116 m
GS
[0.0420 0.0000 0.0000 0.0420 0 0] CC
(114) show
GR
/Font12 FFSF
0.1048 0.5535 m
GS
[0.0420 0.0000 0.0000 0.0420 0 0] CC
(152) show
GR
/Font12 FFSF
0.1048 0.6950 m
GS
[0.0420 0.0000 0.0000 0.0420 0 0] CC
(190) show
GR
/Symbol findfont
/Font28 exch definefont pop
/Font28 FFSF
0.0852 0.4090 m
GS
[0.0000 0.0420 -0.0420 0.0000 0 0] CC
(a) show
GR
/Font12 FFSF
0.0852 0.4354 m
GS
[0.0000 0.0420 -0.0420 0.0000 0 0] CC
(\(degree\)) show
GR
n
0.1832 0.1500 m
0.1832 0.8500 l
1.0384 0.8500 l
1.0384 0.1500 l
0.1832 0.1500 l
c
s
%%Trailer
%%BoundingBox: 31 34 625 512
%%DocumentNeededResources: font Helvetica
%%+ font Symbol
%%EOF
