%!PS-Adobe-3.0 EPSF-3.0
%%BoundingBox: (atend)
%%LanguageLevel: 2
%%Creator: Grace-5.1.22
%%CreationDate: Wed Oct 15 22:56:21 2014
%%DocumentData: Clean8Bit
%%Orientation: Portrait
%%Title: fit-gph-4.agr
%%For: wfr
%%DocumentNeededResources: (atend)
%%EndComments
%%BeginProlog
/m {moveto} def
/l {lineto} def
/s {stroke} def
/n {newpath} def
/c {closepath} def
/RL {rlineto} def
/SLW {setlinewidth} def
/GS {gsave} def
/GR {grestore} def
/SC {setcolor} def
/SGRY {setgray} def
/SRGB {setrgbcolor} def
/SD {setdash} def
/SLC {setlinecap} def
/SLJ {setlinejoin} def
/SCS {setcolorspace} def
/FFSF {findfont setfont} def
/CC {concat} def
/PXL {n m 0 0 RL s} def
/Color0 {1.0000 1.0000 1.0000} def
/Color1 {0.0000 0.0000 0.0000} def
/Color2 {1.0000 0.0000 0.0000} def
/Color3 {0.0000 1.0000 0.0000} def
/Color4 {0.0000 0.0000 1.0000} def
/Color5 {1.0000 1.0000 0.0000} def
/Color6 {0.7373 0.5608 0.5608} def
/Color7 {0.8627 0.8627 0.8627} def
/Color8 {0.5804 0.0000 0.8275} def
/Color9 {0.0000 1.0000 1.0000} def
/Color10 {1.0000 0.0000 1.0000} def
/Color11 {1.0000 0.6471 0.0000} def
/Color12 {0.4471 0.1294 0.7373} def
/Color13 {0.4039 0.0275 0.2824} def
/Color14 {0.2510 0.8784 0.8157} def
/Color15 {0.0000 0.5451 0.0000} def
/PTRN {
 /pat_bits exch def 
 <<
  /PaintType 2
  /PatternType 1 /TilingType 1
  /BBox[0 0 16 16]
  /XStep 16 /YStep 16
  /PaintProc {
   pop
   16 16 true [-1 0 0 -1 16 16] pat_bits imagemask
  }
 >>
 [0.0017 0 0 0.0017 0 0]
 makepattern
} def
/Pattern0 {<0000000000000000000000000000000000000000000000000000000000000000> PTRN} bind def
/Pattern1 {<ffffffffffffffffffffffffffffffffffffffffffffffffffffffffffffffff> PTRN} bind def
/Pattern2 {<eeeeffffbbbbffffeeeeffffbbbbffffeeeeffffbbbbffffeeeeffffbbbbffff> PTRN} bind def
/Pattern3 {<eeeebbbbeeeebbbbeeeebbbbeeeebbbbeeeebbbbeeeebbbbeeeebbbbeeeebbbb> PTRN} bind def
/Pattern4 {<5555aaaa5555aaaa5555aaaa5555aaaa5555aaaa5555aaaa5555aaaa5555aaaa> PTRN} bind def
/Pattern5 {<1111444411114444111144441111444411114444111144441111444411114444> PTRN} bind def
/Pattern6 {<1111000044440000111100004444000011110000444400001111000044440000> PTRN} bind def
/Pattern7 {<1010000000000000010100000000000010100000000000000101000000000000> PTRN} bind def
/Pattern8 {<0000000000000000000000000000000000000000000000000000000000000000> PTRN} bind def
/Pattern9 {<1e1e0f0f8787c3c3e1e1f0f078783c3c1e1e0f0f8787c3c3e1e1f0f078783c3c> PTRN} bind def
/Pattern10 {<7878f0f0e1e1c3c387870f0f1e1e3c3c7878f0f0e1e1c3c387870f0f1e1e3c3c> PTRN} bind def
/Pattern11 {<3333333333333333333333333333333333333333333333333333333333333333> PTRN} bind def
/Pattern12 {<ffffffff00000000ffffffff00000000ffffffff00000000ffffffff00000000> PTRN} bind def
/Pattern13 {<8181424224241818181824244242818181814242242418181818242442428181> PTRN} bind def
/Pattern14 {<8080404020201010080804040202010180804040202010100808040402020101> PTRN} bind def
/Pattern15 {<0101020204040808101020204040808001010202040408081010202040408080> PTRN} bind def
/Pattern16 {<2222222222222222222222222222222222222222222222222222222222222222> PTRN} bind def
/Pattern17 {<0000ffff000000000000ffff000000000000ffff000000000000ffff00000000> PTRN} bind def
/Pattern18 {<2222ffff222222222222ffff222222222222ffff222222222222ffff22222222> PTRN} bind def
/Pattern19 {<ffffffff33333333ffffffff33333333ffffffff33333333ffffffff33333333> PTRN} bind def
/Pattern20 {<0f0f0f0f0f0f0f0ff0f0f0f0f0f0f0f00f0f0f0f0f0f0f0ff0f0f0f0f0f0f0f0> PTRN} bind def
/Pattern21 {<ff00ff00ff00ff00ff00ff00ff00ff0000ff00ff00ff00ff00ff00ff00ff00ff> PTRN} bind def
/Pattern22 {<8001800180018001800180018001ffffffff8001800180018001800180018001> PTRN} bind def
/Pattern23 {<c003c003c003c003c003c003ffffffffffffffffc003c003c003c003c003c003> PTRN} bind def
/Pattern24 {<040404040404ffff404040404040ffff040404040404ffff404040404040ffff> PTRN} bind def
/Pattern25 {<180018001800180018001800ffffffff001800180018001800180018ffffffff> PTRN} bind def
/Pattern26 {<1111b8b87c7c3a3a1111a3a3c7c78b8b1111b8b87c7c3a3a1111a3a3c7c78b8b> PTRN} bind def
/Pattern27 {<101010102828c7c70101010182827c7c101010102828c7c70101010182827c7c> PTRN} bind def
/Pattern28 {<1c1c121211112121c1c12121111112121c1c121211112121c1c1212111111212> PTRN} bind def
/Pattern29 {<3e3e414180808080e3e31414080808083e3e414180808080e3e3141408080808> PTRN} bind def
/Pattern30 {<4848888884848383848488884848383848488888848483838484888848483838> PTRN} bind def
/Pattern31 {<03030404080808080c0c12122121c0c003030404080808080c0c12122121c0c0> PTRN} bind def
/ellipsedict 8 dict def
ellipsedict /mtrx matrix put
/EARC {
 ellipsedict begin
  /endangle exch def
  /startangle exch def
  /yrad exch def
  /xrad exch def
  /y exch def
  /x exch def
  /savematrix mtrx currentmatrix def
  x y translate
  xrad yrad scale
  0 0 1 startangle endangle arc
  savematrix setmatrix
 end
} def
/TL {
  /kcomp exch def
  /linewidth exch def
  /offset exch def
  GS
  0 offset rmoveto
  linewidth SLW
  dup stringwidth exch kcomp add exch RL s
  GR
} def
/KINIT
{
 /kvector exch def
 /kid 0 def
} def
/KPROC
{
 pop pop
 kvector kid get
 0 rmoveto
 /kid 1 kid add def
} def
/DefEncoding [
 /.notdef
 /.notdef
 /.notdef
 /.notdef
 /.notdef
 /.notdef
 /.notdef
 /.notdef
 /.notdef
 /.notdef
 /.notdef
 /.notdef
 /.notdef
 /.notdef
 /.notdef
 /.notdef
 /.notdef
 /.notdef
 /.notdef
 /.notdef
 /.notdef
 /.notdef
 /.notdef
 /.notdef
 /.notdef
 /.notdef
 /.notdef
 /.notdef
 /.notdef
 /.notdef
 /.notdef
 /.notdef
 /space
 /exclam
 /quotedbl
 /numbersign
 /dollar
 /percent
 /ampersand
 /quoteright
 /parenleft
 /parenright
 /asterisk
 /plus
 /comma
 /hyphen
 /period
 /slash
 /zero
 /one
 /two
 /three
 /four
 /five
 /six
 /seven
 /eight
 /nine
 /colon
 /semicolon
 /less
 /equal
 /greater
 /question
 /at
 /A
 /B
 /C
 /D
 /E
 /F
 /G
 /H
 /I
 /J
 /K
 /L
 /M
 /N
 /O
 /P
 /Q
 /R
 /S
 /T
 /U
 /V
 /W
 /X
 /Y
 /Z
 /bracketleft
 /backslash
 /bracketright
 /asciicircum
 /underscore
 /grave
 /a
 /b
 /c
 /d
 /e
 /f
 /g
 /h
 /i
 /j
 /k
 /l
 /m
 /n
 /o
 /p
 /q
 /r
 /s
 /t
 /u
 /v
 /w
 /x
 /y
 /z
 /braceleft
 /bar
 /braceright
 /asciitilde
 /.notdef
 /.notdef
 /.notdef
 /.notdef
 /.notdef
 /.notdef
 /.notdef
 /.notdef
 /.notdef
 /.notdef
 /.notdef
 /.notdef
 /.notdef
 /.notdef
 /.notdef
 /.notdef
 /.notdef
 /.notdef
 /.notdef
 /.notdef
 /.notdef
 /.notdef
 /.notdef
 /.notdef
 /.notdef
 /.notdef
 /.notdef
 /.notdef
 /.notdef
 /.notdef
 /.notdef
 /.notdef
 /.notdef
 /space
 /exclamdown
 /cent
 /sterling
 /currency
 /yen
 /brokenbar
 /section
 /dieresis
 /copyright
 /ordfeminine
 /guillemotleft
 /logicalnot
 /hyphen
 /registered
 /macron
 /degree
 /plusminus
 /twosuperior
 /threesuperior
 /acute
 /mu
 /paragraph
 /periodcentered
 /cedilla
 /onesuperior
 /ordmasculine
 /guillemotright
 /onequarter
 /onehalf
 /threequarters
 /questiondown
 /Agrave
 /Aacute
 /Acircumflex
 /Atilde
 /Adieresis
 /Aring
 /AE
 /Ccedilla
 /Egrave
 /Eacute
 /Ecircumflex
 /Edieresis
 /Igrave
 /Iacute
 /Icircumflex
 /Idieresis
 /Eth
 /Ntilde
 /Ograve
 /Oacute
 /Ocircumflex
 /Otilde
 /Odieresis
 /multiply
 /Oslash
 /Ugrave
 /Uacute
 /Ucircumflex
 /Udieresis
 /Yacute
 /Thorn
 /germandbls
 /agrave
 /aacute
 /acircumflex
 /atilde
 /adieresis
 /aring
 /ae
 /ccedilla
 /egrave
 /eacute
 /ecircumflex
 /edieresis
 /igrave
 /iacute
 /icircumflex
 /idieresis
 /eth
 /ntilde
 /ograve
 /oacute
 /ocircumflex
 /otilde
 /odieresis
 /divide
 /oslash
 /ugrave
 /uacute
 /ucircumflex
 /udieresis
 /yacute
 /thorn
 /ydieresis
] def
%%EndProlog
%%BeginSetup
%%EndSetup
600.00 600.00 scale
n
0.0000 0.0000 m
0.0000 1.0000 l
1.2884 1.0000 l
1.2884 0.0000 l
c
[/DeviceRGB] SCS
Color0 SC
fill
[/DeviceRGB] SCS
Color1 SC
[] 0 SD
0.0015 SLW
0 SLC
0 SLJ
n
0.2074 0.1698 m
0.2074 0.1855 l
s
n
0.1974 0.1855 m
0.2174 0.1855 l
s
n
0.2074 0.1698 m
0.2074 0.1542 l
s
n
0.2174 0.1542 m
0.1974 0.1542 l
s
n
0.2559 0.1698 m
0.2559 0.1883 l
s
n
0.2459 0.1883 m
0.2659 0.1883 l
s
n
0.2559 0.1698 m
0.2559 0.1513 l
s
n
0.2659 0.1513 m
0.2459 0.1513 l
s
n
0.2881 0.1801 m
0.2881 0.1936 l
s
n
0.2781 0.1936 m
0.2981 0.1936 l
s
n
0.2881 0.1801 m
0.2881 0.1667 l
s
n
0.2981 0.1667 m
0.2781 0.1667 l
s
n
0.3688 0.1904 m
0.3688 0.2031 l
s
n
0.3588 0.2031 m
0.3788 0.2031 l
s
n
0.3688 0.1904 m
0.3688 0.1778 l
s
n
0.3788 0.1778 m
0.3588 0.1778 l
s
n
0.4172 0.2008 m
0.4172 0.2153 l
s
n
0.4072 0.2153 m
0.4272 0.2153 l
s
n
0.4172 0.2008 m
0.4172 0.1863 l
s
n
0.4272 0.1863 m
0.4072 0.1863 l
s
n
0.4495 0.2111 m
0.4495 0.2276 l
s
n
0.4395 0.2276 m
0.4595 0.2276 l
s
n
0.4495 0.2111 m
0.4495 0.1946 l
s
n
0.4595 0.1946 m
0.4395 0.1946 l
s
n
0.4979 0.2317 m
0.4979 0.2500 l
s
n
0.4879 0.2500 m
0.5079 0.2500 l
s
n
0.4979 0.2317 m
0.4979 0.2134 l
s
n
0.5079 0.2134 m
0.4879 0.2134 l
s
n
0.5301 0.2523 m
0.5301 0.2755 l
s
n
0.5201 0.2755 m
0.5401 0.2755 l
s
n
0.5301 0.2523 m
0.5301 0.2292 l
s
n
0.5401 0.2292 m
0.5201 0.2292 l
s
n
0.5624 0.2833 m
0.5624 0.3116 l
s
n
0.5524 0.3116 m
0.5724 0.3116 l
s
n
0.5624 0.2833 m
0.5624 0.2550 l
s
n
0.5724 0.2550 m
0.5524 0.2550 l
s
n
0.6028 0.3349 m
0.6028 0.3692 l
s
n
0.5928 0.3692 m
0.6128 0.3692 l
s
n
0.6028 0.3349 m
0.6028 0.3006 l
s
n
0.6128 0.3006 m
0.5928 0.3006 l
s
n
0.6431 0.4071 m
0.6431 0.4567 l
s
n
0.6331 0.4567 m
0.6531 0.4567 l
s
n
0.6431 0.4071 m
0.6431 0.3575 l
s
n
0.6531 0.3575 m
0.6331 0.3575 l
s
n
0.6592 0.4690 m
0.6592 0.5460 l
s
n
0.6492 0.5460 m
0.6692 0.5460 l
s
n
0.6592 0.4690 m
0.6592 0.3920 l
s
n
0.6692 0.3920 m
0.6492 0.3920 l
s
n
0.6754 0.5309 m
0.6754 0.6007 l
s
n
0.6654 0.6007 m
0.6854 0.6007 l
s
n
0.6754 0.5309 m
0.6754 0.4612 l
s
n
0.6854 0.4612 m
0.6654 0.4612 l
s
n
0.7076 0.6444 m
0.7076 0.7084 l
s
n
0.6976 0.7084 m
0.7176 0.7084 l
s
n
0.7076 0.6444 m
0.7076 0.5805 l
s
n
0.7176 0.5805 m
0.6976 0.5805 l
s
n
0.7480 0.7682 m
0.7480 0.8280 l
s
n
0.7380 0.8280 m
0.7580 0.8280 l
s
n
0.7480 0.7682 m
0.7480 0.7085 l
s
n
0.7580 0.7085 m
0.7380 0.7085 l
s
n
0.7722 0.8198 m
0.7722 0.8384 l
s
n
0.7622 0.8384 m
0.7822 0.8384 l
s
n
0.7722 0.8198 m
0.7722 0.8012 l
s
n
0.7822 0.8012 m
0.7622 0.8012 l
s
n
0.8528 0.8302 m
0.8528 0.8406 l
s
n
0.8428 0.8406 m
0.8628 0.8406 l
s
n
0.8528 0.8302 m
0.8528 0.8197 l
s
n
0.8628 0.8197 m
0.8428 0.8197 l
s
n
0.9335 0.8302 m
0.9335 0.8495 l
s
n
0.9235 0.8495 m
0.9435 0.8495 l
s
n
0.9335 0.8302 m
0.9335 0.8108 l
s
n
0.9435 0.8108 m
0.9235 0.8108 l
s
n
1.0142 0.8302 m
1.0142 0.8412 l
s
n
1.0042 0.8412 m
1.0242 0.8412 l
s
n
1.0142 0.8302 m
1.0142 0.8191 l
s
n
1.0242 0.8191 m
1.0042 0.8191 l
s
[] 0 SD
0.0030 SLW
n 0.2074 0.1698 0.0050 0.0050 0 360 EARC s
n 0.2559 0.1698 0.0050 0.0050 0 360 EARC s
n 0.2881 0.1801 0.0050 0.0050 0 360 EARC s
n 0.3688 0.1904 0.0050 0.0050 0 360 EARC s
n 0.4172 0.2008 0.0050 0.0050 0 360 EARC s
n 0.4495 0.2111 0.0050 0.0050 0 360 EARC s
n 0.4979 0.2317 0.0050 0.0050 0 360 EARC s
n 0.5301 0.2523 0.0050 0.0050 0 360 EARC s
n 0.5624 0.2833 0.0050 0.0050 0 360 EARC s
n 0.6028 0.3349 0.0050 0.0050 0 360 EARC s
n 0.6431 0.4071 0.0050 0.0050 0 360 EARC s
n 0.6592 0.4690 0.0050 0.0050 0 360 EARC s
n 0.6754 0.5309 0.0050 0.0050 0 360 EARC s
n 0.7076 0.6444 0.0050 0.0050 0 360 EARC s
n 0.7480 0.7682 0.0050 0.0050 0 360 EARC s
n 0.7722 0.8198 0.0050 0.0050 0 360 EARC s
n 0.8528 0.8302 0.0050 0.0050 0 360 EARC s
n 0.9335 0.8302 0.0050 0.0050 0 360 EARC s
n 1.0142 0.8302 0.0050 0.0050 0 360 EARC s
[/DeviceRGB] SCS
Color2 SC
[] 0 SD
0.0015 SLW
n
0.1832 0.1743 m
0.1867 0.1745 l
0.1901 0.1747 l
0.1936 0.1750 l
0.1970 0.1752 l
0.2004 0.1754 l
0.2039 0.1757 l
0.2073 0.1759 l
0.2107 0.1761 l
0.2142 0.1764 l
0.2176 0.1766 l
0.2210 0.1769 l
0.2245 0.1772 l
0.2279 0.1774 l
0.2313 0.1777 l
0.2348 0.1780 l
0.2382 0.1782 l
0.2416 0.1785 l
0.2451 0.1788 l
0.2485 0.1791 l
0.2519 0.1794 l
0.2554 0.1797 l
0.2588 0.1800 l
0.2622 0.1803 l
0.2657 0.1806 l
0.2691 0.1809 l
0.2725 0.1813 l
0.2760 0.1816 l
0.2794 0.1819 l
0.2828 0.1823 l
0.2863 0.1826 l
0.2897 0.1830 l
0.2931 0.1833 l
0.2966 0.1837 l
0.3000 0.1841 l
0.3035 0.1845 l
0.3069 0.1849 l
0.3103 0.1853 l
0.3137 0.1857 l
0.3172 0.1861 l
0.3206 0.1865 l
0.3241 0.1869 l
0.3275 0.1874 l
0.3309 0.1878 l
0.3344 0.1883 l
0.3378 0.1887 l
0.3412 0.1892 l
0.3447 0.1897 l
0.3481 0.1902 l
0.3515 0.1907 l
0.3550 0.1912 l
0.3584 0.1917 l
0.3618 0.1923 l
0.3653 0.1928 l
0.3687 0.1934 l
0.3721 0.1940 l
0.3756 0.1945 l
0.3790 0.1951 l
0.3824 0.1958 l
0.3859 0.1964 l
0.3893 0.1970 l
0.3927 0.1977 l
0.3962 0.1984 l
0.3996 0.1991 l
0.4030 0.1998 l
0.4065 0.2005 l
0.4099 0.2013 l
0.4133 0.2021 l
0.4168 0.2028 l
0.4202 0.2037 l
0.4237 0.2045 l
0.4271 0.2054 l
0.4305 0.2062 l
0.4340 0.2071 l
0.4374 0.2081 l
0.4408 0.2090 l
0.4443 0.2100 l
0.4477 0.2111 l
0.4511 0.2121 l
0.4546 0.2132 l
0.4580 0.2143 l
0.4614 0.2155 l
0.4649 0.2167 l
0.4683 0.2179 l
0.4717 0.2192 l
0.4752 0.2205 l
0.4786 0.2218 l
0.4820 0.2232 l
0.4855 0.2247 l
0.4889 0.2262 l
0.4923 0.2277 l
0.4958 0.2294 l
0.4992 0.2310 l
0.5026 0.2328 l
0.5061 0.2346 l
0.5095 0.2365 l
0.5129 0.2384 l
0.5164 0.2405 l
0.5198 0.2426 l
0.5232 0.2448 l
0.5267 0.2471 l
0.5301 0.2495 l
0.5336 0.2521 l
0.5370 0.2547 l
0.5404 0.2574 l
0.5438 0.2603 l
0.5473 0.2633 l
0.5507 0.2665 l
0.5542 0.2698 l
0.5576 0.2733 l
0.5610 0.2770 l
0.5645 0.2808 l
0.5679 0.2849 l
0.5713 0.2892 l
0.5748 0.2937 l
0.5782 0.2984 l
0.5816 0.3034 l
0.5851 0.3087 l
0.5885 0.3143 l
0.5919 0.3202 l
0.5954 0.3265 l
0.5988 0.3331 l
0.6022 0.3401 l
0.6057 0.3475 l
0.6091 0.3553 l
0.6125 0.3636 l
0.6160 0.3723 l
0.6194 0.3815 l
0.6228 0.3912 l
0.6263 0.4013 l
0.6297 0.4119 l
0.6332 0.4230 l
0.6366 0.4345 l
0.6400 0.4465 l
0.6434 0.4588 l
0.6469 0.4715 l
0.6503 0.4844 l
0.6538 0.4975 l
0.6572 0.5107 l
0.6606 0.5239 l
0.6641 0.5371 l
0.6675 0.5502 l
0.6709 0.5630 l
0.6744 0.5756 l
0.6778 0.5878 l
0.6812 0.5997 l
0.6847 0.6111 l
0.6881 0.6221 l
0.6915 0.6326 l
0.6950 0.6426 l
0.6984 0.6522 l
0.7018 0.6612 l
0.7053 0.6698 l
0.7087 0.6780 l
0.7121 0.6857 l
0.7156 0.6930 l
0.7190 0.6999 l
0.7224 0.7064 l
0.7259 0.7126 l
0.7293 0.7184 l
0.7327 0.7239 l
0.7362 0.7292 l
0.7396 0.7341 l
0.7430 0.7388 l
0.7465 0.7433 l
0.7499 0.7475 l
0.7533 0.7515 l
0.7568 0.7553 l
0.7602 0.7589 l
0.7637 0.7624 l
0.7671 0.7656 l
0.7705 0.7688 l
0.7739 0.7718 l
0.7774 0.7746 l
0.7808 0.7773 l
0.7843 0.7799 l
0.7877 0.7824 l
0.7911 0.7848 l
0.7946 0.7871 l
0.7980 0.7893 l
0.8014 0.7914 l
0.8049 0.7934 l
0.8083 0.7953 l
0.8117 0.7972 l
0.8152 0.7990 l
0.8186 0.8007 l
0.8220 0.8024 l
0.8255 0.8040 l
0.8289 0.8056 l
0.8323 0.8070 l
0.8358 0.8085 l
0.8392 0.8099 l
0.8426 0.8112 l
0.8461 0.8125 l
0.8495 0.8138 l
0.8529 0.8150 l
0.8564 0.8162 l
0.8598 0.8173 l
0.8633 0.8184 l
0.8667 0.8195 l
0.8701 0.8206 l
0.8735 0.8216 l
0.8770 0.8226 l
0.8804 0.8235 l
0.8839 0.8244 l
0.8873 0.8253 l
0.8907 0.8262 l
0.8942 0.8271 l
0.8976 0.8279 l
0.9010 0.8287 l
0.9045 0.8295 l
0.9079 0.8303 l
0.9113 0.8310 l
0.9148 0.8317 l
0.9182 0.8324 l
0.9216 0.8331 l
0.9251 0.8338 l
0.9285 0.8345 l
0.9319 0.8351 l
0.9354 0.8357 l
0.9388 0.8364 l
0.9422 0.8370 l
0.9457 0.8375 l
0.9491 0.8381 l
0.9525 0.8387 l
0.9560 0.8392 l
0.9594 0.8398 l
0.9628 0.8403 l
0.9663 0.8408 l
0.9697 0.8413 l
0.9731 0.8418 l
0.9766 0.8423 l
0.9800 0.8427 l
0.9834 0.8432 l
0.9869 0.8437 l
0.9903 0.8441 l
0.9938 0.8445 l
0.9972 0.8450 l
1.0006 0.8454 l
1.0040 0.8458 l
1.0075 0.8462 l
1.0109 0.8466 l
1.0144 0.8470 l
1.0178 0.8474 l
1.0212 0.8477 l
1.0247 0.8481 l
1.0281 0.8484 l
1.0315 0.8488 l
1.0350 0.8491 l
1.0384 0.8495 l
s
[/DeviceRGB] SCS
Color1 SC
[] 0 SD
0.0030 SLW
n
0.1832 0.1743 m
0.1867 0.1745 l
0.1901 0.1747 l
0.1936 0.1750 l
0.1970 0.1752 l
0.2004 0.1754 l
0.2039 0.1757 l
0.2073 0.1759 l
0.2107 0.1761 l
0.2142 0.1764 l
0.2176 0.1766 l
0.2210 0.1769 l
0.2245 0.1772 l
0.2279 0.1774 l
0.2313 0.1777 l
0.2348 0.1780 l
0.2382 0.1782 l
0.2416 0.1785 l
0.2451 0.1788 l
0.2485 0.1791 l
0.2519 0.1794 l
0.2554 0.1797 l
0.2588 0.1800 l
0.2622 0.1803 l
0.2657 0.1806 l
0.2691 0.1809 l
0.2725 0.1813 l
0.2760 0.1816 l
0.2794 0.1819 l
0.2828 0.1823 l
0.2863 0.1826 l
0.2897 0.1830 l
0.2931 0.1833 l
0.2966 0.1837 l
0.3000 0.1841 l
0.3035 0.1845 l
0.3069 0.1849 l
0.3103 0.1853 l
0.3137 0.1857 l
0.3172 0.1861 l
0.3206 0.1865 l
0.3241 0.1869 l
0.3275 0.1874 l
0.3309 0.1878 l
0.3344 0.1883 l
0.3378 0.1887 l
0.3412 0.1892 l
0.3447 0.1897 l
0.3481 0.1902 l
0.3515 0.1907 l
0.3550 0.1912 l
0.3584 0.1917 l
0.3618 0.1923 l
0.3653 0.1928 l
0.3687 0.1934 l
0.3721 0.1940 l
0.3756 0.1945 l
0.3790 0.1951 l
0.3824 0.1958 l
0.3859 0.1964 l
0.3893 0.1970 l
0.3927 0.1977 l
0.3962 0.1984 l
0.3996 0.1991 l
0.4030 0.1998 l
0.4065 0.2005 l
0.4099 0.2013 l
0.4133 0.2021 l
0.4168 0.2028 l
0.4202 0.2037 l
0.4237 0.2045 l
0.4271 0.2054 l
0.4305 0.2062 l
0.4340 0.2071 l
0.4374 0.2081 l
0.4408 0.2090 l
0.4443 0.2100 l
0.4477 0.2111 l
0.4511 0.2121 l
0.4546 0.2132 l
0.4580 0.2143 l
0.4614 0.2155 l
0.4649 0.2167 l
0.4683 0.2179 l
0.4717 0.2192 l
0.4752 0.2205 l
0.4786 0.2218 l
0.4820 0.2232 l
0.4855 0.2247 l
0.4889 0.2262 l
0.4923 0.2277 l
0.4958 0.2294 l
0.4992 0.2310 l
0.5026 0.2328 l
0.5061 0.2346 l
0.5095 0.2365 l
0.5129 0.2384 l
0.5164 0.2405 l
0.5198 0.2426 l
0.5232 0.2448 l
0.5267 0.2471 l
0.5301 0.2495 l
0.5336 0.2521 l
0.5370 0.2547 l
0.5404 0.2574 l
0.5438 0.2603 l
0.5473 0.2633 l
0.5507 0.2665 l
0.5542 0.2698 l
0.5576 0.2733 l
0.5610 0.2770 l
0.5645 0.2808 l
0.5679 0.2849 l
0.5713 0.2892 l
0.5748 0.2937 l
0.5782 0.2984 l
0.5816 0.3034 l
0.5851 0.3087 l
0.5885 0.3143 l
0.5919 0.3202 l
0.5954 0.3265 l
0.5988 0.3331 l
0.6022 0.3401 l
0.6057 0.3475 l
0.6091 0.3553 l
0.6125 0.3636 l
0.6160 0.3723 l
0.6194 0.3815 l
0.6228 0.3912 l
0.6263 0.4013 l
0.6297 0.4119 l
0.6332 0.4230 l
0.6366 0.4345 l
0.6400 0.4465 l
0.6434 0.4588 l
0.6469 0.4715 l
0.6503 0.4844 l
0.6538 0.4975 l
0.6572 0.5107 l
0.6606 0.5239 l
0.6641 0.5371 l
0.6675 0.5502 l
0.6709 0.5630 l
0.6744 0.5756 l
0.6778 0.5878 l
0.6812 0.5997 l
0.6847 0.6111 l
0.6881 0.6221 l
0.6915 0.6326 l
0.6950 0.6426 l
0.6984 0.6522 l
0.7018 0.6612 l
0.7053 0.6698 l
0.7087 0.6780 l
0.7121 0.6857 l
0.7156 0.6930 l
0.7190 0.6999 l
0.7224 0.7064 l
0.7259 0.7126 l
0.7293 0.7184 l
0.7327 0.7239 l
0.7362 0.7292 l
0.7396 0.7341 l
0.7430 0.7388 l
0.7465 0.7433 l
0.7499 0.7475 l
0.7533 0.7515 l
0.7568 0.7553 l
0.7602 0.7589 l
0.7637 0.7624 l
0.7671 0.7656 l
0.7705 0.7688 l
0.7739 0.7718 l
0.7774 0.7746 l
0.7808 0.7773 l
0.7843 0.7799 l
0.7877 0.7824 l
0.7911 0.7848 l
0.7946 0.7871 l
0.7980 0.7893 l
0.8014 0.7914 l
0.8049 0.7934 l
0.8083 0.7953 l
0.8117 0.7972 l
0.8152 0.7990 l
0.8186 0.8007 l
0.8220 0.8024 l
0.8255 0.8040 l
0.8289 0.8056 l
0.8323 0.8070 l
0.8358 0.8085 l
0.8392 0.8099 l
0.8426 0.8112 l
0.8461 0.8125 l
0.8495 0.8138 l
0.8529 0.8150 l
0.8564 0.8162 l
0.8598 0.8173 l
0.8633 0.8184 l
0.8667 0.8195 l
0.8701 0.8206 l
0.8735 0.8216 l
0.8770 0.8226 l
0.8804 0.8235 l
0.8839 0.8244 l
0.8873 0.8253 l
0.8907 0.8262 l
0.8942 0.8271 l
0.8976 0.8279 l
0.9010 0.8287 l
0.9045 0.8295 l
0.9079 0.8303 l
0.9113 0.8310 l
0.9148 0.8317 l
0.9182 0.8324 l
0.9216 0.8331 l
0.9251 0.8338 l
0.9285 0.8345 l
0.9319 0.8351 l
0.9354 0.8357 l
0.9388 0.8364 l
0.9422 0.8370 l
0.9457 0.8375 l
0.9491 0.8381 l
0.9525 0.8387 l
0.9560 0.8392 l
0.9594 0.8398 l
0.9628 0.8403 l
0.9663 0.8408 l
0.9697 0.8413 l
0.9731 0.8418 l
0.9766 0.8423 l
0.9800 0.8427 l
0.9834 0.8432 l
0.9869 0.8437 l
0.9903 0.8441 l
0.9938 0.8445 l
0.9972 0.8450 l
1.0006 0.8454 l
1.0040 0.8458 l
1.0075 0.8462 l
1.0109 0.8466 l
1.0144 0.8470 l
1.0178 0.8474 l
1.0212 0.8477 l
1.0247 0.8481 l
1.0281 0.8484 l
1.0315 0.8488 l
1.0350 0.8491 l
1.0384 0.8495 l
s
n
0.3285 0.1500 m
0.3285 0.1700 l
s
n
0.3285 0.8500 m
0.3285 0.8300 l
s
n
0.5059 0.1500 m
0.5059 0.1700 l
s
n
0.5059 0.8500 m
0.5059 0.8300 l
s
n
0.6834 0.1500 m
0.6834 0.1700 l
s
n
0.6834 0.8500 m
0.6834 0.8300 l
s
n
0.8609 0.1500 m
0.8609 0.1700 l
s
n
0.8609 0.8500 m
0.8609 0.8300 l
s
n
1.0384 0.1500 m
1.0384 0.1700 l
s
n
1.0384 0.8500 m
1.0384 0.8300 l
s
n
0.2397 0.1500 m
0.2397 0.1800 l
s
n
0.2397 0.8500 m
0.2397 0.8200 l
s
n
0.4172 0.1500 m
0.4172 0.1800 l
s
n
0.4172 0.8500 m
0.4172 0.8200 l
s
n
0.5947 0.1500 m
0.5947 0.1800 l
s
n
0.5947 0.8500 m
0.5947 0.8200 l
s
n
0.7722 0.1500 m
0.7722 0.1800 l
s
n
0.7722 0.8500 m
0.7722 0.8200 l
s
n
0.9497 0.1500 m
0.9497 0.1800 l
s
n
0.9497 0.8500 m
0.9497 0.8200 l
s
/Helvetica findfont
dup length dict begin
 {1 index /FID ne {def} {pop pop} ifelse} forall
 /Encoding DefEncoding def
 currentdict
end
/Font12 exch definefont pop
/Font12 FFSF
0.1997 0.1104 m
GS
[0.0420 0.0000 0.0000 0.0420 0 0] CC
(1.32) show
GR
/Font12 FFSF
0.3774 0.1104 m
GS
[0.0420 0.0000 0.0000 0.0420 0 0] CC
(1.43) show
GR
/Font12 FFSF
0.5545 0.1104 m
GS
[0.0420 0.0000 0.0000 0.0420 0 0] CC
(1.54) show
GR
/Font12 FFSF
0.7322 0.1104 m
GS
[0.0420 0.0000 0.0000 0.0420 0 0] CC
(1.65) show
GR
/Font12 FFSF
0.9097 0.1104 m
GS
[0.0420 0.0000 0.0000 0.0420 0 0] CC
(1.76) show
GR
/Font12 FFSF
0.5670 0.0684 m
GS
[0.0420 0.0000 0.0000 0.0420 0 0] CC
(f\(Hz\)) show
GR
n
0.1832 0.2462 m
0.2032 0.2462 l
s
n
1.0384 0.2462 m
1.0184 0.2462 l
s
n
0.1832 0.3865 m
0.2032 0.3865 l
s
n
1.0384 0.3865 m
1.0184 0.3865 l
s
n
0.1832 0.5268 m
0.2032 0.5268 l
s
n
1.0384 0.5268 m
1.0184 0.5268 l
s
n
0.1832 0.6671 m
0.2032 0.6671 l
s
n
1.0384 0.6671 m
1.0184 0.6671 l
s
n
0.1832 0.8075 m
0.2032 0.8075 l
s
n
1.0384 0.8075 m
1.0184 0.8075 l
s
n
0.1832 0.1760 m
0.2132 0.1760 l
s
n
1.0384 0.1760 m
1.0084 0.1760 l
s
n
0.1832 0.3163 m
0.2132 0.3163 l
s
n
1.0384 0.3163 m
1.0084 0.3163 l
s
n
0.1832 0.4566 m
0.2132 0.4566 l
s
n
1.0384 0.4566 m
1.0084 0.4566 l
s
n
0.1832 0.5970 m
0.2132 0.5970 l
s
n
1.0384 0.5970 m
1.0084 0.5970 l
s
n
0.1832 0.7373 m
0.2132 0.7373 l
s
n
1.0384 0.7373 m
1.0084 0.7373 l
s
/Font12 FFSF
0.1280 0.1616 m
GS
[0.0420 0.0000 0.0000 0.0420 0 0] CC
(34) show
GR
/Font12 FFSF
0.1284 0.3019 m
GS
[0.0420 0.0000 0.0000 0.0420 0 0] CC
(68) show
GR
/Font12 FFSF
0.1048 0.4422 m
GS
[0.0420 0.0000 0.0000 0.0420 0 0] CC
(102) show
GR
/Font12 FFSF
0.1048 0.5826 m
GS
[0.0420 0.0000 0.0000 0.0420 0 0] CC
(136) show
GR
/Font12 FFSF
0.1048 0.7229 m
GS
[0.0420 0.0000 0.0000 0.0420 0 0] CC
(170) show
GR
/Symbol findfont
/Font28 exch definefont pop
/Font28 FFSF
0.0856 0.4090 m
GS
[0.0000 0.0420 -0.0420 0.0000 0 0] CC
(a) show
GR
/Font12 FFSF
0.0856 0.4354 m
GS
[0.0000 0.0420 -0.0420 0.0000 0 0] CC
(\(degree\)) show
GR
n
0.1832 0.1500 m
0.1832 0.8500 l
1.0384 0.8500 l
1.0384 0.1500 l
0.1832 0.1500 l
c
s
%%Trailer
%%BoundingBox: 31 34 625 512
%%DocumentNeededResources: font Helvetica
%%+ font Symbol
%%EOF
