%!PS-Adobe-3.0 EPSF-3.0
%%BoundingBox: (atend)
%%LanguageLevel: 2
%%Creator: Grace-5.1.22
%%CreationDate: Wed Oct 15 20:14:50 2014
%%DocumentData: Clean8Bit
%%Orientation: Portrait
%%Title: fit-gph-3.agr
%%For: wfr
%%DocumentNeededResources: (atend)
%%EndComments
%%BeginProlog
/m {moveto} def
/l {lineto} def
/s {stroke} def
/n {newpath} def
/c {closepath} def
/RL {rlineto} def
/SLW {setlinewidth} def
/GS {gsave} def
/GR {grestore} def
/SC {setcolor} def
/SGRY {setgray} def
/SRGB {setrgbcolor} def
/SD {setdash} def
/SLC {setlinecap} def
/SLJ {setlinejoin} def
/SCS {setcolorspace} def
/FFSF {findfont setfont} def
/CC {concat} def
/PXL {n m 0 0 RL s} def
/Color0 {1.0000 1.0000 1.0000} def
/Color1 {0.0000 0.0000 0.0000} def
/Color2 {1.0000 0.0000 0.0000} def
/Color3 {0.0000 1.0000 0.0000} def
/Color4 {0.0000 0.0000 1.0000} def
/Color5 {1.0000 1.0000 0.0000} def
/Color6 {0.7373 0.5608 0.5608} def
/Color7 {0.8627 0.8627 0.8627} def
/Color8 {0.5804 0.0000 0.8275} def
/Color9 {0.0000 1.0000 1.0000} def
/Color10 {1.0000 0.0000 1.0000} def
/Color11 {1.0000 0.6471 0.0000} def
/Color12 {0.4471 0.1294 0.7373} def
/Color13 {0.4039 0.0275 0.2824} def
/Color14 {0.2510 0.8784 0.8157} def
/Color15 {0.0000 0.5451 0.0000} def
/PTRN {
 /pat_bits exch def 
 <<
  /PaintType 2
  /PatternType 1 /TilingType 1
  /BBox[0 0 16 16]
  /XStep 16 /YStep 16
  /PaintProc {
   pop
   16 16 true [-1 0 0 -1 16 16] pat_bits imagemask
  }
 >>
 [0.0017 0 0 0.0017 0 0]
 makepattern
} def
/Pattern0 {<0000000000000000000000000000000000000000000000000000000000000000> PTRN} bind def
/Pattern1 {<ffffffffffffffffffffffffffffffffffffffffffffffffffffffffffffffff> PTRN} bind def
/Pattern2 {<eeeeffffbbbbffffeeeeffffbbbbffffeeeeffffbbbbffffeeeeffffbbbbffff> PTRN} bind def
/Pattern3 {<eeeebbbbeeeebbbbeeeebbbbeeeebbbbeeeebbbbeeeebbbbeeeebbbbeeeebbbb> PTRN} bind def
/Pattern4 {<5555aaaa5555aaaa5555aaaa5555aaaa5555aaaa5555aaaa5555aaaa5555aaaa> PTRN} bind def
/Pattern5 {<1111444411114444111144441111444411114444111144441111444411114444> PTRN} bind def
/Pattern6 {<1111000044440000111100004444000011110000444400001111000044440000> PTRN} bind def
/Pattern7 {<1010000000000000010100000000000010100000000000000101000000000000> PTRN} bind def
/Pattern8 {<0000000000000000000000000000000000000000000000000000000000000000> PTRN} bind def
/Pattern9 {<1e1e0f0f8787c3c3e1e1f0f078783c3c1e1e0f0f8787c3c3e1e1f0f078783c3c> PTRN} bind def
/Pattern10 {<7878f0f0e1e1c3c387870f0f1e1e3c3c7878f0f0e1e1c3c387870f0f1e1e3c3c> PTRN} bind def
/Pattern11 {<3333333333333333333333333333333333333333333333333333333333333333> PTRN} bind def
/Pattern12 {<ffffffff00000000ffffffff00000000ffffffff00000000ffffffff00000000> PTRN} bind def
/Pattern13 {<8181424224241818181824244242818181814242242418181818242442428181> PTRN} bind def
/Pattern14 {<8080404020201010080804040202010180804040202010100808040402020101> PTRN} bind def
/Pattern15 {<0101020204040808101020204040808001010202040408081010202040408080> PTRN} bind def
/Pattern16 {<2222222222222222222222222222222222222222222222222222222222222222> PTRN} bind def
/Pattern17 {<0000ffff000000000000ffff000000000000ffff000000000000ffff00000000> PTRN} bind def
/Pattern18 {<2222ffff222222222222ffff222222222222ffff222222222222ffff22222222> PTRN} bind def
/Pattern19 {<ffffffff33333333ffffffff33333333ffffffff33333333ffffffff33333333> PTRN} bind def
/Pattern20 {<0f0f0f0f0f0f0f0ff0f0f0f0f0f0f0f00f0f0f0f0f0f0f0ff0f0f0f0f0f0f0f0> PTRN} bind def
/Pattern21 {<ff00ff00ff00ff00ff00ff00ff00ff0000ff00ff00ff00ff00ff00ff00ff00ff> PTRN} bind def
/Pattern22 {<8001800180018001800180018001ffffffff8001800180018001800180018001> PTRN} bind def
/Pattern23 {<c003c003c003c003c003c003ffffffffffffffffc003c003c003c003c003c003> PTRN} bind def
/Pattern24 {<040404040404ffff404040404040ffff040404040404ffff404040404040ffff> PTRN} bind def
/Pattern25 {<180018001800180018001800ffffffff001800180018001800180018ffffffff> PTRN} bind def
/Pattern26 {<1111b8b87c7c3a3a1111a3a3c7c78b8b1111b8b87c7c3a3a1111a3a3c7c78b8b> PTRN} bind def
/Pattern27 {<101010102828c7c70101010182827c7c101010102828c7c70101010182827c7c> PTRN} bind def
/Pattern28 {<1c1c121211112121c1c12121111112121c1c121211112121c1c1212111111212> PTRN} bind def
/Pattern29 {<3e3e414180808080e3e31414080808083e3e414180808080e3e3141408080808> PTRN} bind def
/Pattern30 {<4848888884848383848488884848383848488888848483838484888848483838> PTRN} bind def
/Pattern31 {<03030404080808080c0c12122121c0c003030404080808080c0c12122121c0c0> PTRN} bind def
/ellipsedict 8 dict def
ellipsedict /mtrx matrix put
/EARC {
 ellipsedict begin
  /endangle exch def
  /startangle exch def
  /yrad exch def
  /xrad exch def
  /y exch def
  /x exch def
  /savematrix mtrx currentmatrix def
  x y translate
  xrad yrad scale
  0 0 1 startangle endangle arc
  savematrix setmatrix
 end
} def
/TL {
  /kcomp exch def
  /linewidth exch def
  /offset exch def
  GS
  0 offset rmoveto
  linewidth SLW
  dup stringwidth exch kcomp add exch RL s
  GR
} def
/KINIT
{
 /kvector exch def
 /kid 0 def
} def
/KPROC
{
 pop pop
 kvector kid get
 0 rmoveto
 /kid 1 kid add def
} def
/DefEncoding [
 /.notdef
 /.notdef
 /.notdef
 /.notdef
 /.notdef
 /.notdef
 /.notdef
 /.notdef
 /.notdef
 /.notdef
 /.notdef
 /.notdef
 /.notdef
 /.notdef
 /.notdef
 /.notdef
 /.notdef
 /.notdef
 /.notdef
 /.notdef
 /.notdef
 /.notdef
 /.notdef
 /.notdef
 /.notdef
 /.notdef
 /.notdef
 /.notdef
 /.notdef
 /.notdef
 /.notdef
 /.notdef
 /space
 /exclam
 /quotedbl
 /numbersign
 /dollar
 /percent
 /ampersand
 /quoteright
 /parenleft
 /parenright
 /asterisk
 /plus
 /comma
 /hyphen
 /period
 /slash
 /zero
 /one
 /two
 /three
 /four
 /five
 /six
 /seven
 /eight
 /nine
 /colon
 /semicolon
 /less
 /equal
 /greater
 /question
 /at
 /A
 /B
 /C
 /D
 /E
 /F
 /G
 /H
 /I
 /J
 /K
 /L
 /M
 /N
 /O
 /P
 /Q
 /R
 /S
 /T
 /U
 /V
 /W
 /X
 /Y
 /Z
 /bracketleft
 /backslash
 /bracketright
 /asciicircum
 /underscore
 /grave
 /a
 /b
 /c
 /d
 /e
 /f
 /g
 /h
 /i
 /j
 /k
 /l
 /m
 /n
 /o
 /p
 /q
 /r
 /s
 /t
 /u
 /v
 /w
 /x
 /y
 /z
 /braceleft
 /bar
 /braceright
 /asciitilde
 /.notdef
 /.notdef
 /.notdef
 /.notdef
 /.notdef
 /.notdef
 /.notdef
 /.notdef
 /.notdef
 /.notdef
 /.notdef
 /.notdef
 /.notdef
 /.notdef
 /.notdef
 /.notdef
 /.notdef
 /.notdef
 /.notdef
 /.notdef
 /.notdef
 /.notdef
 /.notdef
 /.notdef
 /.notdef
 /.notdef
 /.notdef
 /.notdef
 /.notdef
 /.notdef
 /.notdef
 /.notdef
 /.notdef
 /space
 /exclamdown
 /cent
 /sterling
 /currency
 /yen
 /brokenbar
 /section
 /dieresis
 /copyright
 /ordfeminine
 /guillemotleft
 /logicalnot
 /hyphen
 /registered
 /macron
 /degree
 /plusminus
 /twosuperior
 /threesuperior
 /acute
 /mu
 /paragraph
 /periodcentered
 /cedilla
 /onesuperior
 /ordmasculine
 /guillemotright
 /onequarter
 /onehalf
 /threequarters
 /questiondown
 /Agrave
 /Aacute
 /Acircumflex
 /Atilde
 /Adieresis
 /Aring
 /AE
 /Ccedilla
 /Egrave
 /Eacute
 /Ecircumflex
 /Edieresis
 /Igrave
 /Iacute
 /Icircumflex
 /Idieresis
 /Eth
 /Ntilde
 /Ograve
 /Oacute
 /Ocircumflex
 /Otilde
 /Odieresis
 /multiply
 /Oslash
 /Ugrave
 /Uacute
 /Ucircumflex
 /Udieresis
 /Yacute
 /Thorn
 /germandbls
 /agrave
 /aacute
 /acircumflex
 /atilde
 /adieresis
 /aring
 /ae
 /ccedilla
 /egrave
 /eacute
 /ecircumflex
 /edieresis
 /igrave
 /iacute
 /icircumflex
 /idieresis
 /eth
 /ntilde
 /ograve
 /oacute
 /ocircumflex
 /otilde
 /odieresis
 /divide
 /oslash
 /ugrave
 /uacute
 /ucircumflex
 /udieresis
 /yacute
 /thorn
 /ydieresis
] def
%%EndProlog
%%BeginSetup
%%EndSetup
600.00 600.00 scale
n
0.0000 0.0000 m
0.0000 1.0000 l
1.2884 1.0000 l
1.2884 0.0000 l
c
[/DeviceRGB] SCS
Color0 SC
fill
[/DeviceRGB] SCS
Color1 SC
[] 0 SD
0.0015 SLW
0 SLC
0 SLJ
n
0.2071 0.1613 m
0.2071 0.1732 l
s
n
0.1971 0.1732 m
0.2171 0.1732 l
s
n
0.2071 0.1613 m
0.2071 0.1499 l
s
n
0.2683 0.1640 m
0.2683 0.1748 l
s
n
0.2583 0.1748 m
0.2783 0.1748 l
s
n
0.2683 0.1640 m
0.2683 0.1532 l
s
n
0.2783 0.1532 m
0.2583 0.1532 l
s
n
0.3294 0.1640 m
0.3294 0.1749 l
s
n
0.3194 0.1749 m
0.3394 0.1749 l
s
n
0.3294 0.1640 m
0.3294 0.1531 l
s
n
0.3394 0.1531 m
0.3194 0.1531 l
s
n
0.3906 0.1667 m
0.3906 0.1786 l
s
n
0.3806 0.1786 m
0.4006 0.1786 l
s
n
0.3906 0.1667 m
0.3906 0.1547 l
s
n
0.4006 0.1547 m
0.3806 0.1547 l
s
n
0.4273 0.1721 m
0.4273 0.1839 l
s
n
0.4173 0.1839 m
0.4373 0.1839 l
s
n
0.4273 0.1721 m
0.4273 0.1602 l
s
n
0.4373 0.1602 m
0.4173 0.1602 l
s
n
0.4518 0.1721 m
0.4518 0.1841 l
s
n
0.4418 0.1841 m
0.4618 0.1841 l
s
n
0.4518 0.1721 m
0.4518 0.1600 l
s
n
0.4618 0.1600 m
0.4418 0.1600 l
s
n
0.4762 0.1774 m
0.4762 0.1900 l
s
n
0.4662 0.1900 m
0.4862 0.1900 l
s
n
0.4762 0.1774 m
0.4762 0.1649 l
s
n
0.4862 0.1649 m
0.4662 0.1649 l
s
n
0.5252 0.1828 m
0.5252 0.1957 l
s
n
0.5152 0.1957 m
0.5352 0.1957 l
s
n
0.5252 0.1828 m
0.5252 0.1700 l
s
n
0.5352 0.1700 m
0.5152 0.1700 l
s
n
0.5497 0.1909 m
0.5497 0.2058 l
s
n
0.5397 0.2058 m
0.5597 0.2058 l
s
n
0.5497 0.1909 m
0.5497 0.1760 l
s
n
0.5597 0.1760 m
0.5397 0.1760 l
s
n
0.5741 0.1990 m
0.5741 0.2153 l
s
n
0.5641 0.2153 m
0.5841 0.2153 l
s
n
0.5741 0.1990 m
0.5741 0.1826 l
s
n
0.5841 0.1826 m
0.5641 0.1826 l
s
n
0.5986 0.2151 m
0.5986 0.2356 l
s
n
0.5886 0.2356 m
0.6086 0.2356 l
s
n
0.5986 0.2151 m
0.5986 0.1946 l
s
n
0.6086 0.1946 m
0.5886 0.1946 l
s
n
0.6231 0.2420 m
0.6231 0.2678 l
s
n
0.6131 0.2678 m
0.6331 0.2678 l
s
n
0.6231 0.2420 m
0.6231 0.2162 l
s
n
0.6331 0.2162 m
0.6131 0.2162 l
s
n
0.6475 0.3012 m
0.6475 0.3943 l
s
n
0.6375 0.3943 m
0.6575 0.3943 l
s
n
0.6475 0.3012 m
0.6475 0.2080 l
s
n
0.6575 0.2080 m
0.6375 0.2080 l
s
n
0.6720 0.5271 m
0.6720 0.6102 l
s
n
0.6620 0.6102 m
0.6820 0.6102 l
s
n
0.6720 0.5271 m
0.6720 0.4441 l
s
n
0.6820 0.4441 m
0.6620 0.4441 l
s
n
0.6903 0.5002 m
0.6903 0.5749 l
s
n
0.6803 0.5749 m
0.7003 0.5749 l
s
n
0.6903 0.5002 m
0.6903 0.4256 l
s
n
0.7003 0.4256 m
0.6803 0.4256 l
s
n
0.7209 0.3281 m
0.7209 0.4028 l
s
n
0.7109 0.4028 m
0.7309 0.4028 l
s
n
0.7209 0.3281 m
0.7209 0.2534 l
s
n
0.7309 0.2534 m
0.7109 0.2534 l
s
n
0.7454 0.2420 m
0.7454 0.2764 l
s
n
0.7354 0.2764 m
0.7554 0.2764 l
s
n
0.7454 0.2420 m
0.7454 0.2076 l
s
n
0.7554 0.2076 m
0.7354 0.2076 l
s
n
0.7699 0.2259 m
0.7699 0.2418 l
s
n
0.7599 0.2418 m
0.7799 0.2418 l
s
n
0.7699 0.2259 m
0.7699 0.2099 l
s
n
0.7799 0.2099 m
0.7599 0.2099 l
s
n
0.8066 0.2016 m
0.8066 0.2210 l
s
n
0.7966 0.2210 m
0.8166 0.2210 l
s
n
0.8066 0.2016 m
0.8066 0.1823 l
s
n
0.8166 0.1823 m
0.7966 0.1823 l
s
n
0.8188 0.1936 m
0.8188 0.2090 l
s
n
0.8088 0.2090 m
0.8288 0.2090 l
s
n
0.8188 0.1936 m
0.8188 0.1782 l
s
n
0.8288 0.1782 m
0.8088 0.1782 l
s
n
0.8555 0.1828 m
0.8555 0.1963 l
s
n
0.8455 0.1963 m
0.8655 0.1963 l
s
n
0.8555 0.1828 m
0.8555 0.1694 l
s
n
0.8655 0.1694 m
0.8455 0.1694 l
s
n
0.8922 0.1774 m
0.8922 0.1899 l
s
n
0.8822 0.1899 m
0.9022 0.1899 l
s
n
0.8922 0.1774 m
0.8922 0.1650 l
s
n
0.9022 0.1650 m
0.8822 0.1650 l
s
n
0.9656 0.1667 m
0.9656 0.1798 l
s
n
0.9556 0.1798 m
0.9756 0.1798 l
s
n
0.9656 0.1667 m
0.9656 0.1535 l
s
n
0.9756 0.1535 m
0.9556 0.1535 l
s
n
1.0145 0.1613 m
1.0145 0.1730 l
s
n
1.0045 0.1730 m
1.0245 0.1730 l
s
n
1.0145 0.1613 m
1.0145 0.1499 l
s
[] 0 SD
0.0030 SLW
n 0.2071 0.1613 0.0050 0.0050 0 360 EARC s
n 0.2683 0.1640 0.0050 0.0050 0 360 EARC s
n 0.3294 0.1640 0.0050 0.0050 0 360 EARC s
n 0.3906 0.1667 0.0050 0.0050 0 360 EARC s
n 0.4273 0.1721 0.0050 0.0050 0 360 EARC s
n 0.4518 0.1721 0.0050 0.0050 0 360 EARC s
n 0.4762 0.1774 0.0050 0.0050 0 360 EARC s
n 0.5252 0.1828 0.0050 0.0050 0 360 EARC s
n 0.5497 0.1909 0.0050 0.0050 0 360 EARC s
n 0.5741 0.1990 0.0050 0.0050 0 360 EARC s
n 0.5986 0.2151 0.0050 0.0050 0 360 EARC s
n 0.6231 0.2420 0.0050 0.0050 0 360 EARC s
n 0.6475 0.3012 0.0050 0.0050 0 360 EARC s
n 0.6720 0.5271 0.0050 0.0050 0 360 EARC s
n 0.6903 0.5002 0.0050 0.0050 0 360 EARC s
n 0.7209 0.3281 0.0050 0.0050 0 360 EARC s
n 0.7454 0.2420 0.0050 0.0050 0 360 EARC s
n 0.7699 0.2259 0.0050 0.0050 0 360 EARC s
n 0.8066 0.2016 0.0050 0.0050 0 360 EARC s
n 0.8188 0.1936 0.0050 0.0050 0 360 EARC s
n 0.8555 0.1828 0.0050 0.0050 0 360 EARC s
n 0.8922 0.1774 0.0050 0.0050 0 360 EARC s
n 0.9656 0.1667 0.0050 0.0050 0 360 EARC s
n 1.0145 0.1613 0.0050 0.0050 0 360 EARC s
[/DeviceRGB] SCS
Color2 SC
[] 0 SD
0.0015 SLW
n
0.1832 0.1624 m
0.1867 0.1624 l
0.1901 0.1625 l
0.1935 0.1626 l
0.1970 0.1626 l
0.2004 0.1627 l
0.2038 0.1628 l
0.2073 0.1629 l
0.2107 0.1629 l
0.2142 0.1630 l
0.2176 0.1631 l
0.2210 0.1632 l
0.2245 0.1633 l
0.2279 0.1634 l
0.2313 0.1634 l
0.2348 0.1635 l
0.2382 0.1636 l
0.2416 0.1637 l
0.2451 0.1638 l
0.2485 0.1639 l
0.2519 0.1640 l
0.2554 0.1641 l
0.2588 0.1642 l
0.2622 0.1643 l
0.2657 0.1644 l
0.2691 0.1645 l
0.2725 0.1646 l
0.2760 0.1647 l
0.2794 0.1648 l
0.2828 0.1649 l
0.2863 0.1650 l
0.2897 0.1651 l
0.2931 0.1652 l
0.2966 0.1653 l
0.3000 0.1655 l
0.3034 0.1656 l
0.3069 0.1657 l
0.3103 0.1658 l
0.3137 0.1659 l
0.3172 0.1661 l
0.3206 0.1662 l
0.3241 0.1663 l
0.3275 0.1665 l
0.3309 0.1666 l
0.3344 0.1668 l
0.3378 0.1669 l
0.3412 0.1671 l
0.3447 0.1672 l
0.3481 0.1674 l
0.3515 0.1675 l
0.3550 0.1677 l
0.3584 0.1678 l
0.3618 0.1680 l
0.3653 0.1682 l
0.3687 0.1684 l
0.3721 0.1685 l
0.3756 0.1687 l
0.3790 0.1689 l
0.3824 0.1691 l
0.3859 0.1693 l
0.3893 0.1695 l
0.3927 0.1697 l
0.3962 0.1699 l
0.3996 0.1701 l
0.4030 0.1704 l
0.4065 0.1706 l
0.4099 0.1708 l
0.4133 0.1711 l
0.4168 0.1713 l
0.4202 0.1716 l
0.4237 0.1718 l
0.4271 0.1721 l
0.4305 0.1724 l
0.4340 0.1726 l
0.4374 0.1729 l
0.4408 0.1732 l
0.4443 0.1735 l
0.4477 0.1738 l
0.4511 0.1742 l
0.4546 0.1745 l
0.4580 0.1748 l
0.4614 0.1752 l
0.4649 0.1756 l
0.4683 0.1759 l
0.4717 0.1763 l
0.4752 0.1767 l
0.4786 0.1771 l
0.4820 0.1776 l
0.4855 0.1780 l
0.4889 0.1785 l
0.4923 0.1789 l
0.4958 0.1794 l
0.4992 0.1800 l
0.5026 0.1805 l
0.5061 0.1810 l
0.5095 0.1816 l
0.5129 0.1822 l
0.5164 0.1828 l
0.5198 0.1835 l
0.5233 0.1842 l
0.5267 0.1849 l
0.5301 0.1856 l
0.5336 0.1864 l
0.5370 0.1872 l
0.5404 0.1880 l
0.5439 0.1889 l
0.5473 0.1899 l
0.5507 0.1908 l
0.5542 0.1919 l
0.5576 0.1930 l
0.5610 0.1941 l
0.5645 0.1953 l
0.5679 0.1966 l
0.5713 0.1980 l
0.5748 0.1995 l
0.5782 0.2010 l
0.5816 0.2027 l
0.5851 0.2044 l
0.5885 0.2063 l
0.5919 0.2084 l
0.5954 0.2106 l
0.5988 0.2130 l
0.6022 0.2155 l
0.6057 0.2183 l
0.6091 0.2214 l
0.6125 0.2248 l
0.6160 0.2285 l
0.6194 0.2325 l
0.6228 0.2371 l
0.6263 0.2422 l
0.6297 0.2479 l
0.6331 0.2543 l
0.6366 0.2617 l
0.6400 0.2703 l
0.6434 0.2802 l
0.6469 0.2919 l
0.6503 0.3058 l
0.6538 0.3227 l
0.6572 0.3436 l
0.6606 0.3699 l
0.6641 0.4037 l
0.6675 0.4482 l
0.6709 0.5077 l
0.6744 0.5863 l
0.6778 0.6797 l
0.6812 0.7525 l
0.6847 0.7445 l
0.6881 0.6633 l
0.6915 0.5705 l
0.6950 0.4948 l
0.6984 0.4379 l
0.7018 0.3953 l
0.7053 0.3628 l
0.7087 0.3374 l
0.7121 0.3173 l
0.7156 0.3009 l
0.7190 0.2873 l
0.7224 0.2759 l
0.7259 0.2662 l
0.7293 0.2579 l
0.7327 0.2506 l
0.7362 0.2443 l
0.7396 0.2387 l
0.7430 0.2337 l
0.7465 0.2292 l
0.7499 0.2252 l
0.7533 0.2216 l
0.7568 0.2183 l
0.7602 0.2152 l
0.7636 0.2125 l
0.7671 0.2099 l
0.7705 0.2076 l
0.7739 0.2054 l
0.7774 0.2034 l
0.7808 0.2015 l
0.7843 0.1998 l
0.7877 0.1981 l
0.7911 0.1966 l
0.7946 0.1951 l
0.7980 0.1938 l
0.8014 0.1925 l
0.8049 0.1913 l
0.8083 0.1901 l
0.8117 0.1891 l
0.8152 0.1880 l
0.8186 0.1871 l
0.8220 0.1861 l
0.8255 0.1852 l
0.8289 0.1844 l
0.8323 0.1836 l
0.8358 0.1828 l
0.8392 0.1821 l
0.8426 0.1814 l
0.8461 0.1807 l
0.8495 0.1801 l
0.8529 0.1795 l
0.8564 0.1789 l
0.8598 0.1783 l
0.8632 0.1777 l
0.8667 0.1772 l
0.8701 0.1767 l
0.8735 0.1762 l
0.8770 0.1757 l
0.8804 0.1753 l
0.8838 0.1748 l
0.8873 0.1744 l
0.8907 0.1740 l
0.8942 0.1736 l
0.8976 0.1732 l
0.9010 0.1728 l
0.9045 0.1725 l
0.9079 0.1721 l
0.9113 0.1718 l
0.9148 0.1715 l
0.9182 0.1711 l
0.9216 0.1708 l
0.9251 0.1705 l
0.9285 0.1702 l
0.9319 0.1699 l
0.9354 0.1697 l
0.9388 0.1694 l
0.9422 0.1691 l
0.9457 0.1689 l
0.9491 0.1686 l
0.9525 0.1684 l
0.9560 0.1681 l
0.9594 0.1679 l
0.9628 0.1677 l
0.9663 0.1674 l
0.9697 0.1672 l
0.9731 0.1670 l
0.9766 0.1668 l
0.9800 0.1666 l
0.9834 0.1664 l
0.9869 0.1662 l
0.9903 0.1660 l
0.9938 0.1659 l
0.9972 0.1657 l
1.0006 0.1655 l
1.0041 0.1653 l
1.0075 0.1652 l
1.0109 0.1650 l
1.0144 0.1648 l
1.0178 0.1647 l
1.0212 0.1645 l
1.0247 0.1644 l
1.0281 0.1642 l
1.0315 0.1641 l
1.0350 0.1639 l
1.0384 0.1638 l
s
[/DeviceRGB] SCS
Color1 SC
[] 0 SD
0.0030 SLW
n
0.1832 0.1624 m
0.1867 0.1624 l
0.1901 0.1625 l
0.1935 0.1626 l
0.1970 0.1626 l
0.2004 0.1627 l
0.2038 0.1628 l
0.2073 0.1629 l
0.2107 0.1629 l
0.2142 0.1630 l
0.2176 0.1631 l
0.2210 0.1632 l
0.2245 0.1633 l
0.2279 0.1634 l
0.2313 0.1634 l
0.2348 0.1635 l
0.2382 0.1636 l
0.2416 0.1637 l
0.2451 0.1638 l
0.2485 0.1639 l
0.2519 0.1640 l
0.2554 0.1641 l
0.2588 0.1642 l
0.2622 0.1643 l
0.2657 0.1644 l
0.2691 0.1645 l
0.2725 0.1646 l
0.2760 0.1647 l
0.2794 0.1648 l
0.2828 0.1649 l
0.2863 0.1650 l
0.2897 0.1651 l
0.2931 0.1652 l
0.2966 0.1653 l
0.3000 0.1655 l
0.3034 0.1656 l
0.3069 0.1657 l
0.3103 0.1658 l
0.3137 0.1659 l
0.3172 0.1661 l
0.3206 0.1662 l
0.3241 0.1663 l
0.3275 0.1665 l
0.3309 0.1666 l
0.3344 0.1668 l
0.3378 0.1669 l
0.3412 0.1671 l
0.3447 0.1672 l
0.3481 0.1674 l
0.3515 0.1675 l
0.3550 0.1677 l
0.3584 0.1678 l
0.3618 0.1680 l
0.3653 0.1682 l
0.3687 0.1684 l
0.3721 0.1685 l
0.3756 0.1687 l
0.3790 0.1689 l
0.3824 0.1691 l
0.3859 0.1693 l
0.3893 0.1695 l
0.3927 0.1697 l
0.3962 0.1699 l
0.3996 0.1701 l
0.4030 0.1704 l
0.4065 0.1706 l
0.4099 0.1708 l
0.4133 0.1711 l
0.4168 0.1713 l
0.4202 0.1716 l
0.4237 0.1718 l
0.4271 0.1721 l
0.4305 0.1724 l
0.4340 0.1726 l
0.4374 0.1729 l
0.4408 0.1732 l
0.4443 0.1735 l
0.4477 0.1738 l
0.4511 0.1742 l
0.4546 0.1745 l
0.4580 0.1748 l
0.4614 0.1752 l
0.4649 0.1756 l
0.4683 0.1759 l
0.4717 0.1763 l
0.4752 0.1767 l
0.4786 0.1771 l
0.4820 0.1776 l
0.4855 0.1780 l
0.4889 0.1785 l
0.4923 0.1789 l
0.4958 0.1794 l
0.4992 0.1800 l
0.5026 0.1805 l
0.5061 0.1810 l
0.5095 0.1816 l
0.5129 0.1822 l
0.5164 0.1828 l
0.5198 0.1835 l
0.5233 0.1842 l
0.5267 0.1849 l
0.5301 0.1856 l
0.5336 0.1864 l
0.5370 0.1872 l
0.5404 0.1880 l
0.5439 0.1889 l
0.5473 0.1899 l
0.5507 0.1908 l
0.5542 0.1919 l
0.5576 0.1930 l
0.5610 0.1941 l
0.5645 0.1953 l
0.5679 0.1966 l
0.5713 0.1980 l
0.5748 0.1995 l
0.5782 0.2010 l
0.5816 0.2027 l
0.5851 0.2044 l
0.5885 0.2063 l
0.5919 0.2084 l
0.5954 0.2106 l
0.5988 0.2130 l
0.6022 0.2155 l
0.6057 0.2183 l
0.6091 0.2214 l
0.6125 0.2248 l
0.6160 0.2285 l
0.6194 0.2325 l
0.6228 0.2371 l
0.6263 0.2422 l
0.6297 0.2479 l
0.6331 0.2543 l
0.6366 0.2617 l
0.6400 0.2703 l
0.6434 0.2802 l
0.6469 0.2919 l
0.6503 0.3058 l
0.6538 0.3227 l
0.6572 0.3436 l
0.6606 0.3699 l
0.6641 0.4037 l
0.6675 0.4482 l
0.6709 0.5077 l
0.6744 0.5863 l
0.6778 0.6797 l
0.6812 0.7525 l
0.6847 0.7445 l
0.6881 0.6633 l
0.6915 0.5705 l
0.6950 0.4948 l
0.6984 0.4379 l
0.7018 0.3953 l
0.7053 0.3628 l
0.7087 0.3374 l
0.7121 0.3173 l
0.7156 0.3009 l
0.7190 0.2873 l
0.7224 0.2759 l
0.7259 0.2662 l
0.7293 0.2579 l
0.7327 0.2506 l
0.7362 0.2443 l
0.7396 0.2387 l
0.7430 0.2337 l
0.7465 0.2292 l
0.7499 0.2252 l
0.7533 0.2216 l
0.7568 0.2183 l
0.7602 0.2152 l
0.7636 0.2125 l
0.7671 0.2099 l
0.7705 0.2076 l
0.7739 0.2054 l
0.7774 0.2034 l
0.7808 0.2015 l
0.7843 0.1998 l
0.7877 0.1981 l
0.7911 0.1966 l
0.7946 0.1951 l
0.7980 0.1938 l
0.8014 0.1925 l
0.8049 0.1913 l
0.8083 0.1901 l
0.8117 0.1891 l
0.8152 0.1880 l
0.8186 0.1871 l
0.8220 0.1861 l
0.8255 0.1852 l
0.8289 0.1844 l
0.8323 0.1836 l
0.8358 0.1828 l
0.8392 0.1821 l
0.8426 0.1814 l
0.8461 0.1807 l
0.8495 0.1801 l
0.8529 0.1795 l
0.8564 0.1789 l
0.8598 0.1783 l
0.8632 0.1777 l
0.8667 0.1772 l
0.8701 0.1767 l
0.8735 0.1762 l
0.8770 0.1757 l
0.8804 0.1753 l
0.8838 0.1748 l
0.8873 0.1744 l
0.8907 0.1740 l
0.8942 0.1736 l
0.8976 0.1732 l
0.9010 0.1728 l
0.9045 0.1725 l
0.9079 0.1721 l
0.9113 0.1718 l
0.9148 0.1715 l
0.9182 0.1711 l
0.9216 0.1708 l
0.9251 0.1705 l
0.9285 0.1702 l
0.9319 0.1699 l
0.9354 0.1697 l
0.9388 0.1694 l
0.9422 0.1691 l
0.9457 0.1689 l
0.9491 0.1686 l
0.9525 0.1684 l
0.9560 0.1681 l
0.9594 0.1679 l
0.9628 0.1677 l
0.9663 0.1674 l
0.9697 0.1672 l
0.9731 0.1670 l
0.9766 0.1668 l
0.9800 0.1666 l
0.9834 0.1664 l
0.9869 0.1662 l
0.9903 0.1660 l
0.9938 0.1659 l
0.9972 0.1657 l
1.0006 0.1655 l
1.0041 0.1653 l
1.0075 0.1652 l
1.0109 0.1650 l
1.0144 0.1648 l
1.0178 0.1647 l
1.0212 0.1645 l
1.0247 0.1644 l
1.0281 0.1642 l
1.0315 0.1641 l
1.0350 0.1639 l
1.0384 0.1638 l
s
n
0.1949 0.1500 m
0.1949 0.1700 l
s
n
0.1949 0.8500 m
0.1949 0.8300 l
s
n
0.3661 0.1500 m
0.3661 0.1700 l
s
n
0.3661 0.8500 m
0.3661 0.8300 l
s
n
0.5374 0.1500 m
0.5374 0.1700 l
s
n
0.5374 0.8500 m
0.5374 0.8300 l
s
n
0.7087 0.1500 m
0.7087 0.1700 l
s
n
0.7087 0.8500 m
0.7087 0.8300 l
s
n
0.8800 0.1500 m
0.8800 0.1700 l
s
n
0.8800 0.8500 m
0.8800 0.8300 l
s
n
0.2805 0.1500 m
0.2805 0.1800 l
s
n
0.2805 0.8500 m
0.2805 0.8200 l
s
n
0.4518 0.1500 m
0.4518 0.1800 l
s
n
0.4518 0.8500 m
0.4518 0.8200 l
s
n
0.6231 0.1500 m
0.6231 0.1800 l
s
n
0.6231 0.8500 m
0.6231 0.8200 l
s
n
0.7943 0.1500 m
0.7943 0.1800 l
s
n
0.7943 0.8500 m
0.7943 0.8200 l
s
n
0.9656 0.1500 m
0.9656 0.1800 l
s
n
0.9656 0.8500 m
0.9656 0.8200 l
s
/Helvetica findfont
dup length dict begin
 {1 index /FID ne {def} {pop pop} ifelse} forall
 /Encoding DefEncoding def
 currentdict
end
/Font12 exch definefont pop
/Font12 FFSF
0.2405 0.1104 m
GS
[0.0420 0.0000 0.0000 0.0420 0 0] CC
(1.26) show
GR
/Font12 FFSF
0.4118 0.1104 m
GS
[0.0420 0.0000 0.0000 0.0420 0 0] CC
(1.40) show
GR
/Font12 FFSF
0.5829 0.1104 m
GS
[0.0420 0.0000 0.0000 0.0420 0 0] CC
(1.54) show
GR
/Font12 FFSF
0.7543 0.1104 m
GS
[0.0420 0.0000 0.0000 0.0420 0 0] CC
(1.68) show
GR
/Font12 FFSF
0.9256 0.1104 m
GS
[0.0420 0.0000 0.0000 0.0420 0 0] CC
(1.82) show
GR
/Font12 FFSF
0.5670 0.0684 m
GS
[0.0420 0.0000 0.0000 0.0420 0 0] CC
(f\(Hz\)) show
GR
n
0.1832 0.1882 m
0.2032 0.1882 l
s
n
1.0384 0.1882 m
1.0184 0.1882 l
s
n
0.1832 0.2635 m
0.2032 0.2635 l
s
n
1.0384 0.2635 m
1.0184 0.2635 l
s
n
0.1832 0.3388 m
0.2032 0.3388 l
s
n
1.0384 0.3388 m
1.0184 0.3388 l
s
n
0.1832 0.4142 m
0.2032 0.4142 l
s
n
1.0384 0.4142 m
1.0184 0.4142 l
s
n
0.1832 0.4895 m
0.2032 0.4895 l
s
n
1.0384 0.4895 m
1.0184 0.4895 l
s
n
0.1832 0.5648 m
0.2032 0.5648 l
s
n
1.0384 0.5648 m
1.0184 0.5648 l
s
n
0.1832 0.6401 m
0.2032 0.6401 l
s
n
1.0384 0.6401 m
1.0184 0.6401 l
s
n
0.1832 0.7155 m
0.2032 0.7155 l
s
n
1.0384 0.7155 m
1.0184 0.7155 l
s
n
0.1832 0.7908 m
0.2032 0.7908 l
s
n
1.0384 0.7908 m
1.0184 0.7908 l
s
n
0.1832 0.1505 m
0.2132 0.1505 l
s
n
1.0384 0.1505 m
1.0084 0.1505 l
s
n
0.1832 0.2259 m
0.2132 0.2259 l
s
n
1.0384 0.2259 m
1.0084 0.2259 l
s
n
0.1832 0.3012 m
0.2132 0.3012 l
s
n
1.0384 0.3012 m
1.0084 0.3012 l
s
n
0.1832 0.3765 m
0.2132 0.3765 l
s
n
1.0384 0.3765 m
1.0084 0.3765 l
s
n
0.1832 0.4518 m
0.2132 0.4518 l
s
n
1.0384 0.4518 m
1.0084 0.4518 l
s
n
0.1832 0.5271 m
0.2132 0.5271 l
s
n
1.0384 0.5271 m
1.0084 0.5271 l
s
n
0.1832 0.6025 m
0.2132 0.6025 l
s
n
1.0384 0.6025 m
1.0084 0.6025 l
s
n
0.1832 0.6778 m
0.2132 0.6778 l
s
n
1.0384 0.6778 m
1.0084 0.6778 l
s
n
0.1832 0.7531 m
0.2132 0.7531 l
s
n
1.0384 0.7531 m
1.0084 0.7531 l
s
n
0.1832 0.8284 m
0.2132 0.8284 l
s
n
1.0384 0.8284 m
1.0084 0.8284 l
s
/Font12 FFSF
0.0700 0.1361 m
GS
[0.0420 0.0000 0.0000 0.0420 0 0] CC
(0.000) show
GR
/Font12 FFSF
0.0696 0.2115 m
GS
[0.0420 0.0000 0.0000 0.0420 0 0] CC
(0.014) show
GR
/Font12 FFSF
0.0700 0.2868 m
GS
[0.0420 0.0000 0.0000 0.0420 0 0] CC
(0.028) show
GR
/Font12 FFSF
0.0700 0.3621 m
GS
[0.0420 0.0000 0.0000 0.0420 0 0] CC
(0.042) show
GR
/Font12 FFSF
0.0700 0.4374 m
GS
[0.0420 0.0000 0.0000 0.0420 0 0] CC
(0.056) show
GR
/Font12 FFSF
0.0700 0.5127 m
GS
[0.0420 0.0000 0.0000 0.0420 0 0] CC
(0.070) show
GR
/Font12 FFSF
0.0696 0.5881 m
GS
[0.0420 0.0000 0.0000 0.0420 0 0] CC
(0.084) show
GR
/Font12 FFSF
0.0700 0.6634 m
GS
[0.0420 0.0000 0.0000 0.0420 0 0] CC
(0.098) show
GR
/Font12 FFSF
0.0700 0.7387 m
GS
[0.0420 0.0000 0.0000 0.0420 0 0] CC
(0.112) show
GR
/Font12 FFSF
0.0700 0.8140 m
GS
[0.0420 0.0000 0.0000 0.0420 0 0] CC
(0.126) show
GR
/Font12 FFSF
0.0504 0.4562 m
GS
[0.0000 0.0420 -0.0420 0.0000 0 0] CC
(A\(m\)) show
GR
n
0.1832 0.1500 m
0.1832 0.8500 l
1.0384 0.8500 l
1.0384 0.1500 l
0.1832 0.1500 l
c
s
%%Trailer
%%BoundingBox: 10 34 625 512
%%DocumentNeededResources: font Helvetica
%%EOF
