%!PS-Adobe-3.0 EPSF-3.0
%%BoundingBox: (atend)
%%LanguageLevel: 2
%%Creator: Grace-5.1.22
%%CreationDate: Wed Oct  8 22:13:38 2014
%%DocumentData: Clean8Bit
%%Orientation: Portrait
%%Title: fit-gph-3.agr
%%For: wfr
%%DocumentNeededResources: (atend)
%%EndComments
%%BeginProlog
/m {moveto} def
/l {lineto} def
/s {stroke} def
/n {newpath} def
/c {closepath} def
/RL {rlineto} def
/SLW {setlinewidth} def
/GS {gsave} def
/GR {grestore} def
/SC {setcolor} def
/SGRY {setgray} def
/SRGB {setrgbcolor} def
/SD {setdash} def
/SLC {setlinecap} def
/SLJ {setlinejoin} def
/SCS {setcolorspace} def
/FFSF {findfont setfont} def
/CC {concat} def
/PXL {n m 0 0 RL s} def
/Color0 {1.0000 1.0000 1.0000} def
/Color1 {0.0000 0.0000 0.0000} def
/Color2 {1.0000 0.0000 0.0000} def
/Color3 {0.0000 1.0000 0.0000} def
/Color4 {0.0000 0.0000 1.0000} def
/Color5 {1.0000 1.0000 0.0000} def
/Color6 {0.7373 0.5608 0.5608} def
/Color7 {0.8627 0.8627 0.8627} def
/Color8 {0.5804 0.0000 0.8275} def
/Color9 {0.0000 1.0000 1.0000} def
/Color10 {1.0000 0.0000 1.0000} def
/Color11 {1.0000 0.6471 0.0000} def
/Color12 {0.4471 0.1294 0.7373} def
/Color13 {0.4039 0.0275 0.2824} def
/Color14 {0.2510 0.8784 0.8157} def
/Color15 {0.0000 0.5451 0.0000} def
/PTRN {
 /pat_bits exch def 
 <<
  /PaintType 2
  /PatternType 1 /TilingType 1
  /BBox[0 0 16 16]
  /XStep 16 /YStep 16
  /PaintProc {
   pop
   16 16 true [-1 0 0 -1 16 16] pat_bits imagemask
  }
 >>
 [0.0017 0 0 0.0017 0 0]
 makepattern
} def
/Pattern0 {<0000000000000000000000000000000000000000000000000000000000000000> PTRN} bind def
/Pattern1 {<ffffffffffffffffffffffffffffffffffffffffffffffffffffffffffffffff> PTRN} bind def
/Pattern2 {<eeeeffffbbbbffffeeeeffffbbbbffffeeeeffffbbbbffffeeeeffffbbbbffff> PTRN} bind def
/Pattern3 {<eeeebbbbeeeebbbbeeeebbbbeeeebbbbeeeebbbbeeeebbbbeeeebbbbeeeebbbb> PTRN} bind def
/Pattern4 {<5555aaaa5555aaaa5555aaaa5555aaaa5555aaaa5555aaaa5555aaaa5555aaaa> PTRN} bind def
/Pattern5 {<1111444411114444111144441111444411114444111144441111444411114444> PTRN} bind def
/Pattern6 {<1111000044440000111100004444000011110000444400001111000044440000> PTRN} bind def
/Pattern7 {<1010000000000000010100000000000010100000000000000101000000000000> PTRN} bind def
/Pattern8 {<0000000000000000000000000000000000000000000000000000000000000000> PTRN} bind def
/Pattern9 {<1e1e0f0f8787c3c3e1e1f0f078783c3c1e1e0f0f8787c3c3e1e1f0f078783c3c> PTRN} bind def
/Pattern10 {<7878f0f0e1e1c3c387870f0f1e1e3c3c7878f0f0e1e1c3c387870f0f1e1e3c3c> PTRN} bind def
/Pattern11 {<3333333333333333333333333333333333333333333333333333333333333333> PTRN} bind def
/Pattern12 {<ffffffff00000000ffffffff00000000ffffffff00000000ffffffff00000000> PTRN} bind def
/Pattern13 {<8181424224241818181824244242818181814242242418181818242442428181> PTRN} bind def
/Pattern14 {<8080404020201010080804040202010180804040202010100808040402020101> PTRN} bind def
/Pattern15 {<0101020204040808101020204040808001010202040408081010202040408080> PTRN} bind def
/Pattern16 {<2222222222222222222222222222222222222222222222222222222222222222> PTRN} bind def
/Pattern17 {<0000ffff000000000000ffff000000000000ffff000000000000ffff00000000> PTRN} bind def
/Pattern18 {<2222ffff222222222222ffff222222222222ffff222222222222ffff22222222> PTRN} bind def
/Pattern19 {<ffffffff33333333ffffffff33333333ffffffff33333333ffffffff33333333> PTRN} bind def
/Pattern20 {<0f0f0f0f0f0f0f0ff0f0f0f0f0f0f0f00f0f0f0f0f0f0f0ff0f0f0f0f0f0f0f0> PTRN} bind def
/Pattern21 {<ff00ff00ff00ff00ff00ff00ff00ff0000ff00ff00ff00ff00ff00ff00ff00ff> PTRN} bind def
/Pattern22 {<8001800180018001800180018001ffffffff8001800180018001800180018001> PTRN} bind def
/Pattern23 {<c003c003c003c003c003c003ffffffffffffffffc003c003c003c003c003c003> PTRN} bind def
/Pattern24 {<040404040404ffff404040404040ffff040404040404ffff404040404040ffff> PTRN} bind def
/Pattern25 {<180018001800180018001800ffffffff001800180018001800180018ffffffff> PTRN} bind def
/Pattern26 {<1111b8b87c7c3a3a1111a3a3c7c78b8b1111b8b87c7c3a3a1111a3a3c7c78b8b> PTRN} bind def
/Pattern27 {<101010102828c7c70101010182827c7c101010102828c7c70101010182827c7c> PTRN} bind def
/Pattern28 {<1c1c121211112121c1c12121111112121c1c121211112121c1c1212111111212> PTRN} bind def
/Pattern29 {<3e3e414180808080e3e31414080808083e3e414180808080e3e3141408080808> PTRN} bind def
/Pattern30 {<4848888884848383848488884848383848488888848483838484888848483838> PTRN} bind def
/Pattern31 {<03030404080808080c0c12122121c0c003030404080808080c0c12122121c0c0> PTRN} bind def
/ellipsedict 8 dict def
ellipsedict /mtrx matrix put
/EARC {
 ellipsedict begin
  /endangle exch def
  /startangle exch def
  /yrad exch def
  /xrad exch def
  /y exch def
  /x exch def
  /savematrix mtrx currentmatrix def
  x y translate
  xrad yrad scale
  0 0 1 startangle endangle arc
  savematrix setmatrix
 end
} def
/TL {
  /kcomp exch def
  /linewidth exch def
  /offset exch def
  GS
  0 offset rmoveto
  linewidth SLW
  dup stringwidth exch kcomp add exch RL s
  GR
} def
/KINIT
{
 /kvector exch def
 /kid 0 def
} def
/KPROC
{
 pop pop
 kvector kid get
 0 rmoveto
 /kid 1 kid add def
} def
/DefEncoding [
 /.notdef
 /.notdef
 /.notdef
 /.notdef
 /.notdef
 /.notdef
 /.notdef
 /.notdef
 /.notdef
 /.notdef
 /.notdef
 /.notdef
 /.notdef
 /.notdef
 /.notdef
 /.notdef
 /.notdef
 /.notdef
 /.notdef
 /.notdef
 /.notdef
 /.notdef
 /.notdef
 /.notdef
 /.notdef
 /.notdef
 /.notdef
 /.notdef
 /.notdef
 /.notdef
 /.notdef
 /.notdef
 /space
 /exclam
 /quotedbl
 /numbersign
 /dollar
 /percent
 /ampersand
 /quoteright
 /parenleft
 /parenright
 /asterisk
 /plus
 /comma
 /hyphen
 /period
 /slash
 /zero
 /one
 /two
 /three
 /four
 /five
 /six
 /seven
 /eight
 /nine
 /colon
 /semicolon
 /less
 /equal
 /greater
 /question
 /at
 /A
 /B
 /C
 /D
 /E
 /F
 /G
 /H
 /I
 /J
 /K
 /L
 /M
 /N
 /O
 /P
 /Q
 /R
 /S
 /T
 /U
 /V
 /W
 /X
 /Y
 /Z
 /bracketleft
 /backslash
 /bracketright
 /asciicircum
 /underscore
 /grave
 /a
 /b
 /c
 /d
 /e
 /f
 /g
 /h
 /i
 /j
 /k
 /l
 /m
 /n
 /o
 /p
 /q
 /r
 /s
 /t
 /u
 /v
 /w
 /x
 /y
 /z
 /braceleft
 /bar
 /braceright
 /asciitilde
 /.notdef
 /.notdef
 /.notdef
 /.notdef
 /.notdef
 /.notdef
 /.notdef
 /.notdef
 /.notdef
 /.notdef
 /.notdef
 /.notdef
 /.notdef
 /.notdef
 /.notdef
 /.notdef
 /.notdef
 /.notdef
 /.notdef
 /.notdef
 /.notdef
 /.notdef
 /.notdef
 /.notdef
 /.notdef
 /.notdef
 /.notdef
 /.notdef
 /.notdef
 /.notdef
 /.notdef
 /.notdef
 /.notdef
 /space
 /exclamdown
 /cent
 /sterling
 /currency
 /yen
 /brokenbar
 /section
 /dieresis
 /copyright
 /ordfeminine
 /guillemotleft
 /logicalnot
 /hyphen
 /registered
 /macron
 /degree
 /plusminus
 /twosuperior
 /threesuperior
 /acute
 /mu
 /paragraph
 /periodcentered
 /cedilla
 /onesuperior
 /ordmasculine
 /guillemotright
 /onequarter
 /onehalf
 /threequarters
 /questiondown
 /Agrave
 /Aacute
 /Acircumflex
 /Atilde
 /Adieresis
 /Aring
 /AE
 /Ccedilla
 /Egrave
 /Eacute
 /Ecircumflex
 /Edieresis
 /Igrave
 /Iacute
 /Icircumflex
 /Idieresis
 /Eth
 /Ntilde
 /Ograve
 /Oacute
 /Ocircumflex
 /Otilde
 /Odieresis
 /multiply
 /Oslash
 /Ugrave
 /Uacute
 /Ucircumflex
 /Udieresis
 /Yacute
 /Thorn
 /germandbls
 /agrave
 /aacute
 /acircumflex
 /atilde
 /adieresis
 /aring
 /ae
 /ccedilla
 /egrave
 /eacute
 /ecircumflex
 /edieresis
 /igrave
 /iacute
 /icircumflex
 /idieresis
 /eth
 /ntilde
 /ograve
 /oacute
 /ocircumflex
 /otilde
 /odieresis
 /divide
 /oslash
 /ugrave
 /uacute
 /ucircumflex
 /udieresis
 /yacute
 /thorn
 /ydieresis
] def
%%EndProlog
%%BeginSetup
%%EndSetup
600.00 600.00 scale
n
0.0000 0.0000 m
0.0000 1.0000 l
1.2884 1.0000 l
1.2884 0.0000 l
c
[/DeviceRGB] SCS
Color0 SC
fill
[/DeviceRGB] SCS
Color1 SC
[] 0 SD
0.0015 SLW
0 SLC
0 SLJ
n
0.2075 0.2025 m
0.2075 0.2200 l
s
n
0.1975 0.2200 m
0.2175 0.2200 l
s
n
0.2075 0.2025 m
0.2075 0.1850 l
s
n
0.2175 0.1850 m
0.1975 0.1850 l
s
n
0.2155 0.2375 m
0.2155 0.2550 l
s
n
0.2055 0.2550 m
0.2255 0.2550 l
s
n
0.2155 0.2375 m
0.2155 0.2200 l
s
n
0.2255 0.2200 m
0.2055 0.2200 l
s
n
0.2234 0.3017 m
0.2234 0.3192 l
s
n
0.2134 0.3192 m
0.2334 0.3192 l
s
n
0.2234 0.3017 m
0.2234 0.2842 l
s
n
0.2334 0.2842 m
0.2134 0.2842 l
s
n
0.2314 0.3950 m
0.2314 0.4125 l
s
n
0.2214 0.4125 m
0.2414 0.4125 l
s
n
0.2314 0.3950 m
0.2314 0.3775 l
s
n
0.2414 0.3775 m
0.2214 0.3775 l
s
n
0.2394 0.4766 m
0.2394 0.4941 l
s
n
0.2294 0.4941 m
0.2494 0.4941 l
s
n
0.2394 0.4766 m
0.2394 0.4591 l
s
n
0.2494 0.4591 m
0.2294 0.4591 l
s
n
0.2474 0.5758 m
0.2474 0.5933 l
s
n
0.2374 0.5933 m
0.2574 0.5933 l
s
n
0.2474 0.5758 m
0.2474 0.5583 l
s
n
0.2574 0.5583 m
0.2374 0.5583 l
s
n
0.2554 0.6691 m
0.2554 0.6866 l
s
n
0.2454 0.6866 m
0.2654 0.6866 l
s
n
0.2554 0.6691 m
0.2554 0.6516 l
s
n
0.2654 0.6516 m
0.2454 0.6516 l
s
n
0.2634 0.7391 m
0.2634 0.7566 l
s
n
0.2534 0.7566 m
0.2734 0.7566 l
s
n
0.2634 0.7391 m
0.2634 0.7216 l
s
n
0.2734 0.7216 m
0.2534 0.7216 l
s
n
0.2714 0.7916 m
0.2714 0.8091 l
s
n
0.2614 0.8091 m
0.2814 0.8091 l
s
n
0.2714 0.7916 m
0.2714 0.7741 l
s
n
0.2814 0.7741 m
0.2614 0.7741 l
s
n
0.2794 0.8441 m
0.2794 0.8501 l
s
n
0.2794 0.8441 m
0.2794 0.8266 l
s
n
0.2894 0.8266 m
0.2694 0.8266 l
s
n
0.2873 0.8150 m
0.2873 0.8325 l
s
n
0.2773 0.8325 m
0.2973 0.8325 l
s
n
0.2873 0.8150 m
0.2873 0.7975 l
s
n
0.2973 0.7975 m
0.2773 0.7975 l
s
n
0.2953 0.7741 m
0.2953 0.7916 l
s
n
0.2853 0.7916 m
0.3053 0.7916 l
s
n
0.2953 0.7741 m
0.2953 0.7566 l
s
n
0.3053 0.7566 m
0.2853 0.7566 l
s
n
0.3033 0.7333 m
0.3033 0.7508 l
s
n
0.2933 0.7508 m
0.3133 0.7508 l
s
n
0.3033 0.7333 m
0.3033 0.7158 l
s
n
0.3133 0.7158 m
0.2933 0.7158 l
s
n
0.3113 0.6750 m
0.3113 0.6925 l
s
n
0.3013 0.6925 m
0.3213 0.6925 l
s
n
0.3113 0.6750 m
0.3113 0.6575 l
s
n
0.3213 0.6575 m
0.3013 0.6575 l
s
n
0.3193 0.6050 m
0.3193 0.6225 l
s
n
0.3093 0.6225 m
0.3293 0.6225 l
s
n
0.3193 0.6050 m
0.3193 0.5875 l
s
n
0.3293 0.5875 m
0.3093 0.5875 l
s
n
0.3273 0.5350 m
0.3273 0.5525 l
s
n
0.3173 0.5525 m
0.3373 0.5525 l
s
n
0.3273 0.5350 m
0.3273 0.5175 l
s
n
0.3373 0.5175 m
0.3173 0.5175 l
s
n
0.3353 0.4650 m
0.3353 0.4825 l
s
n
0.3253 0.4825 m
0.3453 0.4825 l
s
n
0.3353 0.4650 m
0.3353 0.4475 l
s
n
0.3453 0.4475 m
0.3253 0.4475 l
s
n
0.3433 0.3950 m
0.3433 0.4125 l
s
n
0.3333 0.4125 m
0.3533 0.4125 l
s
n
0.3433 0.3950 m
0.3433 0.3775 l
s
n
0.3533 0.3775 m
0.3333 0.3775 l
s
n
0.3512 0.3775 m
0.3512 0.3950 l
s
n
0.3412 0.3950 m
0.3612 0.3950 l
s
n
0.3512 0.3775 m
0.3512 0.3600 l
s
n
0.3612 0.3600 m
0.3412 0.3600 l
s
n
0.3592 0.3542 m
0.3592 0.3717 l
s
n
0.3492 0.3717 m
0.3692 0.3717 l
s
n
0.3592 0.3542 m
0.3592 0.3367 l
s
n
0.3692 0.3367 m
0.3492 0.3367 l
s
n
0.3672 0.3542 m
0.3672 0.3717 l
s
n
0.3572 0.3717 m
0.3772 0.3717 l
s
n
0.3672 0.3542 m
0.3672 0.3367 l
s
n
0.3772 0.3367 m
0.3572 0.3367 l
s
n
0.3752 0.3658 m
0.3752 0.3833 l
s
n
0.3652 0.3833 m
0.3852 0.3833 l
s
n
0.3752 0.3658 m
0.3752 0.3483 l
s
n
0.3852 0.3483 m
0.3652 0.3483 l
s
n
0.3832 0.3950 m
0.3832 0.4125 l
s
n
0.3732 0.4125 m
0.3932 0.4125 l
s
n
0.3832 0.3950 m
0.3832 0.3775 l
s
n
0.3932 0.3775 m
0.3732 0.3775 l
s
n
0.3912 0.4533 m
0.3912 0.4708 l
s
n
0.3812 0.4708 m
0.4012 0.4708 l
s
n
0.3912 0.4533 m
0.3912 0.4358 l
s
n
0.4012 0.4358 m
0.3812 0.4358 l
s
n
0.3992 0.4941 m
0.3992 0.5116 l
s
n
0.3892 0.5116 m
0.4092 0.5116 l
s
n
0.3992 0.4941 m
0.3992 0.4766 l
s
n
0.4092 0.4766 m
0.3892 0.4766 l
s
n
0.4072 0.5525 m
0.4072 0.5700 l
s
n
0.3972 0.5700 m
0.4172 0.5700 l
s
n
0.4072 0.5525 m
0.4072 0.5350 l
s
n
0.4172 0.5350 m
0.3972 0.5350 l
s
n
0.4151 0.5991 m
0.4151 0.6166 l
s
n
0.4051 0.6166 m
0.4251 0.6166 l
s
n
0.4151 0.5991 m
0.4151 0.5816 l
s
n
0.4251 0.5816 m
0.4051 0.5816 l
s
n
0.4231 0.6516 m
0.4231 0.6691 l
s
n
0.4131 0.6691 m
0.4331 0.6691 l
s
n
0.4231 0.6516 m
0.4231 0.6341 l
s
n
0.4331 0.6341 m
0.4131 0.6341 l
s
n
0.4311 0.6808 m
0.4311 0.6983 l
s
n
0.4211 0.6983 m
0.4411 0.6983 l
s
n
0.4311 0.6808 m
0.4311 0.6633 l
s
n
0.4411 0.6633 m
0.4211 0.6633 l
s
n
0.4391 0.6983 m
0.4391 0.7158 l
s
n
0.4291 0.7158 m
0.4491 0.7158 l
s
n
0.4391 0.6983 m
0.4391 0.6808 l
s
n
0.4491 0.6808 m
0.4291 0.6808 l
s
n
0.4471 0.6983 m
0.4471 0.7158 l
s
n
0.4371 0.7158 m
0.4571 0.7158 l
s
n
0.4471 0.6983 m
0.4471 0.6808 l
s
n
0.4571 0.6808 m
0.4371 0.6808 l
s
n
0.4551 0.6925 m
0.4551 0.7100 l
s
n
0.4451 0.7100 m
0.4651 0.7100 l
s
n
0.4551 0.6925 m
0.4551 0.6750 l
s
n
0.4651 0.6750 m
0.4451 0.6750 l
s
n
0.4631 0.6516 m
0.4631 0.6691 l
s
n
0.4531 0.6691 m
0.4731 0.6691 l
s
n
0.4631 0.6516 m
0.4631 0.6341 l
s
n
0.4731 0.6341 m
0.4531 0.6341 l
s
n
0.4710 0.6225 m
0.4710 0.6400 l
s
n
0.4610 0.6400 m
0.4810 0.6400 l
s
n
0.4710 0.6225 m
0.4710 0.6050 l
s
n
0.4810 0.6050 m
0.4610 0.6050 l
s
n
0.4790 0.5816 m
0.4790 0.5991 l
s
n
0.4690 0.5991 m
0.4890 0.5991 l
s
n
0.4790 0.5816 m
0.4790 0.5641 l
s
n
0.4890 0.5641 m
0.4690 0.5641 l
s
n
0.4870 0.5350 m
0.4870 0.5525 l
s
n
0.4770 0.5525 m
0.4970 0.5525 l
s
n
0.4870 0.5350 m
0.4870 0.5175 l
s
n
0.4970 0.5175 m
0.4770 0.5175 l
s
n
0.4950 0.5058 m
0.4950 0.5233 l
s
n
0.4850 0.5233 m
0.5050 0.5233 l
s
n
0.4950 0.5058 m
0.4950 0.4883 l
s
n
0.5050 0.4883 m
0.4850 0.4883 l
s
n
0.5030 0.4766 m
0.5030 0.4941 l
s
n
0.4930 0.4941 m
0.5130 0.4941 l
s
n
0.5030 0.4766 m
0.5030 0.4591 l
s
n
0.5130 0.4591 m
0.4930 0.4591 l
s
n
0.5110 0.4475 m
0.5110 0.4650 l
s
n
0.5010 0.4650 m
0.5210 0.4650 l
s
n
0.5110 0.4475 m
0.5110 0.4300 l
s
n
0.5210 0.4300 m
0.5010 0.4300 l
s
n
0.5190 0.4358 m
0.5190 0.4533 l
s
n
0.5090 0.4533 m
0.5290 0.4533 l
s
n
0.5190 0.4358 m
0.5190 0.4183 l
s
n
0.5290 0.4183 m
0.5090 0.4183 l
s
n
0.5270 0.4416 m
0.5270 0.4591 l
s
n
0.5170 0.4591 m
0.5370 0.4591 l
s
n
0.5270 0.4416 m
0.5270 0.4241 l
s
n
0.5370 0.4241 m
0.5170 0.4241 l
s
n
0.5349 0.4475 m
0.5349 0.4650 l
s
n
0.5249 0.4650 m
0.5449 0.4650 l
s
n
0.5349 0.4475 m
0.5349 0.4300 l
s
n
0.5449 0.4300 m
0.5249 0.4300 l
s
n
0.5429 0.4591 m
0.5429 0.4766 l
s
n
0.5329 0.4766 m
0.5529 0.4766 l
s
n
0.5429 0.4591 m
0.5429 0.4416 l
s
n
0.5529 0.4416 m
0.5329 0.4416 l
s
n
0.5509 0.4883 m
0.5509 0.5058 l
s
n
0.5409 0.5058 m
0.5609 0.5058 l
s
n
0.5509 0.4883 m
0.5509 0.4708 l
s
n
0.5609 0.4708 m
0.5409 0.4708 l
s
n
0.5589 0.5233 m
0.5589 0.5408 l
s
n
0.5489 0.5408 m
0.5689 0.5408 l
s
n
0.5589 0.5233 m
0.5589 0.5058 l
s
n
0.5689 0.5058 m
0.5489 0.5058 l
s
n
0.5669 0.5583 m
0.5669 0.5758 l
s
n
0.5569 0.5758 m
0.5769 0.5758 l
s
n
0.5669 0.5583 m
0.5669 0.5408 l
s
n
0.5769 0.5408 m
0.5569 0.5408 l
s
n
0.5749 0.5816 m
0.5749 0.5991 l
s
n
0.5649 0.5991 m
0.5849 0.5991 l
s
n
0.5749 0.5816 m
0.5749 0.5641 l
s
n
0.5849 0.5641 m
0.5649 0.5641 l
s
n
0.5829 0.6108 m
0.5829 0.6283 l
s
n
0.5729 0.6283 m
0.5929 0.6283 l
s
n
0.5829 0.6108 m
0.5829 0.5933 l
s
n
0.5929 0.5933 m
0.5729 0.5933 l
s
n
0.5909 0.6283 m
0.5909 0.6458 l
s
n
0.5809 0.6458 m
0.6009 0.6458 l
s
n
0.5909 0.6283 m
0.5909 0.6108 l
s
n
0.6009 0.6108 m
0.5809 0.6108 l
s
n
0.5988 0.6341 m
0.5988 0.6516 l
s
n
0.5888 0.6516 m
0.6088 0.6516 l
s
n
0.5988 0.6341 m
0.5988 0.6166 l
s
n
0.6088 0.6166 m
0.5888 0.6166 l
s
n
0.6068 0.6400 m
0.6068 0.6575 l
s
n
0.5968 0.6575 m
0.6168 0.6575 l
s
n
0.6068 0.6400 m
0.6068 0.6225 l
s
n
0.6168 0.6225 m
0.5968 0.6225 l
s
n
0.6148 0.6400 m
0.6148 0.6575 l
s
n
0.6048 0.6575 m
0.6248 0.6575 l
s
n
0.6148 0.6400 m
0.6148 0.6225 l
s
n
0.6248 0.6225 m
0.6048 0.6225 l
s
n
0.6228 0.6225 m
0.6228 0.6400 l
s
n
0.6128 0.6400 m
0.6328 0.6400 l
s
n
0.6228 0.6225 m
0.6228 0.6050 l
s
n
0.6328 0.6050 m
0.6128 0.6050 l
s
n
0.6308 0.6050 m
0.6308 0.6225 l
s
n
0.6208 0.6225 m
0.6408 0.6225 l
s
n
0.6308 0.6050 m
0.6308 0.5875 l
s
n
0.6408 0.5875 m
0.6208 0.5875 l
s
n
0.6388 0.5758 m
0.6388 0.5933 l
s
n
0.6288 0.5933 m
0.6488 0.5933 l
s
n
0.6388 0.5758 m
0.6388 0.5583 l
s
n
0.6488 0.5583 m
0.6288 0.5583 l
s
n
0.6468 0.5525 m
0.6468 0.5700 l
s
n
0.6368 0.5700 m
0.6568 0.5700 l
s
n
0.6468 0.5525 m
0.6468 0.5350 l
s
n
0.6568 0.5350 m
0.6368 0.5350 l
s
n
0.6548 0.5291 m
0.6548 0.5466 l
s
n
0.6448 0.5466 m
0.6648 0.5466 l
s
n
0.6548 0.5291 m
0.6548 0.5116 l
s
n
0.6648 0.5116 m
0.6448 0.5116 l
s
n
0.6627 0.5058 m
0.6627 0.5233 l
s
n
0.6527 0.5233 m
0.6727 0.5233 l
s
n
0.6627 0.5058 m
0.6627 0.4883 l
s
n
0.6727 0.4883 m
0.6527 0.4883 l
s
n
0.6707 0.4941 m
0.6707 0.5116 l
s
n
0.6607 0.5116 m
0.6807 0.5116 l
s
n
0.6707 0.4941 m
0.6707 0.4766 l
s
n
0.6807 0.4766 m
0.6607 0.4766 l
s
n
0.6787 0.4825 m
0.6787 0.5000 l
s
n
0.6687 0.5000 m
0.6887 0.5000 l
s
n
0.6787 0.4825 m
0.6787 0.4650 l
s
n
0.6887 0.4650 m
0.6687 0.4650 l
s
n
0.6867 0.4708 m
0.6867 0.4883 l
s
n
0.6767 0.4883 m
0.6967 0.4883 l
s
n
0.6867 0.4708 m
0.6867 0.4533 l
s
n
0.6967 0.4533 m
0.6767 0.4533 l
s
n
0.6947 0.4883 m
0.6947 0.5058 l
s
n
0.6847 0.5058 m
0.7047 0.5058 l
s
n
0.6947 0.4883 m
0.6947 0.4708 l
s
n
0.7047 0.4708 m
0.6847 0.4708 l
s
n
0.7027 0.5000 m
0.7027 0.5175 l
s
n
0.6927 0.5175 m
0.7127 0.5175 l
s
n
0.7027 0.5000 m
0.7027 0.4825 l
s
n
0.7127 0.4825 m
0.6927 0.4825 l
s
n
0.7107 0.5233 m
0.7107 0.5408 l
s
n
0.7007 0.5408 m
0.7207 0.5408 l
s
n
0.7107 0.5233 m
0.7107 0.5058 l
s
n
0.7207 0.5058 m
0.7007 0.5058 l
s
n
0.7186 0.5350 m
0.7186 0.5525 l
s
n
0.7086 0.5525 m
0.7286 0.5525 l
s
n
0.7186 0.5350 m
0.7186 0.5175 l
s
n
0.7286 0.5175 m
0.7086 0.5175 l
s
n
0.7266 0.5641 m
0.7266 0.5816 l
s
n
0.7166 0.5816 m
0.7366 0.5816 l
s
n
0.7266 0.5641 m
0.7266 0.5466 l
s
n
0.7366 0.5466 m
0.7166 0.5466 l
s
n
0.7346 0.5758 m
0.7346 0.5933 l
s
n
0.7246 0.5933 m
0.7446 0.5933 l
s
n
0.7346 0.5758 m
0.7346 0.5583 l
s
n
0.7446 0.5583 m
0.7246 0.5583 l
s
n
0.7426 0.5933 m
0.7426 0.6108 l
s
n
0.7326 0.6108 m
0.7526 0.6108 l
s
n
0.7426 0.5933 m
0.7426 0.5758 l
s
n
0.7526 0.5758 m
0.7326 0.5758 l
s
n
0.7506 0.5991 m
0.7506 0.6166 l
s
n
0.7406 0.6166 m
0.7606 0.6166 l
s
n
0.7506 0.5991 m
0.7506 0.5816 l
s
n
0.7606 0.5816 m
0.7406 0.5816 l
s
n
0.7586 0.6050 m
0.7586 0.6225 l
s
n
0.7486 0.6225 m
0.7686 0.6225 l
s
n
0.7586 0.6050 m
0.7586 0.5875 l
s
n
0.7686 0.5875 m
0.7486 0.5875 l
s
n
0.7666 0.6108 m
0.7666 0.6283 l
s
n
0.7566 0.6283 m
0.7766 0.6283 l
s
n
0.7666 0.6108 m
0.7666 0.5933 l
s
n
0.7766 0.5933 m
0.7566 0.5933 l
s
n
0.7746 0.6050 m
0.7746 0.6225 l
s
n
0.7646 0.6225 m
0.7846 0.6225 l
s
n
0.7746 0.6050 m
0.7746 0.5875 l
s
n
0.7846 0.5875 m
0.7646 0.5875 l
s
n
0.7825 0.5933 m
0.7825 0.6108 l
s
n
0.7725 0.6108 m
0.7925 0.6108 l
s
n
0.7825 0.5933 m
0.7825 0.5758 l
s
n
0.7925 0.5758 m
0.7725 0.5758 l
s
n
0.7905 0.5816 m
0.7905 0.5991 l
s
n
0.7805 0.5991 m
0.8005 0.5991 l
s
n
0.7905 0.5816 m
0.7905 0.5641 l
s
n
0.8005 0.5641 m
0.7805 0.5641 l
s
n
0.7985 0.5758 m
0.7985 0.5933 l
s
n
0.7885 0.5933 m
0.8085 0.5933 l
s
n
0.7985 0.5758 m
0.7985 0.5583 l
s
n
0.8085 0.5583 m
0.7885 0.5583 l
s
n
0.8065 0.5525 m
0.8065 0.5700 l
s
n
0.7965 0.5700 m
0.8165 0.5700 l
s
n
0.8065 0.5525 m
0.8065 0.5350 l
s
n
0.8165 0.5350 m
0.7965 0.5350 l
s
n
0.8145 0.5408 m
0.8145 0.5583 l
s
n
0.8045 0.5583 m
0.8245 0.5583 l
s
n
0.8145 0.5408 m
0.8145 0.5233 l
s
n
0.8245 0.5233 m
0.8045 0.5233 l
s
n
0.8225 0.5175 m
0.8225 0.5350 l
s
n
0.8125 0.5350 m
0.8325 0.5350 l
s
n
0.8225 0.5175 m
0.8225 0.5000 l
s
n
0.8325 0.5000 m
0.8125 0.5000 l
s
n
0.8305 0.5058 m
0.8305 0.5233 l
s
n
0.8205 0.5233 m
0.8405 0.5233 l
s
n
0.8305 0.5058 m
0.8305 0.4883 l
s
n
0.8405 0.4883 m
0.8205 0.4883 l
s
n
0.8385 0.5116 m
0.8385 0.5291 l
s
n
0.8285 0.5291 m
0.8485 0.5291 l
s
n
0.8385 0.5116 m
0.8385 0.4941 l
s
n
0.8485 0.4941 m
0.8285 0.4941 l
s
n
0.8464 0.5116 m
0.8464 0.5291 l
s
n
0.8364 0.5291 m
0.8564 0.5291 l
s
n
0.8464 0.5116 m
0.8464 0.4941 l
s
n
0.8564 0.4941 m
0.8364 0.4941 l
s
n
0.8544 0.5175 m
0.8544 0.5350 l
s
n
0.8444 0.5350 m
0.8644 0.5350 l
s
n
0.8544 0.5175 m
0.8544 0.5000 l
s
n
0.8644 0.5000 m
0.8444 0.5000 l
s
n
0.8624 0.5233 m
0.8624 0.5408 l
s
n
0.8524 0.5408 m
0.8724 0.5408 l
s
n
0.8624 0.5233 m
0.8624 0.5058 l
s
n
0.8724 0.5058 m
0.8524 0.5058 l
s
n
0.8704 0.5350 m
0.8704 0.5525 l
s
n
0.8604 0.5525 m
0.8804 0.5525 l
s
n
0.8704 0.5350 m
0.8704 0.5175 l
s
n
0.8804 0.5175 m
0.8604 0.5175 l
s
n
0.8784 0.5408 m
0.8784 0.5583 l
s
n
0.8684 0.5583 m
0.8884 0.5583 l
s
n
0.8784 0.5408 m
0.8784 0.5233 l
s
n
0.8884 0.5233 m
0.8684 0.5233 l
s
n
0.8864 0.5583 m
0.8864 0.5758 l
s
n
0.8764 0.5758 m
0.8964 0.5758 l
s
n
0.8864 0.5583 m
0.8864 0.5408 l
s
n
0.8964 0.5408 m
0.8764 0.5408 l
s
n
0.8944 0.5641 m
0.8944 0.5816 l
s
n
0.8844 0.5816 m
0.9044 0.5816 l
s
n
0.8944 0.5641 m
0.8944 0.5466 l
s
n
0.9044 0.5466 m
0.8844 0.5466 l
s
n
0.9024 0.5641 m
0.9024 0.5816 l
s
n
0.8924 0.5816 m
0.9124 0.5816 l
s
n
0.9024 0.5641 m
0.9024 0.5466 l
s
n
0.9124 0.5466 m
0.8924 0.5466 l
s
n
0.9103 0.5816 m
0.9103 0.5991 l
s
n
0.9003 0.5991 m
0.9203 0.5991 l
s
n
0.9103 0.5816 m
0.9103 0.5641 l
s
n
0.9203 0.5641 m
0.9003 0.5641 l
s
n
0.9183 0.5816 m
0.9183 0.5991 l
s
n
0.9083 0.5991 m
0.9283 0.5991 l
s
n
0.9183 0.5816 m
0.9183 0.5641 l
s
n
0.9283 0.5641 m
0.9083 0.5641 l
s
n
0.9263 0.5875 m
0.9263 0.6050 l
s
n
0.9163 0.6050 m
0.9363 0.6050 l
s
n
0.9263 0.5875 m
0.9263 0.5700 l
s
n
0.9363 0.5700 m
0.9163 0.5700 l
s
n
0.9343 0.5758 m
0.9343 0.5933 l
s
n
0.9243 0.5933 m
0.9443 0.5933 l
s
n
0.9343 0.5758 m
0.9343 0.5583 l
s
n
0.9443 0.5583 m
0.9243 0.5583 l
s
n
0.9423 0.5700 m
0.9423 0.5875 l
s
n
0.9323 0.5875 m
0.9523 0.5875 l
s
n
0.9423 0.5700 m
0.9423 0.5525 l
s
n
0.9523 0.5525 m
0.9323 0.5525 l
s
n
0.9503 0.5641 m
0.9503 0.5816 l
s
n
0.9403 0.5816 m
0.9603 0.5816 l
s
n
0.9503 0.5641 m
0.9503 0.5466 l
s
n
0.9603 0.5466 m
0.9403 0.5466 l
s
n
0.9583 0.5583 m
0.9583 0.5758 l
s
n
0.9483 0.5758 m
0.9683 0.5758 l
s
n
0.9583 0.5583 m
0.9583 0.5408 l
s
n
0.9683 0.5408 m
0.9483 0.5408 l
s
n
0.9662 0.5583 m
0.9662 0.5758 l
s
n
0.9562 0.5758 m
0.9762 0.5758 l
s
n
0.9662 0.5583 m
0.9662 0.5408 l
s
n
0.9762 0.5408 m
0.9562 0.5408 l
s
n
0.9742 0.5466 m
0.9742 0.5641 l
s
n
0.9642 0.5641 m
0.9842 0.5641 l
s
n
0.9742 0.5466 m
0.9742 0.5291 l
s
n
0.9842 0.5291 m
0.9642 0.5291 l
s
n
0.9822 0.5408 m
0.9822 0.5583 l
s
n
0.9722 0.5583 m
0.9922 0.5583 l
s
n
0.9822 0.5408 m
0.9822 0.5233 l
s
n
0.9922 0.5233 m
0.9722 0.5233 l
s
n
0.9902 0.5291 m
0.9902 0.5466 l
s
n
0.9802 0.5466 m
1.0002 0.5466 l
s
n
0.9902 0.5291 m
0.9902 0.5116 l
s
n
1.0002 0.5116 m
0.9802 0.5116 l
s
n
0.9982 0.5291 m
0.9982 0.5466 l
s
n
0.9882 0.5466 m
1.0082 0.5466 l
s
n
0.9982 0.5291 m
0.9982 0.5116 l
s
n
1.0082 0.5116 m
0.9882 0.5116 l
s
n
1.0062 0.5233 m
1.0062 0.5408 l
s
n
0.9962 0.5408 m
1.0162 0.5408 l
s
n
1.0062 0.5233 m
1.0062 0.5058 l
s
n
1.0162 0.5058 m
0.9962 0.5058 l
s
n
1.0142 0.5233 m
1.0142 0.5408 l
s
n
1.0042 0.5408 m
1.0242 0.5408 l
s
n
1.0142 0.5233 m
1.0142 0.5058 l
s
n
1.0242 0.5058 m
1.0042 0.5058 l
s
[] 0 SD
0.0030 SLW
n 0.2075 0.2025 0.0020 0.0020 0 360 EARC s
n 0.2155 0.2375 0.0020 0.0020 0 360 EARC s
n 0.2234 0.3017 0.0020 0.0020 0 360 EARC s
n 0.2314 0.3950 0.0020 0.0020 0 360 EARC s
n 0.2394 0.4766 0.0020 0.0020 0 360 EARC s
n 0.2474 0.5758 0.0020 0.0020 0 360 EARC s
n 0.2554 0.6691 0.0020 0.0020 0 360 EARC s
n 0.2634 0.7391 0.0020 0.0020 0 360 EARC s
n 0.2714 0.7916 0.0020 0.0020 0 360 EARC s
n 0.2794 0.8441 0.0020 0.0020 0 360 EARC s
n 0.2873 0.8150 0.0020 0.0020 0 360 EARC s
n 0.2953 0.7741 0.0020 0.0020 0 360 EARC s
n 0.3033 0.7333 0.0020 0.0020 0 360 EARC s
n 0.3113 0.6750 0.0020 0.0020 0 360 EARC s
n 0.3193 0.6050 0.0020 0.0020 0 360 EARC s
n 0.3273 0.5350 0.0020 0.0020 0 360 EARC s
n 0.3353 0.4650 0.0020 0.0020 0 360 EARC s
n 0.3433 0.3950 0.0020 0.0020 0 360 EARC s
n 0.3512 0.3775 0.0020 0.0020 0 360 EARC s
n 0.3592 0.3542 0.0020 0.0020 0 360 EARC s
n 0.3672 0.3542 0.0020 0.0020 0 360 EARC s
n 0.3752 0.3658 0.0020 0.0020 0 360 EARC s
n 0.3832 0.3950 0.0020 0.0020 0 360 EARC s
n 0.3912 0.4533 0.0020 0.0020 0 360 EARC s
n 0.3992 0.4941 0.0020 0.0020 0 360 EARC s
n 0.4072 0.5525 0.0020 0.0020 0 360 EARC s
n 0.4151 0.5991 0.0020 0.0020 0 360 EARC s
n 0.4231 0.6516 0.0020 0.0020 0 360 EARC s
n 0.4311 0.6808 0.0020 0.0020 0 360 EARC s
n 0.4391 0.6983 0.0020 0.0020 0 360 EARC s
n 0.4471 0.6983 0.0020 0.0020 0 360 EARC s
n 0.4551 0.6925 0.0020 0.0020 0 360 EARC s
n 0.4631 0.6516 0.0020 0.0020 0 360 EARC s
n 0.4710 0.6225 0.0020 0.0020 0 360 EARC s
n 0.4790 0.5816 0.0020 0.0020 0 360 EARC s
n 0.4870 0.5350 0.0020 0.0020 0 360 EARC s
n 0.4950 0.5058 0.0020 0.0020 0 360 EARC s
n 0.5030 0.4766 0.0020 0.0020 0 360 EARC s
n 0.5110 0.4475 0.0020 0.0020 0 360 EARC s
n 0.5190 0.4358 0.0020 0.0020 0 360 EARC s
n 0.5270 0.4416 0.0020 0.0020 0 360 EARC s
n 0.5349 0.4475 0.0020 0.0020 0 360 EARC s
n 0.5429 0.4591 0.0020 0.0020 0 360 EARC s
n 0.5509 0.4883 0.0020 0.0020 0 360 EARC s
n 0.5589 0.5233 0.0020 0.0020 0 360 EARC s
n 0.5669 0.5583 0.0020 0.0020 0 360 EARC s
n 0.5749 0.5816 0.0020 0.0020 0 360 EARC s
n 0.5829 0.6108 0.0020 0.0020 0 360 EARC s
n 0.5909 0.6283 0.0020 0.0020 0 360 EARC s
n 0.5988 0.6341 0.0020 0.0020 0 360 EARC s
n 0.6068 0.6400 0.0020 0.0020 0 360 EARC s
n 0.6148 0.6400 0.0020 0.0020 0 360 EARC s
n 0.6228 0.6225 0.0020 0.0020 0 360 EARC s
n 0.6308 0.6050 0.0020 0.0020 0 360 EARC s
n 0.6388 0.5758 0.0020 0.0020 0 360 EARC s
n 0.6468 0.5525 0.0020 0.0020 0 360 EARC s
n 0.6548 0.5291 0.0020 0.0020 0 360 EARC s
n 0.6627 0.5058 0.0020 0.0020 0 360 EARC s
n 0.6707 0.4941 0.0020 0.0020 0 360 EARC s
n 0.6787 0.4825 0.0020 0.0020 0 360 EARC s
n 0.6867 0.4708 0.0020 0.0020 0 360 EARC s
n 0.6947 0.4883 0.0020 0.0020 0 360 EARC s
n 0.7027 0.5000 0.0020 0.0020 0 360 EARC s
n 0.7107 0.5233 0.0020 0.0020 0 360 EARC s
n 0.7186 0.5350 0.0020 0.0020 0 360 EARC s
n 0.7266 0.5641 0.0020 0.0020 0 360 EARC s
n 0.7346 0.5758 0.0020 0.0020 0 360 EARC s
n 0.7426 0.5933 0.0020 0.0020 0 360 EARC s
n 0.7506 0.5991 0.0020 0.0020 0 360 EARC s
n 0.7586 0.6050 0.0020 0.0020 0 360 EARC s
n 0.7666 0.6108 0.0020 0.0020 0 360 EARC s
n 0.7746 0.6050 0.0020 0.0020 0 360 EARC s
n 0.7825 0.5933 0.0020 0.0020 0 360 EARC s
n 0.7905 0.5816 0.0020 0.0020 0 360 EARC s
n 0.7985 0.5758 0.0020 0.0020 0 360 EARC s
n 0.8065 0.5525 0.0020 0.0020 0 360 EARC s
n 0.8145 0.5408 0.0020 0.0020 0 360 EARC s
n 0.8225 0.5175 0.0020 0.0020 0 360 EARC s
n 0.8305 0.5058 0.0020 0.0020 0 360 EARC s
n 0.8385 0.5116 0.0020 0.0020 0 360 EARC s
n 0.8464 0.5116 0.0020 0.0020 0 360 EARC s
n 0.8544 0.5175 0.0020 0.0020 0 360 EARC s
n 0.8624 0.5233 0.0020 0.0020 0 360 EARC s
n 0.8704 0.5350 0.0020 0.0020 0 360 EARC s
n 0.8784 0.5408 0.0020 0.0020 0 360 EARC s
n 0.8864 0.5583 0.0020 0.0020 0 360 EARC s
n 0.8944 0.5641 0.0020 0.0020 0 360 EARC s
n 0.9024 0.5641 0.0020 0.0020 0 360 EARC s
n 0.9103 0.5816 0.0020 0.0020 0 360 EARC s
n 0.9183 0.5816 0.0020 0.0020 0 360 EARC s
n 0.9263 0.5875 0.0020 0.0020 0 360 EARC s
n 0.9343 0.5758 0.0020 0.0020 0 360 EARC s
n 0.9423 0.5700 0.0020 0.0020 0 360 EARC s
n 0.9503 0.5641 0.0020 0.0020 0 360 EARC s
n 0.9583 0.5583 0.0020 0.0020 0 360 EARC s
n 0.9662 0.5583 0.0020 0.0020 0 360 EARC s
n 0.9742 0.5466 0.0020 0.0020 0 360 EARC s
n 0.9822 0.5408 0.0020 0.0020 0 360 EARC s
n 0.9902 0.5291 0.0020 0.0020 0 360 EARC s
n 0.9982 0.5291 0.0020 0.0020 0 360 EARC s
n 1.0062 0.5233 0.0020 0.0020 0 360 EARC s
n 1.0142 0.5233 0.0020 0.0020 0 360 EARC s
[/DeviceRGB] SCS
Color2 SC
[] 0 SD
0.0015 SLW
n
0.1832 0.3010 m
0.1919 0.2274 l
0.2005 0.1946 l
0.2092 0.2039 l
0.2178 0.2515 l
0.2264 0.3300 l
0.2351 0.4288 l
0.2437 0.5355 l
0.2524 0.6380 l
0.2610 0.7250 l
0.2696 0.7878 l
0.2783 0.8209 l
0.2869 0.8225 l
0.2955 0.7941 l
0.3042 0.7409 l
0.3128 0.6702 l
0.3215 0.5909 l
0.3301 0.5124 l
0.3387 0.4434 l
0.3474 0.3909 l
0.3560 0.3597 l
0.3646 0.3522 l
0.3733 0.3676 l
0.3819 0.4029 l
0.3906 0.4529 l
0.3992 0.5112 l
0.4078 0.5709 l
0.4165 0.6251 l
0.4251 0.6683 l
0.4337 0.6962 l
0.4424 0.7067 l
0.4510 0.6997 l
0.4597 0.6770 l
0.4683 0.6421 l
0.4769 0.5995 l
0.4856 0.5546 l
0.4942 0.5124 l
0.5028 0.4775 l
0.5115 0.4532 l
0.5201 0.4417 l
0.5288 0.4435 l
0.5374 0.4575 l
0.5460 0.4815 l
0.5547 0.5122 l
0.5633 0.5457 l
0.5720 0.5782 l
0.5806 0.6062 l
0.5892 0.6267 l
0.5979 0.6380 l
0.6065 0.6394 l
0.6151 0.6313 l
0.6238 0.6151 l
0.6324 0.5932 l
0.6411 0.5684 l
0.6497 0.5435 l
0.6583 0.5214 l
0.6670 0.5043 l
0.6756 0.4939 l
0.6842 0.4909 l
0.6929 0.4951 l
0.7015 0.5057 l
0.7102 0.5211 l
0.7188 0.5394 l
0.7274 0.5582 l
0.7361 0.5755 l
0.7447 0.5895 l
0.7533 0.5987 l
0.7620 0.6025 l
0.7706 0.6008 l
0.7793 0.5940 l
0.7879 0.5833 l
0.7965 0.5701 l
0.8052 0.5559 l
0.8138 0.5425 l
0.8225 0.5313 l
0.8311 0.5233 l
0.8397 0.5193 l
0.8484 0.5195 l
0.8570 0.5236 l
0.8656 0.5309 l
0.8743 0.5404 l
0.8829 0.5510 l
0.8916 0.5613 l
0.9002 0.5702 l
0.9088 0.5769 l
0.9175 0.5808 l
0.9261 0.5815 l
0.9347 0.5792 l
0.9434 0.5743 l
0.9520 0.5675 l
0.9607 0.5597 l
0.9693 0.5519 l
0.9779 0.5448 l
0.9866 0.5393 l
0.9952 0.5358 l
1.0038 0.5346 l
1.0125 0.5358 l
1.0211 0.5389 l
1.0298 0.5437 l
1.0384 0.5494 l
s
[/DeviceRGB] SCS
Color1 SC
[] 0 SD
0.0030 SLW
n
0.1832 0.3010 m
0.1919 0.2274 l
0.2005 0.1946 l
0.2092 0.2039 l
0.2178 0.2515 l
0.2264 0.3300 l
0.2351 0.4288 l
0.2437 0.5355 l
0.2524 0.6380 l
0.2610 0.7250 l
0.2696 0.7878 l
0.2783 0.8209 l
0.2869 0.8225 l
0.2955 0.7941 l
0.3042 0.7409 l
0.3128 0.6702 l
0.3215 0.5909 l
0.3301 0.5124 l
0.3387 0.4434 l
0.3474 0.3909 l
0.3560 0.3597 l
0.3646 0.3522 l
0.3733 0.3676 l
0.3819 0.4029 l
0.3906 0.4529 l
0.3992 0.5112 l
0.4078 0.5709 l
0.4165 0.6251 l
0.4251 0.6683 l
0.4337 0.6962 l
0.4424 0.7067 l
0.4510 0.6997 l
0.4597 0.6770 l
0.4683 0.6421 l
0.4769 0.5995 l
0.4856 0.5546 l
0.4942 0.5124 l
0.5028 0.4775 l
0.5115 0.4532 l
0.5201 0.4417 l
0.5288 0.4435 l
0.5374 0.4575 l
0.5460 0.4815 l
0.5547 0.5122 l
0.5633 0.5457 l
0.5720 0.5782 l
0.5806 0.6062 l
0.5892 0.6267 l
0.5979 0.6380 l
0.6065 0.6394 l
0.6151 0.6313 l
0.6238 0.6151 l
0.6324 0.5932 l
0.6411 0.5684 l
0.6497 0.5435 l
0.6583 0.5214 l
0.6670 0.5043 l
0.6756 0.4939 l
0.6842 0.4909 l
0.6929 0.4951 l
0.7015 0.5057 l
0.7102 0.5211 l
0.7188 0.5394 l
0.7274 0.5582 l
0.7361 0.5755 l
0.7447 0.5895 l
0.7533 0.5987 l
0.7620 0.6025 l
0.7706 0.6008 l
0.7793 0.5940 l
0.7879 0.5833 l
0.7965 0.5701 l
0.8052 0.5559 l
0.8138 0.5425 l
0.8225 0.5313 l
0.8311 0.5233 l
0.8397 0.5193 l
0.8484 0.5195 l
0.8570 0.5236 l
0.8656 0.5309 l
0.8743 0.5404 l
0.8829 0.5510 l
0.8916 0.5613 l
0.9002 0.5702 l
0.9088 0.5769 l
0.9175 0.5808 l
0.9261 0.5815 l
0.9347 0.5792 l
0.9434 0.5743 l
0.9520 0.5675 l
0.9607 0.5597 l
0.9693 0.5519 l
0.9779 0.5448 l
0.9866 0.5393 l
0.9952 0.5358 l
1.0038 0.5346 l
1.0125 0.5358 l
1.0211 0.5389 l
1.0298 0.5437 l
1.0384 0.5494 l
s
n
0.2927 0.1500 m
0.2927 0.1700 l
s
n
0.2927 0.8500 m
0.2927 0.8300 l
s
n
0.4631 0.1500 m
0.4631 0.1700 l
s
n
0.4631 0.8500 m
0.4631 0.8300 l
s
n
0.6335 0.1500 m
0.6335 0.1700 l
s
n
0.6335 0.8500 m
0.6335 0.8300 l
s
n
0.8038 0.1500 m
0.8038 0.1700 l
s
n
0.8038 0.8500 m
0.8038 0.8300 l
s
n
0.9742 0.1500 m
0.9742 0.1700 l
s
n
0.9742 0.8500 m
0.9742 0.8300 l
s
n
0.2075 0.1500 m
0.2075 0.1800 l
s
n
0.2075 0.8500 m
0.2075 0.8200 l
s
n
0.3779 0.1500 m
0.3779 0.1800 l
s
n
0.3779 0.8500 m
0.3779 0.8200 l
s
n
0.5483 0.1500 m
0.5483 0.1800 l
s
n
0.5483 0.8500 m
0.5483 0.8200 l
s
n
0.7186 0.1500 m
0.7186 0.1800 l
s
n
0.7186 0.8500 m
0.7186 0.8200 l
s
n
0.8890 0.1500 m
0.8890 0.1800 l
s
n
0.8890 0.8500 m
0.8890 0.8200 l
s
/Helvetica findfont
dup length dict begin
 {1 index /FID ne {def} {pop pop} ifelse} forall
 /Encoding DefEncoding def
 currentdict
end
/Font12 exch definefont pop
/Font12 FFSF
0.1967 0.1104 m
GS
[0.0420 0.0000 0.0000 0.0420 0 0] CC
(0) show
GR
/Font12 FFSF
0.3437 0.1104 m
GS
[0.0420 0.0000 0.0000 0.0420 0 0] CC
(640) show
GR
/Font12 FFSF
0.5025 0.1104 m
GS
[0.0420 0.0000 0.0000 0.0420 0 0] CC
(1280) show
GR
/Font12 FFSF
0.6728 0.1104 m
GS
[0.0420 0.0000 0.0000 0.0420 0 0] CC
(1920) show
GR
/Font12 FFSF
0.8432 0.1104 m
GS
[0.0420 0.0000 0.0000 0.0420 0 0] CC
(2560) show
GR
/Font12 FFSF
0.5370 0.0688 m
GS
[0.0420 0.0000 0.0000 0.0420 0 0] CC
(tempo/s) show
GR
n
0.1832 0.1500 m
0.2032 0.1500 l
s
n
1.0384 0.1500 m
1.0184 0.1500 l
s
n
0.1832 0.2667 m
0.2032 0.2667 l
s
n
1.0384 0.2667 m
1.0184 0.2667 l
s
n
0.1832 0.3833 m
0.2032 0.3833 l
s
n
1.0384 0.3833 m
1.0184 0.3833 l
s
n
0.1832 0.5000 m
0.2032 0.5000 l
s
n
1.0384 0.5000 m
1.0184 0.5000 l
s
n
0.1832 0.6166 m
0.2032 0.6166 l
s
n
1.0384 0.6166 m
1.0184 0.6166 l
s
n
0.1832 0.7333 m
0.2032 0.7333 l
s
n
1.0384 0.7333 m
1.0184 0.7333 l
s
n
0.1832 0.2083 m
0.2132 0.2083 l
s
n
1.0384 0.2083 m
1.0084 0.2083 l
s
n
0.1832 0.3250 m
0.2132 0.3250 l
s
n
1.0384 0.3250 m
1.0084 0.3250 l
s
n
0.1832 0.4416 m
0.2132 0.4416 l
s
n
1.0384 0.4416 m
1.0084 0.4416 l
s
n
0.1832 0.5583 m
0.2132 0.5583 l
s
n
1.0384 0.5583 m
1.0084 0.5583 l
s
n
0.1832 0.6750 m
0.2132 0.6750 l
s
n
1.0384 0.6750 m
1.0084 0.6750 l
s
n
0.1832 0.7916 m
0.2132 0.7916 l
s
n
1.0384 0.7916 m
1.0084 0.7916 l
s
/Font12 FFSF
0.0932 0.1939 m
GS
[0.0420 0.0000 0.0000 0.0420 0 0] CC
(0.46) show
GR
/Font12 FFSF
0.0932 0.3106 m
GS
[0.0420 0.0000 0.0000 0.0420 0 0] CC
(0.48) show
GR
/Font12 FFSF
0.0932 0.4272 m
GS
[0.0420 0.0000 0.0000 0.0420 0 0] CC
(0.50) show
GR
/Font12 FFSF
0.0932 0.5439 m
GS
[0.0420 0.0000 0.0000 0.0420 0 0] CC
(0.52) show
GR
/Font12 FFSF
0.0928 0.6606 m
GS
[0.0420 0.0000 0.0000 0.0420 0 0] CC
(0.54) show
GR
/Font12 FFSF
0.0932 0.7772 m
GS
[0.0420 0.0000 0.0000 0.0420 0 0] CC
(0.56) show
GR
/Font12 FFSF
0.0736 0.4676 m
GS
[0.0000 0.0420 -0.0420 0.0000 0 0] CC
(y/m) show
GR
n
0.1832 0.1500 m
0.1832 0.8500 l
1.0384 0.8500 l
1.0384 0.1500 l
0.1832 0.1500 l
c
s
/Times-Roman findfont
dup length dict begin
 {1 index /FID ne {def} {pop pop} ifelse} forall
 /Encoding DefEncoding def
 currentdict
end
/Font32 exch definefont pop
/Font32 FFSF
0.5003 0.7916 m
GS
[0.0420 0.0000 0.0000 0.0420 0 0] CC
(Regime Livre) show
GR
%%Trailer
%%BoundingBox: 24 34 625 512
%%DocumentNeededResources: font Helvetica
%%+ font Times-Roman
%%EOF
