%!PS-Adobe-3.0 EPSF-3.0
%%BoundingBox: (atend)
%%LanguageLevel: 2
%%Creator: Grace-5.1.22
%%CreationDate: Sat Nov  8 01:47:50 2014
%%DocumentData: Clean8Bit
%%Orientation: Portrait
%%Title: fit-gph-3.agr
%%For: wfr
%%DocumentNeededResources: (atend)
%%EndComments
%%BeginProlog
/m {moveto} def
/l {lineto} def
/s {stroke} def
/n {newpath} def
/c {closepath} def
/RL {rlineto} def
/SLW {setlinewidth} def
/GS {gsave} def
/GR {grestore} def
/SC {setcolor} def
/SGRY {setgray} def
/SRGB {setrgbcolor} def
/SD {setdash} def
/SLC {setlinecap} def
/SLJ {setlinejoin} def
/SCS {setcolorspace} def
/FFSF {findfont setfont} def
/CC {concat} def
/PXL {n m 0 0 RL s} def
/Color0 {1.0000 1.0000 1.0000} def
/Color1 {0.0000 0.0000 0.0000} def
/Color2 {1.0000 0.0000 0.0000} def
/Color3 {0.0000 1.0000 0.0000} def
/Color4 {0.0000 0.0000 1.0000} def
/Color5 {1.0000 1.0000 0.0000} def
/Color6 {0.7373 0.5608 0.5608} def
/Color7 {0.8627 0.8627 0.8627} def
/Color8 {0.5804 0.0000 0.8275} def
/Color9 {0.0000 1.0000 1.0000} def
/Color10 {1.0000 0.0000 1.0000} def
/Color11 {1.0000 0.6471 0.0000} def
/Color12 {0.4471 0.1294 0.7373} def
/Color13 {0.4039 0.0275 0.2824} def
/Color14 {0.2510 0.8784 0.8157} def
/Color15 {0.0000 0.5451 0.0000} def
/PTRN {
 /pat_bits exch def 
 <<
  /PaintType 2
  /PatternType 1 /TilingType 1
  /BBox[0 0 16 16]
  /XStep 16 /YStep 16
  /PaintProc {
   pop
   16 16 true [-1 0 0 -1 16 16] pat_bits imagemask
  }
 >>
 [0.0017 0 0 0.0017 0 0]
 makepattern
} def
/Pattern0 {<0000000000000000000000000000000000000000000000000000000000000000> PTRN} bind def
/Pattern1 {<ffffffffffffffffffffffffffffffffffffffffffffffffffffffffffffffff> PTRN} bind def
/Pattern2 {<eeeeffffbbbbffffeeeeffffbbbbffffeeeeffffbbbbffffeeeeffffbbbbffff> PTRN} bind def
/Pattern3 {<eeeebbbbeeeebbbbeeeebbbbeeeebbbbeeeebbbbeeeebbbbeeeebbbbeeeebbbb> PTRN} bind def
/Pattern4 {<5555aaaa5555aaaa5555aaaa5555aaaa5555aaaa5555aaaa5555aaaa5555aaaa> PTRN} bind def
/Pattern5 {<1111444411114444111144441111444411114444111144441111444411114444> PTRN} bind def
/Pattern6 {<1111000044440000111100004444000011110000444400001111000044440000> PTRN} bind def
/Pattern7 {<1010000000000000010100000000000010100000000000000101000000000000> PTRN} bind def
/Pattern8 {<0000000000000000000000000000000000000000000000000000000000000000> PTRN} bind def
/Pattern9 {<1e1e0f0f8787c3c3e1e1f0f078783c3c1e1e0f0f8787c3c3e1e1f0f078783c3c> PTRN} bind def
/Pattern10 {<7878f0f0e1e1c3c387870f0f1e1e3c3c7878f0f0e1e1c3c387870f0f1e1e3c3c> PTRN} bind def
/Pattern11 {<3333333333333333333333333333333333333333333333333333333333333333> PTRN} bind def
/Pattern12 {<ffffffff00000000ffffffff00000000ffffffff00000000ffffffff00000000> PTRN} bind def
/Pattern13 {<8181424224241818181824244242818181814242242418181818242442428181> PTRN} bind def
/Pattern14 {<8080404020201010080804040202010180804040202010100808040402020101> PTRN} bind def
/Pattern15 {<0101020204040808101020204040808001010202040408081010202040408080> PTRN} bind def
/Pattern16 {<2222222222222222222222222222222222222222222222222222222222222222> PTRN} bind def
/Pattern17 {<0000ffff000000000000ffff000000000000ffff000000000000ffff00000000> PTRN} bind def
/Pattern18 {<2222ffff222222222222ffff222222222222ffff222222222222ffff22222222> PTRN} bind def
/Pattern19 {<ffffffff33333333ffffffff33333333ffffffff33333333ffffffff33333333> PTRN} bind def
/Pattern20 {<0f0f0f0f0f0f0f0ff0f0f0f0f0f0f0f00f0f0f0f0f0f0f0ff0f0f0f0f0f0f0f0> PTRN} bind def
/Pattern21 {<ff00ff00ff00ff00ff00ff00ff00ff0000ff00ff00ff00ff00ff00ff00ff00ff> PTRN} bind def
/Pattern22 {<8001800180018001800180018001ffffffff8001800180018001800180018001> PTRN} bind def
/Pattern23 {<c003c003c003c003c003c003ffffffffffffffffc003c003c003c003c003c003> PTRN} bind def
/Pattern24 {<040404040404ffff404040404040ffff040404040404ffff404040404040ffff> PTRN} bind def
/Pattern25 {<180018001800180018001800ffffffff001800180018001800180018ffffffff> PTRN} bind def
/Pattern26 {<1111b8b87c7c3a3a1111a3a3c7c78b8b1111b8b87c7c3a3a1111a3a3c7c78b8b> PTRN} bind def
/Pattern27 {<101010102828c7c70101010182827c7c101010102828c7c70101010182827c7c> PTRN} bind def
/Pattern28 {<1c1c121211112121c1c12121111112121c1c121211112121c1c1212111111212> PTRN} bind def
/Pattern29 {<3e3e414180808080e3e31414080808083e3e414180808080e3e3141408080808> PTRN} bind def
/Pattern30 {<4848888884848383848488884848383848488888848483838484888848483838> PTRN} bind def
/Pattern31 {<03030404080808080c0c12122121c0c003030404080808080c0c12122121c0c0> PTRN} bind def
/ellipsedict 8 dict def
ellipsedict /mtrx matrix put
/EARC {
 ellipsedict begin
  /endangle exch def
  /startangle exch def
  /yrad exch def
  /xrad exch def
  /y exch def
  /x exch def
  /savematrix mtrx currentmatrix def
  x y translate
  xrad yrad scale
  0 0 1 startangle endangle arc
  savematrix setmatrix
 end
} def
/TL {
  /kcomp exch def
  /linewidth exch def
  /offset exch def
  GS
  0 offset rmoveto
  linewidth SLW
  dup stringwidth exch kcomp add exch RL s
  GR
} def
/KINIT
{
 /kvector exch def
 /kid 0 def
} def
/KPROC
{
 pop pop
 kvector kid get
 0 rmoveto
 /kid 1 kid add def
} def
/DefEncoding [
 /.notdef
 /.notdef
 /.notdef
 /.notdef
 /.notdef
 /.notdef
 /.notdef
 /.notdef
 /.notdef
 /.notdef
 /.notdef
 /.notdef
 /.notdef
 /.notdef
 /.notdef
 /.notdef
 /.notdef
 /.notdef
 /.notdef
 /.notdef
 /.notdef
 /.notdef
 /.notdef
 /.notdef
 /.notdef
 /.notdef
 /.notdef
 /.notdef
 /.notdef
 /.notdef
 /.notdef
 /.notdef
 /space
 /exclam
 /quotedbl
 /numbersign
 /dollar
 /percent
 /ampersand
 /quoteright
 /parenleft
 /parenright
 /asterisk
 /plus
 /comma
 /hyphen
 /period
 /slash
 /zero
 /one
 /two
 /three
 /four
 /five
 /six
 /seven
 /eight
 /nine
 /colon
 /semicolon
 /less
 /equal
 /greater
 /question
 /at
 /A
 /B
 /C
 /D
 /E
 /F
 /G
 /H
 /I
 /J
 /K
 /L
 /M
 /N
 /O
 /P
 /Q
 /R
 /S
 /T
 /U
 /V
 /W
 /X
 /Y
 /Z
 /bracketleft
 /backslash
 /bracketright
 /asciicircum
 /underscore
 /grave
 /a
 /b
 /c
 /d
 /e
 /f
 /g
 /h
 /i
 /j
 /k
 /l
 /m
 /n
 /o
 /p
 /q
 /r
 /s
 /t
 /u
 /v
 /w
 /x
 /y
 /z
 /braceleft
 /bar
 /braceright
 /asciitilde
 /.notdef
 /.notdef
 /.notdef
 /.notdef
 /.notdef
 /.notdef
 /.notdef
 /.notdef
 /.notdef
 /.notdef
 /.notdef
 /.notdef
 /.notdef
 /.notdef
 /.notdef
 /.notdef
 /.notdef
 /.notdef
 /.notdef
 /.notdef
 /.notdef
 /.notdef
 /.notdef
 /.notdef
 /.notdef
 /.notdef
 /.notdef
 /.notdef
 /.notdef
 /.notdef
 /.notdef
 /.notdef
 /.notdef
 /space
 /exclamdown
 /cent
 /sterling
 /currency
 /yen
 /brokenbar
 /section
 /dieresis
 /copyright
 /ordfeminine
 /guillemotleft
 /logicalnot
 /hyphen
 /registered
 /macron
 /degree
 /plusminus
 /twosuperior
 /threesuperior
 /acute
 /mu
 /paragraph
 /periodcentered
 /cedilla
 /onesuperior
 /ordmasculine
 /guillemotright
 /onequarter
 /onehalf
 /threequarters
 /questiondown
 /Agrave
 /Aacute
 /Acircumflex
 /Atilde
 /Adieresis
 /Aring
 /AE
 /Ccedilla
 /Egrave
 /Eacute
 /Ecircumflex
 /Edieresis
 /Igrave
 /Iacute
 /Icircumflex
 /Idieresis
 /Eth
 /Ntilde
 /Ograve
 /Oacute
 /Ocircumflex
 /Otilde
 /Odieresis
 /multiply
 /Oslash
 /Ugrave
 /Uacute
 /Ucircumflex
 /Udieresis
 /Yacute
 /Thorn
 /germandbls
 /agrave
 /aacute
 /acircumflex
 /atilde
 /adieresis
 /aring
 /ae
 /ccedilla
 /egrave
 /eacute
 /ecircumflex
 /edieresis
 /igrave
 /iacute
 /icircumflex
 /idieresis
 /eth
 /ntilde
 /ograve
 /oacute
 /ocircumflex
 /otilde
 /odieresis
 /divide
 /oslash
 /ugrave
 /uacute
 /ucircumflex
 /udieresis
 /yacute
 /thorn
 /ydieresis
] def
%%EndProlog
%%BeginSetup
%%EndSetup
600.00 600.00 scale
n
0.0000 0.0000 m
0.0000 1.0000 l
1.2884 1.0000 l
1.2884 0.0000 l
c
[/DeviceRGB] SCS
Color0 SC
fill
[/DeviceRGB] SCS
Color1 SC
[] 0 SD
0.0030 SLW
n 0.1915 0.1967 0.0001 0.0001 0 360 EARC s
n 0.1922 0.1979 0.0001 0.0001 0 360 EARC s
n 0.1929 0.1998 0.0001 0.0001 0 360 EARC s
n 0.1935 0.1998 0.0001 0.0001 0 360 EARC s
n 0.1942 0.2008 0.0001 0.0001 0 360 EARC s
n 0.1949 0.2019 0.0001 0.0001 0 360 EARC s
n 0.1955 0.2033 0.0001 0.0001 0 360 EARC s
n 0.1962 0.2042 0.0001 0.0001 0 360 EARC s
n 0.1969 0.2055 0.0001 0.0001 0 360 EARC s
n 0.1975 0.2068 0.0001 0.0001 0 360 EARC s
n 0.1982 0.2085 0.0001 0.0001 0 360 EARC s
n 0.1989 0.2097 0.0001 0.0001 0 360 EARC s
n 0.1995 0.2110 0.0001 0.0001 0 360 EARC s
n 0.2002 0.2131 0.0001 0.0001 0 360 EARC s
n 0.2008 0.2156 0.0001 0.0001 0 360 EARC s
n 0.2015 0.2169 0.0001 0.0001 0 360 EARC s
n 0.2022 0.2184 0.0001 0.0001 0 360 EARC s
n 0.2028 0.2200 0.0001 0.0001 0 360 EARC s
n 0.2035 0.2226 0.0001 0.0001 0 360 EARC s
n 0.2042 0.2242 0.0001 0.0001 0 360 EARC s
n 0.2048 0.2268 0.0001 0.0001 0 360 EARC s
n 0.2055 0.2294 0.0001 0.0001 0 360 EARC s
n 0.2062 0.2323 0.0001 0.0001 0 360 EARC s
n 0.2068 0.2345 0.0001 0.0001 0 360 EARC s
n 0.2075 0.2365 0.0001 0.0001 0 360 EARC s
n 0.2082 0.2401 0.0001 0.0001 0 360 EARC s
n 0.2088 0.2430 0.0001 0.0001 0 360 EARC s
n 0.2095 0.2447 0.0001 0.0001 0 360 EARC s
n 0.2101 0.2487 0.0001 0.0001 0 360 EARC s
n 0.2108 0.2505 0.0001 0.0001 0 360 EARC s
n 0.2115 0.2535 0.0001 0.0001 0 360 EARC s
n 0.2121 0.2555 0.0001 0.0001 0 360 EARC s
n 0.2128 0.2579 0.0001 0.0001 0 360 EARC s
n 0.2135 0.2598 0.0001 0.0001 0 360 EARC s
n 0.2141 0.2629 0.0001 0.0001 0 360 EARC s
n 0.2148 0.2680 0.0001 0.0001 0 360 EARC s
n 0.2155 0.2699 0.0001 0.0001 0 360 EARC s
n 0.2161 0.2723 0.0001 0.0001 0 360 EARC s
n 0.2168 0.2760 0.0001 0.0001 0 360 EARC s
n 0.2175 0.2800 0.0001 0.0001 0 360 EARC s
n 0.2181 0.2845 0.0001 0.0001 0 360 EARC s
n 0.2188 0.2877 0.0001 0.0001 0 360 EARC s
n 0.2194 0.2909 0.0001 0.0001 0 360 EARC s
n 0.2201 0.2949 0.0001 0.0001 0 360 EARC s
n 0.2208 0.2980 0.0001 0.0001 0 360 EARC s
n 0.2214 0.3019 0.0001 0.0001 0 360 EARC s
n 0.2221 0.3054 0.0001 0.0001 0 360 EARC s
n 0.2228 0.3087 0.0001 0.0001 0 360 EARC s
n 0.2234 0.3132 0.0001 0.0001 0 360 EARC s
n 0.2241 0.3176 0.0001 0.0001 0 360 EARC s
n 0.2248 0.3213 0.0001 0.0001 0 360 EARC s
n 0.2254 0.3255 0.0001 0.0001 0 360 EARC s
n 0.2261 0.3292 0.0001 0.0001 0 360 EARC s
n 0.2268 0.3332 0.0001 0.0001 0 360 EARC s
n 0.2274 0.3377 0.0001 0.0001 0 360 EARC s
n 0.2281 0.3407 0.0001 0.0001 0 360 EARC s
n 0.2287 0.3460 0.0001 0.0001 0 360 EARC s
n 0.2294 0.3501 0.0001 0.0001 0 360 EARC s
n 0.2301 0.3534 0.0001 0.0001 0 360 EARC s
n 0.2307 0.3564 0.0001 0.0001 0 360 EARC s
n 0.2314 0.3592 0.0001 0.0001 0 360 EARC s
n 0.2321 0.3633 0.0001 0.0001 0 360 EARC s
n 0.2327 0.3681 0.0001 0.0001 0 360 EARC s
n 0.2334 0.3725 0.0001 0.0001 0 360 EARC s
n 0.2341 0.3769 0.0001 0.0001 0 360 EARC s
n 0.2347 0.3808 0.0001 0.0001 0 360 EARC s
n 0.2354 0.3851 0.0001 0.0001 0 360 EARC s
n 0.2361 0.3898 0.0001 0.0001 0 360 EARC s
n 0.2367 0.3944 0.0001 0.0001 0 360 EARC s
n 0.2374 0.3988 0.0001 0.0001 0 360 EARC s
n 0.2380 0.4030 0.0001 0.0001 0 360 EARC s
n 0.2387 0.4082 0.0001 0.0001 0 360 EARC s
n 0.2394 0.4120 0.0001 0.0001 0 360 EARC s
n 0.2400 0.4166 0.0001 0.0001 0 360 EARC s
n 0.2407 0.4216 0.0001 0.0001 0 360 EARC s
n 0.2414 0.4259 0.0001 0.0001 0 360 EARC s
n 0.2420 0.4297 0.0001 0.0001 0 360 EARC s
n 0.2427 0.4345 0.0001 0.0001 0 360 EARC s
n 0.2434 0.4396 0.0001 0.0001 0 360 EARC s
n 0.2440 0.4425 0.0001 0.0001 0 360 EARC s
n 0.2447 0.4486 0.0001 0.0001 0 360 EARC s
n 0.2453 0.4523 0.0001 0.0001 0 360 EARC s
n 0.2460 0.4539 0.0001 0.0001 0 360 EARC s
n 0.2467 0.4603 0.0001 0.0001 0 360 EARC s
n 0.2473 0.4639 0.0001 0.0001 0 360 EARC s
n 0.2480 0.4684 0.0001 0.0001 0 360 EARC s
n 0.2487 0.4726 0.0001 0.0001 0 360 EARC s
n 0.2493 0.4773 0.0001 0.0001 0 360 EARC s
n 0.2500 0.4813 0.0001 0.0001 0 360 EARC s
n 0.2507 0.4857 0.0001 0.0001 0 360 EARC s
n 0.2513 0.4901 0.0001 0.0001 0 360 EARC s
n 0.2520 0.4943 0.0001 0.0001 0 360 EARC s
n 0.2527 0.4989 0.0001 0.0001 0 360 EARC s
n 0.2533 0.5033 0.0001 0.0001 0 360 EARC s
n 0.2540 0.5079 0.0001 0.0001 0 360 EARC s
n 0.2546 0.5121 0.0001 0.0001 0 360 EARC s
n 0.2553 0.5168 0.0001 0.0001 0 360 EARC s
n 0.2560 0.5204 0.0001 0.0001 0 360 EARC s
n 0.2566 0.5256 0.0001 0.0001 0 360 EARC s
n 0.2573 0.5300 0.0001 0.0001 0 360 EARC s
n 0.2580 0.5349 0.0001 0.0001 0 360 EARC s
n 0.2586 0.5394 0.0001 0.0001 0 360 EARC s
n 0.2593 0.5406 0.0001 0.0001 0 360 EARC s
n 0.2600 0.5464 0.0001 0.0001 0 360 EARC s
n 0.2606 0.5519 0.0001 0.0001 0 360 EARC s
n 0.2613 0.5558 0.0001 0.0001 0 360 EARC s
n 0.2620 0.5590 0.0001 0.0001 0 360 EARC s
n 0.2626 0.5629 0.0001 0.0001 0 360 EARC s
n 0.2633 0.5645 0.0001 0.0001 0 360 EARC s
n 0.2639 0.5684 0.0001 0.0001 0 360 EARC s
n 0.2646 0.5723 0.0001 0.0001 0 360 EARC s
n 0.2653 0.5757 0.0001 0.0001 0 360 EARC s
n 0.2659 0.5797 0.0001 0.0001 0 360 EARC s
n 0.2666 0.5836 0.0001 0.0001 0 360 EARC s
n 0.2673 0.5881 0.0001 0.0001 0 360 EARC s
n 0.2679 0.5915 0.0001 0.0001 0 360 EARC s
n 0.2686 0.5954 0.0001 0.0001 0 360 EARC s
n 0.2693 0.5989 0.0001 0.0001 0 360 EARC s
n 0.2699 0.6038 0.0001 0.0001 0 360 EARC s
n 0.2706 0.6069 0.0001 0.0001 0 360 EARC s
n 0.2713 0.6109 0.0001 0.0001 0 360 EARC s
n 0.2719 0.6144 0.0001 0.0001 0 360 EARC s
n 0.2726 0.6173 0.0001 0.0001 0 360 EARC s
n 0.2732 0.6215 0.0001 0.0001 0 360 EARC s
n 0.2739 0.6243 0.0001 0.0001 0 360 EARC s
n 0.2746 0.6280 0.0001 0.0001 0 360 EARC s
n 0.2752 0.6314 0.0001 0.0001 0 360 EARC s
n 0.2759 0.6343 0.0001 0.0001 0 360 EARC s
n 0.2766 0.6370 0.0001 0.0001 0 360 EARC s
n 0.2772 0.6399 0.0001 0.0001 0 360 EARC s
n 0.2779 0.6430 0.0001 0.0001 0 360 EARC s
n 0.2786 0.6451 0.0001 0.0001 0 360 EARC s
n 0.2792 0.6493 0.0001 0.0001 0 360 EARC s
n 0.2799 0.6514 0.0001 0.0001 0 360 EARC s
n 0.2806 0.6547 0.0001 0.0001 0 360 EARC s
n 0.2812 0.6571 0.0001 0.0001 0 360 EARC s
n 0.2819 0.6589 0.0001 0.0001 0 360 EARC s
n 0.2825 0.6623 0.0001 0.0001 0 360 EARC s
n 0.2832 0.6643 0.0001 0.0001 0 360 EARC s
n 0.2839 0.6673 0.0001 0.0001 0 360 EARC s
n 0.2845 0.6694 0.0001 0.0001 0 360 EARC s
n 0.2852 0.6719 0.0001 0.0001 0 360 EARC s
n 0.2859 0.6745 0.0001 0.0001 0 360 EARC s
n 0.2865 0.6774 0.0001 0.0001 0 360 EARC s
n 0.2872 0.6790 0.0001 0.0001 0 360 EARC s
n 0.2879 0.6807 0.0001 0.0001 0 360 EARC s
n 0.2885 0.6836 0.0001 0.0001 0 360 EARC s
n 0.2892 0.6856 0.0001 0.0001 0 360 EARC s
n 0.2899 0.6856 0.0001 0.0001 0 360 EARC s
n 0.2905 0.6891 0.0001 0.0001 0 360 EARC s
n 0.2912 0.6923 0.0001 0.0001 0 360 EARC s
n 0.2918 0.6930 0.0001 0.0001 0 360 EARC s
n 0.2925 0.6957 0.0001 0.0001 0 360 EARC s
n 0.2932 0.6971 0.0001 0.0001 0 360 EARC s
n 0.2938 0.6987 0.0001 0.0001 0 360 EARC s
n 0.2945 0.7000 0.0001 0.0001 0 360 EARC s
n 0.2952 0.7019 0.0001 0.0001 0 360 EARC s
n 0.2958 0.7025 0.0001 0.0001 0 360 EARC s
n 0.2965 0.7042 0.0001 0.0001 0 360 EARC s
n 0.2972 0.7057 0.0001 0.0001 0 360 EARC s
n 0.2978 0.7065 0.0001 0.0001 0 360 EARC s
n 0.2985 0.7083 0.0001 0.0001 0 360 EARC s
n 0.2991 0.7089 0.0001 0.0001 0 360 EARC s
n 0.2998 0.7096 0.0001 0.0001 0 360 EARC s
n 0.3005 0.7110 0.0001 0.0001 0 360 EARC s
n 0.3011 0.7119 0.0001 0.0001 0 360 EARC s
n 0.3018 0.7128 0.0001 0.0001 0 360 EARC s
n 0.3025 0.7135 0.0001 0.0001 0 360 EARC s
n 0.3031 0.7135 0.0001 0.0001 0 360 EARC s
n 0.3038 0.7137 0.0001 0.0001 0 360 EARC s
n 0.3045 0.7153 0.0001 0.0001 0 360 EARC s
n 0.3051 0.7158 0.0001 0.0001 0 360 EARC s
n 0.3058 0.7166 0.0001 0.0001 0 360 EARC s
n 0.3065 0.7167 0.0001 0.0001 0 360 EARC s
n 0.3071 0.7167 0.0001 0.0001 0 360 EARC s
n 0.3078 0.7173 0.0001 0.0001 0 360 EARC s
n 0.3084 0.7181 0.0001 0.0001 0 360 EARC s
n 0.3091 0.7176 0.0001 0.0001 0 360 EARC s
n 0.3098 0.7185 0.0001 0.0001 0 360 EARC s
n 0.3104 0.7188 0.0001 0.0001 0 360 EARC s
n 0.3111 0.7182 0.0001 0.0001 0 360 EARC s
n 0.3118 0.7175 0.0001 0.0001 0 360 EARC s
n 0.3124 0.7173 0.0001 0.0001 0 360 EARC s
n 0.3131 0.7173 0.0001 0.0001 0 360 EARC s
n 0.3138 0.7166 0.0001 0.0001 0 360 EARC s
n 0.3144 0.7166 0.0001 0.0001 0 360 EARC s
n 0.3151 0.7166 0.0001 0.0001 0 360 EARC s
n 0.3158 0.7154 0.0001 0.0001 0 360 EARC s
n 0.3164 0.7154 0.0001 0.0001 0 360 EARC s
n 0.3171 0.7153 0.0001 0.0001 0 360 EARC s
n 0.3177 0.7147 0.0001 0.0001 0 360 EARC s
n 0.3184 0.7146 0.0001 0.0001 0 360 EARC s
n 0.3191 0.7132 0.0001 0.0001 0 360 EARC s
n 0.3197 0.7125 0.0001 0.0001 0 360 EARC s
n 0.3204 0.7115 0.0001 0.0001 0 360 EARC s
n 0.3211 0.7106 0.0001 0.0001 0 360 EARC s
n 0.3217 0.7096 0.0001 0.0001 0 360 EARC s
n 0.3224 0.7088 0.0001 0.0001 0 360 EARC s
n 0.3231 0.7071 0.0001 0.0001 0 360 EARC s
n 0.3237 0.7064 0.0001 0.0001 0 360 EARC s
n 0.3244 0.7054 0.0001 0.0001 0 360 EARC s
n 0.3251 0.7048 0.0001 0.0001 0 360 EARC s
n 0.3257 0.7029 0.0001 0.0001 0 360 EARC s
n 0.3264 0.7028 0.0001 0.0001 0 360 EARC s
n 0.3270 0.7006 0.0001 0.0001 0 360 EARC s
n 0.3277 0.6987 0.0001 0.0001 0 360 EARC s
n 0.3284 0.6972 0.0001 0.0001 0 360 EARC s
n 0.3290 0.6961 0.0001 0.0001 0 360 EARC s
n 0.3297 0.6952 0.0001 0.0001 0 360 EARC s
n 0.3304 0.6927 0.0001 0.0001 0 360 EARC s
n 0.3310 0.6907 0.0001 0.0001 0 360 EARC s
n 0.3317 0.6898 0.0001 0.0001 0 360 EARC s
n 0.3324 0.6885 0.0001 0.0001 0 360 EARC s
n 0.3330 0.6872 0.0001 0.0001 0 360 EARC s
n 0.3337 0.6853 0.0001 0.0001 0 360 EARC s
n 0.3344 0.6819 0.0001 0.0001 0 360 EARC s
n 0.3350 0.6814 0.0001 0.0001 0 360 EARC s
n 0.3357 0.6792 0.0001 0.0001 0 360 EARC s
n 0.3363 0.6769 0.0001 0.0001 0 360 EARC s
n 0.3370 0.6753 0.0001 0.0001 0 360 EARC s
n 0.3377 0.6733 0.0001 0.0001 0 360 EARC s
n 0.3383 0.6710 0.0001 0.0001 0 360 EARC s
n 0.3390 0.6695 0.0001 0.0001 0 360 EARC s
n 0.3397 0.6673 0.0001 0.0001 0 360 EARC s
n 0.3403 0.6653 0.0001 0.0001 0 360 EARC s
n 0.3410 0.6635 0.0001 0.0001 0 360 EARC s
n 0.3417 0.6614 0.0001 0.0001 0 360 EARC s
n 0.3423 0.6584 0.0001 0.0001 0 360 EARC s
n 0.3430 0.6559 0.0001 0.0001 0 360 EARC s
n 0.3436 0.6529 0.0001 0.0001 0 360 EARC s
n 0.3443 0.6523 0.0001 0.0001 0 360 EARC s
n 0.3450 0.6495 0.0001 0.0001 0 360 EARC s
n 0.3456 0.6482 0.0001 0.0001 0 360 EARC s
n 0.3463 0.6453 0.0001 0.0001 0 360 EARC s
n 0.3470 0.6418 0.0001 0.0001 0 360 EARC s
n 0.3476 0.6393 0.0001 0.0001 0 360 EARC s
n 0.3483 0.6356 0.0001 0.0001 0 360 EARC s
n 0.3490 0.6343 0.0001 0.0001 0 360 EARC s
n 0.3496 0.6328 0.0001 0.0001 0 360 EARC s
n 0.3503 0.6291 0.0001 0.0001 0 360 EARC s
n 0.3510 0.6263 0.0001 0.0001 0 360 EARC s
n 0.3516 0.6240 0.0001 0.0001 0 360 EARC s
n 0.3523 0.6209 0.0001 0.0001 0 360 EARC s
n 0.3529 0.6192 0.0001 0.0001 0 360 EARC s
n 0.3536 0.6167 0.0001 0.0001 0 360 EARC s
n 0.3543 0.6135 0.0001 0.0001 0 360 EARC s
n 0.3549 0.6111 0.0001 0.0001 0 360 EARC s
n 0.3556 0.6080 0.0001 0.0001 0 360 EARC s
n 0.3563 0.6042 0.0001 0.0001 0 360 EARC s
n 0.3569 0.6017 0.0001 0.0001 0 360 EARC s
n 0.3576 0.5972 0.0001 0.0001 0 360 EARC s
n 0.3583 0.5971 0.0001 0.0001 0 360 EARC s
n 0.3589 0.5956 0.0001 0.0001 0 360 EARC s
n 0.3596 0.5917 0.0001 0.0001 0 360 EARC s
n 0.3603 0.5894 0.0001 0.0001 0 360 EARC s
n 0.3609 0.5855 0.0001 0.0001 0 360 EARC s
n 0.3616 0.5848 0.0001 0.0001 0 360 EARC s
n 0.3622 0.5814 0.0001 0.0001 0 360 EARC s
n 0.3629 0.5789 0.0001 0.0001 0 360 EARC s
n 0.3636 0.5763 0.0001 0.0001 0 360 EARC s
n 0.3642 0.5736 0.0001 0.0001 0 360 EARC s
n 0.3649 0.5699 0.0001 0.0001 0 360 EARC s
n 0.3656 0.5673 0.0001 0.0001 0 360 EARC s
n 0.3662 0.5652 0.0001 0.0001 0 360 EARC s
n 0.3669 0.5625 0.0001 0.0001 0 360 EARC s
n 0.3676 0.5585 0.0001 0.0001 0 360 EARC s
n 0.3682 0.5543 0.0001 0.0001 0 360 EARC s
n 0.3689 0.5531 0.0001 0.0001 0 360 EARC s
n 0.3696 0.5502 0.0001 0.0001 0 360 EARC s
n 0.3702 0.5478 0.0001 0.0001 0 360 EARC s
n 0.3709 0.5441 0.0001 0.0001 0 360 EARC s
n 0.3715 0.5417 0.0001 0.0001 0 360 EARC s
n 0.3722 0.5391 0.0001 0.0001 0 360 EARC s
n 0.3729 0.5367 0.0001 0.0001 0 360 EARC s
n 0.3735 0.5332 0.0001 0.0001 0 360 EARC s
n 0.3742 0.5315 0.0001 0.0001 0 360 EARC s
n 0.3749 0.5280 0.0001 0.0001 0 360 EARC s
n 0.3755 0.5266 0.0001 0.0001 0 360 EARC s
n 0.3762 0.5232 0.0001 0.0001 0 360 EARC s
n 0.3769 0.5222 0.0001 0.0001 0 360 EARC s
n 0.3775 0.5182 0.0001 0.0001 0 360 EARC s
n 0.3782 0.5157 0.0001 0.0001 0 360 EARC s
n 0.3789 0.5135 0.0001 0.0001 0 360 EARC s
n 0.3795 0.5098 0.0001 0.0001 0 360 EARC s
n 0.3802 0.5088 0.0001 0.0001 0 360 EARC s
n 0.3808 0.5057 0.0001 0.0001 0 360 EARC s
n 0.3815 0.5031 0.0001 0.0001 0 360 EARC s
n 0.3822 0.5004 0.0001 0.0001 0 360 EARC s
n 0.3828 0.4963 0.0001 0.0001 0 360 EARC s
n 0.3835 0.4947 0.0001 0.0001 0 360 EARC s
n 0.3842 0.4921 0.0001 0.0001 0 360 EARC s
n 0.3848 0.4896 0.0001 0.0001 0 360 EARC s
n 0.3855 0.4866 0.0001 0.0001 0 360 EARC s
n 0.3862 0.4843 0.0001 0.0001 0 360 EARC s
n 0.3868 0.4816 0.0001 0.0001 0 360 EARC s
n 0.3875 0.4803 0.0001 0.0001 0 360 EARC s
n 0.3882 0.4773 0.0001 0.0001 0 360 EARC s
n 0.3888 0.4750 0.0001 0.0001 0 360 EARC s
n 0.3895 0.4726 0.0001 0.0001 0 360 EARC s
n 0.3901 0.4702 0.0001 0.0001 0 360 EARC s
n 0.3908 0.4681 0.0001 0.0001 0 360 EARC s
n 0.3915 0.4660 0.0001 0.0001 0 360 EARC s
n 0.3921 0.4636 0.0001 0.0001 0 360 EARC s
n 0.3928 0.4612 0.0001 0.0001 0 360 EARC s
n 0.3935 0.4599 0.0001 0.0001 0 360 EARC s
n 0.3941 0.4581 0.0001 0.0001 0 360 EARC s
n 0.3948 0.4559 0.0001 0.0001 0 360 EARC s
n 0.3955 0.4532 0.0001 0.0001 0 360 EARC s
n 0.3961 0.4517 0.0001 0.0001 0 360 EARC s
n 0.3968 0.4492 0.0001 0.0001 0 360 EARC s
n 0.3974 0.4479 0.0001 0.0001 0 360 EARC s
n 0.3981 0.4459 0.0001 0.0001 0 360 EARC s
n 0.3988 0.4439 0.0001 0.0001 0 360 EARC s
n 0.3994 0.4413 0.0001 0.0001 0 360 EARC s
n 0.4001 0.4388 0.0001 0.0001 0 360 EARC s
n 0.4008 0.4374 0.0001 0.0001 0 360 EARC s
n 0.4014 0.4356 0.0001 0.0001 0 360 EARC s
n 0.4021 0.4337 0.0001 0.0001 0 360 EARC s
n 0.4028 0.4324 0.0001 0.0001 0 360 EARC s
n 0.4034 0.4308 0.0001 0.0001 0 360 EARC s
n 0.4041 0.4281 0.0001 0.0001 0 360 EARC s
n 0.4048 0.4262 0.0001 0.0001 0 360 EARC s
n 0.4054 0.4250 0.0001 0.0001 0 360 EARC s
n 0.4061 0.4236 0.0001 0.0001 0 360 EARC s
n 0.4067 0.4217 0.0001 0.0001 0 360 EARC s
n 0.4074 0.4211 0.0001 0.0001 0 360 EARC s
n 0.4081 0.4194 0.0001 0.0001 0 360 EARC s
n 0.4087 0.4182 0.0001 0.0001 0 360 EARC s
n 0.4094 0.4165 0.0001 0.0001 0 360 EARC s
n 0.4101 0.4150 0.0001 0.0001 0 360 EARC s
n 0.4107 0.4139 0.0001 0.0001 0 360 EARC s
n 0.4114 0.4117 0.0001 0.0001 0 360 EARC s
n 0.4121 0.4112 0.0001 0.0001 0 360 EARC s
n 0.4127 0.4098 0.0001 0.0001 0 360 EARC s
n 0.4134 0.4092 0.0001 0.0001 0 360 EARC s
n 0.4141 0.4076 0.0001 0.0001 0 360 EARC s
n 0.4147 0.4066 0.0001 0.0001 0 360 EARC s
n 0.4154 0.4051 0.0001 0.0001 0 360 EARC s
n 0.4160 0.4041 0.0001 0.0001 0 360 EARC s
n 0.4167 0.4028 0.0001 0.0001 0 360 EARC s
n 0.4174 0.4017 0.0001 0.0001 0 360 EARC s
n 0.4180 0.4005 0.0001 0.0001 0 360 EARC s
n 0.4187 0.3995 0.0001 0.0001 0 360 EARC s
n 0.4194 0.3995 0.0001 0.0001 0 360 EARC s
n 0.4200 0.3986 0.0001 0.0001 0 360 EARC s
n 0.4207 0.3967 0.0001 0.0001 0 360 EARC s
n 0.4214 0.3957 0.0001 0.0001 0 360 EARC s
n 0.4220 0.3954 0.0001 0.0001 0 360 EARC s
n 0.4227 0.3947 0.0001 0.0001 0 360 EARC s
n 0.4234 0.3945 0.0001 0.0001 0 360 EARC s
n 0.4240 0.3941 0.0001 0.0001 0 360 EARC s
n 0.4247 0.3932 0.0001 0.0001 0 360 EARC s
n 0.4253 0.3929 0.0001 0.0001 0 360 EARC s
n 0.4260 0.3919 0.0001 0.0001 0 360 EARC s
n 0.4267 0.3915 0.0001 0.0001 0 360 EARC s
n 0.4273 0.3911 0.0001 0.0001 0 360 EARC s
n 0.4280 0.3905 0.0001 0.0001 0 360 EARC s
n 0.4287 0.3903 0.0001 0.0001 0 360 EARC s
n 0.4293 0.3898 0.0001 0.0001 0 360 EARC s
n 0.4300 0.3899 0.0001 0.0001 0 360 EARC s
n 0.4307 0.3899 0.0001 0.0001 0 360 EARC s
n 0.4313 0.3899 0.0001 0.0001 0 360 EARC s
n 0.4320 0.3892 0.0001 0.0001 0 360 EARC s
n 0.4327 0.3887 0.0001 0.0001 0 360 EARC s
n 0.4333 0.3883 0.0001 0.0001 0 360 EARC s
n 0.4340 0.3882 0.0001 0.0001 0 360 EARC s
n 0.4346 0.3882 0.0001 0.0001 0 360 EARC s
n 0.4353 0.3882 0.0001 0.0001 0 360 EARC s
n 0.4360 0.3886 0.0001 0.0001 0 360 EARC s
n 0.4366 0.3886 0.0001 0.0001 0 360 EARC s
n 0.4373 0.3886 0.0001 0.0001 0 360 EARC s
n 0.4380 0.3886 0.0001 0.0001 0 360 EARC s
n 0.4386 0.3886 0.0001 0.0001 0 360 EARC s
n 0.4393 0.3886 0.0001 0.0001 0 360 EARC s
n 0.4400 0.3902 0.0001 0.0001 0 360 EARC s
n 0.4406 0.3902 0.0001 0.0001 0 360 EARC s
n 0.4413 0.3902 0.0001 0.0001 0 360 EARC s
n 0.4420 0.3906 0.0001 0.0001 0 360 EARC s
n 0.4426 0.3906 0.0001 0.0001 0 360 EARC s
n 0.4433 0.3912 0.0001 0.0001 0 360 EARC s
n 0.4439 0.3912 0.0001 0.0001 0 360 EARC s
n 0.4446 0.3921 0.0001 0.0001 0 360 EARC s
n 0.4453 0.3925 0.0001 0.0001 0 360 EARC s
n 0.4459 0.3929 0.0001 0.0001 0 360 EARC s
n 0.4466 0.3934 0.0001 0.0001 0 360 EARC s
n 0.4473 0.3938 0.0001 0.0001 0 360 EARC s
n 0.4479 0.3947 0.0001 0.0001 0 360 EARC s
n 0.4486 0.3956 0.0001 0.0001 0 360 EARC s
n 0.4493 0.3957 0.0001 0.0001 0 360 EARC s
n 0.4499 0.3975 0.0001 0.0001 0 360 EARC s
n 0.4506 0.3975 0.0001 0.0001 0 360 EARC s
n 0.4512 0.3989 0.0001 0.0001 0 360 EARC s
n 0.4519 0.3991 0.0001 0.0001 0 360 EARC s
n 0.4526 0.3996 0.0001 0.0001 0 360 EARC s
n 0.4532 0.4008 0.0001 0.0001 0 360 EARC s
n 0.4539 0.4017 0.0001 0.0001 0 360 EARC s
n 0.4546 0.4021 0.0001 0.0001 0 360 EARC s
n 0.4552 0.4036 0.0001 0.0001 0 360 EARC s
n 0.4559 0.4036 0.0001 0.0001 0 360 EARC s
n 0.4566 0.4046 0.0001 0.0001 0 360 EARC s
n 0.4572 0.4050 0.0001 0.0001 0 360 EARC s
n 0.4579 0.4068 0.0001 0.0001 0 360 EARC s
n 0.4586 0.4082 0.0001 0.0001 0 360 EARC s
n 0.4592 0.4089 0.0001 0.0001 0 360 EARC s
n 0.4599 0.4094 0.0001 0.0001 0 360 EARC s
n 0.4605 0.4110 0.0001 0.0001 0 360 EARC s
n 0.4612 0.4121 0.0001 0.0001 0 360 EARC s
n 0.4619 0.4133 0.0001 0.0001 0 360 EARC s
n 0.4625 0.4143 0.0001 0.0001 0 360 EARC s
n 0.4632 0.4159 0.0001 0.0001 0 360 EARC s
n 0.4639 0.4168 0.0001 0.0001 0 360 EARC s
n 0.4645 0.4178 0.0001 0.0001 0 360 EARC s
n 0.4652 0.4197 0.0001 0.0001 0 360 EARC s
n 0.4659 0.4210 0.0001 0.0001 0 360 EARC s
n 0.4665 0.4223 0.0001 0.0001 0 360 EARC s
n 0.4672 0.4234 0.0001 0.0001 0 360 EARC s
n 0.4679 0.4245 0.0001 0.0001 0 360 EARC s
n 0.4685 0.4256 0.0001 0.0001 0 360 EARC s
n 0.4692 0.4272 0.0001 0.0001 0 360 EARC s
n 0.4698 0.4287 0.0001 0.0001 0 360 EARC s
n 0.4705 0.4303 0.0001 0.0001 0 360 EARC s
n 0.4712 0.4314 0.0001 0.0001 0 360 EARC s
n 0.4718 0.4332 0.0001 0.0001 0 360 EARC s
n 0.4725 0.4343 0.0001 0.0001 0 360 EARC s
n 0.4732 0.4356 0.0001 0.0001 0 360 EARC s
n 0.4738 0.4371 0.0001 0.0001 0 360 EARC s
n 0.4745 0.4385 0.0001 0.0001 0 360 EARC s
n 0.4752 0.4403 0.0001 0.0001 0 360 EARC s
n 0.4758 0.4413 0.0001 0.0001 0 360 EARC s
n 0.4765 0.4423 0.0001 0.0001 0 360 EARC s
n 0.4772 0.4438 0.0001 0.0001 0 360 EARC s
n 0.4778 0.4457 0.0001 0.0001 0 360 EARC s
n 0.4785 0.4477 0.0001 0.0001 0 360 EARC s
n 0.4791 0.4486 0.0001 0.0001 0 360 EARC s
n 0.4798 0.4505 0.0001 0.0001 0 360 EARC s
n 0.4805 0.4519 0.0001 0.0001 0 360 EARC s
n 0.4811 0.4538 0.0001 0.0001 0 360 EARC s
n 0.4818 0.4547 0.0001 0.0001 0 360 EARC s
n 0.4825 0.4579 0.0001 0.0001 0 360 EARC s
n 0.4831 0.4605 0.0001 0.0001 0 360 EARC s
n 0.4838 0.4609 0.0001 0.0001 0 360 EARC s
n 0.4845 0.4620 0.0001 0.0001 0 360 EARC s
n 0.4851 0.4631 0.0001 0.0001 0 360 EARC s
n 0.4858 0.4664 0.0001 0.0001 0 360 EARC s
n 0.4865 0.4674 0.0001 0.0001 0 360 EARC s
n 0.4871 0.4687 0.0001 0.0001 0 360 EARC s
n 0.4878 0.4706 0.0001 0.0001 0 360 EARC s
n 0.4884 0.4720 0.0001 0.0001 0 360 EARC s
n 0.4891 0.4745 0.0001 0.0001 0 360 EARC s
n 0.4898 0.4752 0.0001 0.0001 0 360 EARC s
n 0.4904 0.4771 0.0001 0.0001 0 360 EARC s
n 0.4911 0.4792 0.0001 0.0001 0 360 EARC s
n 0.4918 0.4810 0.0001 0.0001 0 360 EARC s
n 0.4924 0.4825 0.0001 0.0001 0 360 EARC s
n 0.4931 0.4838 0.0001 0.0001 0 360 EARC s
n 0.4938 0.4858 0.0001 0.0001 0 360 EARC s
n 0.4944 0.4871 0.0001 0.0001 0 360 EARC s
n 0.4951 0.4884 0.0001 0.0001 0 360 EARC s
n 0.4958 0.4906 0.0001 0.0001 0 360 EARC s
n 0.4964 0.4915 0.0001 0.0001 0 360 EARC s
n 0.4971 0.4931 0.0001 0.0001 0 360 EARC s
n 0.4977 0.4956 0.0001 0.0001 0 360 EARC s
n 0.4984 0.4972 0.0001 0.0001 0 360 EARC s
n 0.4991 0.5001 0.0001 0.0001 0 360 EARC s
n 0.4997 0.5007 0.0001 0.0001 0 360 EARC s
n 0.5004 0.5021 0.0001 0.0001 0 360 EARC s
n 0.5011 0.5037 0.0001 0.0001 0 360 EARC s
n 0.5017 0.5060 0.0001 0.0001 0 360 EARC s
n 0.5024 0.5072 0.0001 0.0001 0 360 EARC s
n 0.5031 0.5091 0.0001 0.0001 0 360 EARC s
n 0.5037 0.5105 0.0001 0.0001 0 360 EARC s
n 0.5044 0.5116 0.0001 0.0001 0 360 EARC s
n 0.5050 0.5144 0.0001 0.0001 0 360 EARC s
n 0.5057 0.5153 0.0001 0.0001 0 360 EARC s
n 0.5064 0.5169 0.0001 0.0001 0 360 EARC s
n 0.5070 0.5190 0.0001 0.0001 0 360 EARC s
n 0.5077 0.5190 0.0001 0.0001 0 360 EARC s
n 0.5084 0.5203 0.0001 0.0001 0 360 EARC s
n 0.5090 0.5232 0.0001 0.0001 0 360 EARC s
n 0.5097 0.5250 0.0001 0.0001 0 360 EARC s
n 0.5104 0.5260 0.0001 0.0001 0 360 EARC s
n 0.5110 0.5269 0.0001 0.0001 0 360 EARC s
n 0.5117 0.5286 0.0001 0.0001 0 360 EARC s
n 0.5124 0.5302 0.0001 0.0001 0 360 EARC s
n 0.5130 0.5314 0.0001 0.0001 0 360 EARC s
n 0.5137 0.5334 0.0001 0.0001 0 360 EARC s
n 0.5143 0.5355 0.0001 0.0001 0 360 EARC s
n 0.5150 0.5369 0.0001 0.0001 0 360 EARC s
n 0.5157 0.5381 0.0001 0.0001 0 360 EARC s
n 0.5163 0.5391 0.0001 0.0001 0 360 EARC s
n 0.5170 0.5408 0.0001 0.0001 0 360 EARC s
n 0.5177 0.5423 0.0001 0.0001 0 360 EARC s
n 0.5183 0.5433 0.0001 0.0001 0 360 EARC s
n 0.5190 0.5443 0.0001 0.0001 0 360 EARC s
n 0.5197 0.5459 0.0001 0.0001 0 360 EARC s
n 0.5203 0.5471 0.0001 0.0001 0 360 EARC s
n 0.5210 0.5487 0.0001 0.0001 0 360 EARC s
n 0.5217 0.5491 0.0001 0.0001 0 360 EARC s
n 0.5223 0.5506 0.0001 0.0001 0 360 EARC s
n 0.5230 0.5520 0.0001 0.0001 0 360 EARC s
n 0.5236 0.5529 0.0001 0.0001 0 360 EARC s
n 0.5243 0.5549 0.0001 0.0001 0 360 EARC s
n 0.5250 0.5549 0.0001 0.0001 0 360 EARC s
n 0.5256 0.5561 0.0001 0.0001 0 360 EARC s
n 0.5263 0.5571 0.0001 0.0001 0 360 EARC s
n 0.5270 0.5590 0.0001 0.0001 0 360 EARC s
n 0.5276 0.5600 0.0001 0.0001 0 360 EARC s
n 0.5283 0.5612 0.0001 0.0001 0 360 EARC s
n 0.5290 0.5621 0.0001 0.0001 0 360 EARC s
n 0.5296 0.5634 0.0001 0.0001 0 360 EARC s
n 0.5303 0.5647 0.0001 0.0001 0 360 EARC s
n 0.5310 0.5655 0.0001 0.0001 0 360 EARC s
n 0.5316 0.5667 0.0001 0.0001 0 360 EARC s
n 0.5323 0.5673 0.0001 0.0001 0 360 EARC s
n 0.5329 0.5679 0.0001 0.0001 0 360 EARC s
n 0.5336 0.5689 0.0001 0.0001 0 360 EARC s
n 0.5343 0.5705 0.0001 0.0001 0 360 EARC s
n 0.5349 0.5716 0.0001 0.0001 0 360 EARC s
n 0.5356 0.5721 0.0001 0.0001 0 360 EARC s
n 0.5363 0.5731 0.0001 0.0001 0 360 EARC s
n 0.5369 0.5741 0.0001 0.0001 0 360 EARC s
n 0.5376 0.5748 0.0001 0.0001 0 360 EARC s
n 0.5383 0.5754 0.0001 0.0001 0 360 EARC s
n 0.5389 0.5758 0.0001 0.0001 0 360 EARC s
n 0.5396 0.5766 0.0001 0.0001 0 360 EARC s
n 0.5403 0.5774 0.0001 0.0001 0 360 EARC s
n 0.5409 0.5784 0.0001 0.0001 0 360 EARC s
n 0.5416 0.5786 0.0001 0.0001 0 360 EARC s
n 0.5422 0.5792 0.0001 0.0001 0 360 EARC s
n 0.5429 0.5796 0.0001 0.0001 0 360 EARC s
n 0.5436 0.5806 0.0001 0.0001 0 360 EARC s
n 0.5442 0.5814 0.0001 0.0001 0 360 EARC s
n 0.5449 0.5819 0.0001 0.0001 0 360 EARC s
n 0.5456 0.5821 0.0001 0.0001 0 360 EARC s
n 0.5462 0.5829 0.0001 0.0001 0 360 EARC s
n 0.5469 0.5839 0.0001 0.0001 0 360 EARC s
n 0.5476 0.5844 0.0001 0.0001 0 360 EARC s
n 0.5482 0.5851 0.0001 0.0001 0 360 EARC s
n 0.5489 0.5851 0.0001 0.0001 0 360 EARC s
n 0.5496 0.5851 0.0001 0.0001 0 360 EARC s
n 0.5502 0.5854 0.0001 0.0001 0 360 EARC s
n 0.5509 0.5857 0.0001 0.0001 0 360 EARC s
n 0.5515 0.5858 0.0001 0.0001 0 360 EARC s
n 0.5522 0.5858 0.0001 0.0001 0 360 EARC s
n 0.5529 0.5870 0.0001 0.0001 0 360 EARC s
n 0.5535 0.5858 0.0001 0.0001 0 360 EARC s
n 0.5542 0.5860 0.0001 0.0001 0 360 EARC s
n 0.5549 0.5860 0.0001 0.0001 0 360 EARC s
n 0.5555 0.5865 0.0001 0.0001 0 360 EARC s
n 0.5562 0.5866 0.0001 0.0001 0 360 EARC s
n 0.5569 0.5871 0.0001 0.0001 0 360 EARC s
n 0.5575 0.5871 0.0001 0.0001 0 360 EARC s
n 0.5582 0.5876 0.0001 0.0001 0 360 EARC s
n 0.5588 0.5876 0.0001 0.0001 0 360 EARC s
n 0.5595 0.5876 0.0001 0.0001 0 360 EARC s
n 0.5602 0.5879 0.0001 0.0001 0 360 EARC s
n 0.5608 0.5879 0.0001 0.0001 0 360 EARC s
n 0.5615 0.5879 0.0001 0.0001 0 360 EARC s
n 0.5622 0.5879 0.0001 0.0001 0 360 EARC s
n 0.5628 0.5879 0.0001 0.0001 0 360 EARC s
n 0.5635 0.5879 0.0001 0.0001 0 360 EARC s
n 0.5642 0.5872 0.0001 0.0001 0 360 EARC s
n 0.5648 0.5871 0.0001 0.0001 0 360 EARC s
n 0.5655 0.5870 0.0001 0.0001 0 360 EARC s
n 0.5662 0.5867 0.0001 0.0001 0 360 EARC s
n 0.5668 0.5867 0.0001 0.0001 0 360 EARC s
n 0.5675 0.5864 0.0001 0.0001 0 360 EARC s
n 0.5681 0.5864 0.0001 0.0001 0 360 EARC s
n 0.5688 0.5858 0.0001 0.0001 0 360 EARC s
n 0.5695 0.5855 0.0001 0.0001 0 360 EARC s
n 0.5701 0.5848 0.0001 0.0001 0 360 EARC s
n 0.5708 0.5838 0.0001 0.0001 0 360 EARC s
n 0.5715 0.5838 0.0001 0.0001 0 360 EARC s
n 0.5721 0.5838 0.0001 0.0001 0 360 EARC s
n 0.5728 0.5838 0.0001 0.0001 0 360 EARC s
n 0.5735 0.5833 0.0001 0.0001 0 360 EARC s
n 0.5741 0.5822 0.0001 0.0001 0 360 EARC s
n 0.5748 0.5822 0.0001 0.0001 0 360 EARC s
n 0.5755 0.5822 0.0001 0.0001 0 360 EARC s
n 0.5761 0.5822 0.0001 0.0001 0 360 EARC s
n 0.5768 0.5806 0.0001 0.0001 0 360 EARC s
n 0.5774 0.5806 0.0001 0.0001 0 360 EARC s
n 0.5781 0.5802 0.0001 0.0001 0 360 EARC s
n 0.5788 0.5800 0.0001 0.0001 0 360 EARC s
n 0.5794 0.5784 0.0001 0.0001 0 360 EARC s
n 0.5801 0.5783 0.0001 0.0001 0 360 EARC s
n 0.5808 0.5778 0.0001 0.0001 0 360 EARC s
n 0.5814 0.5775 0.0001 0.0001 0 360 EARC s
n 0.5821 0.5767 0.0001 0.0001 0 360 EARC s
n 0.5828 0.5761 0.0001 0.0001 0 360 EARC s
n 0.5834 0.5758 0.0001 0.0001 0 360 EARC s
n 0.5841 0.5755 0.0001 0.0001 0 360 EARC s
n 0.5848 0.5746 0.0001 0.0001 0 360 EARC s
n 0.5854 0.5741 0.0001 0.0001 0 360 EARC s
n 0.5861 0.5729 0.0001 0.0001 0 360 EARC s
n 0.5867 0.5723 0.0001 0.0001 0 360 EARC s
n 0.5874 0.5717 0.0001 0.0001 0 360 EARC s
n 0.5881 0.5706 0.0001 0.0001 0 360 EARC s
n 0.5887 0.5696 0.0001 0.0001 0 360 EARC s
n 0.5894 0.5690 0.0001 0.0001 0 360 EARC s
n 0.5901 0.5683 0.0001 0.0001 0 360 EARC s
n 0.5907 0.5674 0.0001 0.0001 0 360 EARC s
n 0.5914 0.5665 0.0001 0.0001 0 360 EARC s
n 0.5921 0.5661 0.0001 0.0001 0 360 EARC s
n 0.5927 0.5648 0.0001 0.0001 0 360 EARC s
n 0.5934 0.5640 0.0001 0.0001 0 360 EARC s
n 0.5941 0.5632 0.0001 0.0001 0 360 EARC s
n 0.5947 0.5617 0.0001 0.0001 0 360 EARC s
n 0.5954 0.5611 0.0001 0.0001 0 360 EARC s
n 0.5960 0.5611 0.0001 0.0001 0 360 EARC s
n 0.5967 0.5595 0.0001 0.0001 0 360 EARC s
n 0.5974 0.5585 0.0001 0.0001 0 360 EARC s
n 0.5980 0.5581 0.0001 0.0001 0 360 EARC s
n 0.5987 0.5575 0.0001 0.0001 0 360 EARC s
n 0.5994 0.5566 0.0001 0.0001 0 360 EARC s
n 0.6000 0.5550 0.0001 0.0001 0 360 EARC s
n 0.6007 0.5539 0.0001 0.0001 0 360 EARC s
n 0.6014 0.5529 0.0001 0.0001 0 360 EARC s
n 0.6020 0.5520 0.0001 0.0001 0 360 EARC s
n 0.6027 0.5511 0.0001 0.0001 0 360 EARC s
n 0.6033 0.5499 0.0001 0.0001 0 360 EARC s
n 0.6040 0.5491 0.0001 0.0001 0 360 EARC s
n 0.6047 0.5479 0.0001 0.0001 0 360 EARC s
n 0.6053 0.5479 0.0001 0.0001 0 360 EARC s
n 0.6060 0.5469 0.0001 0.0001 0 360 EARC s
n 0.6067 0.5453 0.0001 0.0001 0 360 EARC s
n 0.6073 0.5453 0.0001 0.0001 0 360 EARC s
n 0.6080 0.5434 0.0001 0.0001 0 360 EARC s
n 0.6087 0.5427 0.0001 0.0001 0 360 EARC s
n 0.6093 0.5419 0.0001 0.0001 0 360 EARC s
n 0.6100 0.5410 0.0001 0.0001 0 360 EARC s
n 0.6107 0.5398 0.0001 0.0001 0 360 EARC s
n 0.6113 0.5388 0.0001 0.0001 0 360 EARC s
n 0.6120 0.5381 0.0001 0.0001 0 360 EARC s
n 0.6126 0.5372 0.0001 0.0001 0 360 EARC s
n 0.6133 0.5352 0.0001 0.0001 0 360 EARC s
n 0.6140 0.5348 0.0001 0.0001 0 360 EARC s
n 0.6146 0.5332 0.0001 0.0001 0 360 EARC s
n 0.6153 0.5323 0.0001 0.0001 0 360 EARC s
n 0.6160 0.5313 0.0001 0.0001 0 360 EARC s
n 0.6166 0.5306 0.0001 0.0001 0 360 EARC s
n 0.6173 0.5295 0.0001 0.0001 0 360 EARC s
n 0.6180 0.5285 0.0001 0.0001 0 360 EARC s
n 0.6186 0.5272 0.0001 0.0001 0 360 EARC s
n 0.6193 0.5264 0.0001 0.0001 0 360 EARC s
n 0.6200 0.5252 0.0001 0.0001 0 360 EARC s
n 0.6206 0.5248 0.0001 0.0001 0 360 EARC s
n 0.6213 0.5232 0.0001 0.0001 0 360 EARC s
n 0.6219 0.5221 0.0001 0.0001 0 360 EARC s
n 0.6226 0.5211 0.0001 0.0001 0 360 EARC s
n 0.6233 0.5201 0.0001 0.0001 0 360 EARC s
n 0.6239 0.5189 0.0001 0.0001 0 360 EARC s
n 0.6246 0.5179 0.0001 0.0001 0 360 EARC s
n 0.6253 0.5169 0.0001 0.0001 0 360 EARC s
n 0.6259 0.5162 0.0001 0.0001 0 360 EARC s
n 0.6266 0.5153 0.0001 0.0001 0 360 EARC s
n 0.6273 0.5142 0.0001 0.0001 0 360 EARC s
n 0.6279 0.5133 0.0001 0.0001 0 360 EARC s
n 0.6286 0.5123 0.0001 0.0001 0 360 EARC s
n 0.6293 0.5108 0.0001 0.0001 0 360 EARC s
n 0.6299 0.5102 0.0001 0.0001 0 360 EARC s
n 0.6306 0.5091 0.0001 0.0001 0 360 EARC s
n 0.6312 0.5081 0.0001 0.0001 0 360 EARC s
n 0.6319 0.5072 0.0001 0.0001 0 360 EARC s
n 0.6326 0.5060 0.0001 0.0001 0 360 EARC s
n 0.6332 0.5050 0.0001 0.0001 0 360 EARC s
n 0.6339 0.5036 0.0001 0.0001 0 360 EARC s
n 0.6346 0.5027 0.0001 0.0001 0 360 EARC s
n 0.6352 0.5025 0.0001 0.0001 0 360 EARC s
n 0.6359 0.5011 0.0001 0.0001 0 360 EARC s
n 0.6366 0.5002 0.0001 0.0001 0 360 EARC s
n 0.6372 0.5000 0.0001 0.0001 0 360 EARC s
n 0.6379 0.4986 0.0001 0.0001 0 360 EARC s
n 0.6386 0.4979 0.0001 0.0001 0 360 EARC s
n 0.6392 0.4969 0.0001 0.0001 0 360 EARC s
n 0.6399 0.4957 0.0001 0.0001 0 360 EARC s
n 0.6405 0.4951 0.0001 0.0001 0 360 EARC s
n 0.6412 0.4935 0.0001 0.0001 0 360 EARC s
n 0.6419 0.4925 0.0001 0.0001 0 360 EARC s
n 0.6425 0.4928 0.0001 0.0001 0 360 EARC s
n 0.6432 0.4915 0.0001 0.0001 0 360 EARC s
n 0.6439 0.4902 0.0001 0.0001 0 360 EARC s
n 0.6445 0.4892 0.0001 0.0001 0 360 EARC s
n 0.6452 0.4889 0.0001 0.0001 0 360 EARC s
n 0.6459 0.4885 0.0001 0.0001 0 360 EARC s
n 0.6465 0.4873 0.0001 0.0001 0 360 EARC s
n 0.6472 0.4872 0.0001 0.0001 0 360 EARC s
n 0.6479 0.4863 0.0001 0.0001 0 360 EARC s
n 0.6485 0.4853 0.0001 0.0001 0 360 EARC s
n 0.6492 0.4848 0.0001 0.0001 0 360 EARC s
n 0.6498 0.4844 0.0001 0.0001 0 360 EARC s
n 0.6505 0.4834 0.0001 0.0001 0 360 EARC s
n 0.6512 0.4821 0.0001 0.0001 0 360 EARC s
n 0.6518 0.4815 0.0001 0.0001 0 360 EARC s
n 0.6525 0.4808 0.0001 0.0001 0 360 EARC s
n 0.6532 0.4805 0.0001 0.0001 0 360 EARC s
n 0.6538 0.4802 0.0001 0.0001 0 360 EARC s
n 0.6545 0.4790 0.0001 0.0001 0 360 EARC s
n 0.6552 0.4779 0.0001 0.0001 0 360 EARC s
n 0.6558 0.4780 0.0001 0.0001 0 360 EARC s
n 0.6565 0.4770 0.0001 0.0001 0 360 EARC s
n 0.6571 0.4767 0.0001 0.0001 0 360 EARC s
n 0.6578 0.4767 0.0001 0.0001 0 360 EARC s
n 0.6585 0.4756 0.0001 0.0001 0 360 EARC s
n 0.6591 0.4750 0.0001 0.0001 0 360 EARC s
n 0.6598 0.4744 0.0001 0.0001 0 360 EARC s
n 0.6605 0.4740 0.0001 0.0001 0 360 EARC s
n 0.6611 0.4740 0.0001 0.0001 0 360 EARC s
n 0.6618 0.4729 0.0001 0.0001 0 360 EARC s
n 0.6625 0.4723 0.0001 0.0001 0 360 EARC s
n 0.6631 0.4723 0.0001 0.0001 0 360 EARC s
n 0.6638 0.4712 0.0001 0.0001 0 360 EARC s
n 0.6645 0.4709 0.0001 0.0001 0 360 EARC s
n 0.6651 0.4707 0.0001 0.0001 0 360 EARC s
n 0.6658 0.4703 0.0001 0.0001 0 360 EARC s
n 0.6664 0.4702 0.0001 0.0001 0 360 EARC s
n 0.6671 0.4702 0.0001 0.0001 0 360 EARC s
n 0.6678 0.4699 0.0001 0.0001 0 360 EARC s
n 0.6684 0.4683 0.0001 0.0001 0 360 EARC s
n 0.6691 0.4683 0.0001 0.0001 0 360 EARC s
n 0.6698 0.4683 0.0001 0.0001 0 360 EARC s
n 0.6704 0.4683 0.0001 0.0001 0 360 EARC s
n 0.6711 0.4678 0.0001 0.0001 0 360 EARC s
n 0.6718 0.4678 0.0001 0.0001 0 360 EARC s
n 0.6724 0.4673 0.0001 0.0001 0 360 EARC s
n 0.6731 0.4673 0.0001 0.0001 0 360 EARC s
n 0.6738 0.4673 0.0001 0.0001 0 360 EARC s
n 0.6744 0.4665 0.0001 0.0001 0 360 EARC s
n 0.6751 0.4665 0.0001 0.0001 0 360 EARC s
n 0.6757 0.4664 0.0001 0.0001 0 360 EARC s
n 0.6764 0.4664 0.0001 0.0001 0 360 EARC s
n 0.6771 0.4664 0.0001 0.0001 0 360 EARC s
n 0.6777 0.4664 0.0001 0.0001 0 360 EARC s
n 0.6784 0.4662 0.0001 0.0001 0 360 EARC s
n 0.6791 0.4662 0.0001 0.0001 0 360 EARC s
n 0.6797 0.4661 0.0001 0.0001 0 360 EARC s
n 0.6804 0.4655 0.0001 0.0001 0 360 EARC s
n 0.6811 0.4649 0.0001 0.0001 0 360 EARC s
n 0.6817 0.4649 0.0001 0.0001 0 360 EARC s
n 0.6824 0.4649 0.0001 0.0001 0 360 EARC s
n 0.6831 0.4654 0.0001 0.0001 0 360 EARC s
n 0.6837 0.4658 0.0001 0.0001 0 360 EARC s
n 0.6844 0.4658 0.0001 0.0001 0 360 EARC s
n 0.6850 0.4658 0.0001 0.0001 0 360 EARC s
n 0.6857 0.4655 0.0001 0.0001 0 360 EARC s
n 0.6864 0.4654 0.0001 0.0001 0 360 EARC s
n 0.6870 0.4654 0.0001 0.0001 0 360 EARC s
n 0.6877 0.4654 0.0001 0.0001 0 360 EARC s
n 0.6884 0.4654 0.0001 0.0001 0 360 EARC s
n 0.6890 0.4654 0.0001 0.0001 0 360 EARC s
n 0.6897 0.4654 0.0001 0.0001 0 360 EARC s
n 0.6904 0.4654 0.0001 0.0001 0 360 EARC s
n 0.6910 0.4654 0.0001 0.0001 0 360 EARC s
n 0.6917 0.4654 0.0001 0.0001 0 360 EARC s
n 0.6924 0.4654 0.0001 0.0001 0 360 EARC s
n 0.6930 0.4654 0.0001 0.0001 0 360 EARC s
n 0.6937 0.4654 0.0001 0.0001 0 360 EARC s
n 0.6943 0.4658 0.0001 0.0001 0 360 EARC s
n 0.6950 0.4662 0.0001 0.0001 0 360 EARC s
n 0.6957 0.4662 0.0001 0.0001 0 360 EARC s
n 0.6963 0.4669 0.0001 0.0001 0 360 EARC s
n 0.6970 0.4672 0.0001 0.0001 0 360 EARC s
n 0.6977 0.4675 0.0001 0.0001 0 360 EARC s
n 0.6983 0.4678 0.0001 0.0001 0 360 EARC s
n 0.6990 0.4684 0.0001 0.0001 0 360 EARC s
n 0.6997 0.4688 0.0001 0.0001 0 360 EARC s
n 0.7003 0.4690 0.0001 0.0001 0 360 EARC s
n 0.7010 0.4690 0.0001 0.0001 0 360 EARC s
n 0.7017 0.4691 0.0001 0.0001 0 360 EARC s
n 0.7023 0.4694 0.0001 0.0001 0 360 EARC s
n 0.7030 0.4696 0.0001 0.0001 0 360 EARC s
n 0.7036 0.4700 0.0001 0.0001 0 360 EARC s
n 0.7043 0.4700 0.0001 0.0001 0 360 EARC s
n 0.7050 0.4704 0.0001 0.0001 0 360 EARC s
n 0.7056 0.4709 0.0001 0.0001 0 360 EARC s
n 0.7063 0.4713 0.0001 0.0001 0 360 EARC s
n 0.7070 0.4716 0.0001 0.0001 0 360 EARC s
n 0.7076 0.4720 0.0001 0.0001 0 360 EARC s
n 0.7083 0.4725 0.0001 0.0001 0 360 EARC s
n 0.7090 0.4727 0.0001 0.0001 0 360 EARC s
n 0.7096 0.4735 0.0001 0.0001 0 360 EARC s
n 0.7103 0.4739 0.0001 0.0001 0 360 EARC s
n 0.7109 0.4742 0.0001 0.0001 0 360 EARC s
n 0.7116 0.4746 0.0001 0.0001 0 360 EARC s
n 0.7123 0.4746 0.0001 0.0001 0 360 EARC s
n 0.7129 0.4751 0.0001 0.0001 0 360 EARC s
n 0.7136 0.4757 0.0001 0.0001 0 360 EARC s
n 0.7143 0.4764 0.0001 0.0001 0 360 EARC s
n 0.7149 0.4773 0.0001 0.0001 0 360 EARC s
n 0.7156 0.4773 0.0001 0.0001 0 360 EARC s
n 0.7163 0.4774 0.0001 0.0001 0 360 EARC s
n 0.7169 0.4786 0.0001 0.0001 0 360 EARC s
n 0.7176 0.4791 0.0001 0.0001 0 360 EARC s
n 0.7183 0.4802 0.0001 0.0001 0 360 EARC s
n 0.7189 0.4803 0.0001 0.0001 0 360 EARC s
n 0.7196 0.4803 0.0001 0.0001 0 360 EARC s
n 0.7202 0.4810 0.0001 0.0001 0 360 EARC s
n 0.7209 0.4819 0.0001 0.0001 0 360 EARC s
n 0.7216 0.4822 0.0001 0.0001 0 360 EARC s
n 0.7222 0.4828 0.0001 0.0001 0 360 EARC s
n 0.7229 0.4832 0.0001 0.0001 0 360 EARC s
n 0.7236 0.4838 0.0001 0.0001 0 360 EARC s
n 0.7242 0.4839 0.0001 0.0001 0 360 EARC s
n 0.7249 0.4847 0.0001 0.0001 0 360 EARC s
n 0.7256 0.4853 0.0001 0.0001 0 360 EARC s
n 0.7262 0.4858 0.0001 0.0001 0 360 EARC s
n 0.7269 0.4866 0.0001 0.0001 0 360 EARC s
n 0.7276 0.4871 0.0001 0.0001 0 360 EARC s
n 0.7282 0.4874 0.0001 0.0001 0 360 EARC s
n 0.7289 0.4879 0.0001 0.0001 0 360 EARC s
n 0.7295 0.4882 0.0001 0.0001 0 360 EARC s
n 0.7302 0.4890 0.0001 0.0001 0 360 EARC s
n 0.7309 0.4895 0.0001 0.0001 0 360 EARC s
n 0.7315 0.4904 0.0001 0.0001 0 360 EARC s
n 0.7322 0.4908 0.0001 0.0001 0 360 EARC s
n 0.7329 0.4914 0.0001 0.0001 0 360 EARC s
n 0.7335 0.4918 0.0001 0.0001 0 360 EARC s
n 0.7342 0.4921 0.0001 0.0001 0 360 EARC s
n 0.7349 0.4933 0.0001 0.0001 0 360 EARC s
n 0.7355 0.4937 0.0001 0.0001 0 360 EARC s
n 0.7362 0.4947 0.0001 0.0001 0 360 EARC s
n 0.7369 0.4951 0.0001 0.0001 0 360 EARC s
n 0.7375 0.4962 0.0001 0.0001 0 360 EARC s
n 0.7382 0.4966 0.0001 0.0001 0 360 EARC s
n 0.7388 0.4972 0.0001 0.0001 0 360 EARC s
n 0.7395 0.4979 0.0001 0.0001 0 360 EARC s
n 0.7402 0.4985 0.0001 0.0001 0 360 EARC s
n 0.7408 0.4991 0.0001 0.0001 0 360 EARC s
n 0.7415 0.4996 0.0001 0.0001 0 360 EARC s
n 0.7422 0.5008 0.0001 0.0001 0 360 EARC s
n 0.7428 0.5010 0.0001 0.0001 0 360 EARC s
n 0.7435 0.5026 0.0001 0.0001 0 360 EARC s
n 0.7442 0.5034 0.0001 0.0001 0 360 EARC s
n 0.7448 0.5039 0.0001 0.0001 0 360 EARC s
n 0.7455 0.5046 0.0001 0.0001 0 360 EARC s
n 0.7462 0.5049 0.0001 0.0001 0 360 EARC s
n 0.7468 0.5053 0.0001 0.0001 0 360 EARC s
n 0.7475 0.5060 0.0001 0.0001 0 360 EARC s
n 0.7481 0.5073 0.0001 0.0001 0 360 EARC s
n 0.7488 0.5078 0.0001 0.0001 0 360 EARC s
n 0.7495 0.5076 0.0001 0.0001 0 360 EARC s
n 0.7501 0.5078 0.0001 0.0001 0 360 EARC s
n 0.7508 0.5085 0.0001 0.0001 0 360 EARC s
n 0.7515 0.5091 0.0001 0.0001 0 360 EARC s
n 0.7521 0.5098 0.0001 0.0001 0 360 EARC s
n 0.7528 0.5104 0.0001 0.0001 0 360 EARC s
n 0.7535 0.5116 0.0001 0.0001 0 360 EARC s
n 0.7541 0.5128 0.0001 0.0001 0 360 EARC s
n 0.7548 0.5128 0.0001 0.0001 0 360 EARC s
n 0.7555 0.5131 0.0001 0.0001 0 360 EARC s
n 0.7561 0.5140 0.0001 0.0001 0 360 EARC s
n 0.7568 0.5143 0.0001 0.0001 0 360 EARC s
n 0.7574 0.5147 0.0001 0.0001 0 360 EARC s
n 0.7581 0.5150 0.0001 0.0001 0 360 EARC s
n 0.7588 0.5163 0.0001 0.0001 0 360 EARC s
n 0.7594 0.5166 0.0001 0.0001 0 360 EARC s
n 0.7601 0.5169 0.0001 0.0001 0 360 EARC s
n 0.7608 0.5173 0.0001 0.0001 0 360 EARC s
n 0.7614 0.5176 0.0001 0.0001 0 360 EARC s
n 0.7621 0.5185 0.0001 0.0001 0 360 EARC s
n 0.7628 0.5196 0.0001 0.0001 0 360 EARC s
n 0.7634 0.5204 0.0001 0.0001 0 360 EARC s
n 0.7641 0.5212 0.0001 0.0001 0 360 EARC s
n 0.7647 0.5214 0.0001 0.0001 0 360 EARC s
n 0.7654 0.5214 0.0001 0.0001 0 360 EARC s
n 0.7661 0.5214 0.0001 0.0001 0 360 EARC s
n 0.7667 0.5227 0.0001 0.0001 0 360 EARC s
n 0.7674 0.5237 0.0001 0.0001 0 360 EARC s
n 0.7681 0.5250 0.0001 0.0001 0 360 EARC s
n 0.7687 0.5259 0.0001 0.0001 0 360 EARC s
n 0.7694 0.5263 0.0001 0.0001 0 360 EARC s
n 0.7701 0.5261 0.0001 0.0001 0 360 EARC s
n 0.7707 0.5264 0.0001 0.0001 0 360 EARC s
n 0.7714 0.5273 0.0001 0.0001 0 360 EARC s
n 0.7721 0.5275 0.0001 0.0001 0 360 EARC s
n 0.7727 0.5277 0.0001 0.0001 0 360 EARC s
n 0.7734 0.5277 0.0001 0.0001 0 360 EARC s
n 0.7740 0.5279 0.0001 0.0001 0 360 EARC s
n 0.7747 0.5283 0.0001 0.0001 0 360 EARC s
n 0.7754 0.5289 0.0001 0.0001 0 360 EARC s
n 0.7760 0.5289 0.0001 0.0001 0 360 EARC s
n 0.7767 0.5293 0.0001 0.0001 0 360 EARC s
n 0.7774 0.5298 0.0001 0.0001 0 360 EARC s
n 0.7780 0.5298 0.0001 0.0001 0 360 EARC s
n 0.7787 0.5299 0.0001 0.0001 0 360 EARC s
n 0.7794 0.5299 0.0001 0.0001 0 360 EARC s
n 0.7800 0.5304 0.0001 0.0001 0 360 EARC s
n 0.7807 0.5308 0.0001 0.0001 0 360 EARC s
n 0.7814 0.5318 0.0001 0.0001 0 360 EARC s
n 0.7820 0.5324 0.0001 0.0001 0 360 EARC s
n 0.7827 0.5328 0.0001 0.0001 0 360 EARC s
n 0.7833 0.5333 0.0001 0.0001 0 360 EARC s
n 0.7840 0.5338 0.0001 0.0001 0 360 EARC s
n 0.7847 0.5344 0.0001 0.0001 0 360 EARC s
n 0.7853 0.5349 0.0001 0.0001 0 360 EARC s
n 0.7860 0.5354 0.0001 0.0001 0 360 EARC s
n 0.7867 0.5359 0.0001 0.0001 0 360 EARC s
n 0.7873 0.5360 0.0001 0.0001 0 360 EARC s
n 0.7880 0.5363 0.0001 0.0001 0 360 EARC s
n 0.7887 0.5366 0.0001 0.0001 0 360 EARC s
n 0.7893 0.5370 0.0001 0.0001 0 360 EARC s
n 0.7900 0.5371 0.0001 0.0001 0 360 EARC s
n 0.7907 0.5371 0.0001 0.0001 0 360 EARC s
n 0.7913 0.5371 0.0001 0.0001 0 360 EARC s
n 0.7920 0.5372 0.0001 0.0001 0 360 EARC s
n 0.7926 0.5377 0.0001 0.0001 0 360 EARC s
n 0.7933 0.5379 0.0001 0.0001 0 360 EARC s
n 0.7940 0.5381 0.0001 0.0001 0 360 EARC s
n 0.7946 0.5384 0.0001 0.0001 0 360 EARC s
n 0.7953 0.5385 0.0001 0.0001 0 360 EARC s
n 0.7960 0.5385 0.0001 0.0001 0 360 EARC s
n 0.7966 0.5385 0.0001 0.0001 0 360 EARC s
n 0.7973 0.5385 0.0001 0.0001 0 360 EARC s
n 0.7980 0.5385 0.0001 0.0001 0 360 EARC s
n 0.7986 0.5385 0.0001 0.0001 0 360 EARC s
n 0.7993 0.5390 0.0001 0.0001 0 360 EARC s
n 0.8000 0.5390 0.0001 0.0001 0 360 EARC s
n 0.8006 0.5393 0.0001 0.0001 0 360 EARC s
n 0.8013 0.5393 0.0001 0.0001 0 360 EARC s
n 0.8019 0.5393 0.0001 0.0001 0 360 EARC s
n 0.8026 0.5393 0.0001 0.0001 0 360 EARC s
n 0.8033 0.5393 0.0001 0.0001 0 360 EARC s
n 0.8039 0.5395 0.0001 0.0001 0 360 EARC s
n 0.8046 0.5401 0.0001 0.0001 0 360 EARC s
n 0.8053 0.5401 0.0001 0.0001 0 360 EARC s
n 0.8059 0.5401 0.0001 0.0001 0 360 EARC s
n 0.8066 0.5404 0.0001 0.0001 0 360 EARC s
n 0.8073 0.5404 0.0001 0.0001 0 360 EARC s
n 0.8079 0.5404 0.0001 0.0001 0 360 EARC s
n 0.8086 0.5402 0.0001 0.0001 0 360 EARC s
n 0.8093 0.5403 0.0001 0.0001 0 360 EARC s
n 0.8099 0.5403 0.0001 0.0001 0 360 EARC s
n 0.8106 0.5403 0.0001 0.0001 0 360 EARC s
n 0.8112 0.5403 0.0001 0.0001 0 360 EARC s
n 0.8119 0.5403 0.0001 0.0001 0 360 EARC s
n 0.8126 0.5403 0.0001 0.0001 0 360 EARC s
n 0.8132 0.5403 0.0001 0.0001 0 360 EARC s
n 0.8139 0.5405 0.0001 0.0001 0 360 EARC s
n 0.8146 0.5405 0.0001 0.0001 0 360 EARC s
n 0.8152 0.5402 0.0001 0.0001 0 360 EARC s
n 0.8159 0.5402 0.0001 0.0001 0 360 EARC s
n 0.8166 0.5402 0.0001 0.0001 0 360 EARC s
n 0.8172 0.5402 0.0001 0.0001 0 360 EARC s
n 0.8179 0.5393 0.0001 0.0001 0 360 EARC s
n 0.8185 0.5393 0.0001 0.0001 0 360 EARC s
n 0.8192 0.5393 0.0001 0.0001 0 360 EARC s
n 0.8199 0.5393 0.0001 0.0001 0 360 EARC s
n 0.8205 0.5390 0.0001 0.0001 0 360 EARC s
n 0.8212 0.5390 0.0001 0.0001 0 360 EARC s
n 0.8219 0.5389 0.0001 0.0001 0 360 EARC s
n 0.8225 0.5386 0.0001 0.0001 0 360 EARC s
n 0.8232 0.5386 0.0001 0.0001 0 360 EARC s
n 0.8239 0.5384 0.0001 0.0001 0 360 EARC s
n 0.8245 0.5381 0.0001 0.0001 0 360 EARC s
n 0.8252 0.5381 0.0001 0.0001 0 360 EARC s
n 0.8259 0.5381 0.0001 0.0001 0 360 EARC s
n 0.8265 0.5381 0.0001 0.0001 0 360 EARC s
n 0.8272 0.5380 0.0001 0.0001 0 360 EARC s
n 0.8278 0.5371 0.0001 0.0001 0 360 EARC s
n 0.8285 0.5371 0.0001 0.0001 0 360 EARC s
n 0.8292 0.5368 0.0001 0.0001 0 360 EARC s
n 0.8298 0.5365 0.0001 0.0001 0 360 EARC s
n 0.8305 0.5365 0.0001 0.0001 0 360 EARC s
n 0.8312 0.5365 0.0001 0.0001 0 360 EARC s
n 0.8318 0.5365 0.0001 0.0001 0 360 EARC s
n 0.8325 0.5361 0.0001 0.0001 0 360 EARC s
n 0.8332 0.5361 0.0001 0.0001 0 360 EARC s
n 0.8338 0.5348 0.0001 0.0001 0 360 EARC s
n 0.8345 0.5343 0.0001 0.0001 0 360 EARC s
n 0.8352 0.5346 0.0001 0.0001 0 360 EARC s
n 0.8358 0.5345 0.0001 0.0001 0 360 EARC s
n 0.8365 0.5342 0.0001 0.0001 0 360 EARC s
n 0.8371 0.5339 0.0001 0.0001 0 360 EARC s
n 0.8378 0.5335 0.0001 0.0001 0 360 EARC s
n 0.8385 0.5332 0.0001 0.0001 0 360 EARC s
n 0.8391 0.5332 0.0001 0.0001 0 360 EARC s
n 0.8398 0.5332 0.0001 0.0001 0 360 EARC s
n 0.8405 0.5320 0.0001 0.0001 0 360 EARC s
n 0.8411 0.5320 0.0001 0.0001 0 360 EARC s
n 0.8418 0.5317 0.0001 0.0001 0 360 EARC s
n 0.8425 0.5317 0.0001 0.0001 0 360 EARC s
n 0.8431 0.5317 0.0001 0.0001 0 360 EARC s
n 0.8438 0.5316 0.0001 0.0001 0 360 EARC s
n 0.8445 0.5310 0.0001 0.0001 0 360 EARC s
n 0.8451 0.5303 0.0001 0.0001 0 360 EARC s
n 0.8458 0.5303 0.0001 0.0001 0 360 EARC s
n 0.8464 0.5300 0.0001 0.0001 0 360 EARC s
n 0.8471 0.5294 0.0001 0.0001 0 360 EARC s
n 0.8478 0.5288 0.0001 0.0001 0 360 EARC s
n 0.8484 0.5285 0.0001 0.0001 0 360 EARC s
n 0.8491 0.5282 0.0001 0.0001 0 360 EARC s
n 0.8498 0.5281 0.0001 0.0001 0 360 EARC s
n 0.8504 0.5277 0.0001 0.0001 0 360 EARC s
n 0.8511 0.5275 0.0001 0.0001 0 360 EARC s
n 0.8518 0.5271 0.0001 0.0001 0 360 EARC s
n 0.8524 0.5266 0.0001 0.0001 0 360 EARC s
n 0.8531 0.5265 0.0001 0.0001 0 360 EARC s
n 0.8538 0.5253 0.0001 0.0001 0 360 EARC s
n 0.8544 0.5249 0.0001 0.0001 0 360 EARC s
n 0.8551 0.5248 0.0001 0.0001 0 360 EARC s
n 0.8557 0.5243 0.0001 0.0001 0 360 EARC s
n 0.8564 0.5242 0.0001 0.0001 0 360 EARC s
n 0.8571 0.5237 0.0001 0.0001 0 360 EARC s
n 0.8577 0.5237 0.0001 0.0001 0 360 EARC s
n 0.8584 0.5230 0.0001 0.0001 0 360 EARC s
n 0.8591 0.5227 0.0001 0.0001 0 360 EARC s
n 0.8597 0.5229 0.0001 0.0001 0 360 EARC s
n 0.8604 0.5219 0.0001 0.0001 0 360 EARC s
n 0.8611 0.5214 0.0001 0.0001 0 360 EARC s
n 0.8617 0.5213 0.0001 0.0001 0 360 EARC s
n 0.8624 0.5204 0.0001 0.0001 0 360 EARC s
n 0.8630 0.5201 0.0001 0.0001 0 360 EARC s
n 0.8637 0.5198 0.0001 0.0001 0 360 EARC s
n 0.8644 0.5191 0.0001 0.0001 0 360 EARC s
n 0.8650 0.5191 0.0001 0.0001 0 360 EARC s
n 0.8657 0.5191 0.0001 0.0001 0 360 EARC s
n 0.8664 0.5188 0.0001 0.0001 0 360 EARC s
n 0.8670 0.5182 0.0001 0.0001 0 360 EARC s
n 0.8677 0.5180 0.0001 0.0001 0 360 EARC s
n 0.8684 0.5175 0.0001 0.0001 0 360 EARC s
n 0.8690 0.5162 0.0001 0.0001 0 360 EARC s
n 0.8697 0.5162 0.0001 0.0001 0 360 EARC s
n 0.8704 0.5159 0.0001 0.0001 0 360 EARC s
n 0.8710 0.5155 0.0001 0.0001 0 360 EARC s
n 0.8717 0.5155 0.0001 0.0001 0 360 EARC s
n 0.8723 0.5151 0.0001 0.0001 0 360 EARC s
n 0.8730 0.5151 0.0001 0.0001 0 360 EARC s
n 0.8737 0.5142 0.0001 0.0001 0 360 EARC s
n 0.8743 0.5140 0.0001 0.0001 0 360 EARC s
n 0.8750 0.5133 0.0001 0.0001 0 360 EARC s
n 0.8757 0.5129 0.0001 0.0001 0 360 EARC s
n 0.8763 0.5127 0.0001 0.0001 0 360 EARC s
n 0.8770 0.5119 0.0001 0.0001 0 360 EARC s
n 0.8777 0.5111 0.0001 0.0001 0 360 EARC s
n 0.8783 0.5108 0.0001 0.0001 0 360 EARC s
n 0.8790 0.5104 0.0001 0.0001 0 360 EARC s
n 0.8797 0.5107 0.0001 0.0001 0 360 EARC s
n 0.8803 0.5107 0.0001 0.0001 0 360 EARC s
n 0.8810 0.5103 0.0001 0.0001 0 360 EARC s
n 0.8816 0.5095 0.0001 0.0001 0 360 EARC s
n 0.8823 0.5087 0.0001 0.0001 0 360 EARC s
n 0.8830 0.5084 0.0001 0.0001 0 360 EARC s
n 0.8836 0.5078 0.0001 0.0001 0 360 EARC s
n 0.8843 0.5076 0.0001 0.0001 0 360 EARC s
n 0.8850 0.5076 0.0001 0.0001 0 360 EARC s
n 0.8856 0.5071 0.0001 0.0001 0 360 EARC s
n 0.8863 0.5057 0.0001 0.0001 0 360 EARC s
n 0.8870 0.5068 0.0001 0.0001 0 360 EARC s
n 0.8876 0.5068 0.0001 0.0001 0 360 EARC s
n 0.8883 0.5066 0.0001 0.0001 0 360 EARC s
n 0.8890 0.5058 0.0001 0.0001 0 360 EARC s
n 0.8896 0.5056 0.0001 0.0001 0 360 EARC s
n 0.8903 0.5056 0.0001 0.0001 0 360 EARC s
n 0.8909 0.5053 0.0001 0.0001 0 360 EARC s
n 0.8916 0.5050 0.0001 0.0001 0 360 EARC s
n 0.8923 0.5043 0.0001 0.0001 0 360 EARC s
n 0.8929 0.5043 0.0001 0.0001 0 360 EARC s
n 0.8936 0.5036 0.0001 0.0001 0 360 EARC s
n 0.8943 0.5033 0.0001 0.0001 0 360 EARC s
n 0.8949 0.5030 0.0001 0.0001 0 360 EARC s
n 0.8956 0.5027 0.0001 0.0001 0 360 EARC s
n 0.8963 0.5027 0.0001 0.0001 0 360 EARC s
n 0.8969 0.5023 0.0001 0.0001 0 360 EARC s
n 0.8976 0.5020 0.0001 0.0001 0 360 EARC s
n 0.8983 0.5020 0.0001 0.0001 0 360 EARC s
n 0.8989 0.5020 0.0001 0.0001 0 360 EARC s
n 0.8996 0.5016 0.0001 0.0001 0 360 EARC s
n 0.9002 0.5016 0.0001 0.0001 0 360 EARC s
n 0.9009 0.5007 0.0001 0.0001 0 360 EARC s
n 0.9016 0.5007 0.0001 0.0001 0 360 EARC s
n 0.9022 0.5007 0.0001 0.0001 0 360 EARC s
n 0.9029 0.5001 0.0001 0.0001 0 360 EARC s
n 0.9036 0.4997 0.0001 0.0001 0 360 EARC s
n 0.9042 0.4997 0.0001 0.0001 0 360 EARC s
n 0.9049 0.4997 0.0001 0.0001 0 360 EARC s
n 0.9056 0.4992 0.0001 0.0001 0 360 EARC s
n 0.9062 0.4988 0.0001 0.0001 0 360 EARC s
n 0.9069 0.4985 0.0001 0.0001 0 360 EARC s
n 0.9076 0.4983 0.0001 0.0001 0 360 EARC s
n 0.9082 0.4982 0.0001 0.0001 0 360 EARC s
n 0.9089 0.4979 0.0001 0.0001 0 360 EARC s
n 0.9095 0.4979 0.0001 0.0001 0 360 EARC s
n 0.9102 0.4976 0.0001 0.0001 0 360 EARC s
n 0.9109 0.4973 0.0001 0.0001 0 360 EARC s
n 0.9115 0.4973 0.0001 0.0001 0 360 EARC s
n 0.9122 0.4973 0.0001 0.0001 0 360 EARC s
n 0.9129 0.4969 0.0001 0.0001 0 360 EARC s
n 0.9135 0.4969 0.0001 0.0001 0 360 EARC s
n 0.9142 0.4963 0.0001 0.0001 0 360 EARC s
n 0.9149 0.4962 0.0001 0.0001 0 360 EARC s
n 0.9155 0.4959 0.0001 0.0001 0 360 EARC s
n 0.9162 0.4959 0.0001 0.0001 0 360 EARC s
n 0.9168 0.4959 0.0001 0.0001 0 360 EARC s
n 0.9175 0.4959 0.0001 0.0001 0 360 EARC s
n 0.9182 0.4959 0.0001 0.0001 0 360 EARC s
n 0.9188 0.4959 0.0001 0.0001 0 360 EARC s
n 0.9195 0.4959 0.0001 0.0001 0 360 EARC s
n 0.9202 0.4954 0.0001 0.0001 0 360 EARC s
n 0.9208 0.4954 0.0001 0.0001 0 360 EARC s
n 0.9215 0.4953 0.0001 0.0001 0 360 EARC s
n 0.9222 0.4951 0.0001 0.0001 0 360 EARC s
n 0.9228 0.4949 0.0001 0.0001 0 360 EARC s
n 0.9235 0.4949 0.0001 0.0001 0 360 EARC s
n 0.9242 0.4949 0.0001 0.0001 0 360 EARC s
n 0.9248 0.4949 0.0001 0.0001 0 360 EARC s
n 0.9255 0.4943 0.0001 0.0001 0 360 EARC s
n 0.9261 0.4940 0.0001 0.0001 0 360 EARC s
n 0.9268 0.4940 0.0001 0.0001 0 360 EARC s
n 0.9275 0.4940 0.0001 0.0001 0 360 EARC s
n 0.9281 0.4940 0.0001 0.0001 0 360 EARC s
n 0.9288 0.4940 0.0001 0.0001 0 360 EARC s
n 0.9295 0.4940 0.0001 0.0001 0 360 EARC s
n 0.9301 0.4940 0.0001 0.0001 0 360 EARC s
n 0.9308 0.4940 0.0001 0.0001 0 360 EARC s
n 0.9315 0.4940 0.0001 0.0001 0 360 EARC s
n 0.9321 0.4940 0.0001 0.0001 0 360 EARC s
n 0.9328 0.4940 0.0001 0.0001 0 360 EARC s
n 0.9335 0.4940 0.0001 0.0001 0 360 EARC s
n 0.9341 0.4940 0.0001 0.0001 0 360 EARC s
n 0.9348 0.4940 0.0001 0.0001 0 360 EARC s
n 0.9354 0.4940 0.0001 0.0001 0 360 EARC s
n 0.9361 0.4941 0.0001 0.0001 0 360 EARC s
n 0.9368 0.4941 0.0001 0.0001 0 360 EARC s
n 0.9374 0.4941 0.0001 0.0001 0 360 EARC s
n 0.9381 0.4941 0.0001 0.0001 0 360 EARC s
n 0.9388 0.4941 0.0001 0.0001 0 360 EARC s
n 0.9394 0.4941 0.0001 0.0001 0 360 EARC s
n 0.9401 0.4941 0.0001 0.0001 0 360 EARC s
n 0.9408 0.4941 0.0001 0.0001 0 360 EARC s
n 0.9414 0.4941 0.0001 0.0001 0 360 EARC s
n 0.9421 0.4943 0.0001 0.0001 0 360 EARC s
n 0.9428 0.4943 0.0001 0.0001 0 360 EARC s
n 0.9434 0.4943 0.0001 0.0001 0 360 EARC s
n 0.9441 0.4943 0.0001 0.0001 0 360 EARC s
n 0.9447 0.4946 0.0001 0.0001 0 360 EARC s
n 0.9454 0.4947 0.0001 0.0001 0 360 EARC s
n 0.9461 0.4947 0.0001 0.0001 0 360 EARC s
n 0.9467 0.4947 0.0001 0.0001 0 360 EARC s
n 0.9474 0.4947 0.0001 0.0001 0 360 EARC s
n 0.9481 0.4953 0.0001 0.0001 0 360 EARC s
n 0.9487 0.4953 0.0001 0.0001 0 360 EARC s
n 0.9494 0.4953 0.0001 0.0001 0 360 EARC s
n 0.9501 0.4953 0.0001 0.0001 0 360 EARC s
n 0.9507 0.4953 0.0001 0.0001 0 360 EARC s
n 0.9514 0.4953 0.0001 0.0001 0 360 EARC s
n 0.9521 0.4954 0.0001 0.0001 0 360 EARC s
n 0.9527 0.4959 0.0001 0.0001 0 360 EARC s
n 0.9534 0.4959 0.0001 0.0001 0 360 EARC s
n 0.9540 0.4959 0.0001 0.0001 0 360 EARC s
n 0.9547 0.4966 0.0001 0.0001 0 360 EARC s
n 0.9554 0.4969 0.0001 0.0001 0 360 EARC s
n 0.9560 0.4969 0.0001 0.0001 0 360 EARC s
n 0.9567 0.4969 0.0001 0.0001 0 360 EARC s
n 0.9574 0.4970 0.0001 0.0001 0 360 EARC s
n 0.9580 0.4970 0.0001 0.0001 0 360 EARC s
n 0.9587 0.4972 0.0001 0.0001 0 360 EARC s
n 0.9594 0.4976 0.0001 0.0001 0 360 EARC s
n 0.9600 0.4976 0.0001 0.0001 0 360 EARC s
n 0.9607 0.4979 0.0001 0.0001 0 360 EARC s
n 0.9614 0.4979 0.0001 0.0001 0 360 EARC s
n 0.9620 0.4980 0.0001 0.0001 0 360 EARC s
n 0.9627 0.4982 0.0001 0.0001 0 360 EARC s
n 0.9633 0.4983 0.0001 0.0001 0 360 EARC s
n 0.9640 0.4985 0.0001 0.0001 0 360 EARC s
n 0.9647 0.4986 0.0001 0.0001 0 360 EARC s
n 0.9653 0.4988 0.0001 0.0001 0 360 EARC s
n 0.9660 0.4989 0.0001 0.0001 0 360 EARC s
n 0.9667 0.4989 0.0001 0.0001 0 360 EARC s
n 0.9673 0.4989 0.0001 0.0001 0 360 EARC s
n 0.9680 0.4989 0.0001 0.0001 0 360 EARC s
n 0.9687 0.4992 0.0001 0.0001 0 360 EARC s
n 0.9693 0.4994 0.0001 0.0001 0 360 EARC s
n 0.9700 0.4997 0.0001 0.0001 0 360 EARC s
n 0.9706 0.4997 0.0001 0.0001 0 360 EARC s
n 0.9713 0.5001 0.0001 0.0001 0 360 EARC s
n 0.9720 0.5004 0.0001 0.0001 0 360 EARC s
n 0.9726 0.5004 0.0001 0.0001 0 360 EARC s
n 0.9733 0.5007 0.0001 0.0001 0 360 EARC s
n 0.9740 0.5011 0.0001 0.0001 0 360 EARC s
n 0.9746 0.5013 0.0001 0.0001 0 360 EARC s
n 0.9753 0.5013 0.0001 0.0001 0 360 EARC s
n 0.9760 0.5014 0.0001 0.0001 0 360 EARC s
n 0.9766 0.5015 0.0001 0.0001 0 360 EARC s
n 0.9773 0.5018 0.0001 0.0001 0 360 EARC s
n 0.9780 0.5026 0.0001 0.0001 0 360 EARC s
n 0.9786 0.5031 0.0001 0.0001 0 360 EARC s
n 0.9793 0.5036 0.0001 0.0001 0 360 EARC s
n 0.9799 0.5037 0.0001 0.0001 0 360 EARC s
n 0.9806 0.5042 0.0001 0.0001 0 360 EARC s
n 0.9813 0.5042 0.0001 0.0001 0 360 EARC s
n 0.9819 0.5046 0.0001 0.0001 0 360 EARC s
n 0.9826 0.5046 0.0001 0.0001 0 360 EARC s
n 0.9833 0.5046 0.0001 0.0001 0 360 EARC s
n 0.9839 0.5047 0.0001 0.0001 0 360 EARC s
n 0.9846 0.5052 0.0001 0.0001 0 360 EARC s
n 0.9853 0.5052 0.0001 0.0001 0 360 EARC s
n 0.9859 0.5055 0.0001 0.0001 0 360 EARC s
n 0.9866 0.5056 0.0001 0.0001 0 360 EARC s
n 0.9873 0.5061 0.0001 0.0001 0 360 EARC s
n 0.9879 0.5063 0.0001 0.0001 0 360 EARC s
n 0.9886 0.5063 0.0001 0.0001 0 360 EARC s
n 0.9892 0.5063 0.0001 0.0001 0 360 EARC s
n 0.9899 0.5065 0.0001 0.0001 0 360 EARC s
n 0.9906 0.5071 0.0001 0.0001 0 360 EARC s
n 0.9912 0.5071 0.0001 0.0001 0 360 EARC s
n 0.9919 0.5074 0.0001 0.0001 0 360 EARC s
n 0.9926 0.5078 0.0001 0.0001 0 360 EARC s
n 0.9932 0.5081 0.0001 0.0001 0 360 EARC s
n 0.9939 0.5085 0.0001 0.0001 0 360 EARC s
n 0.9946 0.5085 0.0001 0.0001 0 360 EARC s
n 0.9952 0.5088 0.0001 0.0001 0 360 EARC s
n 0.9959 0.5091 0.0001 0.0001 0 360 EARC s
n 0.9966 0.5091 0.0001 0.0001 0 360 EARC s
n 0.9972 0.5091 0.0001 0.0001 0 360 EARC s
n 0.9979 0.5094 0.0001 0.0001 0 360 EARC s
n 0.9985 0.5097 0.0001 0.0001 0 360 EARC s
n 0.9992 0.5101 0.0001 0.0001 0 360 EARC s
n 0.9999 0.5103 0.0001 0.0001 0 360 EARC s
n 1.0005 0.5103 0.0001 0.0001 0 360 EARC s
n 1.0012 0.5105 0.0001 0.0001 0 360 EARC s
n 1.0019 0.5108 0.0001 0.0001 0 360 EARC s
n 1.0025 0.5113 0.0001 0.0001 0 360 EARC s
n 1.0032 0.5116 0.0001 0.0001 0 360 EARC s
n 1.0039 0.5119 0.0001 0.0001 0 360 EARC s
n 1.0045 0.5126 0.0001 0.0001 0 360 EARC s
n 1.0052 0.5126 0.0001 0.0001 0 360 EARC s
n 1.0059 0.5127 0.0001 0.0001 0 360 EARC s
n 1.0065 0.5130 0.0001 0.0001 0 360 EARC s
n 1.0072 0.5130 0.0001 0.0001 0 360 EARC s
n 1.0078 0.5130 0.0001 0.0001 0 360 EARC s
n 1.0085 0.5130 0.0001 0.0001 0 360 EARC s
n 1.0092 0.5130 0.0001 0.0001 0 360 EARC s
n 1.0098 0.5130 0.0001 0.0001 0 360 EARC s
n 1.0105 0.5132 0.0001 0.0001 0 360 EARC s
n 1.0112 0.5136 0.0001 0.0001 0 360 EARC s
n 1.0118 0.5140 0.0001 0.0001 0 360 EARC s
n 1.0125 0.5145 0.0001 0.0001 0 360 EARC s
n 1.0132 0.5149 0.0001 0.0001 0 360 EARC s
n 1.0138 0.5152 0.0001 0.0001 0 360 EARC s
n 1.0145 0.5162 0.0001 0.0001 0 360 EARC s
n 1.0158 0.5162 0.0001 0.0001 0 360 EARC s
n 1.0165 0.5161 0.0001 0.0001 0 360 EARC s
n 1.0171 0.5162 0.0001 0.0001 0 360 EARC s
n 1.0178 0.5162 0.0001 0.0001 0 360 EARC s
n 1.0185 0.5171 0.0001 0.0001 0 360 EARC s
[/DeviceRGB] SCS
Color2 SC
[] 0 SD
0.0015 SLW
0 SLC
0 SLJ
n
0.1832 0.1877 m
0.1919 0.1906 l
0.2005 0.2084 l
0.2092 0.2392 l
0.2178 0.2808 l
0.2264 0.3305 l
0.2351 0.3854 l
0.2437 0.4427 l
0.2524 0.4996 l
0.2610 0.5534 l
0.2696 0.6018 l
0.2783 0.6429 l
0.2869 0.6752 l
0.2955 0.6979 l
0.3042 0.7104 l
0.3128 0.7129 l
0.3215 0.7058 l
0.3301 0.6902 l
0.3387 0.6672 l
0.3474 0.6385 l
0.3560 0.6058 l
0.3646 0.5708 l
0.3733 0.5353 l
0.3819 0.5010 l
0.3906 0.4695 l
0.3992 0.4420 l
0.4078 0.4195 l
0.4165 0.4028 l
0.4251 0.3923 l
0.4337 0.3880 l
0.4424 0.3898 l
0.4510 0.3973 l
0.4597 0.4095 l
0.4683 0.4258 l
0.4769 0.4451 l
0.4856 0.4662 l
0.4942 0.4882 l
0.5028 0.5098 l
0.5115 0.5302 l
0.5201 0.5484 l
0.5288 0.5637 l
0.5374 0.5756 l
0.5460 0.5838 l
0.5547 0.5882 l
0.5633 0.5887 l
0.5720 0.5856 l
0.5806 0.5793 l
0.5892 0.5702 l
0.5979 0.5590 l
0.6065 0.5464 l
0.6151 0.5330 l
0.6238 0.5194 l
0.6324 0.5064 l
0.6411 0.4946 l
0.6497 0.4842 l
0.6583 0.4759 l
0.6670 0.4698 l
0.6756 0.4661 l
0.6842 0.4647 l
0.6929 0.4657 l
0.7015 0.4687 l
0.7102 0.4736 l
0.7188 0.4800 l
0.7274 0.4874 l
0.7361 0.4956 l
0.7447 0.5040 l
0.7533 0.5122 l
0.7620 0.5199 l
0.7706 0.5267 l
0.7793 0.5324 l
0.7879 0.5368 l
0.7965 0.5398 l
0.8052 0.5413 l
0.8138 0.5413 l
0.8224 0.5400 l
0.8311 0.5374 l
0.8397 0.5339 l
0.8484 0.5295 l
0.8570 0.5246 l
0.8656 0.5195 l
0.8743 0.5143 l
0.8829 0.5094 l
0.8916 0.5049 l
0.9002 0.5011 l
0.9088 0.4980 l
0.9175 0.4958 l
0.9261 0.4944 l
0.9347 0.4940 l
0.9434 0.4945 l
0.9520 0.4957 l
0.9607 0.4977 l
0.9693 0.5002 l
0.9779 0.5031 l
0.9866 0.5062 l
0.9952 0.5094 l
1.0038 0.5125 l
1.0125 0.5154 l
1.0211 0.5180 l
1.0298 0.5201 l
1.0384 0.5217 l
s
[/DeviceRGB] SCS
Color1 SC
[] 0 SD
0.0030 SLW
n
0.1832 0.1877 m
0.1919 0.1906 l
0.2005 0.2084 l
0.2092 0.2392 l
0.2178 0.2808 l
0.2264 0.3305 l
0.2351 0.3854 l
0.2437 0.4427 l
0.2524 0.4996 l
0.2610 0.5534 l
0.2696 0.6018 l
0.2783 0.6429 l
0.2869 0.6752 l
0.2955 0.6979 l
0.3042 0.7104 l
0.3128 0.7129 l
0.3215 0.7058 l
0.3301 0.6902 l
0.3387 0.6672 l
0.3474 0.6385 l
0.3560 0.6058 l
0.3646 0.5708 l
0.3733 0.5353 l
0.3819 0.5010 l
0.3906 0.4695 l
0.3992 0.4420 l
0.4078 0.4195 l
0.4165 0.4028 l
0.4251 0.3923 l
0.4337 0.3880 l
0.4424 0.3898 l
0.4510 0.3973 l
0.4597 0.4095 l
0.4683 0.4258 l
0.4769 0.4451 l
0.4856 0.4662 l
0.4942 0.4882 l
0.5028 0.5098 l
0.5115 0.5302 l
0.5201 0.5484 l
0.5288 0.5637 l
0.5374 0.5756 l
0.5460 0.5838 l
0.5547 0.5882 l
0.5633 0.5887 l
0.5720 0.5856 l
0.5806 0.5793 l
0.5892 0.5702 l
0.5979 0.5590 l
0.6065 0.5464 l
0.6151 0.5330 l
0.6238 0.5194 l
0.6324 0.5064 l
0.6411 0.4946 l
0.6497 0.4842 l
0.6583 0.4759 l
0.6670 0.4698 l
0.6756 0.4661 l
0.6842 0.4647 l
0.6929 0.4657 l
0.7015 0.4687 l
0.7102 0.4736 l
0.7188 0.4800 l
0.7274 0.4874 l
0.7361 0.4956 l
0.7447 0.5040 l
0.7533 0.5122 l
0.7620 0.5199 l
0.7706 0.5267 l
0.7793 0.5324 l
0.7879 0.5368 l
0.7965 0.5398 l
0.8052 0.5413 l
0.8138 0.5413 l
0.8224 0.5400 l
0.8311 0.5374 l
0.8397 0.5339 l
0.8484 0.5295 l
0.8570 0.5246 l
0.8656 0.5195 l
0.8743 0.5143 l
0.8829 0.5094 l
0.8916 0.5049 l
0.9002 0.5011 l
0.9088 0.4980 l
0.9175 0.4958 l
0.9261 0.4944 l
0.9347 0.4940 l
0.9434 0.4945 l
0.9520 0.4957 l
0.9607 0.4977 l
0.9693 0.5002 l
0.9779 0.5031 l
0.9866 0.5062 l
0.9952 0.5094 l
1.0038 0.5125 l
1.0125 0.5154 l
1.0211 0.5180 l
1.0298 0.5201 l
1.0384 0.5217 l
s
n
0.2331 0.1500 m
0.2331 0.1700 l
s
n
0.2331 0.8500 m
0.2331 0.8300 l
s
n
0.2746 0.1500 m
0.2746 0.1700 l
s
n
0.2746 0.8500 m
0.2746 0.8300 l
s
n
0.3161 0.1500 m
0.3161 0.1700 l
s
n
0.3161 0.8500 m
0.3161 0.8300 l
s
n
0.3991 0.1500 m
0.3991 0.1700 l
s
n
0.3991 0.8500 m
0.3991 0.8300 l
s
n
0.4406 0.1500 m
0.4406 0.1700 l
s
n
0.4406 0.8500 m
0.4406 0.8300 l
s
n
0.4821 0.1500 m
0.4821 0.1700 l
s
n
0.4821 0.8500 m
0.4821 0.8300 l
s
n
0.5652 0.1500 m
0.5652 0.1700 l
s
n
0.5652 0.8500 m
0.5652 0.8300 l
s
n
0.6067 0.1500 m
0.6067 0.1700 l
s
n
0.6067 0.8500 m
0.6067 0.8300 l
s
n
0.6482 0.1500 m
0.6482 0.1700 l
s
n
0.6482 0.8500 m
0.6482 0.8300 l
s
n
0.7312 0.1500 m
0.7312 0.1700 l
s
n
0.7312 0.8500 m
0.7312 0.8300 l
s
n
0.7727 0.1500 m
0.7727 0.1700 l
s
n
0.7727 0.8500 m
0.7727 0.8300 l
s
n
0.8142 0.1500 m
0.8142 0.1700 l
s
n
0.8142 0.8500 m
0.8142 0.8300 l
s
n
0.8973 0.1500 m
0.8973 0.1700 l
s
n
0.8973 0.8500 m
0.8973 0.8300 l
s
n
0.9388 0.1500 m
0.9388 0.1700 l
s
n
0.9388 0.8500 m
0.9388 0.8300 l
s
n
0.9803 0.1500 m
0.9803 0.1700 l
s
n
0.9803 0.8500 m
0.9803 0.8300 l
s
n
0.1915 0.1500 m
0.1915 0.1800 l
s
n
0.1915 0.8500 m
0.1915 0.8200 l
s
n
0.3576 0.1500 m
0.3576 0.1800 l
s
n
0.3576 0.8500 m
0.3576 0.8200 l
s
n
0.5236 0.1500 m
0.5236 0.1800 l
s
n
0.5236 0.8500 m
0.5236 0.8200 l
s
n
0.6897 0.1500 m
0.6897 0.1800 l
s
n
0.6897 0.8500 m
0.6897 0.8200 l
s
n
0.8557 0.1500 m
0.8557 0.1800 l
s
n
0.8557 0.8500 m
0.8557 0.8200 l
s
n
1.0218 0.1500 m
1.0218 0.1800 l
s
n
1.0218 0.8500 m
1.0218 0.8200 l
s
/Helvetica findfont
dup length dict begin
 {1 index /FID ne {def} {pop pop} ifelse} forall
 /Encoding DefEncoding def
 currentdict
end
/Font12 exch definefont pop
/Font12 FFSF
0.1807 0.1104 m
GS
[0.0420 0.0000 0.0000 0.0420 0 0] CC
(0) show
GR
/Font12 FFSF
0.3352 0.1104 m
GS
[0.0420 0.0000 0.0000 0.0420 0 0] CC
(10) show
GR
/Font12 FFSF
0.5012 0.1104 m
GS
[0.0420 0.0000 0.0000 0.0420 0 0] CC
(20) show
GR
/Font12 FFSF
0.6673 0.1104 m
GS
[0.0420 0.0000 0.0000 0.0420 0 0] CC
(30) show
GR
/Font12 FFSF
0.8333 0.1104 m
GS
[0.0420 0.0000 0.0000 0.0420 0 0] CC
(40) show
GR
/Font12 FFSF
0.9994 0.1104 m
GS
[0.0420 0.0000 0.0000 0.0420 0 0] CC
(50) show
GR
/Font12 FFSF
0.5168 0.0688 m
GS
[0.0420 0.0000 0.0000 0.0420 0 0] CC
(Tempo \(s\)) show
GR
n
0.1832 0.1597 m
0.2032 0.1597 l
s
n
1.0384 0.1597 m
1.0184 0.1597 l
s
n
0.1832 0.1840 m
0.2032 0.1840 l
s
n
1.0384 0.1840 m
1.0184 0.1840 l
s
n
0.1832 0.2326 m
0.2032 0.2326 l
s
n
1.0384 0.2326 m
1.0184 0.2326 l
s
n
0.1832 0.2569 m
0.2032 0.2569 l
s
n
1.0384 0.2569 m
1.0184 0.2569 l
s
n
0.1832 0.2812 m
0.2032 0.2812 l
s
n
1.0384 0.2812 m
1.0184 0.2812 l
s
n
0.1832 0.3298 m
0.2032 0.3298 l
s
n
1.0384 0.3298 m
1.0184 0.3298 l
s
n
0.1832 0.3542 m
0.2032 0.3542 l
s
n
1.0384 0.3542 m
1.0184 0.3542 l
s
n
0.1832 0.3785 m
0.2032 0.3785 l
s
n
1.0384 0.3785 m
1.0184 0.3785 l
s
n
0.1832 0.4271 m
0.2032 0.4271 l
s
n
1.0384 0.4271 m
1.0184 0.4271 l
s
n
0.1832 0.4514 m
0.2032 0.4514 l
s
n
1.0384 0.4514 m
1.0184 0.4514 l
s
n
0.1832 0.4757 m
0.2032 0.4757 l
s
n
1.0384 0.4757 m
1.0184 0.4757 l
s
n
0.1832 0.5243 m
0.2032 0.5243 l
s
n
1.0384 0.5243 m
1.0184 0.5243 l
s
n
0.1832 0.5486 m
0.2032 0.5486 l
s
n
1.0384 0.5486 m
1.0184 0.5486 l
s
n
0.1832 0.5729 m
0.2032 0.5729 l
s
n
1.0384 0.5729 m
1.0184 0.5729 l
s
n
0.1832 0.6215 m
0.2032 0.6215 l
s
n
1.0384 0.6215 m
1.0184 0.6215 l
s
n
0.1832 0.6458 m
0.2032 0.6458 l
s
n
1.0384 0.6458 m
1.0184 0.6458 l
s
n
0.1832 0.6701 m
0.2032 0.6701 l
s
n
1.0384 0.6701 m
1.0184 0.6701 l
s
n
0.1832 0.7187 m
0.2032 0.7187 l
s
n
1.0384 0.7187 m
1.0184 0.7187 l
s
n
0.1832 0.7430 m
0.2032 0.7430 l
s
n
1.0384 0.7430 m
1.0184 0.7430 l
s
n
0.1832 0.7673 m
0.2032 0.7673 l
s
n
1.0384 0.7673 m
1.0184 0.7673 l
s
n
0.1832 0.8159 m
0.2032 0.8159 l
s
n
1.0384 0.8159 m
1.0184 0.8159 l
s
n
0.1832 0.8402 m
0.2032 0.8402 l
s
n
1.0384 0.8402 m
1.0184 0.8402 l
s
n
0.1832 0.2083 m
0.2132 0.2083 l
s
n
1.0384 0.2083 m
1.0084 0.2083 l
s
n
0.1832 0.3055 m
0.2132 0.3055 l
s
n
1.0384 0.3055 m
1.0084 0.3055 l
s
n
0.1832 0.4028 m
0.2132 0.4028 l
s
n
1.0384 0.4028 m
1.0084 0.4028 l
s
n
0.1832 0.5000 m
0.2132 0.5000 l
s
n
1.0384 0.5000 m
1.0084 0.5000 l
s
n
0.1832 0.5972 m
0.2132 0.5972 l
s
n
1.0384 0.5972 m
1.0084 0.5972 l
s
n
0.1832 0.6944 m
0.2132 0.6944 l
s
n
1.0384 0.6944 m
1.0084 0.6944 l
s
n
0.1832 0.7916 m
0.2132 0.7916 l
s
n
1.0384 0.7916 m
1.0084 0.7916 l
s
/Font12 FFSF
0.0560 0.1939 m
GS
[0.0420 0.0000 0.0000 0.0420 0 0] CC
(-0.150) show
GR
/Font12 FFSF
0.0560 0.2911 m
GS
[0.0420 0.0000 0.0000 0.0420 0 0] CC
(-0.100) show
GR
/Font12 FFSF
0.0560 0.3884 m
GS
[0.0420 0.0000 0.0000 0.0420 0 0] CC
(-0.050) show
GR
/Font12 FFSF
0.0700 0.4856 m
GS
[0.0420 0.0000 0.0000 0.0420 0 0] CC
(0.000) show
GR
/Font12 FFSF
0.0700 0.5828 m
GS
[0.0420 0.0000 0.0000 0.0420 0 0] CC
(0.050) show
GR
/Font12 FFSF
0.0700 0.6800 m
GS
[0.0420 0.0000 0.0000 0.0420 0 0] CC
(0.100) show
GR
/Font12 FFSF
0.0700 0.7772 m
GS
[0.0420 0.0000 0.0000 0.0420 0 0] CC
(0.150) show
GR
/Font12 FFSF
0.0368 0.4060 m
GS
[0.0000 0.0420 -0.0420 0.0000 0 0] CC
(Desvio\(m\)) show
GR
n
0.1832 0.1500 m
0.1832 0.8500 l
1.0384 0.8500 l
1.0384 0.1500 l
0.1832 0.1500 l
c
s
%%Trailer
%%BoundingBox: 2 34 628 512
%%DocumentNeededResources: font Helvetica
%%EOF
