%!PS-Adobe-3.0 EPSF-3.0
%%BoundingBox: (atend)
%%LanguageLevel: 2
%%Creator: Grace-5.1.22
%%CreationDate: Sun Nov  9 23:13:36 2014
%%DocumentData: Clean8Bit
%%Orientation: Portrait
%%Title: fit-gph-3.agr
%%For: wfr
%%DocumentNeededResources: (atend)
%%EndComments
%%BeginProlog
/m {moveto} def
/l {lineto} def
/s {stroke} def
/n {newpath} def
/c {closepath} def
/RL {rlineto} def
/SLW {setlinewidth} def
/GS {gsave} def
/GR {grestore} def
/SC {setcolor} def
/SGRY {setgray} def
/SRGB {setrgbcolor} def
/SD {setdash} def
/SLC {setlinecap} def
/SLJ {setlinejoin} def
/SCS {setcolorspace} def
/FFSF {findfont setfont} def
/CC {concat} def
/PXL {n m 0 0 RL s} def
/Color0 {1.0000 1.0000 1.0000} def
/Color1 {0.0000 0.0000 0.0000} def
/Color2 {1.0000 0.0000 0.0000} def
/Color3 {0.0000 1.0000 0.0000} def
/Color4 {0.0000 0.0000 1.0000} def
/Color5 {1.0000 1.0000 0.0000} def
/Color6 {0.7373 0.5608 0.5608} def
/Color7 {0.8627 0.8627 0.8627} def
/Color8 {0.5804 0.0000 0.8275} def
/Color9 {0.0000 1.0000 1.0000} def
/Color10 {1.0000 0.0000 1.0000} def
/Color11 {1.0000 0.6471 0.0000} def
/Color12 {0.4471 0.1294 0.7373} def
/Color13 {0.4039 0.0275 0.2824} def
/Color14 {0.2510 0.8784 0.8157} def
/Color15 {0.0000 0.5451 0.0000} def
/PTRN {
 /pat_bits exch def 
 <<
  /PaintType 2
  /PatternType 1 /TilingType 1
  /BBox[0 0 16 16]
  /XStep 16 /YStep 16
  /PaintProc {
   pop
   16 16 true [-1 0 0 -1 16 16] pat_bits imagemask
  }
 >>
 [0.0017 0 0 0.0017 0 0]
 makepattern
} def
/Pattern0 {<0000000000000000000000000000000000000000000000000000000000000000> PTRN} bind def
/Pattern1 {<ffffffffffffffffffffffffffffffffffffffffffffffffffffffffffffffff> PTRN} bind def
/Pattern2 {<eeeeffffbbbbffffeeeeffffbbbbffffeeeeffffbbbbffffeeeeffffbbbbffff> PTRN} bind def
/Pattern3 {<eeeebbbbeeeebbbbeeeebbbbeeeebbbbeeeebbbbeeeebbbbeeeebbbbeeeebbbb> PTRN} bind def
/Pattern4 {<5555aaaa5555aaaa5555aaaa5555aaaa5555aaaa5555aaaa5555aaaa5555aaaa> PTRN} bind def
/Pattern5 {<1111444411114444111144441111444411114444111144441111444411114444> PTRN} bind def
/Pattern6 {<1111000044440000111100004444000011110000444400001111000044440000> PTRN} bind def
/Pattern7 {<1010000000000000010100000000000010100000000000000101000000000000> PTRN} bind def
/Pattern8 {<0000000000000000000000000000000000000000000000000000000000000000> PTRN} bind def
/Pattern9 {<1e1e0f0f8787c3c3e1e1f0f078783c3c1e1e0f0f8787c3c3e1e1f0f078783c3c> PTRN} bind def
/Pattern10 {<7878f0f0e1e1c3c387870f0f1e1e3c3c7878f0f0e1e1c3c387870f0f1e1e3c3c> PTRN} bind def
/Pattern11 {<3333333333333333333333333333333333333333333333333333333333333333> PTRN} bind def
/Pattern12 {<ffffffff00000000ffffffff00000000ffffffff00000000ffffffff00000000> PTRN} bind def
/Pattern13 {<8181424224241818181824244242818181814242242418181818242442428181> PTRN} bind def
/Pattern14 {<8080404020201010080804040202010180804040202010100808040402020101> PTRN} bind def
/Pattern15 {<0101020204040808101020204040808001010202040408081010202040408080> PTRN} bind def
/Pattern16 {<2222222222222222222222222222222222222222222222222222222222222222> PTRN} bind def
/Pattern17 {<0000ffff000000000000ffff000000000000ffff000000000000ffff00000000> PTRN} bind def
/Pattern18 {<2222ffff222222222222ffff222222222222ffff222222222222ffff22222222> PTRN} bind def
/Pattern19 {<ffffffff33333333ffffffff33333333ffffffff33333333ffffffff33333333> PTRN} bind def
/Pattern20 {<0f0f0f0f0f0f0f0ff0f0f0f0f0f0f0f00f0f0f0f0f0f0f0ff0f0f0f0f0f0f0f0> PTRN} bind def
/Pattern21 {<ff00ff00ff00ff00ff00ff00ff00ff0000ff00ff00ff00ff00ff00ff00ff00ff> PTRN} bind def
/Pattern22 {<8001800180018001800180018001ffffffff8001800180018001800180018001> PTRN} bind def
/Pattern23 {<c003c003c003c003c003c003ffffffffffffffffc003c003c003c003c003c003> PTRN} bind def
/Pattern24 {<040404040404ffff404040404040ffff040404040404ffff404040404040ffff> PTRN} bind def
/Pattern25 {<180018001800180018001800ffffffff001800180018001800180018ffffffff> PTRN} bind def
/Pattern26 {<1111b8b87c7c3a3a1111a3a3c7c78b8b1111b8b87c7c3a3a1111a3a3c7c78b8b> PTRN} bind def
/Pattern27 {<101010102828c7c70101010182827c7c101010102828c7c70101010182827c7c> PTRN} bind def
/Pattern28 {<1c1c121211112121c1c12121111112121c1c121211112121c1c1212111111212> PTRN} bind def
/Pattern29 {<3e3e414180808080e3e31414080808083e3e414180808080e3e3141408080808> PTRN} bind def
/Pattern30 {<4848888884848383848488884848383848488888848483838484888848483838> PTRN} bind def
/Pattern31 {<03030404080808080c0c12122121c0c003030404080808080c0c12122121c0c0> PTRN} bind def
/ellipsedict 8 dict def
ellipsedict /mtrx matrix put
/EARC {
 ellipsedict begin
  /endangle exch def
  /startangle exch def
  /yrad exch def
  /xrad exch def
  /y exch def
  /x exch def
  /savematrix mtrx currentmatrix def
  x y translate
  xrad yrad scale
  0 0 1 startangle endangle arc
  savematrix setmatrix
 end
} def
/TL {
  /kcomp exch def
  /linewidth exch def
  /offset exch def
  GS
  0 offset rmoveto
  linewidth SLW
  dup stringwidth exch kcomp add exch RL s
  GR
} def
/KINIT
{
 /kvector exch def
 /kid 0 def
} def
/KPROC
{
 pop pop
 kvector kid get
 0 rmoveto
 /kid 1 kid add def
} def
/DefEncoding [
 /.notdef
 /.notdef
 /.notdef
 /.notdef
 /.notdef
 /.notdef
 /.notdef
 /.notdef
 /.notdef
 /.notdef
 /.notdef
 /.notdef
 /.notdef
 /.notdef
 /.notdef
 /.notdef
 /.notdef
 /.notdef
 /.notdef
 /.notdef
 /.notdef
 /.notdef
 /.notdef
 /.notdef
 /.notdef
 /.notdef
 /.notdef
 /.notdef
 /.notdef
 /.notdef
 /.notdef
 /.notdef
 /space
 /exclam
 /quotedbl
 /numbersign
 /dollar
 /percent
 /ampersand
 /quoteright
 /parenleft
 /parenright
 /asterisk
 /plus
 /comma
 /hyphen
 /period
 /slash
 /zero
 /one
 /two
 /three
 /four
 /five
 /six
 /seven
 /eight
 /nine
 /colon
 /semicolon
 /less
 /equal
 /greater
 /question
 /at
 /A
 /B
 /C
 /D
 /E
 /F
 /G
 /H
 /I
 /J
 /K
 /L
 /M
 /N
 /O
 /P
 /Q
 /R
 /S
 /T
 /U
 /V
 /W
 /X
 /Y
 /Z
 /bracketleft
 /backslash
 /bracketright
 /asciicircum
 /underscore
 /grave
 /a
 /b
 /c
 /d
 /e
 /f
 /g
 /h
 /i
 /j
 /k
 /l
 /m
 /n
 /o
 /p
 /q
 /r
 /s
 /t
 /u
 /v
 /w
 /x
 /y
 /z
 /braceleft
 /bar
 /braceright
 /asciitilde
 /.notdef
 /.notdef
 /.notdef
 /.notdef
 /.notdef
 /.notdef
 /.notdef
 /.notdef
 /.notdef
 /.notdef
 /.notdef
 /.notdef
 /.notdef
 /.notdef
 /.notdef
 /.notdef
 /.notdef
 /.notdef
 /.notdef
 /.notdef
 /.notdef
 /.notdef
 /.notdef
 /.notdef
 /.notdef
 /.notdef
 /.notdef
 /.notdef
 /.notdef
 /.notdef
 /.notdef
 /.notdef
 /.notdef
 /space
 /exclamdown
 /cent
 /sterling
 /currency
 /yen
 /brokenbar
 /section
 /dieresis
 /copyright
 /ordfeminine
 /guillemotleft
 /logicalnot
 /hyphen
 /registered
 /macron
 /degree
 /plusminus
 /twosuperior
 /threesuperior
 /acute
 /mu
 /paragraph
 /periodcentered
 /cedilla
 /onesuperior
 /ordmasculine
 /guillemotright
 /onequarter
 /onehalf
 /threequarters
 /questiondown
 /Agrave
 /Aacute
 /Acircumflex
 /Atilde
 /Adieresis
 /Aring
 /AE
 /Ccedilla
 /Egrave
 /Eacute
 /Ecircumflex
 /Edieresis
 /Igrave
 /Iacute
 /Icircumflex
 /Idieresis
 /Eth
 /Ntilde
 /Ograve
 /Oacute
 /Ocircumflex
 /Otilde
 /Odieresis
 /multiply
 /Oslash
 /Ugrave
 /Uacute
 /Ucircumflex
 /Udieresis
 /Yacute
 /Thorn
 /germandbls
 /agrave
 /aacute
 /acircumflex
 /atilde
 /adieresis
 /aring
 /ae
 /ccedilla
 /egrave
 /eacute
 /ecircumflex
 /edieresis
 /igrave
 /iacute
 /icircumflex
 /idieresis
 /eth
 /ntilde
 /ograve
 /oacute
 /ocircumflex
 /otilde
 /odieresis
 /divide
 /oslash
 /ugrave
 /uacute
 /ucircumflex
 /udieresis
 /yacute
 /thorn
 /ydieresis
] def
%%EndProlog
%%BeginSetup
%%EndSetup
600.00 600.00 scale
n
0.0000 0.0000 m
0.0000 1.0000 l
1.2884 1.0000 l
1.2884 0.0000 l
c
[/DeviceRGB] SCS
Color0 SC
fill
[/DeviceRGB] SCS
Color1 SC
[] 0 SD
0.0015 SLW
0 SLC
0 SLJ
n
0.1832 0.8007 m
0.1832 0.8029 l
s
n
0.1831 0.8029 m
0.1932 0.8029 l
s
n
0.1832 0.8007 m
0.1832 0.7986 l
s
n
0.1932 0.7986 m
0.1831 0.7986 l
s
n
0.2892 0.1784 m
0.2892 0.1806 l
s
n
0.2792 0.1806 m
0.2992 0.1806 l
s
n
0.2892 0.1784 m
0.2892 0.1762 l
s
n
0.2992 0.1762 m
0.2792 0.1762 l
s
n
0.3953 0.5569 m
0.3953 0.5590 l
s
n
0.3853 0.5590 m
0.4053 0.5590 l
s
n
0.3953 0.5569 m
0.3953 0.5547 l
s
n
0.4053 0.5547 m
0.3853 0.5547 l
s
n
0.5013 0.3250 m
0.5013 0.3272 l
s
n
0.4913 0.3272 m
0.5113 0.3272 l
s
n
0.5013 0.3250 m
0.5013 0.3228 l
s
n
0.5113 0.3228 m
0.4913 0.3228 l
s
n
0.6073 0.4661 m
0.6073 0.4683 l
s
n
0.5973 0.4683 m
0.6173 0.4683 l
s
n
0.6073 0.4661 m
0.6073 0.4639 l
s
n
0.6173 0.4639 m
0.5973 0.4639 l
s
n
0.7133 0.3851 m
0.7133 0.3873 l
s
n
0.7033 0.3873 m
0.7233 0.3873 l
s
n
0.7133 0.3851 m
0.7133 0.3830 l
s
n
0.7233 0.3830 m
0.7033 0.3830 l
s
n
0.8193 0.4322 m
0.8193 0.4344 l
s
n
0.8093 0.4344 m
0.8293 0.4344 l
s
n
0.8193 0.4322 m
0.8193 0.4300 l
s
n
0.8293 0.4300 m
0.8093 0.4300 l
s
n
0.9253 0.3994 m
0.9253 0.4015 l
s
n
0.9153 0.4015 m
0.9353 0.4015 l
s
n
0.9253 0.3994 m
0.9253 0.3972 l
s
n
0.9353 0.3972 m
0.9153 0.3972 l
s
n
1.0313 0.4190 m
1.0313 0.4212 l
s
n
1.0213 0.4212 m
1.0385 0.4212 l
s
n
1.0313 0.4190 m
1.0313 0.4169 l
s
n
1.0385 0.4169 m
1.0213 0.4169 l
s
[] 0 SD
0.0030 SLW
n 0.1832 0.8007 0.0100 0.0100 0 360 EARC s
n 0.2892 0.1784 0.0100 0.0100 0 360 EARC s
n 0.3953 0.5569 0.0100 0.0100 0 360 EARC s
n 0.5013 0.3250 0.0100 0.0100 0 360 EARC s
n 0.6073 0.4661 0.0100 0.0100 0 360 EARC s
n 0.7133 0.3851 0.0100 0.0100 0 360 EARC s
n 0.8193 0.4322 0.0100 0.0100 0 360 EARC s
n 0.9253 0.3994 0.0100 0.0100 0 360 EARC s
n 1.0313 0.4190 0.0100 0.0100 0 360 EARC s
[/DeviceRGB] SCS
Color2 SC
[] 0 SD
0.0015 SLW
n
0.1832 0.8009 m
0.1841 0.7992 l
0.1850 0.7973 l
0.1858 0.7952 l
0.1867 0.7928 l
0.1875 0.7903 l
0.1884 0.7875 l
0.1892 0.7845 l
0.1901 0.7813 l
0.1910 0.7778 l
0.1918 0.7742 l
0.1927 0.7704 l
0.1935 0.7663 l
0.1944 0.7621 l
0.1952 0.7577 l
0.1961 0.7531 l
0.1969 0.7484 l
0.1978 0.7434 l
0.1987 0.7383 l
0.1995 0.7331 l
0.2004 0.7276 l
0.2012 0.7220 l
0.2021 0.7163 l
0.2029 0.7104 l
0.2038 0.7044 l
0.2046 0.6982 l
0.2055 0.6919 l
0.2064 0.6855 l
0.2072 0.6789 l
0.2081 0.6723 l
0.2089 0.6655 l
0.2098 0.6586 l
0.2106 0.6516 l
0.2115 0.6446 l
0.2124 0.6374 l
0.2132 0.6302 l
0.2141 0.6228 l
0.2149 0.6154 l
0.2158 0.6079 l
0.2166 0.6004 l
0.2175 0.5928 l
0.2183 0.5852 l
0.2192 0.5775 l
0.2201 0.5697 l
0.2209 0.5620 l
0.2218 0.5541 l
0.2226 0.5463 l
0.2235 0.5384 l
0.2243 0.5306 l
0.2252 0.5227 l
0.2260 0.5148 l
0.2269 0.5069 l
0.2278 0.4990 l
0.2286 0.4911 l
0.2295 0.4833 l
0.2303 0.4754 l
0.2312 0.4676 l
0.2320 0.4598 l
0.2329 0.4520 l
0.2338 0.4443 l
0.2346 0.4366 l
0.2355 0.4290 l
0.2363 0.4214 l
0.2372 0.4138 l
0.2380 0.4064 l
0.2389 0.3989 l
0.2397 0.3916 l
0.2406 0.3843 l
0.2415 0.3771 l
0.2423 0.3700 l
0.2432 0.3630 l
0.2440 0.3560 l
0.2449 0.3492 l
0.2457 0.3424 l
0.2466 0.3358 l
0.2474 0.3292 l
0.2483 0.3228 l
0.2492 0.3164 l
0.2500 0.3102 l
0.2509 0.3041 l
0.2517 0.2981 l
0.2526 0.2922 l
0.2534 0.2865 l
0.2543 0.2808 l
0.2552 0.2753 l
0.2560 0.2700 l
0.2569 0.2647 l
0.2577 0.2596 l
0.2586 0.2547 l
0.2594 0.2499 l
0.2603 0.2452 l
0.2611 0.2406 l
0.2620 0.2363 l
0.2629 0.2320 l
0.2637 0.2279 l
0.2646 0.2240 l
0.2654 0.2202 l
0.2663 0.2166 l
0.2671 0.2131 l
0.2680 0.2097 l
0.2688 0.2066 l
0.2697 0.2035 l
0.2706 0.2007 l
0.2714 0.1980 l
0.2723 0.1954 l
0.2731 0.1930 l
0.2740 0.1908 l
0.2748 0.1887 l
0.2757 0.1868 l
0.2766 0.1851 l
0.2774 0.1835 l
0.2783 0.1820 l
0.2791 0.1808 l
0.2800 0.1796 l
0.2808 0.1787 l
0.2817 0.1779 l
0.2825 0.1772 l
0.2834 0.1767 l
0.2843 0.1764 l
0.2851 0.1762 l
0.2860 0.1761 l
0.2868 0.1762 l
0.2877 0.1765 l
0.2885 0.1769 l
0.2894 0.1775 l
0.2902 0.1782 l
0.2911 0.1790 l
0.2920 0.1800 l
0.2928 0.1811 l
0.2937 0.1824 l
0.2945 0.1838 l
0.2954 0.1853 l
0.2962 0.1870 l
0.2971 0.1888 l
0.2980 0.1907 l
0.2988 0.1927 l
0.2997 0.1949 l
0.3005 0.1972 l
0.3014 0.1996 l
0.3022 0.2021 l
0.3031 0.2048 l
0.3039 0.2075 l
0.3048 0.2104 l
0.3057 0.2134 l
0.3065 0.2164 l
0.3074 0.2196 l
0.3082 0.2229 l
0.3091 0.2262 l
0.3099 0.2297 l
0.3108 0.2332 l
0.3116 0.2368 l
0.3125 0.2406 l
0.3134 0.2443 l
0.3142 0.2482 l
0.3151 0.2522 l
0.3159 0.2562 l
0.3168 0.2602 l
0.3176 0.2644 l
0.3185 0.2686 l
0.3194 0.2729 l
0.3202 0.2772 l
0.3211 0.2815 l
0.3219 0.2860 l
0.3228 0.2904 l
0.3236 0.2949 l
0.3245 0.2995 l
0.3253 0.3041 l
0.3262 0.3087 l
0.3271 0.3133 l
0.3279 0.3180 l
0.3288 0.3227 l
0.3296 0.3274 l
0.3305 0.3321 l
0.3313 0.3369 l
0.3322 0.3416 l
0.3330 0.3464 l
0.3339 0.3511 l
0.3348 0.3559 l
0.3356 0.3607 l
0.3365 0.3654 l
0.3373 0.3702 l
0.3382 0.3749 l
0.3390 0.3797 l
0.3399 0.3844 l
0.3408 0.3891 l
0.3416 0.3937 l
0.3425 0.3984 l
0.3433 0.4030 l
0.3442 0.4076 l
0.3450 0.4121 l
0.3459 0.4167 l
0.3467 0.4211 l
0.3476 0.4256 l
0.3485 0.4300 l
0.3493 0.4343 l
0.3502 0.4386 l
0.3510 0.4429 l
0.3519 0.4471 l
0.3527 0.4512 l
0.3536 0.4553 l
0.3544 0.4594 l
0.3553 0.4633 l
0.3562 0.4672 l
0.3570 0.4711 l
0.3579 0.4748 l
0.3587 0.4786 l
0.3596 0.4822 l
0.3604 0.4857 l
0.3613 0.4892 l
0.3622 0.4926 l
0.3630 0.4960 l
0.3639 0.4992 l
0.3647 0.5024 l
0.3656 0.5055 l
0.3664 0.5085 l
0.3673 0.5114 l
0.3681 0.5143 l
0.3690 0.5170 l
0.3699 0.5197 l
0.3707 0.5223 l
0.3716 0.5247 l
0.3724 0.5271 l
0.3733 0.5294 l
0.3741 0.5316 l
0.3750 0.5338 l
0.3758 0.5358 l
0.3767 0.5377 l
0.3776 0.5396 l
0.3784 0.5413 l
0.3793 0.5430 l
0.3801 0.5445 l
0.3810 0.5460 l
0.3818 0.5473 l
0.3827 0.5486 l
0.3836 0.5498 l
0.3844 0.5508 l
0.3853 0.5518 l
0.3861 0.5527 l
0.3870 0.5535 l
0.3878 0.5542 l
0.3887 0.5548 l
0.3895 0.5553 l
0.3904 0.5557 l
0.3913 0.5560 l
0.3921 0.5562 l
0.3930 0.5564 l
0.3938 0.5564 l
0.3947 0.5563 l
0.3955 0.5562 l
0.3964 0.5560 l
0.3972 0.5557 l
0.3981 0.5552 l
0.3990 0.5548 l
0.3998 0.5542 l
0.4007 0.5535 l
0.4015 0.5528 l
0.4024 0.5519 l
0.4032 0.5510 l
0.4041 0.5500 l
0.4050 0.5489 l
0.4058 0.5478 l
0.4067 0.5466 l
0.4075 0.5453 l
0.4084 0.5439 l
0.4092 0.5425 l
0.4101 0.5409 l
0.4109 0.5394 l
0.4118 0.5377 l
0.4127 0.5360 l
0.4135 0.5342 l
0.4144 0.5324 l
0.4152 0.5305 l
0.4161 0.5285 l
0.4169 0.5265 l
0.4178 0.5244 l
0.4186 0.5223 l
0.4195 0.5201 l
0.4204 0.5179 l
0.4212 0.5156 l
0.4221 0.5132 l
0.4229 0.5109 l
0.4238 0.5085 l
0.4246 0.5060 l
0.4255 0.5035 l
0.4264 0.5010 l
0.4272 0.4984 l
0.4281 0.4958 l
0.4289 0.4932 l
0.4298 0.4905 l
0.4306 0.4878 l
0.4315 0.4851 l
0.4323 0.4824 l
0.4332 0.4796 l
0.4341 0.4768 l
0.4349 0.4740 l
0.4358 0.4712 l
0.4366 0.4684 l
0.4375 0.4655 l
0.4383 0.4627 l
0.4392 0.4598 l
0.4400 0.4569 l
0.4409 0.4541 l
0.4418 0.4512 l
0.4426 0.4483 l
0.4435 0.4454 l
0.4443 0.4425 l
0.4452 0.4397 l
0.4460 0.4368 l
0.4469 0.4340 l
0.4478 0.4311 l
0.4486 0.4283 l
0.4495 0.4254 l
0.4503 0.4226 l
0.4512 0.4198 l
0.4520 0.4171 l
0.4529 0.4143 l
0.4537 0.4116 l
0.4546 0.4089 l
0.4555 0.4062 l
0.4563 0.4035 l
0.4572 0.4009 l
0.4580 0.3983 l
0.4589 0.3957 l
0.4597 0.3932 l
0.4606 0.3907 l
0.4614 0.3882 l
0.4623 0.3858 l
0.4632 0.3834 l
0.4640 0.3810 l
0.4649 0.3787 l
0.4657 0.3764 l
0.4666 0.3741 l
0.4674 0.3719 l
0.4683 0.3698 l
0.4692 0.3677 l
0.4700 0.3656 l
0.4709 0.3636 l
0.4717 0.3616 l
0.4726 0.3597 l
0.4734 0.3578 l
0.4743 0.3560 l
0.4751 0.3542 l
0.4760 0.3525 l
0.4769 0.3508 l
0.4777 0.3492 l
0.4786 0.3476 l
0.4794 0.3461 l
0.4803 0.3447 l
0.4811 0.3433 l
0.4820 0.3419 l
0.4828 0.3406 l
0.4837 0.3394 l
0.4846 0.3382 l
0.4854 0.3371 l
0.4863 0.3361 l
0.4871 0.3351 l
0.4880 0.3341 l
0.4888 0.3332 l
0.4897 0.3324 l
0.4906 0.3316 l
0.4914 0.3309 l
0.4923 0.3302 l
0.4931 0.3296 l
0.4940 0.3291 l
0.4948 0.3286 l
0.4957 0.3282 l
0.4965 0.3278 l
0.4974 0.3275 l
0.4983 0.3272 l
0.4991 0.3270 l
0.5000 0.3269 l
0.5008 0.3268 l
0.5017 0.3268 l
0.5025 0.3268 l
0.5034 0.3269 l
0.5042 0.3270 l
0.5051 0.3272 l
0.5060 0.3274 l
0.5068 0.3277 l
0.5077 0.3281 l
0.5085 0.3285 l
0.5094 0.3289 l
0.5102 0.3294 l
0.5111 0.3299 l
0.5120 0.3305 l
0.5128 0.3312 l
0.5137 0.3319 l
0.5145 0.3326 l
0.5154 0.3334 l
0.5162 0.3342 l
0.5171 0.3351 l
0.5179 0.3360 l
0.5188 0.3369 l
0.5197 0.3379 l
0.5205 0.3389 l
0.5214 0.3400 l
0.5222 0.3411 l
0.5231 0.3423 l
0.5239 0.3434 l
0.5248 0.3447 l
0.5256 0.3459 l
0.5265 0.3472 l
0.5274 0.3485 l
0.5282 0.3498 l
0.5291 0.3512 l
0.5299 0.3526 l
0.5308 0.3540 l
0.5316 0.3555 l
0.5325 0.3570 l
0.5334 0.3585 l
0.5342 0.3600 l
0.5351 0.3616 l
0.5359 0.3631 l
0.5368 0.3647 l
0.5376 0.3663 l
0.5385 0.3679 l
0.5393 0.3696 l
0.5402 0.3712 l
0.5411 0.3729 l
0.5419 0.3746 l
0.5428 0.3763 l
0.5436 0.3780 l
0.5445 0.3797 l
0.5453 0.3814 l
0.5462 0.3831 l
0.5470 0.3848 l
0.5479 0.3866 l
0.5488 0.3883 l
0.5496 0.3900 l
0.5505 0.3918 l
0.5513 0.3935 l
0.5522 0.3953 l
0.5530 0.3970 l
0.5539 0.3987 l
0.5548 0.4004 l
0.5556 0.4022 l
0.5565 0.4039 l
0.5573 0.4056 l
0.5582 0.4073 l
0.5590 0.4090 l
0.5599 0.4106 l
0.5607 0.4123 l
0.5616 0.4140 l
0.5625 0.4156 l
0.5633 0.4172 l
0.5642 0.4188 l
0.5650 0.4204 l
0.5659 0.4220 l
0.5667 0.4236 l
0.5676 0.4251 l
0.5684 0.4266 l
0.5693 0.4281 l
0.5702 0.4296 l
0.5710 0.4310 l
0.5719 0.4325 l
0.5727 0.4339 l
0.5736 0.4353 l
0.5744 0.4366 l
0.5753 0.4380 l
0.5762 0.4393 l
0.5770 0.4405 l
0.5779 0.4418 l
0.5787 0.4430 l
0.5796 0.4442 l
0.5804 0.4454 l
0.5813 0.4465 l
0.5821 0.4476 l
0.5830 0.4487 l
0.5839 0.4497 l
0.5847 0.4508 l
0.5856 0.4517 l
0.5864 0.4527 l
0.5873 0.4536 l
0.5881 0.4545 l
0.5890 0.4553 l
0.5898 0.4562 l
0.5907 0.4569 l
0.5916 0.4577 l
0.5924 0.4584 l
0.5933 0.4591 l
0.5941 0.4597 l
0.5950 0.4603 l
0.5958 0.4609 l
0.5967 0.4615 l
0.5976 0.4620 l
0.5984 0.4624 l
0.5993 0.4629 l
0.6001 0.4633 l
0.6010 0.4637 l
0.6018 0.4640 l
0.6027 0.4643 l
0.6035 0.4645 l
0.6044 0.4648 l
0.6053 0.4650 l
0.6061 0.4651 l
0.6070 0.4653 l
0.6078 0.4653 l
0.6087 0.4654 l
0.6095 0.4654 l
0.6104 0.4654 l
0.6112 0.4654 l
0.6121 0.4653 l
0.6130 0.4652 l
0.6138 0.4651 l
0.6147 0.4649 l
0.6155 0.4647 l
0.6164 0.4645 l
0.6172 0.4642 l
0.6181 0.4639 l
0.6190 0.4636 l
0.6198 0.4632 l
0.6207 0.4628 l
0.6215 0.4624 l
0.6224 0.4620 l
0.6232 0.4615 l
0.6241 0.4610 l
0.6249 0.4605 l
0.6258 0.4600 l
0.6267 0.4594 l
0.6275 0.4588 l
0.6284 0.4582 l
0.6292 0.4576 l
0.6301 0.4569 l
0.6309 0.4562 l
0.6318 0.4555 l
0.6326 0.4548 l
0.6335 0.4540 l
0.6344 0.4532 l
0.6352 0.4524 l
0.6361 0.4516 l
0.6369 0.4508 l
0.6378 0.4500 l
0.6386 0.4491 l
0.6395 0.4482 l
0.6404 0.4473 l
0.6412 0.4464 l
0.6421 0.4455 l
0.6429 0.4446 l
0.6438 0.4436 l
0.6446 0.4427 l
0.6455 0.4417 l
0.6463 0.4407 l
0.6472 0.4398 l
0.6481 0.4388 l
0.6489 0.4377 l
0.6498 0.4367 l
0.6506 0.4357 l
0.6515 0.4347 l
0.6523 0.4337 l
0.6532 0.4326 l
0.6540 0.4316 l
0.6549 0.4305 l
0.6558 0.4295 l
0.6566 0.4285 l
0.6575 0.4274 l
0.6583 0.4264 l
0.6592 0.4253 l
0.6600 0.4243 l
0.6609 0.4232 l
0.6618 0.4222 l
0.6626 0.4211 l
0.6635 0.4201 l
0.6643 0.4190 l
0.6652 0.4180 l
0.6660 0.4170 l
0.6669 0.4160 l
0.6677 0.4150 l
0.6686 0.4139 l
0.6695 0.4129 l
0.6703 0.4120 l
0.6712 0.4110 l
0.6720 0.4100 l
0.6729 0.4090 l
0.6737 0.4081 l
0.6746 0.4071 l
0.6754 0.4062 l
0.6763 0.4053 l
0.6772 0.4044 l
0.6780 0.4035 l
0.6789 0.4026 l
0.6797 0.4017 l
0.6806 0.4009 l
0.6814 0.4001 l
0.6823 0.3992 l
0.6832 0.3984 l
0.6840 0.3976 l
0.6849 0.3969 l
0.6857 0.3961 l
0.6866 0.3954 l
0.6874 0.3946 l
0.6883 0.3939 l
0.6891 0.3932 l
0.6900 0.3926 l
0.6909 0.3919 l
0.6917 0.3913 l
0.6926 0.3907 l
0.6934 0.3901 l
0.6943 0.3895 l
0.6951 0.3889 l
0.6960 0.3884 l
0.6969 0.3879 l
0.6977 0.3874 l
0.6986 0.3869 l
0.6994 0.3865 l
0.7003 0.3860 l
0.7011 0.3856 l
0.7020 0.3852 l
0.7028 0.3848 l
0.7037 0.3845 l
0.7046 0.3842 l
0.7054 0.3838 l
0.7063 0.3836 l
0.7071 0.3833 l
0.7080 0.3830 l
0.7088 0.3828 l
0.7097 0.3826 l
0.7105 0.3824 l
0.7114 0.3823 l
0.7123 0.3821 l
0.7131 0.3820 l
0.7140 0.3819 l
0.7148 0.3818 l
0.7157 0.3818 l
0.7165 0.3817 l
0.7174 0.3817 l
0.7183 0.3817 l
0.7191 0.3817 l
0.7200 0.3818 l
0.7208 0.3818 l
0.7217 0.3819 l
0.7225 0.3820 l
0.7234 0.3821 l
0.7242 0.3823 l
0.7251 0.3824 l
0.7260 0.3826 l
0.7268 0.3828 l
0.7277 0.3830 l
0.7285 0.3832 l
0.7294 0.3835 l
0.7302 0.3837 l
0.7311 0.3840 l
0.7319 0.3843 l
0.7328 0.3846 l
0.7337 0.3850 l
0.7345 0.3853 l
0.7354 0.3856 l
0.7362 0.3860 l
0.7371 0.3864 l
0.7379 0.3868 l
0.7388 0.3872 l
0.7397 0.3876 l
0.7405 0.3881 l
0.7414 0.3885 l
0.7422 0.3890 l
0.7431 0.3895 l
0.7439 0.3900 l
0.7448 0.3905 l
0.7456 0.3910 l
0.7465 0.3915 l
0.7474 0.3920 l
0.7482 0.3925 l
0.7491 0.3931 l
0.7499 0.3936 l
0.7508 0.3942 l
0.7516 0.3948 l
0.7525 0.3954 l
0.7533 0.3959 l
0.7542 0.3965 l
0.7551 0.3971 l
0.7559 0.3977 l
0.7568 0.3983 l
0.7576 0.3989 l
0.7585 0.3996 l
0.7593 0.4002 l
0.7602 0.4008 l
0.7611 0.4014 l
0.7619 0.4020 l
0.7628 0.4027 l
0.7636 0.4033 l
0.7645 0.4039 l
0.7653 0.4046 l
0.7662 0.4052 l
0.7670 0.4058 l
0.7679 0.4065 l
0.7688 0.4071 l
0.7696 0.4077 l
0.7705 0.4084 l
0.7713 0.4090 l
0.7722 0.4096 l
0.7730 0.4102 l
0.7739 0.4109 l
0.7747 0.4115 l
0.7756 0.4121 l
0.7765 0.4127 l
0.7773 0.4133 l
0.7782 0.4139 l
0.7790 0.4145 l
0.7799 0.4151 l
0.7807 0.4157 l
0.7816 0.4162 l
0.7825 0.4168 l
0.7833 0.4174 l
0.7842 0.4179 l
0.7850 0.4185 l
0.7859 0.4190 l
0.7867 0.4196 l
0.7876 0.4201 l
0.7884 0.4206 l
0.7893 0.4211 l
0.7902 0.4216 l
0.7910 0.4221 l
0.7919 0.4226 l
0.7927 0.4230 l
0.7936 0.4235 l
0.7944 0.4239 l
0.7953 0.4244 l
0.7961 0.4248 l
0.7970 0.4252 l
0.7979 0.4256 l
0.7987 0.4260 l
0.7996 0.4264 l
0.8004 0.4268 l
0.8013 0.4272 l
0.8021 0.4275 l
0.8030 0.4278 l
0.8039 0.4282 l
0.8047 0.4285 l
0.8056 0.4288 l
0.8064 0.4291 l
0.8073 0.4294 l
0.8081 0.4296 l
0.8090 0.4299 l
0.8098 0.4301 l
0.8107 0.4303 l
0.8116 0.4306 l
0.8124 0.4308 l
0.8133 0.4309 l
0.8141 0.4311 l
0.8150 0.4313 l
0.8158 0.4314 l
0.8167 0.4316 l
0.8175 0.4317 l
0.8184 0.4318 l
0.8193 0.4319 l
0.8201 0.4320 l
0.8210 0.4321 l
0.8218 0.4321 l
0.8227 0.4322 l
0.8235 0.4322 l
0.8244 0.4322 l
0.8253 0.4323 l
0.8261 0.4323 l
0.8270 0.4323 l
0.8278 0.4322 l
0.8287 0.4322 l
0.8295 0.4321 l
0.8304 0.4321 l
0.8312 0.4320 l
0.8321 0.4319 l
0.8330 0.4318 l
0.8338 0.4317 l
0.8347 0.4316 l
0.8355 0.4315 l
0.8364 0.4314 l
0.8372 0.4312 l
0.8381 0.4311 l
0.8389 0.4309 l
0.8398 0.4307 l
0.8407 0.4305 l
0.8415 0.4303 l
0.8424 0.4301 l
0.8432 0.4299 l
0.8441 0.4297 l
0.8449 0.4295 l
0.8458 0.4292 l
0.8467 0.4290 l
0.8475 0.4287 l
0.8484 0.4285 l
0.8492 0.4282 l
0.8501 0.4279 l
0.8509 0.4276 l
0.8518 0.4273 l
0.8526 0.4270 l
0.8535 0.4267 l
0.8544 0.4264 l
0.8552 0.4261 l
0.8561 0.4258 l
0.8569 0.4254 l
0.8578 0.4251 l
0.8586 0.4248 l
0.8595 0.4244 l
0.8603 0.4241 l
0.8612 0.4237 l
0.8621 0.4234 l
0.8629 0.4230 l
0.8638 0.4227 l
0.8646 0.4223 l
0.8655 0.4219 l
0.8663 0.4215 l
0.8672 0.4212 l
0.8681 0.4208 l
0.8689 0.4204 l
0.8698 0.4200 l
0.8706 0.4197 l
0.8715 0.4193 l
0.8723 0.4189 l
0.8732 0.4185 l
0.8740 0.4181 l
0.8749 0.4178 l
0.8758 0.4174 l
0.8766 0.4170 l
0.8775 0.4166 l
0.8783 0.4162 l
0.8792 0.4158 l
0.8800 0.4155 l
0.8809 0.4151 l
0.8817 0.4147 l
0.8826 0.4143 l
0.8835 0.4140 l
0.8843 0.4136 l
0.8852 0.4132 l
0.8860 0.4129 l
0.8869 0.4125 l
0.8877 0.4122 l
0.8886 0.4118 l
0.8895 0.4115 l
0.8903 0.4111 l
0.8912 0.4108 l
0.8920 0.4104 l
0.8929 0.4101 l
0.8937 0.4098 l
0.8946 0.4095 l
0.8954 0.4091 l
0.8963 0.4088 l
0.8972 0.4085 l
0.8980 0.4082 l
0.8989 0.4079 l
0.8997 0.4076 l
0.9006 0.4074 l
0.9014 0.4071 l
0.9023 0.4068 l
0.9031 0.4065 l
0.9040 0.4063 l
0.9049 0.4060 l
0.9057 0.4058 l
0.9066 0.4055 l
0.9074 0.4053 l
0.9083 0.4051 l
0.9091 0.4049 l
0.9100 0.4046 l
0.9109 0.4044 l
0.9117 0.4042 l
0.9126 0.4040 l
0.9134 0.4039 l
0.9143 0.4037 l
0.9151 0.4035 l
0.9160 0.4034 l
0.9168 0.4032 l
0.9177 0.4031 l
0.9186 0.4029 l
0.9194 0.4028 l
0.9203 0.4027 l
0.9211 0.4026 l
0.9220 0.4024 l
0.9228 0.4023 l
0.9237 0.4023 l
0.9245 0.4022 l
0.9254 0.4021 l
0.9263 0.4020 l
0.9271 0.4020 l
0.9280 0.4019 l
0.9288 0.4019 l
0.9297 0.4018 l
0.9305 0.4018 l
0.9314 0.4018 l
0.9323 0.4017 l
0.9331 0.4017 l
0.9340 0.4017 l
0.9348 0.4017 l
0.9357 0.4018 l
0.9365 0.4018 l
0.9374 0.4018 l
0.9382 0.4018 l
0.9391 0.4019 l
0.9400 0.4019 l
0.9408 0.4020 l
0.9417 0.4020 l
0.9425 0.4021 l
0.9434 0.4022 l
0.9442 0.4023 l
0.9451 0.4024 l
0.9459 0.4024 l
0.9468 0.4025 l
0.9477 0.4027 l
0.9485 0.4028 l
0.9494 0.4029 l
0.9502 0.4030 l
0.9511 0.4031 l
0.9519 0.4033 l
0.9528 0.4034 l
0.9537 0.4035 l
0.9545 0.4037 l
0.9554 0.4039 l
0.9562 0.4040 l
0.9571 0.4042 l
0.9579 0.4043 l
0.9588 0.4045 l
0.9596 0.4047 l
0.9605 0.4049 l
0.9614 0.4051 l
0.9622 0.4052 l
0.9631 0.4054 l
0.9639 0.4056 l
0.9648 0.4058 l
0.9656 0.4060 l
0.9665 0.4062 l
0.9673 0.4064 l
0.9682 0.4066 l
0.9691 0.4069 l
0.9699 0.4071 l
0.9708 0.4073 l
0.9716 0.4075 l
0.9725 0.4077 l
0.9733 0.4079 l
0.9742 0.4082 l
0.9751 0.4084 l
0.9759 0.4086 l
0.9768 0.4089 l
0.9776 0.4091 l
0.9785 0.4093 l
0.9793 0.4095 l
0.9802 0.4098 l
0.9810 0.4100 l
0.9819 0.4102 l
0.9828 0.4105 l
0.9836 0.4107 l
0.9845 0.4109 l
0.9853 0.4112 l
0.9862 0.4114 l
0.9870 0.4116 l
0.9879 0.4118 l
0.9887 0.4121 l
0.9896 0.4123 l
0.9905 0.4125 l
0.9913 0.4127 l
0.9922 0.4130 l
0.9930 0.4132 l
0.9939 0.4134 l
0.9947 0.4136 l
0.9956 0.4138 l
0.9965 0.4141 l
0.9973 0.4143 l
0.9982 0.4145 l
0.9990 0.4147 l
0.9999 0.4149 l
1.0007 0.4151 l
1.0016 0.4153 l
1.0024 0.4155 l
1.0033 0.4157 l
1.0042 0.4159 l
1.0050 0.4160 l
1.0059 0.4162 l
1.0067 0.4164 l
1.0076 0.4166 l
1.0084 0.4168 l
1.0093 0.4169 l
1.0101 0.4171 l
1.0110 0.4172 l
1.0119 0.4174 l
1.0127 0.4176 l
1.0136 0.4177 l
1.0144 0.4179 l
1.0153 0.4180 l
1.0161 0.4181 l
1.0170 0.4183 l
1.0179 0.4184 l
1.0187 0.4185 l
1.0196 0.4186 l
1.0204 0.4188 l
1.0213 0.4189 l
1.0221 0.4190 l
1.0230 0.4191 l
1.0238 0.4192 l
1.0247 0.4193 l
1.0256 0.4194 l
1.0264 0.4194 l
1.0273 0.4195 l
1.0281 0.4196 l
1.0290 0.4197 l
1.0298 0.4197 l
1.0307 0.4198 l
1.0315 0.4199 l
1.0324 0.4199 l
1.0333 0.4200 l
1.0341 0.4200 l
1.0350 0.4200 l
1.0358 0.4201 l
1.0367 0.4201 l
1.0375 0.4201 l
1.0384 0.4201 l
s
[/DeviceRGB] SCS
Color1 SC
[] 0 SD
0.0030 SLW
n
0.1832 0.8009 m
0.1841 0.7992 l
0.1850 0.7973 l
0.1858 0.7952 l
0.1867 0.7928 l
0.1875 0.7903 l
0.1884 0.7875 l
0.1892 0.7845 l
0.1901 0.7813 l
0.1910 0.7778 l
0.1918 0.7742 l
0.1927 0.7704 l
0.1935 0.7663 l
0.1944 0.7621 l
0.1952 0.7577 l
0.1961 0.7531 l
0.1969 0.7484 l
0.1978 0.7434 l
0.1987 0.7383 l
0.1995 0.7331 l
0.2004 0.7276 l
0.2012 0.7220 l
0.2021 0.7163 l
0.2029 0.7104 l
0.2038 0.7044 l
0.2046 0.6982 l
0.2055 0.6919 l
0.2064 0.6855 l
0.2072 0.6789 l
0.2081 0.6723 l
0.2089 0.6655 l
0.2098 0.6586 l
0.2106 0.6516 l
0.2115 0.6446 l
0.2124 0.6374 l
0.2132 0.6302 l
0.2141 0.6228 l
0.2149 0.6154 l
0.2158 0.6079 l
0.2166 0.6004 l
0.2175 0.5928 l
0.2183 0.5852 l
0.2192 0.5775 l
0.2201 0.5697 l
0.2209 0.5620 l
0.2218 0.5541 l
0.2226 0.5463 l
0.2235 0.5384 l
0.2243 0.5306 l
0.2252 0.5227 l
0.2260 0.5148 l
0.2269 0.5069 l
0.2278 0.4990 l
0.2286 0.4911 l
0.2295 0.4833 l
0.2303 0.4754 l
0.2312 0.4676 l
0.2320 0.4598 l
0.2329 0.4520 l
0.2338 0.4443 l
0.2346 0.4366 l
0.2355 0.4290 l
0.2363 0.4214 l
0.2372 0.4138 l
0.2380 0.4064 l
0.2389 0.3989 l
0.2397 0.3916 l
0.2406 0.3843 l
0.2415 0.3771 l
0.2423 0.3700 l
0.2432 0.3630 l
0.2440 0.3560 l
0.2449 0.3492 l
0.2457 0.3424 l
0.2466 0.3358 l
0.2474 0.3292 l
0.2483 0.3228 l
0.2492 0.3164 l
0.2500 0.3102 l
0.2509 0.3041 l
0.2517 0.2981 l
0.2526 0.2922 l
0.2534 0.2865 l
0.2543 0.2808 l
0.2552 0.2753 l
0.2560 0.2700 l
0.2569 0.2647 l
0.2577 0.2596 l
0.2586 0.2547 l
0.2594 0.2499 l
0.2603 0.2452 l
0.2611 0.2406 l
0.2620 0.2363 l
0.2629 0.2320 l
0.2637 0.2279 l
0.2646 0.2240 l
0.2654 0.2202 l
0.2663 0.2166 l
0.2671 0.2131 l
0.2680 0.2097 l
0.2688 0.2066 l
0.2697 0.2035 l
0.2706 0.2007 l
0.2714 0.1980 l
0.2723 0.1954 l
0.2731 0.1930 l
0.2740 0.1908 l
0.2748 0.1887 l
0.2757 0.1868 l
0.2766 0.1851 l
0.2774 0.1835 l
0.2783 0.1820 l
0.2791 0.1808 l
0.2800 0.1796 l
0.2808 0.1787 l
0.2817 0.1779 l
0.2825 0.1772 l
0.2834 0.1767 l
0.2843 0.1764 l
0.2851 0.1762 l
0.2860 0.1761 l
0.2868 0.1762 l
0.2877 0.1765 l
0.2885 0.1769 l
0.2894 0.1775 l
0.2902 0.1782 l
0.2911 0.1790 l
0.2920 0.1800 l
0.2928 0.1811 l
0.2937 0.1824 l
0.2945 0.1838 l
0.2954 0.1853 l
0.2962 0.1870 l
0.2971 0.1888 l
0.2980 0.1907 l
0.2988 0.1927 l
0.2997 0.1949 l
0.3005 0.1972 l
0.3014 0.1996 l
0.3022 0.2021 l
0.3031 0.2048 l
0.3039 0.2075 l
0.3048 0.2104 l
0.3057 0.2134 l
0.3065 0.2164 l
0.3074 0.2196 l
0.3082 0.2229 l
0.3091 0.2262 l
0.3099 0.2297 l
0.3108 0.2332 l
0.3116 0.2368 l
0.3125 0.2406 l
0.3134 0.2443 l
0.3142 0.2482 l
0.3151 0.2522 l
0.3159 0.2562 l
0.3168 0.2602 l
0.3176 0.2644 l
0.3185 0.2686 l
0.3194 0.2729 l
0.3202 0.2772 l
0.3211 0.2815 l
0.3219 0.2860 l
0.3228 0.2904 l
0.3236 0.2949 l
0.3245 0.2995 l
0.3253 0.3041 l
0.3262 0.3087 l
0.3271 0.3133 l
0.3279 0.3180 l
0.3288 0.3227 l
0.3296 0.3274 l
0.3305 0.3321 l
0.3313 0.3369 l
0.3322 0.3416 l
0.3330 0.3464 l
0.3339 0.3511 l
0.3348 0.3559 l
0.3356 0.3607 l
0.3365 0.3654 l
0.3373 0.3702 l
0.3382 0.3749 l
0.3390 0.3797 l
0.3399 0.3844 l
0.3408 0.3891 l
0.3416 0.3937 l
0.3425 0.3984 l
0.3433 0.4030 l
0.3442 0.4076 l
0.3450 0.4121 l
0.3459 0.4167 l
0.3467 0.4211 l
0.3476 0.4256 l
0.3485 0.4300 l
0.3493 0.4343 l
0.3502 0.4386 l
0.3510 0.4429 l
0.3519 0.4471 l
0.3527 0.4512 l
0.3536 0.4553 l
0.3544 0.4594 l
0.3553 0.4633 l
0.3562 0.4672 l
0.3570 0.4711 l
0.3579 0.4748 l
0.3587 0.4786 l
0.3596 0.4822 l
0.3604 0.4857 l
0.3613 0.4892 l
0.3622 0.4926 l
0.3630 0.4960 l
0.3639 0.4992 l
0.3647 0.5024 l
0.3656 0.5055 l
0.3664 0.5085 l
0.3673 0.5114 l
0.3681 0.5143 l
0.3690 0.5170 l
0.3699 0.5197 l
0.3707 0.5223 l
0.3716 0.5247 l
0.3724 0.5271 l
0.3733 0.5294 l
0.3741 0.5316 l
0.3750 0.5338 l
0.3758 0.5358 l
0.3767 0.5377 l
0.3776 0.5396 l
0.3784 0.5413 l
0.3793 0.5430 l
0.3801 0.5445 l
0.3810 0.5460 l
0.3818 0.5473 l
0.3827 0.5486 l
0.3836 0.5498 l
0.3844 0.5508 l
0.3853 0.5518 l
0.3861 0.5527 l
0.3870 0.5535 l
0.3878 0.5542 l
0.3887 0.5548 l
0.3895 0.5553 l
0.3904 0.5557 l
0.3913 0.5560 l
0.3921 0.5562 l
0.3930 0.5564 l
0.3938 0.5564 l
0.3947 0.5563 l
0.3955 0.5562 l
0.3964 0.5560 l
0.3972 0.5557 l
0.3981 0.5552 l
0.3990 0.5548 l
0.3998 0.5542 l
0.4007 0.5535 l
0.4015 0.5528 l
0.4024 0.5519 l
0.4032 0.5510 l
0.4041 0.5500 l
0.4050 0.5489 l
0.4058 0.5478 l
0.4067 0.5466 l
0.4075 0.5453 l
0.4084 0.5439 l
0.4092 0.5425 l
0.4101 0.5409 l
0.4109 0.5394 l
0.4118 0.5377 l
0.4127 0.5360 l
0.4135 0.5342 l
0.4144 0.5324 l
0.4152 0.5305 l
0.4161 0.5285 l
0.4169 0.5265 l
0.4178 0.5244 l
0.4186 0.5223 l
0.4195 0.5201 l
0.4204 0.5179 l
0.4212 0.5156 l
0.4221 0.5132 l
0.4229 0.5109 l
0.4238 0.5085 l
0.4246 0.5060 l
0.4255 0.5035 l
0.4264 0.5010 l
0.4272 0.4984 l
0.4281 0.4958 l
0.4289 0.4932 l
0.4298 0.4905 l
0.4306 0.4878 l
0.4315 0.4851 l
0.4323 0.4824 l
0.4332 0.4796 l
0.4341 0.4768 l
0.4349 0.4740 l
0.4358 0.4712 l
0.4366 0.4684 l
0.4375 0.4655 l
0.4383 0.4627 l
0.4392 0.4598 l
0.4400 0.4569 l
0.4409 0.4541 l
0.4418 0.4512 l
0.4426 0.4483 l
0.4435 0.4454 l
0.4443 0.4425 l
0.4452 0.4397 l
0.4460 0.4368 l
0.4469 0.4340 l
0.4478 0.4311 l
0.4486 0.4283 l
0.4495 0.4254 l
0.4503 0.4226 l
0.4512 0.4198 l
0.4520 0.4171 l
0.4529 0.4143 l
0.4537 0.4116 l
0.4546 0.4089 l
0.4555 0.4062 l
0.4563 0.4035 l
0.4572 0.4009 l
0.4580 0.3983 l
0.4589 0.3957 l
0.4597 0.3932 l
0.4606 0.3907 l
0.4614 0.3882 l
0.4623 0.3858 l
0.4632 0.3834 l
0.4640 0.3810 l
0.4649 0.3787 l
0.4657 0.3764 l
0.4666 0.3741 l
0.4674 0.3719 l
0.4683 0.3698 l
0.4692 0.3677 l
0.4700 0.3656 l
0.4709 0.3636 l
0.4717 0.3616 l
0.4726 0.3597 l
0.4734 0.3578 l
0.4743 0.3560 l
0.4751 0.3542 l
0.4760 0.3525 l
0.4769 0.3508 l
0.4777 0.3492 l
0.4786 0.3476 l
0.4794 0.3461 l
0.4803 0.3447 l
0.4811 0.3433 l
0.4820 0.3419 l
0.4828 0.3406 l
0.4837 0.3394 l
0.4846 0.3382 l
0.4854 0.3371 l
0.4863 0.3361 l
0.4871 0.3351 l
0.4880 0.3341 l
0.4888 0.3332 l
0.4897 0.3324 l
0.4906 0.3316 l
0.4914 0.3309 l
0.4923 0.3302 l
0.4931 0.3296 l
0.4940 0.3291 l
0.4948 0.3286 l
0.4957 0.3282 l
0.4965 0.3278 l
0.4974 0.3275 l
0.4983 0.3272 l
0.4991 0.3270 l
0.5000 0.3269 l
0.5008 0.3268 l
0.5017 0.3268 l
0.5025 0.3268 l
0.5034 0.3269 l
0.5042 0.3270 l
0.5051 0.3272 l
0.5060 0.3274 l
0.5068 0.3277 l
0.5077 0.3281 l
0.5085 0.3285 l
0.5094 0.3289 l
0.5102 0.3294 l
0.5111 0.3299 l
0.5120 0.3305 l
0.5128 0.3312 l
0.5137 0.3319 l
0.5145 0.3326 l
0.5154 0.3334 l
0.5162 0.3342 l
0.5171 0.3351 l
0.5179 0.3360 l
0.5188 0.3369 l
0.5197 0.3379 l
0.5205 0.3389 l
0.5214 0.3400 l
0.5222 0.3411 l
0.5231 0.3423 l
0.5239 0.3434 l
0.5248 0.3447 l
0.5256 0.3459 l
0.5265 0.3472 l
0.5274 0.3485 l
0.5282 0.3498 l
0.5291 0.3512 l
0.5299 0.3526 l
0.5308 0.3540 l
0.5316 0.3555 l
0.5325 0.3570 l
0.5334 0.3585 l
0.5342 0.3600 l
0.5351 0.3616 l
0.5359 0.3631 l
0.5368 0.3647 l
0.5376 0.3663 l
0.5385 0.3679 l
0.5393 0.3696 l
0.5402 0.3712 l
0.5411 0.3729 l
0.5419 0.3746 l
0.5428 0.3763 l
0.5436 0.3780 l
0.5445 0.3797 l
0.5453 0.3814 l
0.5462 0.3831 l
0.5470 0.3848 l
0.5479 0.3866 l
0.5488 0.3883 l
0.5496 0.3900 l
0.5505 0.3918 l
0.5513 0.3935 l
0.5522 0.3953 l
0.5530 0.3970 l
0.5539 0.3987 l
0.5548 0.4004 l
0.5556 0.4022 l
0.5565 0.4039 l
0.5573 0.4056 l
0.5582 0.4073 l
0.5590 0.4090 l
0.5599 0.4106 l
0.5607 0.4123 l
0.5616 0.4140 l
0.5625 0.4156 l
0.5633 0.4172 l
0.5642 0.4188 l
0.5650 0.4204 l
0.5659 0.4220 l
0.5667 0.4236 l
0.5676 0.4251 l
0.5684 0.4266 l
0.5693 0.4281 l
0.5702 0.4296 l
0.5710 0.4310 l
0.5719 0.4325 l
0.5727 0.4339 l
0.5736 0.4353 l
0.5744 0.4366 l
0.5753 0.4380 l
0.5762 0.4393 l
0.5770 0.4405 l
0.5779 0.4418 l
0.5787 0.4430 l
0.5796 0.4442 l
0.5804 0.4454 l
0.5813 0.4465 l
0.5821 0.4476 l
0.5830 0.4487 l
0.5839 0.4497 l
0.5847 0.4508 l
0.5856 0.4517 l
0.5864 0.4527 l
0.5873 0.4536 l
0.5881 0.4545 l
0.5890 0.4553 l
0.5898 0.4562 l
0.5907 0.4569 l
0.5916 0.4577 l
0.5924 0.4584 l
0.5933 0.4591 l
0.5941 0.4597 l
0.5950 0.4603 l
0.5958 0.4609 l
0.5967 0.4615 l
0.5976 0.4620 l
0.5984 0.4624 l
0.5993 0.4629 l
0.6001 0.4633 l
0.6010 0.4637 l
0.6018 0.4640 l
0.6027 0.4643 l
0.6035 0.4645 l
0.6044 0.4648 l
0.6053 0.4650 l
0.6061 0.4651 l
0.6070 0.4653 l
0.6078 0.4653 l
0.6087 0.4654 l
0.6095 0.4654 l
0.6104 0.4654 l
0.6112 0.4654 l
0.6121 0.4653 l
0.6130 0.4652 l
0.6138 0.4651 l
0.6147 0.4649 l
0.6155 0.4647 l
0.6164 0.4645 l
0.6172 0.4642 l
0.6181 0.4639 l
0.6190 0.4636 l
0.6198 0.4632 l
0.6207 0.4628 l
0.6215 0.4624 l
0.6224 0.4620 l
0.6232 0.4615 l
0.6241 0.4610 l
0.6249 0.4605 l
0.6258 0.4600 l
0.6267 0.4594 l
0.6275 0.4588 l
0.6284 0.4582 l
0.6292 0.4576 l
0.6301 0.4569 l
0.6309 0.4562 l
0.6318 0.4555 l
0.6326 0.4548 l
0.6335 0.4540 l
0.6344 0.4532 l
0.6352 0.4524 l
0.6361 0.4516 l
0.6369 0.4508 l
0.6378 0.4500 l
0.6386 0.4491 l
0.6395 0.4482 l
0.6404 0.4473 l
0.6412 0.4464 l
0.6421 0.4455 l
0.6429 0.4446 l
0.6438 0.4436 l
0.6446 0.4427 l
0.6455 0.4417 l
0.6463 0.4407 l
0.6472 0.4398 l
0.6481 0.4388 l
0.6489 0.4377 l
0.6498 0.4367 l
0.6506 0.4357 l
0.6515 0.4347 l
0.6523 0.4337 l
0.6532 0.4326 l
0.6540 0.4316 l
0.6549 0.4305 l
0.6558 0.4295 l
0.6566 0.4285 l
0.6575 0.4274 l
0.6583 0.4264 l
0.6592 0.4253 l
0.6600 0.4243 l
0.6609 0.4232 l
0.6618 0.4222 l
0.6626 0.4211 l
0.6635 0.4201 l
0.6643 0.4190 l
0.6652 0.4180 l
0.6660 0.4170 l
0.6669 0.4160 l
0.6677 0.4150 l
0.6686 0.4139 l
0.6695 0.4129 l
0.6703 0.4120 l
0.6712 0.4110 l
0.6720 0.4100 l
0.6729 0.4090 l
0.6737 0.4081 l
0.6746 0.4071 l
0.6754 0.4062 l
0.6763 0.4053 l
0.6772 0.4044 l
0.6780 0.4035 l
0.6789 0.4026 l
0.6797 0.4017 l
0.6806 0.4009 l
0.6814 0.4001 l
0.6823 0.3992 l
0.6832 0.3984 l
0.6840 0.3976 l
0.6849 0.3969 l
0.6857 0.3961 l
0.6866 0.3954 l
0.6874 0.3946 l
0.6883 0.3939 l
0.6891 0.3932 l
0.6900 0.3926 l
0.6909 0.3919 l
0.6917 0.3913 l
0.6926 0.3907 l
0.6934 0.3901 l
0.6943 0.3895 l
0.6951 0.3889 l
0.6960 0.3884 l
0.6969 0.3879 l
0.6977 0.3874 l
0.6986 0.3869 l
0.6994 0.3865 l
0.7003 0.3860 l
0.7011 0.3856 l
0.7020 0.3852 l
0.7028 0.3848 l
0.7037 0.3845 l
0.7046 0.3842 l
0.7054 0.3838 l
0.7063 0.3836 l
0.7071 0.3833 l
0.7080 0.3830 l
0.7088 0.3828 l
0.7097 0.3826 l
0.7105 0.3824 l
0.7114 0.3823 l
0.7123 0.3821 l
0.7131 0.3820 l
0.7140 0.3819 l
0.7148 0.3818 l
0.7157 0.3818 l
0.7165 0.3817 l
0.7174 0.3817 l
0.7183 0.3817 l
0.7191 0.3817 l
0.7200 0.3818 l
0.7208 0.3818 l
0.7217 0.3819 l
0.7225 0.3820 l
0.7234 0.3821 l
0.7242 0.3823 l
0.7251 0.3824 l
0.7260 0.3826 l
0.7268 0.3828 l
0.7277 0.3830 l
0.7285 0.3832 l
0.7294 0.3835 l
0.7302 0.3837 l
0.7311 0.3840 l
0.7319 0.3843 l
0.7328 0.3846 l
0.7337 0.3850 l
0.7345 0.3853 l
0.7354 0.3856 l
0.7362 0.3860 l
0.7371 0.3864 l
0.7379 0.3868 l
0.7388 0.3872 l
0.7397 0.3876 l
0.7405 0.3881 l
0.7414 0.3885 l
0.7422 0.3890 l
0.7431 0.3895 l
0.7439 0.3900 l
0.7448 0.3905 l
0.7456 0.3910 l
0.7465 0.3915 l
0.7474 0.3920 l
0.7482 0.3925 l
0.7491 0.3931 l
0.7499 0.3936 l
0.7508 0.3942 l
0.7516 0.3948 l
0.7525 0.3954 l
0.7533 0.3959 l
0.7542 0.3965 l
0.7551 0.3971 l
0.7559 0.3977 l
0.7568 0.3983 l
0.7576 0.3989 l
0.7585 0.3996 l
0.7593 0.4002 l
0.7602 0.4008 l
0.7611 0.4014 l
0.7619 0.4020 l
0.7628 0.4027 l
0.7636 0.4033 l
0.7645 0.4039 l
0.7653 0.4046 l
0.7662 0.4052 l
0.7670 0.4058 l
0.7679 0.4065 l
0.7688 0.4071 l
0.7696 0.4077 l
0.7705 0.4084 l
0.7713 0.4090 l
0.7722 0.4096 l
0.7730 0.4102 l
0.7739 0.4109 l
0.7747 0.4115 l
0.7756 0.4121 l
0.7765 0.4127 l
0.7773 0.4133 l
0.7782 0.4139 l
0.7790 0.4145 l
0.7799 0.4151 l
0.7807 0.4157 l
0.7816 0.4162 l
0.7825 0.4168 l
0.7833 0.4174 l
0.7842 0.4179 l
0.7850 0.4185 l
0.7859 0.4190 l
0.7867 0.4196 l
0.7876 0.4201 l
0.7884 0.4206 l
0.7893 0.4211 l
0.7902 0.4216 l
0.7910 0.4221 l
0.7919 0.4226 l
0.7927 0.4230 l
0.7936 0.4235 l
0.7944 0.4239 l
0.7953 0.4244 l
0.7961 0.4248 l
0.7970 0.4252 l
0.7979 0.4256 l
0.7987 0.4260 l
0.7996 0.4264 l
0.8004 0.4268 l
0.8013 0.4272 l
0.8021 0.4275 l
0.8030 0.4278 l
0.8039 0.4282 l
0.8047 0.4285 l
0.8056 0.4288 l
0.8064 0.4291 l
0.8073 0.4294 l
0.8081 0.4296 l
0.8090 0.4299 l
0.8098 0.4301 l
0.8107 0.4303 l
0.8116 0.4306 l
0.8124 0.4308 l
0.8133 0.4309 l
0.8141 0.4311 l
0.8150 0.4313 l
0.8158 0.4314 l
0.8167 0.4316 l
0.8175 0.4317 l
0.8184 0.4318 l
0.8193 0.4319 l
0.8201 0.4320 l
0.8210 0.4321 l
0.8218 0.4321 l
0.8227 0.4322 l
0.8235 0.4322 l
0.8244 0.4322 l
0.8253 0.4323 l
0.8261 0.4323 l
0.8270 0.4323 l
0.8278 0.4322 l
0.8287 0.4322 l
0.8295 0.4321 l
0.8304 0.4321 l
0.8312 0.4320 l
0.8321 0.4319 l
0.8330 0.4318 l
0.8338 0.4317 l
0.8347 0.4316 l
0.8355 0.4315 l
0.8364 0.4314 l
0.8372 0.4312 l
0.8381 0.4311 l
0.8389 0.4309 l
0.8398 0.4307 l
0.8407 0.4305 l
0.8415 0.4303 l
0.8424 0.4301 l
0.8432 0.4299 l
0.8441 0.4297 l
0.8449 0.4295 l
0.8458 0.4292 l
0.8467 0.4290 l
0.8475 0.4287 l
0.8484 0.4285 l
0.8492 0.4282 l
0.8501 0.4279 l
0.8509 0.4276 l
0.8518 0.4273 l
0.8526 0.4270 l
0.8535 0.4267 l
0.8544 0.4264 l
0.8552 0.4261 l
0.8561 0.4258 l
0.8569 0.4254 l
0.8578 0.4251 l
0.8586 0.4248 l
0.8595 0.4244 l
0.8603 0.4241 l
0.8612 0.4237 l
0.8621 0.4234 l
0.8629 0.4230 l
0.8638 0.4227 l
0.8646 0.4223 l
0.8655 0.4219 l
0.8663 0.4215 l
0.8672 0.4212 l
0.8681 0.4208 l
0.8689 0.4204 l
0.8698 0.4200 l
0.8706 0.4197 l
0.8715 0.4193 l
0.8723 0.4189 l
0.8732 0.4185 l
0.8740 0.4181 l
0.8749 0.4178 l
0.8758 0.4174 l
0.8766 0.4170 l
0.8775 0.4166 l
0.8783 0.4162 l
0.8792 0.4158 l
0.8800 0.4155 l
0.8809 0.4151 l
0.8817 0.4147 l
0.8826 0.4143 l
0.8835 0.4140 l
0.8843 0.4136 l
0.8852 0.4132 l
0.8860 0.4129 l
0.8869 0.4125 l
0.8877 0.4122 l
0.8886 0.4118 l
0.8895 0.4115 l
0.8903 0.4111 l
0.8912 0.4108 l
0.8920 0.4104 l
0.8929 0.4101 l
0.8937 0.4098 l
0.8946 0.4095 l
0.8954 0.4091 l
0.8963 0.4088 l
0.8972 0.4085 l
0.8980 0.4082 l
0.8989 0.4079 l
0.8997 0.4076 l
0.9006 0.4074 l
0.9014 0.4071 l
0.9023 0.4068 l
0.9031 0.4065 l
0.9040 0.4063 l
0.9049 0.4060 l
0.9057 0.4058 l
0.9066 0.4055 l
0.9074 0.4053 l
0.9083 0.4051 l
0.9091 0.4049 l
0.9100 0.4046 l
0.9109 0.4044 l
0.9117 0.4042 l
0.9126 0.4040 l
0.9134 0.4039 l
0.9143 0.4037 l
0.9151 0.4035 l
0.9160 0.4034 l
0.9168 0.4032 l
0.9177 0.4031 l
0.9186 0.4029 l
0.9194 0.4028 l
0.9203 0.4027 l
0.9211 0.4026 l
0.9220 0.4024 l
0.9228 0.4023 l
0.9237 0.4023 l
0.9245 0.4022 l
0.9254 0.4021 l
0.9263 0.4020 l
0.9271 0.4020 l
0.9280 0.4019 l
0.9288 0.4019 l
0.9297 0.4018 l
0.9305 0.4018 l
0.9314 0.4018 l
0.9323 0.4017 l
0.9331 0.4017 l
0.9340 0.4017 l
0.9348 0.4017 l
0.9357 0.4018 l
0.9365 0.4018 l
0.9374 0.4018 l
0.9382 0.4018 l
0.9391 0.4019 l
0.9400 0.4019 l
0.9408 0.4020 l
0.9417 0.4020 l
0.9425 0.4021 l
0.9434 0.4022 l
0.9442 0.4023 l
0.9451 0.4024 l
0.9459 0.4024 l
0.9468 0.4025 l
0.9477 0.4027 l
0.9485 0.4028 l
0.9494 0.4029 l
0.9502 0.4030 l
0.9511 0.4031 l
0.9519 0.4033 l
0.9528 0.4034 l
0.9537 0.4035 l
0.9545 0.4037 l
0.9554 0.4039 l
0.9562 0.4040 l
0.9571 0.4042 l
0.9579 0.4043 l
0.9588 0.4045 l
0.9596 0.4047 l
0.9605 0.4049 l
0.9614 0.4051 l
0.9622 0.4052 l
0.9631 0.4054 l
0.9639 0.4056 l
0.9648 0.4058 l
0.9656 0.4060 l
0.9665 0.4062 l
0.9673 0.4064 l
0.9682 0.4066 l
0.9691 0.4069 l
0.9699 0.4071 l
0.9708 0.4073 l
0.9716 0.4075 l
0.9725 0.4077 l
0.9733 0.4079 l
0.9742 0.4082 l
0.9751 0.4084 l
0.9759 0.4086 l
0.9768 0.4089 l
0.9776 0.4091 l
0.9785 0.4093 l
0.9793 0.4095 l
0.9802 0.4098 l
0.9810 0.4100 l
0.9819 0.4102 l
0.9828 0.4105 l
0.9836 0.4107 l
0.9845 0.4109 l
0.9853 0.4112 l
0.9862 0.4114 l
0.9870 0.4116 l
0.9879 0.4118 l
0.9887 0.4121 l
0.9896 0.4123 l
0.9905 0.4125 l
0.9913 0.4127 l
0.9922 0.4130 l
0.9930 0.4132 l
0.9939 0.4134 l
0.9947 0.4136 l
0.9956 0.4138 l
0.9965 0.4141 l
0.9973 0.4143 l
0.9982 0.4145 l
0.9990 0.4147 l
0.9999 0.4149 l
1.0007 0.4151 l
1.0016 0.4153 l
1.0024 0.4155 l
1.0033 0.4157 l
1.0042 0.4159 l
1.0050 0.4160 l
1.0059 0.4162 l
1.0067 0.4164 l
1.0076 0.4166 l
1.0084 0.4168 l
1.0093 0.4169 l
1.0101 0.4171 l
1.0110 0.4172 l
1.0119 0.4174 l
1.0127 0.4176 l
1.0136 0.4177 l
1.0144 0.4179 l
1.0153 0.4180 l
1.0161 0.4181 l
1.0170 0.4183 l
1.0179 0.4184 l
1.0187 0.4185 l
1.0196 0.4186 l
1.0204 0.4188 l
1.0213 0.4189 l
1.0221 0.4190 l
1.0230 0.4191 l
1.0238 0.4192 l
1.0247 0.4193 l
1.0256 0.4194 l
1.0264 0.4194 l
1.0273 0.4195 l
1.0281 0.4196 l
1.0290 0.4197 l
1.0298 0.4197 l
1.0307 0.4198 l
1.0315 0.4199 l
1.0324 0.4199 l
1.0333 0.4200 l
1.0341 0.4200 l
1.0350 0.4200 l
1.0358 0.4201 l
1.0367 0.4201 l
1.0375 0.4201 l
1.0384 0.4201 l
s
n
0.2545 0.1500 m
0.2545 0.1700 l
s
n
0.2545 0.8500 m
0.2545 0.8300 l
s
n
0.3970 0.1500 m
0.3970 0.1700 l
s
n
0.3970 0.8500 m
0.3970 0.8300 l
s
n
0.5396 0.1500 m
0.5396 0.1700 l
s
n
0.5396 0.8500 m
0.5396 0.8300 l
s
n
0.6821 0.1500 m
0.6821 0.1700 l
s
n
0.6821 0.8500 m
0.6821 0.8300 l
s
n
0.8246 0.1500 m
0.8246 0.1700 l
s
n
0.8246 0.8500 m
0.8246 0.8300 l
s
n
0.9671 0.1500 m
0.9671 0.1700 l
s
n
0.9671 0.8500 m
0.9671 0.8300 l
s
n
0.1832 0.1500 m
0.1832 0.1800 l
s
n
0.1832 0.8500 m
0.1832 0.8200 l
s
n
0.3258 0.1500 m
0.3258 0.1800 l
s
n
0.3258 0.8500 m
0.3258 0.8200 l
s
n
0.4683 0.1500 m
0.4683 0.1800 l
s
n
0.4683 0.8500 m
0.4683 0.8200 l
s
n
0.6108 0.1500 m
0.6108 0.1800 l
s
n
0.6108 0.8500 m
0.6108 0.8200 l
s
n
0.7533 0.1500 m
0.7533 0.1800 l
s
n
0.7533 0.8500 m
0.7533 0.8200 l
s
n
0.8959 0.1500 m
0.8959 0.1800 l
s
n
0.8959 0.8500 m
0.8959 0.8200 l
s
n
1.0384 0.1500 m
1.0384 0.1800 l
s
n
1.0384 0.8500 m
1.0384 0.8200 l
s
/Helvetica findfont
dup length dict begin
 {1 index /FID ne {def} {pop pop} ifelse} forall
 /Encoding DefEncoding def
 currentdict
end
/Font12 exch definefont pop
/Font12 FFSF
0.1724 0.1104 m
GS
[0.0420 0.0000 0.0000 0.0420 0 0] CC
(0) show
GR
/Font12 FFSF
0.3034 0.1104 m
GS
[0.0420 0.0000 0.0000 0.0420 0 0] CC
(10) show
GR
/Font12 FFSF
0.4459 0.1104 m
GS
[0.0420 0.0000 0.0000 0.0420 0 0] CC
(20) show
GR
/Font12 FFSF
0.5884 0.1104 m
GS
[0.0420 0.0000 0.0000 0.0420 0 0] CC
(30) show
GR
/Font12 FFSF
0.7309 0.1104 m
GS
[0.0420 0.0000 0.0000 0.0420 0 0] CC
(40) show
GR
/Font12 FFSF
0.8735 0.1104 m
GS
[0.0420 0.0000 0.0000 0.0420 0 0] CC
(50) show
GR
/Font12 FFSF
1.0160 0.1104 m
GS
[0.0420 0.0000 0.0000 0.0420 0 0] CC
(60) show
GR
/Font12 FFSF
0.5762 0.0688 m
GS
[0.0420 0.0000 0.0000 0.0420 0 0] CC
(t \(s\)) show
GR
n
0.1832 0.2484 m
0.2032 0.2484 l
s
n
1.0384 0.2484 m
1.0184 0.2484 l
s
n
0.1832 0.3578 m
0.2032 0.3578 l
s
n
1.0384 0.3578 m
1.0184 0.3578 l
s
n
0.1832 0.4672 m
0.2032 0.4672 l
s
n
1.0384 0.4672 m
1.0184 0.4672 l
s
n
0.1832 0.5765 m
0.2032 0.5765 l
s
n
1.0384 0.5765 m
1.0184 0.5765 l
s
n
0.1832 0.6859 m
0.2032 0.6859 l
s
n
1.0384 0.6859 m
1.0184 0.6859 l
s
n
0.1832 0.7953 m
0.2032 0.7953 l
s
n
1.0384 0.7953 m
1.0184 0.7953 l
s
n
0.1832 0.1937 m
0.2132 0.1937 l
s
n
1.0384 0.1937 m
1.0084 0.1937 l
s
n
0.1832 0.3031 m
0.2132 0.3031 l
s
n
1.0384 0.3031 m
1.0084 0.3031 l
s
n
0.1832 0.4125 m
0.2132 0.4125 l
s
n
1.0384 0.4125 m
1.0084 0.4125 l
s
n
0.1832 0.5219 m
0.2132 0.5219 l
s
n
1.0384 0.5219 m
1.0084 0.5219 l
s
n
0.1832 0.6312 m
0.2132 0.6312 l
s
n
1.0384 0.6312 m
1.0084 0.6312 l
s
n
0.1832 0.7406 m
0.2132 0.7406 l
s
n
1.0384 0.7406 m
1.0084 0.7406 l
s
n
0.1832 0.8500 m
0.2132 0.8500 l
s
n
1.0384 0.8500 m
1.0084 0.8500 l
s
/Font12 FFSF
0.0560 0.1793 m
GS
[0.0420 0.0000 0.0000 0.0420 0 0] CC
(-0.100) show
GR
/Font12 FFSF
0.0560 0.2887 m
GS
[0.0420 0.0000 0.0000 0.0420 0 0] CC
(-0.050) show
GR
/Font12 FFSF
0.0700 0.3981 m
GS
[0.0420 0.0000 0.0000 0.0420 0 0] CC
(0.000) show
GR
/Font12 FFSF
0.0700 0.5075 m
GS
[0.0420 0.0000 0.0000 0.0420 0 0] CC
(0.050) show
GR
/Font12 FFSF
0.0700 0.6168 m
GS
[0.0420 0.0000 0.0000 0.0420 0 0] CC
(0.100) show
GR
/Font12 FFSF
0.0700 0.7262 m
GS
[0.0420 0.0000 0.0000 0.0420 0 0] CC
(0.150) show
GR
/Font12 FFSF
0.0700 0.8356 m
GS
[0.0420 0.0000 0.0000 0.0420 0 0] CC
(0.200) show
GR
/Font12 FFSF
0.0372 0.4526 m
GS
[0.0000 0.0420 -0.0420 0.0000 0 0] CC
(a \(m\)) show
GR
n
0.1832 0.1500 m
0.1832 0.8500 l
1.0384 0.8500 l
1.0384 0.1500 l
0.1832 0.1500 l
c
s
%%Trailer
%%BoundingBox: 2 34 638 521
%%DocumentNeededResources: font Helvetica
%%EOF
