%!PS-Adobe-3.0 EPSF-3.0
%%BoundingBox: (atend)
%%LanguageLevel: 2
%%Creator: Grace-5.1.22
%%CreationDate: Sun Nov  9 23:13:34 2014
%%DocumentData: Clean8Bit
%%Orientation: Portrait
%%Title: fit-gph-1.agr
%%For: wfr
%%DocumentNeededResources: (atend)
%%EndComments
%%BeginProlog
/m {moveto} def
/l {lineto} def
/s {stroke} def
/n {newpath} def
/c {closepath} def
/RL {rlineto} def
/SLW {setlinewidth} def
/GS {gsave} def
/GR {grestore} def
/SC {setcolor} def
/SGRY {setgray} def
/SRGB {setrgbcolor} def
/SD {setdash} def
/SLC {setlinecap} def
/SLJ {setlinejoin} def
/SCS {setcolorspace} def
/FFSF {findfont setfont} def
/CC {concat} def
/PXL {n m 0 0 RL s} def
/Color0 {1.0000 1.0000 1.0000} def
/Color1 {0.0000 0.0000 0.0000} def
/Color2 {1.0000 0.0000 0.0000} def
/Color3 {0.0000 1.0000 0.0000} def
/Color4 {0.0000 0.0000 1.0000} def
/Color5 {1.0000 1.0000 0.0000} def
/Color6 {0.7373 0.5608 0.5608} def
/Color7 {0.8627 0.8627 0.8627} def
/Color8 {0.5804 0.0000 0.8275} def
/Color9 {0.0000 1.0000 1.0000} def
/Color10 {1.0000 0.0000 1.0000} def
/Color11 {1.0000 0.6471 0.0000} def
/Color12 {0.4471 0.1294 0.7373} def
/Color13 {0.4039 0.0275 0.2824} def
/Color14 {0.2510 0.8784 0.8157} def
/Color15 {0.0000 0.5451 0.0000} def
/PTRN {
 /pat_bits exch def 
 <<
  /PaintType 2
  /PatternType 1 /TilingType 1
  /BBox[0 0 16 16]
  /XStep 16 /YStep 16
  /PaintProc {
   pop
   16 16 true [-1 0 0 -1 16 16] pat_bits imagemask
  }
 >>
 [0.0017 0 0 0.0017 0 0]
 makepattern
} def
/Pattern0 {<0000000000000000000000000000000000000000000000000000000000000000> PTRN} bind def
/Pattern1 {<ffffffffffffffffffffffffffffffffffffffffffffffffffffffffffffffff> PTRN} bind def
/Pattern2 {<eeeeffffbbbbffffeeeeffffbbbbffffeeeeffffbbbbffffeeeeffffbbbbffff> PTRN} bind def
/Pattern3 {<eeeebbbbeeeebbbbeeeebbbbeeeebbbbeeeebbbbeeeebbbbeeeebbbbeeeebbbb> PTRN} bind def
/Pattern4 {<5555aaaa5555aaaa5555aaaa5555aaaa5555aaaa5555aaaa5555aaaa5555aaaa> PTRN} bind def
/Pattern5 {<1111444411114444111144441111444411114444111144441111444411114444> PTRN} bind def
/Pattern6 {<1111000044440000111100004444000011110000444400001111000044440000> PTRN} bind def
/Pattern7 {<1010000000000000010100000000000010100000000000000101000000000000> PTRN} bind def
/Pattern8 {<0000000000000000000000000000000000000000000000000000000000000000> PTRN} bind def
/Pattern9 {<1e1e0f0f8787c3c3e1e1f0f078783c3c1e1e0f0f8787c3c3e1e1f0f078783c3c> PTRN} bind def
/Pattern10 {<7878f0f0e1e1c3c387870f0f1e1e3c3c7878f0f0e1e1c3c387870f0f1e1e3c3c> PTRN} bind def
/Pattern11 {<3333333333333333333333333333333333333333333333333333333333333333> PTRN} bind def
/Pattern12 {<ffffffff00000000ffffffff00000000ffffffff00000000ffffffff00000000> PTRN} bind def
/Pattern13 {<8181424224241818181824244242818181814242242418181818242442428181> PTRN} bind def
/Pattern14 {<8080404020201010080804040202010180804040202010100808040402020101> PTRN} bind def
/Pattern15 {<0101020204040808101020204040808001010202040408081010202040408080> PTRN} bind def
/Pattern16 {<2222222222222222222222222222222222222222222222222222222222222222> PTRN} bind def
/Pattern17 {<0000ffff000000000000ffff000000000000ffff000000000000ffff00000000> PTRN} bind def
/Pattern18 {<2222ffff222222222222ffff222222222222ffff222222222222ffff22222222> PTRN} bind def
/Pattern19 {<ffffffff33333333ffffffff33333333ffffffff33333333ffffffff33333333> PTRN} bind def
/Pattern20 {<0f0f0f0f0f0f0f0ff0f0f0f0f0f0f0f00f0f0f0f0f0f0f0ff0f0f0f0f0f0f0f0> PTRN} bind def
/Pattern21 {<ff00ff00ff00ff00ff00ff00ff00ff0000ff00ff00ff00ff00ff00ff00ff00ff> PTRN} bind def
/Pattern22 {<8001800180018001800180018001ffffffff8001800180018001800180018001> PTRN} bind def
/Pattern23 {<c003c003c003c003c003c003ffffffffffffffffc003c003c003c003c003c003> PTRN} bind def
/Pattern24 {<040404040404ffff404040404040ffff040404040404ffff404040404040ffff> PTRN} bind def
/Pattern25 {<180018001800180018001800ffffffff001800180018001800180018ffffffff> PTRN} bind def
/Pattern26 {<1111b8b87c7c3a3a1111a3a3c7c78b8b1111b8b87c7c3a3a1111a3a3c7c78b8b> PTRN} bind def
/Pattern27 {<101010102828c7c70101010182827c7c101010102828c7c70101010182827c7c> PTRN} bind def
/Pattern28 {<1c1c121211112121c1c12121111112121c1c121211112121c1c1212111111212> PTRN} bind def
/Pattern29 {<3e3e414180808080e3e31414080808083e3e414180808080e3e3141408080808> PTRN} bind def
/Pattern30 {<4848888884848383848488884848383848488888848483838484888848483838> PTRN} bind def
/Pattern31 {<03030404080808080c0c12122121c0c003030404080808080c0c12122121c0c0> PTRN} bind def
/ellipsedict 8 dict def
ellipsedict /mtrx matrix put
/EARC {
 ellipsedict begin
  /endangle exch def
  /startangle exch def
  /yrad exch def
  /xrad exch def
  /y exch def
  /x exch def
  /savematrix mtrx currentmatrix def
  x y translate
  xrad yrad scale
  0 0 1 startangle endangle arc
  savematrix setmatrix
 end
} def
/TL {
  /kcomp exch def
  /linewidth exch def
  /offset exch def
  GS
  0 offset rmoveto
  linewidth SLW
  dup stringwidth exch kcomp add exch RL s
  GR
} def
/KINIT
{
 /kvector exch def
 /kid 0 def
} def
/KPROC
{
 pop pop
 kvector kid get
 0 rmoveto
 /kid 1 kid add def
} def
/DefEncoding [
 /.notdef
 /.notdef
 /.notdef
 /.notdef
 /.notdef
 /.notdef
 /.notdef
 /.notdef
 /.notdef
 /.notdef
 /.notdef
 /.notdef
 /.notdef
 /.notdef
 /.notdef
 /.notdef
 /.notdef
 /.notdef
 /.notdef
 /.notdef
 /.notdef
 /.notdef
 /.notdef
 /.notdef
 /.notdef
 /.notdef
 /.notdef
 /.notdef
 /.notdef
 /.notdef
 /.notdef
 /.notdef
 /space
 /exclam
 /quotedbl
 /numbersign
 /dollar
 /percent
 /ampersand
 /quoteright
 /parenleft
 /parenright
 /asterisk
 /plus
 /comma
 /hyphen
 /period
 /slash
 /zero
 /one
 /two
 /three
 /four
 /five
 /six
 /seven
 /eight
 /nine
 /colon
 /semicolon
 /less
 /equal
 /greater
 /question
 /at
 /A
 /B
 /C
 /D
 /E
 /F
 /G
 /H
 /I
 /J
 /K
 /L
 /M
 /N
 /O
 /P
 /Q
 /R
 /S
 /T
 /U
 /V
 /W
 /X
 /Y
 /Z
 /bracketleft
 /backslash
 /bracketright
 /asciicircum
 /underscore
 /grave
 /a
 /b
 /c
 /d
 /e
 /f
 /g
 /h
 /i
 /j
 /k
 /l
 /m
 /n
 /o
 /p
 /q
 /r
 /s
 /t
 /u
 /v
 /w
 /x
 /y
 /z
 /braceleft
 /bar
 /braceright
 /asciitilde
 /.notdef
 /.notdef
 /.notdef
 /.notdef
 /.notdef
 /.notdef
 /.notdef
 /.notdef
 /.notdef
 /.notdef
 /.notdef
 /.notdef
 /.notdef
 /.notdef
 /.notdef
 /.notdef
 /.notdef
 /.notdef
 /.notdef
 /.notdef
 /.notdef
 /.notdef
 /.notdef
 /.notdef
 /.notdef
 /.notdef
 /.notdef
 /.notdef
 /.notdef
 /.notdef
 /.notdef
 /.notdef
 /.notdef
 /space
 /exclamdown
 /cent
 /sterling
 /currency
 /yen
 /brokenbar
 /section
 /dieresis
 /copyright
 /ordfeminine
 /guillemotleft
 /logicalnot
 /hyphen
 /registered
 /macron
 /degree
 /plusminus
 /twosuperior
 /threesuperior
 /acute
 /mu
 /paragraph
 /periodcentered
 /cedilla
 /onesuperior
 /ordmasculine
 /guillemotright
 /onequarter
 /onehalf
 /threequarters
 /questiondown
 /Agrave
 /Aacute
 /Acircumflex
 /Atilde
 /Adieresis
 /Aring
 /AE
 /Ccedilla
 /Egrave
 /Eacute
 /Ecircumflex
 /Edieresis
 /Igrave
 /Iacute
 /Icircumflex
 /Idieresis
 /Eth
 /Ntilde
 /Ograve
 /Oacute
 /Ocircumflex
 /Otilde
 /Odieresis
 /multiply
 /Oslash
 /Ugrave
 /Uacute
 /Ucircumflex
 /Udieresis
 /Yacute
 /Thorn
 /germandbls
 /agrave
 /aacute
 /acircumflex
 /atilde
 /adieresis
 /aring
 /ae
 /ccedilla
 /egrave
 /eacute
 /ecircumflex
 /edieresis
 /igrave
 /iacute
 /icircumflex
 /idieresis
 /eth
 /ntilde
 /ograve
 /oacute
 /ocircumflex
 /otilde
 /odieresis
 /divide
 /oslash
 /ugrave
 /uacute
 /ucircumflex
 /udieresis
 /yacute
 /thorn
 /ydieresis
] def
%%EndProlog
%%BeginSetup
%%EndSetup
600.00 600.00 scale
n
0.0000 0.0000 m
0.0000 1.0000 l
1.2884 1.0000 l
1.2884 0.0000 l
c
[/DeviceRGB] SCS
Color0 SC
fill
[/DeviceRGB] SCS
Color1 SC
[] 0 SD
0.0015 SLW
0 SLC
0 SLJ
n
0.1832 0.2025 m
0.1832 0.2048 l
s
n
0.1831 0.2048 m
0.1932 0.2048 l
s
n
0.1832 0.2025 m
0.1832 0.2002 l
s
n
0.1932 0.2002 m
0.1831 0.2002 l
s
n
0.3144 0.8080 m
0.3144 0.8103 l
s
n
0.3044 0.8103 m
0.3244 0.8103 l
s
n
0.3144 0.8080 m
0.3144 0.8056 l
s
n
0.3244 0.8056 m
0.3044 0.8056 l
s
n
0.4455 0.5210 m
0.4455 0.5233 l
s
n
0.4355 0.5233 m
0.4555 0.5233 l
s
n
0.4455 0.5210 m
0.4455 0.5186 l
s
n
0.4555 0.5186 m
0.4355 0.5186 l
s
n
0.5766 0.6563 m
0.5766 0.6586 l
s
n
0.5666 0.6586 m
0.5866 0.6586 l
s
n
0.5766 0.6563 m
0.5766 0.6540 l
s
n
0.5866 0.6540 m
0.5666 0.6540 l
s
n
0.7077 0.5933 m
0.7077 0.5956 l
s
n
0.6977 0.5956 m
0.7177 0.5956 l
s
n
0.7077 0.5933 m
0.7077 0.5910 l
s
n
0.7177 0.5910 m
0.6977 0.5910 l
s
n
0.8389 0.6236 m
0.8389 0.6260 l
s
n
0.8289 0.6260 m
0.8489 0.6260 l
s
n
0.8389 0.6236 m
0.8389 0.6213 l
s
n
0.8489 0.6213 m
0.8289 0.6213 l
s
n
0.9700 0.6096 m
0.9700 0.6120 l
s
n
0.9600 0.6120 m
0.9800 0.6120 l
s
n
0.9700 0.6096 m
0.9700 0.6073 l
s
n
0.9800 0.6073 m
0.9600 0.6073 l
s
[] 0 SD
0.0030 SLW
n 0.1832 0.2025 0.0100 0.0100 0 360 EARC s
n 0.3144 0.8080 0.0100 0.0100 0 360 EARC s
n 0.4455 0.5210 0.0100 0.0100 0 360 EARC s
n 0.5766 0.6563 0.0100 0.0100 0 360 EARC s
n 0.7077 0.5933 0.0100 0.0100 0 360 EARC s
n 0.8389 0.6236 0.0100 0.0100 0 360 EARC s
n 0.9700 0.6096 0.0100 0.0100 0 360 EARC s
[/DeviceRGB] SCS
Color2 SC
[] 0 SD
0.0015 SLW
n
0.1832 0.2014 m
0.1841 0.2035 l
0.1850 0.2058 l
0.1858 0.2082 l
0.1867 0.2108 l
0.1875 0.2135 l
0.1884 0.2164 l
0.1892 0.2195 l
0.1901 0.2227 l
0.1910 0.2260 l
0.1918 0.2294 l
0.1927 0.2330 l
0.1935 0.2368 l
0.1944 0.2406 l
0.1952 0.2446 l
0.1961 0.2487 l
0.1969 0.2530 l
0.1978 0.2573 l
0.1987 0.2618 l
0.1995 0.2663 l
0.2004 0.2710 l
0.2012 0.2758 l
0.2021 0.2807 l
0.2029 0.2857 l
0.2038 0.2907 l
0.2046 0.2959 l
0.2055 0.3012 l
0.2064 0.3065 l
0.2072 0.3119 l
0.2081 0.3174 l
0.2089 0.3230 l
0.2098 0.3287 l
0.2106 0.3344 l
0.2115 0.3402 l
0.2124 0.3460 l
0.2132 0.3519 l
0.2141 0.3579 l
0.2149 0.3639 l
0.2158 0.3700 l
0.2166 0.3761 l
0.2175 0.3823 l
0.2183 0.3885 l
0.2192 0.3948 l
0.2201 0.4010 l
0.2209 0.4074 l
0.2218 0.4137 l
0.2226 0.4201 l
0.2235 0.4264 l
0.2243 0.4329 l
0.2252 0.4393 l
0.2260 0.4457 l
0.2269 0.4522 l
0.2278 0.4586 l
0.2286 0.4651 l
0.2295 0.4715 l
0.2303 0.4780 l
0.2312 0.4845 l
0.2320 0.4909 l
0.2329 0.4974 l
0.2338 0.5038 l
0.2346 0.5102 l
0.2355 0.5166 l
0.2363 0.5230 l
0.2372 0.5293 l
0.2380 0.5357 l
0.2389 0.5420 l
0.2397 0.5482 l
0.2406 0.5545 l
0.2415 0.5607 l
0.2423 0.5668 l
0.2432 0.5730 l
0.2440 0.5790 l
0.2449 0.5851 l
0.2457 0.5911 l
0.2466 0.5970 l
0.2474 0.6029 l
0.2483 0.6087 l
0.2492 0.6145 l
0.2500 0.6202 l
0.2509 0.6259 l
0.2517 0.6315 l
0.2526 0.6370 l
0.2534 0.6425 l
0.2543 0.6479 l
0.2552 0.6533 l
0.2560 0.6585 l
0.2569 0.6637 l
0.2577 0.6689 l
0.2586 0.6739 l
0.2594 0.6789 l
0.2603 0.6838 l
0.2611 0.6886 l
0.2620 0.6934 l
0.2629 0.6980 l
0.2637 0.7026 l
0.2646 0.7071 l
0.2654 0.7115 l
0.2663 0.7158 l
0.2671 0.7200 l
0.2680 0.7242 l
0.2688 0.7282 l
0.2697 0.7322 l
0.2706 0.7361 l
0.2714 0.7399 l
0.2723 0.7435 l
0.2731 0.7471 l
0.2740 0.7506 l
0.2748 0.7541 l
0.2757 0.7574 l
0.2766 0.7606 l
0.2774 0.7637 l
0.2783 0.7667 l
0.2791 0.7697 l
0.2800 0.7725 l
0.2808 0.7752 l
0.2817 0.7778 l
0.2825 0.7804 l
0.2834 0.7828 l
0.2843 0.7852 l
0.2851 0.7874 l
0.2860 0.7895 l
0.2868 0.7916 l
0.2877 0.7935 l
0.2885 0.7954 l
0.2894 0.7971 l
0.2902 0.7988 l
0.2911 0.8003 l
0.2920 0.8018 l
0.2928 0.8032 l
0.2937 0.8044 l
0.2945 0.8056 l
0.2954 0.8067 l
0.2962 0.8076 l
0.2971 0.8085 l
0.2980 0.8093 l
0.2988 0.8100 l
0.2997 0.8106 l
0.3005 0.8111 l
0.3014 0.8115 l
0.3022 0.8119 l
0.3031 0.8121 l
0.3039 0.8122 l
0.3048 0.8123 l
0.3057 0.8123 l
0.3065 0.8122 l
0.3074 0.8120 l
0.3082 0.8117 l
0.3091 0.8113 l
0.3099 0.8108 l
0.3108 0.8103 l
0.3116 0.8097 l
0.3125 0.8090 l
0.3134 0.8082 l
0.3142 0.8074 l
0.3151 0.8064 l
0.3159 0.8054 l
0.3168 0.8043 l
0.3176 0.8032 l
0.3185 0.8020 l
0.3194 0.8007 l
0.3202 0.7993 l
0.3211 0.7979 l
0.3219 0.7964 l
0.3228 0.7948 l
0.3236 0.7932 l
0.3245 0.7915 l
0.3253 0.7897 l
0.3262 0.7879 l
0.3271 0.7860 l
0.3279 0.7841 l
0.3288 0.7821 l
0.3296 0.7801 l
0.3305 0.7780 l
0.3313 0.7759 l
0.3322 0.7737 l
0.3330 0.7714 l
0.3339 0.7691 l
0.3348 0.7668 l
0.3356 0.7644 l
0.3365 0.7620 l
0.3373 0.7595 l
0.3382 0.7570 l
0.3390 0.7545 l
0.3399 0.7519 l
0.3408 0.7493 l
0.3416 0.7466 l
0.3425 0.7440 l
0.3433 0.7413 l
0.3442 0.7385 l
0.3450 0.7358 l
0.3459 0.7330 l
0.3467 0.7301 l
0.3476 0.7273 l
0.3485 0.7244 l
0.3493 0.7216 l
0.3502 0.7186 l
0.3510 0.7157 l
0.3519 0.7128 l
0.3527 0.7098 l
0.3536 0.7069 l
0.3544 0.7039 l
0.3553 0.7009 l
0.3562 0.6979 l
0.3570 0.6949 l
0.3579 0.6919 l
0.3587 0.6889 l
0.3596 0.6859 l
0.3604 0.6829 l
0.3613 0.6799 l
0.3622 0.6768 l
0.3630 0.6738 l
0.3639 0.6708 l
0.3647 0.6678 l
0.3656 0.6648 l
0.3664 0.6618 l
0.3673 0.6588 l
0.3681 0.6558 l
0.3690 0.6529 l
0.3699 0.6499 l
0.3707 0.6470 l
0.3716 0.6441 l
0.3724 0.6412 l
0.3733 0.6383 l
0.3741 0.6354 l
0.3750 0.6325 l
0.3758 0.6297 l
0.3767 0.6269 l
0.3776 0.6241 l
0.3784 0.6213 l
0.3793 0.6186 l
0.3801 0.6158 l
0.3810 0.6132 l
0.3818 0.6105 l
0.3827 0.6078 l
0.3836 0.6052 l
0.3844 0.6027 l
0.3853 0.6001 l
0.3861 0.5976 l
0.3870 0.5951 l
0.3878 0.5926 l
0.3887 0.5902 l
0.3895 0.5878 l
0.3904 0.5855 l
0.3913 0.5832 l
0.3921 0.5809 l
0.3930 0.5786 l
0.3938 0.5764 l
0.3947 0.5743 l
0.3955 0.5721 l
0.3964 0.5700 l
0.3972 0.5680 l
0.3981 0.5660 l
0.3990 0.5640 l
0.3998 0.5621 l
0.4007 0.5602 l
0.4015 0.5584 l
0.4024 0.5566 l
0.4032 0.5548 l
0.4041 0.5531 l
0.4050 0.5514 l
0.4058 0.5498 l
0.4067 0.5482 l
0.4075 0.5467 l
0.4084 0.5452 l
0.4092 0.5437 l
0.4101 0.5423 l
0.4109 0.5410 l
0.4118 0.5397 l
0.4127 0.5384 l
0.4135 0.5372 l
0.4144 0.5360 l
0.4152 0.5349 l
0.4161 0.5338 l
0.4169 0.5327 l
0.4178 0.5317 l
0.4186 0.5308 l
0.4195 0.5299 l
0.4204 0.5290 l
0.4212 0.5282 l
0.4221 0.5275 l
0.4229 0.5268 l
0.4238 0.5261 l
0.4246 0.5255 l
0.4255 0.5249 l
0.4264 0.5243 l
0.4272 0.5238 l
0.4281 0.5234 l
0.4289 0.5230 l
0.4298 0.5226 l
0.4306 0.5223 l
0.4315 0.5220 l
0.4323 0.5218 l
0.4332 0.5216 l
0.4341 0.5215 l
0.4349 0.5214 l
0.4358 0.5213 l
0.4366 0.5213 l
0.4375 0.5213 l
0.4383 0.5214 l
0.4392 0.5215 l
0.4400 0.5216 l
0.4409 0.5218 l
0.4418 0.5220 l
0.4426 0.5223 l
0.4435 0.5226 l
0.4443 0.5229 l
0.4452 0.5233 l
0.4460 0.5237 l
0.4469 0.5241 l
0.4478 0.5246 l
0.4486 0.5251 l
0.4495 0.5257 l
0.4503 0.5263 l
0.4512 0.5269 l
0.4520 0.5275 l
0.4529 0.5282 l
0.4537 0.5289 l
0.4546 0.5296 l
0.4555 0.5304 l
0.4563 0.5312 l
0.4572 0.5320 l
0.4580 0.5329 l
0.4589 0.5337 l
0.4597 0.5347 l
0.4606 0.5356 l
0.4614 0.5365 l
0.4623 0.5375 l
0.4632 0.5385 l
0.4640 0.5396 l
0.4649 0.5406 l
0.4657 0.5417 l
0.4666 0.5428 l
0.4674 0.5439 l
0.4683 0.5450 l
0.4692 0.5462 l
0.4700 0.5474 l
0.4709 0.5485 l
0.4717 0.5498 l
0.4726 0.5510 l
0.4734 0.5522 l
0.4743 0.5535 l
0.4751 0.5547 l
0.4760 0.5560 l
0.4769 0.5573 l
0.4777 0.5586 l
0.4786 0.5599 l
0.4794 0.5613 l
0.4803 0.5626 l
0.4811 0.5640 l
0.4820 0.5653 l
0.4828 0.5667 l
0.4837 0.5680 l
0.4846 0.5694 l
0.4854 0.5708 l
0.4863 0.5722 l
0.4871 0.5736 l
0.4880 0.5750 l
0.4888 0.5764 l
0.4897 0.5778 l
0.4906 0.5792 l
0.4914 0.5806 l
0.4923 0.5820 l
0.4931 0.5834 l
0.4940 0.5848 l
0.4948 0.5863 l
0.4957 0.5877 l
0.4965 0.5891 l
0.4974 0.5905 l
0.4983 0.5919 l
0.4991 0.5933 l
0.5000 0.5946 l
0.5008 0.5960 l
0.5017 0.5974 l
0.5025 0.5988 l
0.5034 0.6001 l
0.5042 0.6015 l
0.5051 0.6029 l
0.5060 0.6042 l
0.5068 0.6055 l
0.5077 0.6068 l
0.5085 0.6082 l
0.5094 0.6095 l
0.5102 0.6108 l
0.5111 0.6120 l
0.5120 0.6133 l
0.5128 0.6146 l
0.5137 0.6158 l
0.5145 0.6170 l
0.5154 0.6182 l
0.5162 0.6195 l
0.5171 0.6206 l
0.5179 0.6218 l
0.5188 0.6230 l
0.5197 0.6241 l
0.5205 0.6252 l
0.5214 0.6264 l
0.5222 0.6275 l
0.5231 0.6285 l
0.5239 0.6296 l
0.5248 0.6306 l
0.5256 0.6317 l
0.5265 0.6327 l
0.5274 0.6337 l
0.5282 0.6346 l
0.5291 0.6356 l
0.5299 0.6365 l
0.5308 0.6374 l
0.5316 0.6383 l
0.5325 0.6392 l
0.5334 0.6401 l
0.5342 0.6409 l
0.5351 0.6417 l
0.5359 0.6425 l
0.5368 0.6433 l
0.5376 0.6441 l
0.5385 0.6448 l
0.5393 0.6455 l
0.5402 0.6462 l
0.5411 0.6469 l
0.5419 0.6475 l
0.5428 0.6481 l
0.5436 0.6488 l
0.5445 0.6493 l
0.5453 0.6499 l
0.5462 0.6505 l
0.5471 0.6510 l
0.5479 0.6515 l
0.5488 0.6520 l
0.5496 0.6524 l
0.5505 0.6529 l
0.5513 0.6533 l
0.5522 0.6537 l
0.5530 0.6540 l
0.5539 0.6544 l
0.5548 0.6547 l
0.5556 0.6550 l
0.5565 0.6553 l
0.5573 0.6556 l
0.5582 0.6558 l
0.5590 0.6561 l
0.5599 0.6563 l
0.5607 0.6564 l
0.5616 0.6566 l
0.5625 0.6568 l
0.5633 0.6569 l
0.5642 0.6570 l
0.5650 0.6571 l
0.5659 0.6571 l
0.5667 0.6572 l
0.5676 0.6572 l
0.5684 0.6572 l
0.5693 0.6572 l
0.5702 0.6572 l
0.5710 0.6571 l
0.5719 0.6570 l
0.5727 0.6569 l
0.5736 0.6568 l
0.5744 0.6567 l
0.5753 0.6566 l
0.5762 0.6564 l
0.5770 0.6562 l
0.5779 0.6560 l
0.5787 0.6558 l
0.5796 0.6556 l
0.5804 0.6554 l
0.5813 0.6551 l
0.5821 0.6548 l
0.5830 0.6546 l
0.5839 0.6542 l
0.5847 0.6539 l
0.5856 0.6536 l
0.5864 0.6532 l
0.5873 0.6529 l
0.5881 0.6525 l
0.5890 0.6521 l
0.5899 0.6517 l
0.5907 0.6513 l
0.5916 0.6509 l
0.5924 0.6505 l
0.5933 0.6500 l
0.5941 0.6495 l
0.5950 0.6491 l
0.5958 0.6486 l
0.5967 0.6481 l
0.5976 0.6476 l
0.5984 0.6471 l
0.5993 0.6466 l
0.6001 0.6460 l
0.6010 0.6455 l
0.6018 0.6449 l
0.6027 0.6444 l
0.6035 0.6438 l
0.6044 0.6432 l
0.6053 0.6427 l
0.6061 0.6421 l
0.6070 0.6415 l
0.6078 0.6409 l
0.6087 0.6403 l
0.6095 0.6397 l
0.6104 0.6390 l
0.6112 0.6384 l
0.6121 0.6378 l
0.6130 0.6372 l
0.6138 0.6365 l
0.6147 0.6359 l
0.6155 0.6352 l
0.6164 0.6346 l
0.6172 0.6340 l
0.6181 0.6333 l
0.6190 0.6327 l
0.6198 0.6320 l
0.6207 0.6313 l
0.6215 0.6307 l
0.6224 0.6300 l
0.6232 0.6294 l
0.6241 0.6287 l
0.6249 0.6281 l
0.6258 0.6274 l
0.6267 0.6267 l
0.6275 0.6261 l
0.6284 0.6254 l
0.6292 0.6248 l
0.6301 0.6241 l
0.6309 0.6235 l
0.6318 0.6228 l
0.6327 0.6222 l
0.6335 0.6215 l
0.6344 0.6209 l
0.6352 0.6203 l
0.6361 0.6196 l
0.6369 0.6190 l
0.6378 0.6184 l
0.6386 0.6178 l
0.6395 0.6171 l
0.6404 0.6165 l
0.6412 0.6159 l
0.6421 0.6153 l
0.6429 0.6147 l
0.6438 0.6141 l
0.6446 0.6135 l
0.6455 0.6130 l
0.6463 0.6124 l
0.6472 0.6118 l
0.6481 0.6113 l
0.6489 0.6107 l
0.6498 0.6102 l
0.6506 0.6096 l
0.6515 0.6091 l
0.6523 0.6086 l
0.6532 0.6080 l
0.6540 0.6075 l
0.6549 0.6070 l
0.6558 0.6065 l
0.6566 0.6061 l
0.6575 0.6056 l
0.6583 0.6051 l
0.6592 0.6046 l
0.6600 0.6042 l
0.6609 0.6037 l
0.6618 0.6033 l
0.6626 0.6029 l
0.6635 0.6025 l
0.6643 0.6021 l
0.6652 0.6017 l
0.6660 0.6013 l
0.6669 0.6009 l
0.6677 0.6005 l
0.6686 0.6002 l
0.6695 0.5998 l
0.6703 0.5995 l
0.6712 0.5991 l
0.6720 0.5988 l
0.6729 0.5985 l
0.6737 0.5982 l
0.6746 0.5979 l
0.6755 0.5976 l
0.6763 0.5974 l
0.6772 0.5971 l
0.6780 0.5968 l
0.6789 0.5966 l
0.6797 0.5964 l
0.6806 0.5961 l
0.6814 0.5959 l
0.6823 0.5957 l
0.6832 0.5955 l
0.6840 0.5954 l
0.6849 0.5952 l
0.6857 0.5950 l
0.6866 0.5949 l
0.6874 0.5947 l
0.6883 0.5946 l
0.6891 0.5945 l
0.6900 0.5944 l
0.6909 0.5943 l
0.6917 0.5942 l
0.6926 0.5941 l
0.6934 0.5940 l
0.6943 0.5939 l
0.6951 0.5939 l
0.6960 0.5938 l
0.6969 0.5938 l
0.6977 0.5938 l
0.6986 0.5938 l
0.6994 0.5937 l
0.7003 0.5937 l
0.7011 0.5937 l
0.7020 0.5938 l
0.7028 0.5938 l
0.7037 0.5938 l
0.7046 0.5939 l
0.7054 0.5939 l
0.7063 0.5940 l
0.7071 0.5940 l
0.7080 0.5941 l
0.7088 0.5942 l
0.7097 0.5943 l
0.7105 0.5944 l
0.7114 0.5945 l
0.7123 0.5946 l
0.7131 0.5947 l
0.7140 0.5949 l
0.7148 0.5950 l
0.7157 0.5951 l
0.7165 0.5953 l
0.7174 0.5955 l
0.7183 0.5956 l
0.7191 0.5958 l
0.7200 0.5960 l
0.7208 0.5961 l
0.7217 0.5963 l
0.7225 0.5965 l
0.7234 0.5967 l
0.7242 0.5969 l
0.7251 0.5971 l
0.7260 0.5974 l
0.7268 0.5976 l
0.7277 0.5978 l
0.7285 0.5980 l
0.7294 0.5983 l
0.7302 0.5985 l
0.7311 0.5988 l
0.7319 0.5990 l
0.7328 0.5993 l
0.7337 0.5995 l
0.7345 0.5998 l
0.7354 0.6000 l
0.7362 0.6003 l
0.7371 0.6006 l
0.7379 0.6009 l
0.7388 0.6011 l
0.7397 0.6014 l
0.7405 0.6017 l
0.7414 0.6020 l
0.7422 0.6023 l
0.7431 0.6026 l
0.7439 0.6029 l
0.7448 0.6032 l
0.7456 0.6035 l
0.7465 0.6038 l
0.7474 0.6041 l
0.7482 0.6044 l
0.7491 0.6047 l
0.7499 0.6050 l
0.7508 0.6053 l
0.7516 0.6056 l
0.7525 0.6059 l
0.7533 0.6062 l
0.7542 0.6065 l
0.7551 0.6068 l
0.7559 0.6071 l
0.7568 0.6074 l
0.7576 0.6077 l
0.7585 0.6080 l
0.7593 0.6083 l
0.7602 0.6086 l
0.7611 0.6089 l
0.7619 0.6092 l
0.7628 0.6096 l
0.7636 0.6099 l
0.7645 0.6102 l
0.7653 0.6105 l
0.7662 0.6108 l
0.7670 0.6111 l
0.7679 0.6113 l
0.7688 0.6116 l
0.7696 0.6119 l
0.7705 0.6122 l
0.7713 0.6125 l
0.7722 0.6128 l
0.7730 0.6131 l
0.7739 0.6134 l
0.7747 0.6136 l
0.7756 0.6139 l
0.7765 0.6142 l
0.7773 0.6145 l
0.7782 0.6147 l
0.7790 0.6150 l
0.7799 0.6152 l
0.7807 0.6155 l
0.7816 0.6158 l
0.7825 0.6160 l
0.7833 0.6163 l
0.7842 0.6165 l
0.7850 0.6167 l
0.7859 0.6170 l
0.7867 0.6172 l
0.7876 0.6174 l
0.7884 0.6177 l
0.7893 0.6179 l
0.7902 0.6181 l
0.7910 0.6183 l
0.7919 0.6185 l
0.7927 0.6187 l
0.7936 0.6189 l
0.7944 0.6191 l
0.7953 0.6193 l
0.7961 0.6195 l
0.7970 0.6197 l
0.7979 0.6199 l
0.7987 0.6201 l
0.7996 0.6202 l
0.8004 0.6204 l
0.8013 0.6206 l
0.8021 0.6207 l
0.8030 0.6209 l
0.8039 0.6210 l
0.8047 0.6212 l
0.8056 0.6213 l
0.8064 0.6215 l
0.8073 0.6216 l
0.8081 0.6217 l
0.8090 0.6218 l
0.8098 0.6220 l
0.8107 0.6221 l
0.8116 0.6222 l
0.8124 0.6223 l
0.8133 0.6224 l
0.8141 0.6225 l
0.8150 0.6226 l
0.8158 0.6226 l
0.8167 0.6227 l
0.8175 0.6228 l
0.8184 0.6229 l
0.8193 0.6229 l
0.8201 0.6230 l
0.8210 0.6230 l
0.8218 0.6231 l
0.8227 0.6231 l
0.8235 0.6232 l
0.8244 0.6232 l
0.8253 0.6233 l
0.8261 0.6233 l
0.8270 0.6233 l
0.8278 0.6233 l
0.8287 0.6234 l
0.8295 0.6234 l
0.8304 0.6234 l
0.8312 0.6234 l
0.8321 0.6234 l
0.8330 0.6234 l
0.8338 0.6234 l
0.8347 0.6234 l
0.8355 0.6233 l
0.8364 0.6233 l
0.8372 0.6233 l
0.8381 0.6233 l
0.8389 0.6232 l
0.8398 0.6232 l
0.8407 0.6232 l
0.8415 0.6231 l
0.8424 0.6231 l
0.8432 0.6230 l
0.8441 0.6230 l
0.8449 0.6229 l
0.8458 0.6228 l
0.8467 0.6228 l
0.8475 0.6227 l
0.8484 0.6226 l
0.8492 0.6226 l
0.8501 0.6225 l
0.8509 0.6224 l
0.8518 0.6223 l
0.8526 0.6222 l
0.8535 0.6221 l
0.8544 0.6221 l
0.8552 0.6220 l
0.8561 0.6219 l
0.8569 0.6218 l
0.8578 0.6217 l
0.8586 0.6216 l
0.8595 0.6215 l
0.8603 0.6213 l
0.8612 0.6212 l
0.8621 0.6211 l
0.8629 0.6210 l
0.8638 0.6209 l
0.8646 0.6208 l
0.8655 0.6207 l
0.8663 0.6205 l
0.8672 0.6204 l
0.8681 0.6203 l
0.8689 0.6202 l
0.8698 0.6200 l
0.8706 0.6199 l
0.8715 0.6198 l
0.8723 0.6196 l
0.8732 0.6195 l
0.8740 0.6194 l
0.8749 0.6192 l
0.8758 0.6191 l
0.8766 0.6190 l
0.8775 0.6188 l
0.8783 0.6187 l
0.8792 0.6185 l
0.8800 0.6184 l
0.8809 0.6183 l
0.8817 0.6181 l
0.8826 0.6180 l
0.8835 0.6178 l
0.8843 0.6177 l
0.8852 0.6175 l
0.8860 0.6174 l
0.8869 0.6173 l
0.8877 0.6171 l
0.8886 0.6170 l
0.8895 0.6168 l
0.8903 0.6167 l
0.8912 0.6165 l
0.8920 0.6164 l
0.8929 0.6163 l
0.8937 0.6161 l
0.8946 0.6160 l
0.8954 0.6158 l
0.8963 0.6157 l
0.8972 0.6155 l
0.8980 0.6154 l
0.8989 0.6153 l
0.8997 0.6151 l
0.9006 0.6150 l
0.9014 0.6149 l
0.9023 0.6147 l
0.9031 0.6146 l
0.9040 0.6145 l
0.9049 0.6143 l
0.9057 0.6142 l
0.9066 0.6141 l
0.9074 0.6139 l
0.9083 0.6138 l
0.9091 0.6137 l
0.9100 0.6136 l
0.9109 0.6134 l
0.9117 0.6133 l
0.9126 0.6132 l
0.9134 0.6131 l
0.9143 0.6130 l
0.9151 0.6128 l
0.9160 0.6127 l
0.9168 0.6126 l
0.9177 0.6125 l
0.9186 0.6124 l
0.9194 0.6123 l
0.9203 0.6122 l
0.9211 0.6121 l
0.9220 0.6120 l
0.9228 0.6119 l
0.9237 0.6118 l
0.9245 0.6117 l
0.9254 0.6116 l
0.9263 0.6115 l
0.9271 0.6114 l
0.9280 0.6113 l
0.9288 0.6112 l
0.9297 0.6111 l
0.9305 0.6111 l
0.9314 0.6110 l
0.9323 0.6109 l
0.9331 0.6108 l
0.9340 0.6108 l
0.9348 0.6107 l
0.9357 0.6106 l
0.9365 0.6106 l
0.9374 0.6105 l
0.9382 0.6104 l
0.9391 0.6104 l
0.9400 0.6103 l
0.9408 0.6102 l
0.9417 0.6102 l
0.9425 0.6101 l
0.9434 0.6101 l
0.9442 0.6100 l
0.9451 0.6100 l
0.9459 0.6100 l
0.9468 0.6099 l
0.9477 0.6099 l
0.9485 0.6098 l
0.9494 0.6098 l
0.9502 0.6098 l
0.9511 0.6097 l
0.9519 0.6097 l
0.9528 0.6097 l
0.9537 0.6097 l
0.9545 0.6096 l
0.9554 0.6096 l
0.9562 0.6096 l
0.9571 0.6096 l
0.9579 0.6096 l
0.9588 0.6096 l
0.9596 0.6096 l
0.9605 0.6095 l
0.9614 0.6095 l
0.9622 0.6095 l
0.9631 0.6095 l
0.9639 0.6095 l
0.9648 0.6095 l
0.9656 0.6095 l
0.9665 0.6096 l
0.9673 0.6096 l
0.9682 0.6096 l
0.9691 0.6096 l
0.9699 0.6096 l
0.9708 0.6096 l
0.9716 0.6096 l
0.9725 0.6096 l
0.9733 0.6097 l
0.9742 0.6097 l
0.9751 0.6097 l
0.9759 0.6097 l
0.9768 0.6098 l
0.9776 0.6098 l
0.9785 0.6098 l
0.9793 0.6099 l
0.9802 0.6099 l
0.9810 0.6099 l
0.9819 0.6100 l
0.9828 0.6100 l
0.9836 0.6100 l
0.9845 0.6101 l
0.9853 0.6101 l
0.9862 0.6102 l
0.9870 0.6102 l
0.9879 0.6103 l
0.9887 0.6103 l
0.9896 0.6103 l
0.9905 0.6104 l
0.9913 0.6104 l
0.9922 0.6105 l
0.9930 0.6105 l
0.9939 0.6106 l
0.9947 0.6107 l
0.9956 0.6107 l
0.9965 0.6108 l
0.9973 0.6108 l
0.9982 0.6109 l
0.9990 0.6109 l
0.9999 0.6110 l
1.0007 0.6111 l
1.0016 0.6111 l
1.0024 0.6112 l
1.0033 0.6112 l
1.0042 0.6113 l
1.0050 0.6114 l
1.0059 0.6114 l
1.0067 0.6115 l
1.0076 0.6116 l
1.0084 0.6116 l
1.0093 0.6117 l
1.0101 0.6117 l
1.0110 0.6118 l
1.0119 0.6119 l
1.0127 0.6119 l
1.0136 0.6120 l
1.0144 0.6121 l
1.0153 0.6121 l
1.0161 0.6122 l
1.0170 0.6123 l
1.0179 0.6123 l
1.0187 0.6124 l
1.0196 0.6125 l
1.0204 0.6125 l
1.0213 0.6126 l
1.0221 0.6127 l
1.0230 0.6127 l
1.0238 0.6128 l
1.0247 0.6129 l
1.0256 0.6129 l
1.0264 0.6130 l
1.0273 0.6131 l
1.0281 0.6131 l
1.0290 0.6132 l
1.0298 0.6133 l
1.0307 0.6133 l
1.0315 0.6134 l
1.0324 0.6135 l
1.0333 0.6135 l
1.0341 0.6136 l
1.0350 0.6137 l
1.0358 0.6137 l
1.0367 0.6138 l
1.0375 0.6138 l
1.0384 0.6139 l
s
[/DeviceRGB] SCS
Color1 SC
[] 0 SD
0.0030 SLW
n
0.1832 0.2014 m
0.1841 0.2035 l
0.1850 0.2058 l
0.1858 0.2082 l
0.1867 0.2108 l
0.1875 0.2135 l
0.1884 0.2164 l
0.1892 0.2195 l
0.1901 0.2227 l
0.1910 0.2260 l
0.1918 0.2294 l
0.1927 0.2330 l
0.1935 0.2368 l
0.1944 0.2406 l
0.1952 0.2446 l
0.1961 0.2487 l
0.1969 0.2530 l
0.1978 0.2573 l
0.1987 0.2618 l
0.1995 0.2663 l
0.2004 0.2710 l
0.2012 0.2758 l
0.2021 0.2807 l
0.2029 0.2857 l
0.2038 0.2907 l
0.2046 0.2959 l
0.2055 0.3012 l
0.2064 0.3065 l
0.2072 0.3119 l
0.2081 0.3174 l
0.2089 0.3230 l
0.2098 0.3287 l
0.2106 0.3344 l
0.2115 0.3402 l
0.2124 0.3460 l
0.2132 0.3519 l
0.2141 0.3579 l
0.2149 0.3639 l
0.2158 0.3700 l
0.2166 0.3761 l
0.2175 0.3823 l
0.2183 0.3885 l
0.2192 0.3948 l
0.2201 0.4010 l
0.2209 0.4074 l
0.2218 0.4137 l
0.2226 0.4201 l
0.2235 0.4264 l
0.2243 0.4329 l
0.2252 0.4393 l
0.2260 0.4457 l
0.2269 0.4522 l
0.2278 0.4586 l
0.2286 0.4651 l
0.2295 0.4715 l
0.2303 0.4780 l
0.2312 0.4845 l
0.2320 0.4909 l
0.2329 0.4974 l
0.2338 0.5038 l
0.2346 0.5102 l
0.2355 0.5166 l
0.2363 0.5230 l
0.2372 0.5293 l
0.2380 0.5357 l
0.2389 0.5420 l
0.2397 0.5482 l
0.2406 0.5545 l
0.2415 0.5607 l
0.2423 0.5668 l
0.2432 0.5730 l
0.2440 0.5790 l
0.2449 0.5851 l
0.2457 0.5911 l
0.2466 0.5970 l
0.2474 0.6029 l
0.2483 0.6087 l
0.2492 0.6145 l
0.2500 0.6202 l
0.2509 0.6259 l
0.2517 0.6315 l
0.2526 0.6370 l
0.2534 0.6425 l
0.2543 0.6479 l
0.2552 0.6533 l
0.2560 0.6585 l
0.2569 0.6637 l
0.2577 0.6689 l
0.2586 0.6739 l
0.2594 0.6789 l
0.2603 0.6838 l
0.2611 0.6886 l
0.2620 0.6934 l
0.2629 0.6980 l
0.2637 0.7026 l
0.2646 0.7071 l
0.2654 0.7115 l
0.2663 0.7158 l
0.2671 0.7200 l
0.2680 0.7242 l
0.2688 0.7282 l
0.2697 0.7322 l
0.2706 0.7361 l
0.2714 0.7399 l
0.2723 0.7435 l
0.2731 0.7471 l
0.2740 0.7506 l
0.2748 0.7541 l
0.2757 0.7574 l
0.2766 0.7606 l
0.2774 0.7637 l
0.2783 0.7667 l
0.2791 0.7697 l
0.2800 0.7725 l
0.2808 0.7752 l
0.2817 0.7778 l
0.2825 0.7804 l
0.2834 0.7828 l
0.2843 0.7852 l
0.2851 0.7874 l
0.2860 0.7895 l
0.2868 0.7916 l
0.2877 0.7935 l
0.2885 0.7954 l
0.2894 0.7971 l
0.2902 0.7988 l
0.2911 0.8003 l
0.2920 0.8018 l
0.2928 0.8032 l
0.2937 0.8044 l
0.2945 0.8056 l
0.2954 0.8067 l
0.2962 0.8076 l
0.2971 0.8085 l
0.2980 0.8093 l
0.2988 0.8100 l
0.2997 0.8106 l
0.3005 0.8111 l
0.3014 0.8115 l
0.3022 0.8119 l
0.3031 0.8121 l
0.3039 0.8122 l
0.3048 0.8123 l
0.3057 0.8123 l
0.3065 0.8122 l
0.3074 0.8120 l
0.3082 0.8117 l
0.3091 0.8113 l
0.3099 0.8108 l
0.3108 0.8103 l
0.3116 0.8097 l
0.3125 0.8090 l
0.3134 0.8082 l
0.3142 0.8074 l
0.3151 0.8064 l
0.3159 0.8054 l
0.3168 0.8043 l
0.3176 0.8032 l
0.3185 0.8020 l
0.3194 0.8007 l
0.3202 0.7993 l
0.3211 0.7979 l
0.3219 0.7964 l
0.3228 0.7948 l
0.3236 0.7932 l
0.3245 0.7915 l
0.3253 0.7897 l
0.3262 0.7879 l
0.3271 0.7860 l
0.3279 0.7841 l
0.3288 0.7821 l
0.3296 0.7801 l
0.3305 0.7780 l
0.3313 0.7759 l
0.3322 0.7737 l
0.3330 0.7714 l
0.3339 0.7691 l
0.3348 0.7668 l
0.3356 0.7644 l
0.3365 0.7620 l
0.3373 0.7595 l
0.3382 0.7570 l
0.3390 0.7545 l
0.3399 0.7519 l
0.3408 0.7493 l
0.3416 0.7466 l
0.3425 0.7440 l
0.3433 0.7413 l
0.3442 0.7385 l
0.3450 0.7358 l
0.3459 0.7330 l
0.3467 0.7301 l
0.3476 0.7273 l
0.3485 0.7244 l
0.3493 0.7216 l
0.3502 0.7186 l
0.3510 0.7157 l
0.3519 0.7128 l
0.3527 0.7098 l
0.3536 0.7069 l
0.3544 0.7039 l
0.3553 0.7009 l
0.3562 0.6979 l
0.3570 0.6949 l
0.3579 0.6919 l
0.3587 0.6889 l
0.3596 0.6859 l
0.3604 0.6829 l
0.3613 0.6799 l
0.3622 0.6768 l
0.3630 0.6738 l
0.3639 0.6708 l
0.3647 0.6678 l
0.3656 0.6648 l
0.3664 0.6618 l
0.3673 0.6588 l
0.3681 0.6558 l
0.3690 0.6529 l
0.3699 0.6499 l
0.3707 0.6470 l
0.3716 0.6441 l
0.3724 0.6412 l
0.3733 0.6383 l
0.3741 0.6354 l
0.3750 0.6325 l
0.3758 0.6297 l
0.3767 0.6269 l
0.3776 0.6241 l
0.3784 0.6213 l
0.3793 0.6186 l
0.3801 0.6158 l
0.3810 0.6132 l
0.3818 0.6105 l
0.3827 0.6078 l
0.3836 0.6052 l
0.3844 0.6027 l
0.3853 0.6001 l
0.3861 0.5976 l
0.3870 0.5951 l
0.3878 0.5926 l
0.3887 0.5902 l
0.3895 0.5878 l
0.3904 0.5855 l
0.3913 0.5832 l
0.3921 0.5809 l
0.3930 0.5786 l
0.3938 0.5764 l
0.3947 0.5743 l
0.3955 0.5721 l
0.3964 0.5700 l
0.3972 0.5680 l
0.3981 0.5660 l
0.3990 0.5640 l
0.3998 0.5621 l
0.4007 0.5602 l
0.4015 0.5584 l
0.4024 0.5566 l
0.4032 0.5548 l
0.4041 0.5531 l
0.4050 0.5514 l
0.4058 0.5498 l
0.4067 0.5482 l
0.4075 0.5467 l
0.4084 0.5452 l
0.4092 0.5437 l
0.4101 0.5423 l
0.4109 0.5410 l
0.4118 0.5397 l
0.4127 0.5384 l
0.4135 0.5372 l
0.4144 0.5360 l
0.4152 0.5349 l
0.4161 0.5338 l
0.4169 0.5327 l
0.4178 0.5317 l
0.4186 0.5308 l
0.4195 0.5299 l
0.4204 0.5290 l
0.4212 0.5282 l
0.4221 0.5275 l
0.4229 0.5268 l
0.4238 0.5261 l
0.4246 0.5255 l
0.4255 0.5249 l
0.4264 0.5243 l
0.4272 0.5238 l
0.4281 0.5234 l
0.4289 0.5230 l
0.4298 0.5226 l
0.4306 0.5223 l
0.4315 0.5220 l
0.4323 0.5218 l
0.4332 0.5216 l
0.4341 0.5215 l
0.4349 0.5214 l
0.4358 0.5213 l
0.4366 0.5213 l
0.4375 0.5213 l
0.4383 0.5214 l
0.4392 0.5215 l
0.4400 0.5216 l
0.4409 0.5218 l
0.4418 0.5220 l
0.4426 0.5223 l
0.4435 0.5226 l
0.4443 0.5229 l
0.4452 0.5233 l
0.4460 0.5237 l
0.4469 0.5241 l
0.4478 0.5246 l
0.4486 0.5251 l
0.4495 0.5257 l
0.4503 0.5263 l
0.4512 0.5269 l
0.4520 0.5275 l
0.4529 0.5282 l
0.4537 0.5289 l
0.4546 0.5296 l
0.4555 0.5304 l
0.4563 0.5312 l
0.4572 0.5320 l
0.4580 0.5329 l
0.4589 0.5337 l
0.4597 0.5347 l
0.4606 0.5356 l
0.4614 0.5365 l
0.4623 0.5375 l
0.4632 0.5385 l
0.4640 0.5396 l
0.4649 0.5406 l
0.4657 0.5417 l
0.4666 0.5428 l
0.4674 0.5439 l
0.4683 0.5450 l
0.4692 0.5462 l
0.4700 0.5474 l
0.4709 0.5485 l
0.4717 0.5498 l
0.4726 0.5510 l
0.4734 0.5522 l
0.4743 0.5535 l
0.4751 0.5547 l
0.4760 0.5560 l
0.4769 0.5573 l
0.4777 0.5586 l
0.4786 0.5599 l
0.4794 0.5613 l
0.4803 0.5626 l
0.4811 0.5640 l
0.4820 0.5653 l
0.4828 0.5667 l
0.4837 0.5680 l
0.4846 0.5694 l
0.4854 0.5708 l
0.4863 0.5722 l
0.4871 0.5736 l
0.4880 0.5750 l
0.4888 0.5764 l
0.4897 0.5778 l
0.4906 0.5792 l
0.4914 0.5806 l
0.4923 0.5820 l
0.4931 0.5834 l
0.4940 0.5848 l
0.4948 0.5863 l
0.4957 0.5877 l
0.4965 0.5891 l
0.4974 0.5905 l
0.4983 0.5919 l
0.4991 0.5933 l
0.5000 0.5946 l
0.5008 0.5960 l
0.5017 0.5974 l
0.5025 0.5988 l
0.5034 0.6001 l
0.5042 0.6015 l
0.5051 0.6029 l
0.5060 0.6042 l
0.5068 0.6055 l
0.5077 0.6068 l
0.5085 0.6082 l
0.5094 0.6095 l
0.5102 0.6108 l
0.5111 0.6120 l
0.5120 0.6133 l
0.5128 0.6146 l
0.5137 0.6158 l
0.5145 0.6170 l
0.5154 0.6182 l
0.5162 0.6195 l
0.5171 0.6206 l
0.5179 0.6218 l
0.5188 0.6230 l
0.5197 0.6241 l
0.5205 0.6252 l
0.5214 0.6264 l
0.5222 0.6275 l
0.5231 0.6285 l
0.5239 0.6296 l
0.5248 0.6306 l
0.5256 0.6317 l
0.5265 0.6327 l
0.5274 0.6337 l
0.5282 0.6346 l
0.5291 0.6356 l
0.5299 0.6365 l
0.5308 0.6374 l
0.5316 0.6383 l
0.5325 0.6392 l
0.5334 0.6401 l
0.5342 0.6409 l
0.5351 0.6417 l
0.5359 0.6425 l
0.5368 0.6433 l
0.5376 0.6441 l
0.5385 0.6448 l
0.5393 0.6455 l
0.5402 0.6462 l
0.5411 0.6469 l
0.5419 0.6475 l
0.5428 0.6481 l
0.5436 0.6488 l
0.5445 0.6493 l
0.5453 0.6499 l
0.5462 0.6505 l
0.5471 0.6510 l
0.5479 0.6515 l
0.5488 0.6520 l
0.5496 0.6524 l
0.5505 0.6529 l
0.5513 0.6533 l
0.5522 0.6537 l
0.5530 0.6540 l
0.5539 0.6544 l
0.5548 0.6547 l
0.5556 0.6550 l
0.5565 0.6553 l
0.5573 0.6556 l
0.5582 0.6558 l
0.5590 0.6561 l
0.5599 0.6563 l
0.5607 0.6564 l
0.5616 0.6566 l
0.5625 0.6568 l
0.5633 0.6569 l
0.5642 0.6570 l
0.5650 0.6571 l
0.5659 0.6571 l
0.5667 0.6572 l
0.5676 0.6572 l
0.5684 0.6572 l
0.5693 0.6572 l
0.5702 0.6572 l
0.5710 0.6571 l
0.5719 0.6570 l
0.5727 0.6569 l
0.5736 0.6568 l
0.5744 0.6567 l
0.5753 0.6566 l
0.5762 0.6564 l
0.5770 0.6562 l
0.5779 0.6560 l
0.5787 0.6558 l
0.5796 0.6556 l
0.5804 0.6554 l
0.5813 0.6551 l
0.5821 0.6548 l
0.5830 0.6546 l
0.5839 0.6542 l
0.5847 0.6539 l
0.5856 0.6536 l
0.5864 0.6532 l
0.5873 0.6529 l
0.5881 0.6525 l
0.5890 0.6521 l
0.5899 0.6517 l
0.5907 0.6513 l
0.5916 0.6509 l
0.5924 0.6505 l
0.5933 0.6500 l
0.5941 0.6495 l
0.5950 0.6491 l
0.5958 0.6486 l
0.5967 0.6481 l
0.5976 0.6476 l
0.5984 0.6471 l
0.5993 0.6466 l
0.6001 0.6460 l
0.6010 0.6455 l
0.6018 0.6449 l
0.6027 0.6444 l
0.6035 0.6438 l
0.6044 0.6432 l
0.6053 0.6427 l
0.6061 0.6421 l
0.6070 0.6415 l
0.6078 0.6409 l
0.6087 0.6403 l
0.6095 0.6397 l
0.6104 0.6390 l
0.6112 0.6384 l
0.6121 0.6378 l
0.6130 0.6372 l
0.6138 0.6365 l
0.6147 0.6359 l
0.6155 0.6352 l
0.6164 0.6346 l
0.6172 0.6340 l
0.6181 0.6333 l
0.6190 0.6327 l
0.6198 0.6320 l
0.6207 0.6313 l
0.6215 0.6307 l
0.6224 0.6300 l
0.6232 0.6294 l
0.6241 0.6287 l
0.6249 0.6281 l
0.6258 0.6274 l
0.6267 0.6267 l
0.6275 0.6261 l
0.6284 0.6254 l
0.6292 0.6248 l
0.6301 0.6241 l
0.6309 0.6235 l
0.6318 0.6228 l
0.6327 0.6222 l
0.6335 0.6215 l
0.6344 0.6209 l
0.6352 0.6203 l
0.6361 0.6196 l
0.6369 0.6190 l
0.6378 0.6184 l
0.6386 0.6178 l
0.6395 0.6171 l
0.6404 0.6165 l
0.6412 0.6159 l
0.6421 0.6153 l
0.6429 0.6147 l
0.6438 0.6141 l
0.6446 0.6135 l
0.6455 0.6130 l
0.6463 0.6124 l
0.6472 0.6118 l
0.6481 0.6113 l
0.6489 0.6107 l
0.6498 0.6102 l
0.6506 0.6096 l
0.6515 0.6091 l
0.6523 0.6086 l
0.6532 0.6080 l
0.6540 0.6075 l
0.6549 0.6070 l
0.6558 0.6065 l
0.6566 0.6061 l
0.6575 0.6056 l
0.6583 0.6051 l
0.6592 0.6046 l
0.6600 0.6042 l
0.6609 0.6037 l
0.6618 0.6033 l
0.6626 0.6029 l
0.6635 0.6025 l
0.6643 0.6021 l
0.6652 0.6017 l
0.6660 0.6013 l
0.6669 0.6009 l
0.6677 0.6005 l
0.6686 0.6002 l
0.6695 0.5998 l
0.6703 0.5995 l
0.6712 0.5991 l
0.6720 0.5988 l
0.6729 0.5985 l
0.6737 0.5982 l
0.6746 0.5979 l
0.6755 0.5976 l
0.6763 0.5974 l
0.6772 0.5971 l
0.6780 0.5968 l
0.6789 0.5966 l
0.6797 0.5964 l
0.6806 0.5961 l
0.6814 0.5959 l
0.6823 0.5957 l
0.6832 0.5955 l
0.6840 0.5954 l
0.6849 0.5952 l
0.6857 0.5950 l
0.6866 0.5949 l
0.6874 0.5947 l
0.6883 0.5946 l
0.6891 0.5945 l
0.6900 0.5944 l
0.6909 0.5943 l
0.6917 0.5942 l
0.6926 0.5941 l
0.6934 0.5940 l
0.6943 0.5939 l
0.6951 0.5939 l
0.6960 0.5938 l
0.6969 0.5938 l
0.6977 0.5938 l
0.6986 0.5938 l
0.6994 0.5937 l
0.7003 0.5937 l
0.7011 0.5937 l
0.7020 0.5938 l
0.7028 0.5938 l
0.7037 0.5938 l
0.7046 0.5939 l
0.7054 0.5939 l
0.7063 0.5940 l
0.7071 0.5940 l
0.7080 0.5941 l
0.7088 0.5942 l
0.7097 0.5943 l
0.7105 0.5944 l
0.7114 0.5945 l
0.7123 0.5946 l
0.7131 0.5947 l
0.7140 0.5949 l
0.7148 0.5950 l
0.7157 0.5951 l
0.7165 0.5953 l
0.7174 0.5955 l
0.7183 0.5956 l
0.7191 0.5958 l
0.7200 0.5960 l
0.7208 0.5961 l
0.7217 0.5963 l
0.7225 0.5965 l
0.7234 0.5967 l
0.7242 0.5969 l
0.7251 0.5971 l
0.7260 0.5974 l
0.7268 0.5976 l
0.7277 0.5978 l
0.7285 0.5980 l
0.7294 0.5983 l
0.7302 0.5985 l
0.7311 0.5988 l
0.7319 0.5990 l
0.7328 0.5993 l
0.7337 0.5995 l
0.7345 0.5998 l
0.7354 0.6000 l
0.7362 0.6003 l
0.7371 0.6006 l
0.7379 0.6009 l
0.7388 0.6011 l
0.7397 0.6014 l
0.7405 0.6017 l
0.7414 0.6020 l
0.7422 0.6023 l
0.7431 0.6026 l
0.7439 0.6029 l
0.7448 0.6032 l
0.7456 0.6035 l
0.7465 0.6038 l
0.7474 0.6041 l
0.7482 0.6044 l
0.7491 0.6047 l
0.7499 0.6050 l
0.7508 0.6053 l
0.7516 0.6056 l
0.7525 0.6059 l
0.7533 0.6062 l
0.7542 0.6065 l
0.7551 0.6068 l
0.7559 0.6071 l
0.7568 0.6074 l
0.7576 0.6077 l
0.7585 0.6080 l
0.7593 0.6083 l
0.7602 0.6086 l
0.7611 0.6089 l
0.7619 0.6092 l
0.7628 0.6096 l
0.7636 0.6099 l
0.7645 0.6102 l
0.7653 0.6105 l
0.7662 0.6108 l
0.7670 0.6111 l
0.7679 0.6113 l
0.7688 0.6116 l
0.7696 0.6119 l
0.7705 0.6122 l
0.7713 0.6125 l
0.7722 0.6128 l
0.7730 0.6131 l
0.7739 0.6134 l
0.7747 0.6136 l
0.7756 0.6139 l
0.7765 0.6142 l
0.7773 0.6145 l
0.7782 0.6147 l
0.7790 0.6150 l
0.7799 0.6152 l
0.7807 0.6155 l
0.7816 0.6158 l
0.7825 0.6160 l
0.7833 0.6163 l
0.7842 0.6165 l
0.7850 0.6167 l
0.7859 0.6170 l
0.7867 0.6172 l
0.7876 0.6174 l
0.7884 0.6177 l
0.7893 0.6179 l
0.7902 0.6181 l
0.7910 0.6183 l
0.7919 0.6185 l
0.7927 0.6187 l
0.7936 0.6189 l
0.7944 0.6191 l
0.7953 0.6193 l
0.7961 0.6195 l
0.7970 0.6197 l
0.7979 0.6199 l
0.7987 0.6201 l
0.7996 0.6202 l
0.8004 0.6204 l
0.8013 0.6206 l
0.8021 0.6207 l
0.8030 0.6209 l
0.8039 0.6210 l
0.8047 0.6212 l
0.8056 0.6213 l
0.8064 0.6215 l
0.8073 0.6216 l
0.8081 0.6217 l
0.8090 0.6218 l
0.8098 0.6220 l
0.8107 0.6221 l
0.8116 0.6222 l
0.8124 0.6223 l
0.8133 0.6224 l
0.8141 0.6225 l
0.8150 0.6226 l
0.8158 0.6226 l
0.8167 0.6227 l
0.8175 0.6228 l
0.8184 0.6229 l
0.8193 0.6229 l
0.8201 0.6230 l
0.8210 0.6230 l
0.8218 0.6231 l
0.8227 0.6231 l
0.8235 0.6232 l
0.8244 0.6232 l
0.8253 0.6233 l
0.8261 0.6233 l
0.8270 0.6233 l
0.8278 0.6233 l
0.8287 0.6234 l
0.8295 0.6234 l
0.8304 0.6234 l
0.8312 0.6234 l
0.8321 0.6234 l
0.8330 0.6234 l
0.8338 0.6234 l
0.8347 0.6234 l
0.8355 0.6233 l
0.8364 0.6233 l
0.8372 0.6233 l
0.8381 0.6233 l
0.8389 0.6232 l
0.8398 0.6232 l
0.8407 0.6232 l
0.8415 0.6231 l
0.8424 0.6231 l
0.8432 0.6230 l
0.8441 0.6230 l
0.8449 0.6229 l
0.8458 0.6228 l
0.8467 0.6228 l
0.8475 0.6227 l
0.8484 0.6226 l
0.8492 0.6226 l
0.8501 0.6225 l
0.8509 0.6224 l
0.8518 0.6223 l
0.8526 0.6222 l
0.8535 0.6221 l
0.8544 0.6221 l
0.8552 0.6220 l
0.8561 0.6219 l
0.8569 0.6218 l
0.8578 0.6217 l
0.8586 0.6216 l
0.8595 0.6215 l
0.8603 0.6213 l
0.8612 0.6212 l
0.8621 0.6211 l
0.8629 0.6210 l
0.8638 0.6209 l
0.8646 0.6208 l
0.8655 0.6207 l
0.8663 0.6205 l
0.8672 0.6204 l
0.8681 0.6203 l
0.8689 0.6202 l
0.8698 0.6200 l
0.8706 0.6199 l
0.8715 0.6198 l
0.8723 0.6196 l
0.8732 0.6195 l
0.8740 0.6194 l
0.8749 0.6192 l
0.8758 0.6191 l
0.8766 0.6190 l
0.8775 0.6188 l
0.8783 0.6187 l
0.8792 0.6185 l
0.8800 0.6184 l
0.8809 0.6183 l
0.8817 0.6181 l
0.8826 0.6180 l
0.8835 0.6178 l
0.8843 0.6177 l
0.8852 0.6175 l
0.8860 0.6174 l
0.8869 0.6173 l
0.8877 0.6171 l
0.8886 0.6170 l
0.8895 0.6168 l
0.8903 0.6167 l
0.8912 0.6165 l
0.8920 0.6164 l
0.8929 0.6163 l
0.8937 0.6161 l
0.8946 0.6160 l
0.8954 0.6158 l
0.8963 0.6157 l
0.8972 0.6155 l
0.8980 0.6154 l
0.8989 0.6153 l
0.8997 0.6151 l
0.9006 0.6150 l
0.9014 0.6149 l
0.9023 0.6147 l
0.9031 0.6146 l
0.9040 0.6145 l
0.9049 0.6143 l
0.9057 0.6142 l
0.9066 0.6141 l
0.9074 0.6139 l
0.9083 0.6138 l
0.9091 0.6137 l
0.9100 0.6136 l
0.9109 0.6134 l
0.9117 0.6133 l
0.9126 0.6132 l
0.9134 0.6131 l
0.9143 0.6130 l
0.9151 0.6128 l
0.9160 0.6127 l
0.9168 0.6126 l
0.9177 0.6125 l
0.9186 0.6124 l
0.9194 0.6123 l
0.9203 0.6122 l
0.9211 0.6121 l
0.9220 0.6120 l
0.9228 0.6119 l
0.9237 0.6118 l
0.9245 0.6117 l
0.9254 0.6116 l
0.9263 0.6115 l
0.9271 0.6114 l
0.9280 0.6113 l
0.9288 0.6112 l
0.9297 0.6111 l
0.9305 0.6111 l
0.9314 0.6110 l
0.9323 0.6109 l
0.9331 0.6108 l
0.9340 0.6108 l
0.9348 0.6107 l
0.9357 0.6106 l
0.9365 0.6106 l
0.9374 0.6105 l
0.9382 0.6104 l
0.9391 0.6104 l
0.9400 0.6103 l
0.9408 0.6102 l
0.9417 0.6102 l
0.9425 0.6101 l
0.9434 0.6101 l
0.9442 0.6100 l
0.9451 0.6100 l
0.9459 0.6100 l
0.9468 0.6099 l
0.9477 0.6099 l
0.9485 0.6098 l
0.9494 0.6098 l
0.9502 0.6098 l
0.9511 0.6097 l
0.9519 0.6097 l
0.9528 0.6097 l
0.9537 0.6097 l
0.9545 0.6096 l
0.9554 0.6096 l
0.9562 0.6096 l
0.9571 0.6096 l
0.9579 0.6096 l
0.9588 0.6096 l
0.9596 0.6096 l
0.9605 0.6095 l
0.9614 0.6095 l
0.9622 0.6095 l
0.9631 0.6095 l
0.9639 0.6095 l
0.9648 0.6095 l
0.9656 0.6095 l
0.9665 0.6096 l
0.9673 0.6096 l
0.9682 0.6096 l
0.9691 0.6096 l
0.9699 0.6096 l
0.9708 0.6096 l
0.9716 0.6096 l
0.9725 0.6096 l
0.9733 0.6097 l
0.9742 0.6097 l
0.9751 0.6097 l
0.9759 0.6097 l
0.9768 0.6098 l
0.9776 0.6098 l
0.9785 0.6098 l
0.9793 0.6099 l
0.9802 0.6099 l
0.9810 0.6099 l
0.9819 0.6100 l
0.9828 0.6100 l
0.9836 0.6100 l
0.9845 0.6101 l
0.9853 0.6101 l
0.9862 0.6102 l
0.9870 0.6102 l
0.9879 0.6103 l
0.9887 0.6103 l
0.9896 0.6103 l
0.9905 0.6104 l
0.9913 0.6104 l
0.9922 0.6105 l
0.9930 0.6105 l
0.9939 0.6106 l
0.9947 0.6107 l
0.9956 0.6107 l
0.9965 0.6108 l
0.9973 0.6108 l
0.9982 0.6109 l
0.9990 0.6109 l
0.9999 0.6110 l
1.0007 0.6111 l
1.0016 0.6111 l
1.0024 0.6112 l
1.0033 0.6112 l
1.0042 0.6113 l
1.0050 0.6114 l
1.0059 0.6114 l
1.0067 0.6115 l
1.0076 0.6116 l
1.0084 0.6116 l
1.0093 0.6117 l
1.0101 0.6117 l
1.0110 0.6118 l
1.0119 0.6119 l
1.0127 0.6119 l
1.0136 0.6120 l
1.0144 0.6121 l
1.0153 0.6121 l
1.0161 0.6122 l
1.0170 0.6123 l
1.0179 0.6123 l
1.0187 0.6124 l
1.0196 0.6125 l
1.0204 0.6125 l
1.0213 0.6126 l
1.0221 0.6127 l
1.0230 0.6127 l
1.0238 0.6128 l
1.0247 0.6129 l
1.0256 0.6129 l
1.0264 0.6130 l
1.0273 0.6131 l
1.0281 0.6131 l
1.0290 0.6132 l
1.0298 0.6133 l
1.0307 0.6133 l
1.0315 0.6134 l
1.0324 0.6135 l
1.0333 0.6135 l
1.0341 0.6136 l
1.0350 0.6137 l
1.0358 0.6137 l
1.0367 0.6138 l
1.0375 0.6138 l
1.0384 0.6139 l
s
n
0.2688 0.1500 m
0.2688 0.1700 l
s
n
0.2688 0.8500 m
0.2688 0.8300 l
s
n
0.4398 0.1500 m
0.4398 0.1700 l
s
n
0.4398 0.8500 m
0.4398 0.8300 l
s
n
0.6108 0.1500 m
0.6108 0.1700 l
s
n
0.6108 0.8500 m
0.6108 0.8300 l
s
n
0.7819 0.1500 m
0.7819 0.1700 l
s
n
0.7819 0.8500 m
0.7819 0.8300 l
s
n
0.9529 0.1500 m
0.9529 0.1700 l
s
n
0.9529 0.8500 m
0.9529 0.8300 l
s
n
0.1832 0.1500 m
0.1832 0.1800 l
s
n
0.1832 0.8500 m
0.1832 0.8200 l
s
n
0.3543 0.1500 m
0.3543 0.1800 l
s
n
0.3543 0.8500 m
0.3543 0.8200 l
s
n
0.5253 0.1500 m
0.5253 0.1800 l
s
n
0.5253 0.8500 m
0.5253 0.8200 l
s
n
0.6963 0.1500 m
0.6963 0.1800 l
s
n
0.6963 0.8500 m
0.6963 0.8200 l
s
n
0.8674 0.1500 m
0.8674 0.1800 l
s
n
0.8674 0.8500 m
0.8674 0.8200 l
s
n
1.0384 0.1500 m
1.0384 0.1800 l
s
n
1.0384 0.8500 m
1.0384 0.8200 l
s
/Helvetica findfont
dup length dict begin
 {1 index /FID ne {def} {pop pop} ifelse} forall
 /Encoding DefEncoding def
 currentdict
end
/Font12 exch definefont pop
/Font12 FFSF
0.1724 0.1104 m
GS
[0.0420 0.0000 0.0000 0.0420 0 0] CC
(0) show
GR
/Font12 FFSF
0.3319 0.1104 m
GS
[0.0420 0.0000 0.0000 0.0420 0 0] CC
(10) show
GR
/Font12 FFSF
0.5029 0.1104 m
GS
[0.0420 0.0000 0.0000 0.0420 0 0] CC
(20) show
GR
/Font12 FFSF
0.6739 0.1104 m
GS
[0.0420 0.0000 0.0000 0.0420 0 0] CC
(30) show
GR
/Font12 FFSF
0.8450 0.1104 m
GS
[0.0420 0.0000 0.0000 0.0420 0 0] CC
(40) show
GR
/Font12 FFSF
1.0160 0.1104 m
GS
[0.0420 0.0000 0.0000 0.0420 0 0] CC
(50) show
GR
/Font12 FFSF
0.5762 0.0688 m
GS
[0.0420 0.0000 0.0000 0.0420 0 0] CC
(t \(s\)) show
GR
n
0.1832 0.2083 m
0.2032 0.2083 l
s
n
1.0384 0.2083 m
1.0184 0.2083 l
s
n
0.1832 0.3250 m
0.2032 0.3250 l
s
n
1.0384 0.3250 m
1.0184 0.3250 l
s
n
0.1832 0.4416 m
0.2032 0.4416 l
s
n
1.0384 0.4416 m
1.0184 0.4416 l
s
n
0.1832 0.5583 m
0.2032 0.5583 l
s
n
1.0384 0.5583 m
1.0184 0.5583 l
s
n
0.1832 0.6750 m
0.2032 0.6750 l
s
n
1.0384 0.6750 m
1.0184 0.6750 l
s
n
0.1832 0.7916 m
0.2032 0.7916 l
s
n
1.0384 0.7916 m
1.0184 0.7916 l
s
n
0.1832 0.1500 m
0.2132 0.1500 l
s
n
1.0384 0.1500 m
1.0084 0.1500 l
s
n
0.1832 0.2667 m
0.2132 0.2667 l
s
n
1.0384 0.2667 m
1.0084 0.2667 l
s
n
0.1832 0.3833 m
0.2132 0.3833 l
s
n
1.0384 0.3833 m
1.0084 0.3833 l
s
n
0.1832 0.5000 m
0.2132 0.5000 l
s
n
1.0384 0.5000 m
1.0084 0.5000 l
s
n
0.1832 0.6166 m
0.2132 0.6166 l
s
n
1.0384 0.6166 m
1.0084 0.6166 l
s
n
0.1832 0.7333 m
0.2132 0.7333 l
s
n
1.0384 0.7333 m
1.0084 0.7333 l
s
n
0.1832 0.8500 m
0.2132 0.8500 l
s
n
1.0384 0.8500 m
1.0084 0.8500 l
s
/Font12 FFSF
0.0560 0.1356 m
GS
[0.0420 0.0000 0.0000 0.0420 0 0] CC
(-0.200) show
GR
/Font12 FFSF
0.0560 0.2523 m
GS
[0.0420 0.0000 0.0000 0.0420 0 0] CC
(-0.150) show
GR
/Font12 FFSF
0.0560 0.3689 m
GS
[0.0420 0.0000 0.0000 0.0420 0 0] CC
(-0.100) show
GR
/Font12 FFSF
0.0560 0.4856 m
GS
[0.0420 0.0000 0.0000 0.0420 0 0] CC
(-0.050) show
GR
/Font12 FFSF
0.0700 0.6022 m
GS
[0.0420 0.0000 0.0000 0.0420 0 0] CC
(0.000) show
GR
/Font12 FFSF
0.0700 0.7189 m
GS
[0.0420 0.0000 0.0000 0.0420 0 0] CC
(0.050) show
GR
/Font12 FFSF
0.0700 0.8356 m
GS
[0.0420 0.0000 0.0000 0.0420 0 0] CC
(0.100) show
GR
/Font12 FFSF
0.0372 0.4526 m
GS
[0.0000 0.0420 -0.0420 0.0000 0 0] CC
(a \(m\)) show
GR
n
0.1832 0.1500 m
0.1832 0.8500 l
1.0384 0.8500 l
1.0384 0.1500 l
0.1832 0.1500 l
c
s
%%Trailer
%%BoundingBox: 2 34 638 521
%%DocumentNeededResources: font Helvetica
%%EOF
