%!PS-Adobe-3.0 EPSF-3.0
%%BoundingBox: (atend)
%%LanguageLevel: 2
%%Creator: Grace-5.1.22
%%CreationDate: Sun Nov  9 23:13:35 2014
%%DocumentData: Clean8Bit
%%Orientation: Portrait
%%Title: fit-gph-2.agr
%%For: wfr
%%DocumentNeededResources: (atend)
%%EndComments
%%BeginProlog
/m {moveto} def
/l {lineto} def
/s {stroke} def
/n {newpath} def
/c {closepath} def
/RL {rlineto} def
/SLW {setlinewidth} def
/GS {gsave} def
/GR {grestore} def
/SC {setcolor} def
/SGRY {setgray} def
/SRGB {setrgbcolor} def
/SD {setdash} def
/SLC {setlinecap} def
/SLJ {setlinejoin} def
/SCS {setcolorspace} def
/FFSF {findfont setfont} def
/CC {concat} def
/PXL {n m 0 0 RL s} def
/Color0 {1.0000 1.0000 1.0000} def
/Color1 {0.0000 0.0000 0.0000} def
/Color2 {1.0000 0.0000 0.0000} def
/Color3 {0.0000 1.0000 0.0000} def
/Color4 {0.0000 0.0000 1.0000} def
/Color5 {1.0000 1.0000 0.0000} def
/Color6 {0.7373 0.5608 0.5608} def
/Color7 {0.8627 0.8627 0.8627} def
/Color8 {0.5804 0.0000 0.8275} def
/Color9 {0.0000 1.0000 1.0000} def
/Color10 {1.0000 0.0000 1.0000} def
/Color11 {1.0000 0.6471 0.0000} def
/Color12 {0.4471 0.1294 0.7373} def
/Color13 {0.4039 0.0275 0.2824} def
/Color14 {0.2510 0.8784 0.8157} def
/Color15 {0.0000 0.5451 0.0000} def
/PTRN {
 /pat_bits exch def 
 <<
  /PaintType 2
  /PatternType 1 /TilingType 1
  /BBox[0 0 16 16]
  /XStep 16 /YStep 16
  /PaintProc {
   pop
   16 16 true [-1 0 0 -1 16 16] pat_bits imagemask
  }
 >>
 [0.0017 0 0 0.0017 0 0]
 makepattern
} def
/Pattern0 {<0000000000000000000000000000000000000000000000000000000000000000> PTRN} bind def
/Pattern1 {<ffffffffffffffffffffffffffffffffffffffffffffffffffffffffffffffff> PTRN} bind def
/Pattern2 {<eeeeffffbbbbffffeeeeffffbbbbffffeeeeffffbbbbffffeeeeffffbbbbffff> PTRN} bind def
/Pattern3 {<eeeebbbbeeeebbbbeeeebbbbeeeebbbbeeeebbbbeeeebbbbeeeebbbbeeeebbbb> PTRN} bind def
/Pattern4 {<5555aaaa5555aaaa5555aaaa5555aaaa5555aaaa5555aaaa5555aaaa5555aaaa> PTRN} bind def
/Pattern5 {<1111444411114444111144441111444411114444111144441111444411114444> PTRN} bind def
/Pattern6 {<1111000044440000111100004444000011110000444400001111000044440000> PTRN} bind def
/Pattern7 {<1010000000000000010100000000000010100000000000000101000000000000> PTRN} bind def
/Pattern8 {<0000000000000000000000000000000000000000000000000000000000000000> PTRN} bind def
/Pattern9 {<1e1e0f0f8787c3c3e1e1f0f078783c3c1e1e0f0f8787c3c3e1e1f0f078783c3c> PTRN} bind def
/Pattern10 {<7878f0f0e1e1c3c387870f0f1e1e3c3c7878f0f0e1e1c3c387870f0f1e1e3c3c> PTRN} bind def
/Pattern11 {<3333333333333333333333333333333333333333333333333333333333333333> PTRN} bind def
/Pattern12 {<ffffffff00000000ffffffff00000000ffffffff00000000ffffffff00000000> PTRN} bind def
/Pattern13 {<8181424224241818181824244242818181814242242418181818242442428181> PTRN} bind def
/Pattern14 {<8080404020201010080804040202010180804040202010100808040402020101> PTRN} bind def
/Pattern15 {<0101020204040808101020204040808001010202040408081010202040408080> PTRN} bind def
/Pattern16 {<2222222222222222222222222222222222222222222222222222222222222222> PTRN} bind def
/Pattern17 {<0000ffff000000000000ffff000000000000ffff000000000000ffff00000000> PTRN} bind def
/Pattern18 {<2222ffff222222222222ffff222222222222ffff222222222222ffff22222222> PTRN} bind def
/Pattern19 {<ffffffff33333333ffffffff33333333ffffffff33333333ffffffff33333333> PTRN} bind def
/Pattern20 {<0f0f0f0f0f0f0f0ff0f0f0f0f0f0f0f00f0f0f0f0f0f0f0ff0f0f0f0f0f0f0f0> PTRN} bind def
/Pattern21 {<ff00ff00ff00ff00ff00ff00ff00ff0000ff00ff00ff00ff00ff00ff00ff00ff> PTRN} bind def
/Pattern22 {<8001800180018001800180018001ffffffff8001800180018001800180018001> PTRN} bind def
/Pattern23 {<c003c003c003c003c003c003ffffffffffffffffc003c003c003c003c003c003> PTRN} bind def
/Pattern24 {<040404040404ffff404040404040ffff040404040404ffff404040404040ffff> PTRN} bind def
/Pattern25 {<180018001800180018001800ffffffff001800180018001800180018ffffffff> PTRN} bind def
/Pattern26 {<1111b8b87c7c3a3a1111a3a3c7c78b8b1111b8b87c7c3a3a1111a3a3c7c78b8b> PTRN} bind def
/Pattern27 {<101010102828c7c70101010182827c7c101010102828c7c70101010182827c7c> PTRN} bind def
/Pattern28 {<1c1c121211112121c1c12121111112121c1c121211112121c1c1212111111212> PTRN} bind def
/Pattern29 {<3e3e414180808080e3e31414080808083e3e414180808080e3e3141408080808> PTRN} bind def
/Pattern30 {<4848888884848383848488884848383848488888848483838484888848483838> PTRN} bind def
/Pattern31 {<03030404080808080c0c12122121c0c003030404080808080c0c12122121c0c0> PTRN} bind def
/ellipsedict 8 dict def
ellipsedict /mtrx matrix put
/EARC {
 ellipsedict begin
  /endangle exch def
  /startangle exch def
  /yrad exch def
  /xrad exch def
  /y exch def
  /x exch def
  /savematrix mtrx currentmatrix def
  x y translate
  xrad yrad scale
  0 0 1 startangle endangle arc
  savematrix setmatrix
 end
} def
/TL {
  /kcomp exch def
  /linewidth exch def
  /offset exch def
  GS
  0 offset rmoveto
  linewidth SLW
  dup stringwidth exch kcomp add exch RL s
  GR
} def
/KINIT
{
 /kvector exch def
 /kid 0 def
} def
/KPROC
{
 pop pop
 kvector kid get
 0 rmoveto
 /kid 1 kid add def
} def
/DefEncoding [
 /.notdef
 /.notdef
 /.notdef
 /.notdef
 /.notdef
 /.notdef
 /.notdef
 /.notdef
 /.notdef
 /.notdef
 /.notdef
 /.notdef
 /.notdef
 /.notdef
 /.notdef
 /.notdef
 /.notdef
 /.notdef
 /.notdef
 /.notdef
 /.notdef
 /.notdef
 /.notdef
 /.notdef
 /.notdef
 /.notdef
 /.notdef
 /.notdef
 /.notdef
 /.notdef
 /.notdef
 /.notdef
 /space
 /exclam
 /quotedbl
 /numbersign
 /dollar
 /percent
 /ampersand
 /quoteright
 /parenleft
 /parenright
 /asterisk
 /plus
 /comma
 /hyphen
 /period
 /slash
 /zero
 /one
 /two
 /three
 /four
 /five
 /six
 /seven
 /eight
 /nine
 /colon
 /semicolon
 /less
 /equal
 /greater
 /question
 /at
 /A
 /B
 /C
 /D
 /E
 /F
 /G
 /H
 /I
 /J
 /K
 /L
 /M
 /N
 /O
 /P
 /Q
 /R
 /S
 /T
 /U
 /V
 /W
 /X
 /Y
 /Z
 /bracketleft
 /backslash
 /bracketright
 /asciicircum
 /underscore
 /grave
 /a
 /b
 /c
 /d
 /e
 /f
 /g
 /h
 /i
 /j
 /k
 /l
 /m
 /n
 /o
 /p
 /q
 /r
 /s
 /t
 /u
 /v
 /w
 /x
 /y
 /z
 /braceleft
 /bar
 /braceright
 /asciitilde
 /.notdef
 /.notdef
 /.notdef
 /.notdef
 /.notdef
 /.notdef
 /.notdef
 /.notdef
 /.notdef
 /.notdef
 /.notdef
 /.notdef
 /.notdef
 /.notdef
 /.notdef
 /.notdef
 /.notdef
 /.notdef
 /.notdef
 /.notdef
 /.notdef
 /.notdef
 /.notdef
 /.notdef
 /.notdef
 /.notdef
 /.notdef
 /.notdef
 /.notdef
 /.notdef
 /.notdef
 /.notdef
 /.notdef
 /space
 /exclamdown
 /cent
 /sterling
 /currency
 /yen
 /brokenbar
 /section
 /dieresis
 /copyright
 /ordfeminine
 /guillemotleft
 /logicalnot
 /hyphen
 /registered
 /macron
 /degree
 /plusminus
 /twosuperior
 /threesuperior
 /acute
 /mu
 /paragraph
 /periodcentered
 /cedilla
 /onesuperior
 /ordmasculine
 /guillemotright
 /onequarter
 /onehalf
 /threequarters
 /questiondown
 /Agrave
 /Aacute
 /Acircumflex
 /Atilde
 /Adieresis
 /Aring
 /AE
 /Ccedilla
 /Egrave
 /Eacute
 /Ecircumflex
 /Edieresis
 /Igrave
 /Iacute
 /Icircumflex
 /Idieresis
 /Eth
 /Ntilde
 /Ograve
 /Oacute
 /Ocircumflex
 /Otilde
 /Odieresis
 /multiply
 /Oslash
 /Ugrave
 /Uacute
 /Ucircumflex
 /Udieresis
 /Yacute
 /Thorn
 /germandbls
 /agrave
 /aacute
 /acircumflex
 /atilde
 /adieresis
 /aring
 /ae
 /ccedilla
 /egrave
 /eacute
 /ecircumflex
 /edieresis
 /igrave
 /iacute
 /icircumflex
 /idieresis
 /eth
 /ntilde
 /ograve
 /oacute
 /ocircumflex
 /otilde
 /odieresis
 /divide
 /oslash
 /ugrave
 /uacute
 /ucircumflex
 /udieresis
 /yacute
 /thorn
 /ydieresis
] def
%%EndProlog
%%BeginSetup
%%EndSetup
600.00 600.00 scale
n
0.0000 0.0000 m
0.0000 1.0000 l
1.2884 1.0000 l
1.2884 0.0000 l
c
[/DeviceRGB] SCS
Color0 SC
fill
[/DeviceRGB] SCS
Color1 SC
[] 0 SD
0.0015 SLW
0 SLC
0 SLJ
n
0.1832 0.7963 m
0.1832 0.7986 l
s
n
0.1831 0.7986 m
0.1932 0.7986 l
s
n
0.1832 0.7963 m
0.1832 0.7940 l
s
n
0.1932 0.7940 m
0.1831 0.7940 l
s
n
0.3144 0.1920 m
0.3144 0.1943 l
s
n
0.3044 0.1943 m
0.3244 0.1943 l
s
n
0.3144 0.1920 m
0.3144 0.1897 l
s
n
0.3244 0.1897 m
0.3044 0.1897 l
s
n
0.4455 0.4743 m
0.4455 0.4766 l
s
n
0.4355 0.4766 m
0.4555 0.4766 l
s
n
0.4455 0.4743 m
0.4455 0.4720 l
s
n
0.4555 0.4720 m
0.4355 0.4720 l
s
n
0.5766 0.3402 m
0.5766 0.3425 l
s
n
0.5666 0.3425 m
0.5866 0.3425 l
s
n
0.5766 0.3402 m
0.5766 0.3378 l
s
n
0.5866 0.3378 m
0.5666 0.3378 l
s
n
0.7077 0.4043 m
0.7077 0.4066 l
s
n
0.6977 0.4066 m
0.7177 0.4066 l
s
n
0.7077 0.4043 m
0.7077 0.4020 l
s
n
0.7177 0.4020 m
0.6977 0.4020 l
s
n
0.8389 0.3728 m
0.8389 0.3752 l
s
n
0.8289 0.3752 m
0.8489 0.3752 l
s
n
0.8389 0.3728 m
0.8389 0.3705 l
s
n
0.8489 0.3705 m
0.8289 0.3705 l
s
n
0.9700 0.3868 m
0.9700 0.3892 l
s
n
0.9600 0.3892 m
0.9800 0.3892 l
s
n
0.9700 0.3868 m
0.9700 0.3845 l
s
n
0.9800 0.3845 m
0.9600 0.3845 l
s
[] 0 SD
0.0030 SLW
n 0.1832 0.7963 0.0100 0.0100 0 360 EARC s
n 0.3144 0.1920 0.0100 0.0100 0 360 EARC s
n 0.4455 0.4743 0.0100 0.0100 0 360 EARC s
n 0.5766 0.3402 0.0100 0.0100 0 360 EARC s
n 0.7077 0.4043 0.0100 0.0100 0 360 EARC s
n 0.8389 0.3728 0.0100 0.0100 0 360 EARC s
n 0.9700 0.3868 0.0100 0.0100 0 360 EARC s
[/DeviceRGB] SCS
Color2 SC
[] 0 SD
0.0015 SLW
n
0.1832 0.7959 m
0.1841 0.7937 l
0.1850 0.7915 l
0.1858 0.7890 l
0.1867 0.7864 l
0.1875 0.7837 l
0.1884 0.7808 l
0.1892 0.7777 l
0.1901 0.7746 l
0.1910 0.7712 l
0.1918 0.7678 l
0.1927 0.7642 l
0.1935 0.7604 l
0.1944 0.7566 l
0.1952 0.7526 l
0.1961 0.7485 l
0.1969 0.7443 l
0.1978 0.7399 l
0.1987 0.7355 l
0.1995 0.7309 l
0.2004 0.7262 l
0.2012 0.7214 l
0.2021 0.7166 l
0.2029 0.7116 l
0.2038 0.7065 l
0.2046 0.7013 l
0.2055 0.6961 l
0.2064 0.6907 l
0.2072 0.6853 l
0.2081 0.6798 l
0.2089 0.6742 l
0.2098 0.6686 l
0.2106 0.6628 l
0.2115 0.6571 l
0.2124 0.6512 l
0.2132 0.6453 l
0.2141 0.6393 l
0.2149 0.6333 l
0.2158 0.6272 l
0.2166 0.6211 l
0.2175 0.6149 l
0.2183 0.6087 l
0.2192 0.6025 l
0.2201 0.5962 l
0.2209 0.5899 l
0.2218 0.5836 l
0.2226 0.5772 l
0.2235 0.5708 l
0.2243 0.5644 l
0.2252 0.5580 l
0.2260 0.5515 l
0.2269 0.5451 l
0.2278 0.5386 l
0.2286 0.5322 l
0.2295 0.5257 l
0.2303 0.5192 l
0.2312 0.5128 l
0.2320 0.5063 l
0.2329 0.4999 l
0.2338 0.4935 l
0.2346 0.4871 l
0.2355 0.4807 l
0.2363 0.4743 l
0.2372 0.4679 l
0.2380 0.4616 l
0.2389 0.4553 l
0.2397 0.4490 l
0.2406 0.4428 l
0.2415 0.4366 l
0.2423 0.4304 l
0.2432 0.4243 l
0.2440 0.4182 l
0.2449 0.4122 l
0.2457 0.4062 l
0.2466 0.4003 l
0.2474 0.3944 l
0.2483 0.3885 l
0.2492 0.3828 l
0.2500 0.3770 l
0.2509 0.3714 l
0.2517 0.3658 l
0.2526 0.3602 l
0.2534 0.3547 l
0.2543 0.3493 l
0.2552 0.3440 l
0.2560 0.3387 l
0.2569 0.3335 l
0.2577 0.3284 l
0.2586 0.3233 l
0.2594 0.3184 l
0.2603 0.3135 l
0.2611 0.3087 l
0.2620 0.3039 l
0.2629 0.2993 l
0.2637 0.2947 l
0.2646 0.2902 l
0.2654 0.2858 l
0.2663 0.2815 l
0.2671 0.2772 l
0.2680 0.2731 l
0.2688 0.2690 l
0.2697 0.2651 l
0.2706 0.2612 l
0.2714 0.2574 l
0.2723 0.2537 l
0.2731 0.2501 l
0.2740 0.2466 l
0.2748 0.2432 l
0.2757 0.2399 l
0.2766 0.2367 l
0.2774 0.2336 l
0.2783 0.2306 l
0.2791 0.2276 l
0.2800 0.2248 l
0.2808 0.2221 l
0.2817 0.2194 l
0.2825 0.2169 l
0.2834 0.2145 l
0.2843 0.2121 l
0.2851 0.2099 l
0.2860 0.2077 l
0.2868 0.2057 l
0.2877 0.2037 l
0.2885 0.2019 l
0.2894 0.2001 l
0.2902 0.1985 l
0.2911 0.1969 l
0.2920 0.1955 l
0.2928 0.1941 l
0.2937 0.1929 l
0.2945 0.1917 l
0.2954 0.1906 l
0.2962 0.1896 l
0.2971 0.1888 l
0.2980 0.1880 l
0.2988 0.1873 l
0.2997 0.1867 l
0.3005 0.1862 l
0.3014 0.1857 l
0.3022 0.1854 l
0.3031 0.1852 l
0.3039 0.1850 l
0.3048 0.1850 l
0.3057 0.1850 l
0.3065 0.1851 l
0.3074 0.1853 l
0.3082 0.1856 l
0.3091 0.1860 l
0.3099 0.1864 l
0.3108 0.1870 l
0.3116 0.1876 l
0.3125 0.1883 l
0.3134 0.1891 l
0.3142 0.1899 l
0.3151 0.1909 l
0.3159 0.1919 l
0.3168 0.1929 l
0.3176 0.1941 l
0.3185 0.1953 l
0.3194 0.1966 l
0.3202 0.1980 l
0.3211 0.1994 l
0.3219 0.2009 l
0.3228 0.2025 l
0.3236 0.2041 l
0.3245 0.2058 l
0.3253 0.2076 l
0.3262 0.2094 l
0.3271 0.2112 l
0.3279 0.2132 l
0.3288 0.2152 l
0.3296 0.2172 l
0.3305 0.2193 l
0.3313 0.2214 l
0.3322 0.2236 l
0.3330 0.2259 l
0.3339 0.2282 l
0.3348 0.2305 l
0.3356 0.2329 l
0.3365 0.2353 l
0.3373 0.2378 l
0.3382 0.2403 l
0.3390 0.2428 l
0.3399 0.2454 l
0.3408 0.2480 l
0.3416 0.2506 l
0.3425 0.2533 l
0.3433 0.2560 l
0.3442 0.2588 l
0.3450 0.2615 l
0.3459 0.2643 l
0.3467 0.2671 l
0.3476 0.2700 l
0.3485 0.2728 l
0.3493 0.2757 l
0.3502 0.2786 l
0.3510 0.2815 l
0.3519 0.2845 l
0.3527 0.2874 l
0.3536 0.2904 l
0.3544 0.2934 l
0.3553 0.2964 l
0.3562 0.2993 l
0.3570 0.3023 l
0.3579 0.3054 l
0.3587 0.3084 l
0.3596 0.3114 l
0.3604 0.3144 l
0.3613 0.3174 l
0.3622 0.3204 l
0.3630 0.3235 l
0.3639 0.3265 l
0.3647 0.3295 l
0.3656 0.3325 l
0.3664 0.3355 l
0.3673 0.3384 l
0.3681 0.3414 l
0.3690 0.3444 l
0.3699 0.3473 l
0.3707 0.3503 l
0.3716 0.3532 l
0.3724 0.3561 l
0.3733 0.3590 l
0.3741 0.3619 l
0.3750 0.3647 l
0.3758 0.3676 l
0.3767 0.3704 l
0.3776 0.3732 l
0.3784 0.3759 l
0.3793 0.3787 l
0.3801 0.3814 l
0.3810 0.3841 l
0.3818 0.3868 l
0.3827 0.3894 l
0.3836 0.3920 l
0.3844 0.3946 l
0.3853 0.3972 l
0.3861 0.3997 l
0.3870 0.4022 l
0.3878 0.4046 l
0.3887 0.4070 l
0.3895 0.4094 l
0.3904 0.4118 l
0.3913 0.4141 l
0.3921 0.4164 l
0.3930 0.4186 l
0.3938 0.4208 l
0.3947 0.4230 l
0.3955 0.4251 l
0.3964 0.4272 l
0.3972 0.4293 l
0.3981 0.4313 l
0.3990 0.4332 l
0.3998 0.4352 l
0.4007 0.4371 l
0.4015 0.4389 l
0.4024 0.4407 l
0.4032 0.4425 l
0.4041 0.4442 l
0.4050 0.4458 l
0.4058 0.4475 l
0.4067 0.4491 l
0.4075 0.4506 l
0.4084 0.4521 l
0.4092 0.4535 l
0.4101 0.4549 l
0.4109 0.4563 l
0.4118 0.4576 l
0.4127 0.4589 l
0.4135 0.4601 l
0.4144 0.4613 l
0.4152 0.4624 l
0.4161 0.4635 l
0.4169 0.4645 l
0.4178 0.4655 l
0.4186 0.4665 l
0.4195 0.4674 l
0.4204 0.4682 l
0.4212 0.4690 l
0.4221 0.4698 l
0.4229 0.4705 l
0.4238 0.4712 l
0.4246 0.4718 l
0.4255 0.4724 l
0.4264 0.4729 l
0.4272 0.4734 l
0.4281 0.4739 l
0.4289 0.4743 l
0.4298 0.4746 l
0.4306 0.4749 l
0.4315 0.4752 l
0.4323 0.4754 l
0.4332 0.4756 l
0.4341 0.4758 l
0.4349 0.4759 l
0.4358 0.4759 l
0.4366 0.4759 l
0.4375 0.4759 l
0.4383 0.4759 l
0.4392 0.4758 l
0.4400 0.4756 l
0.4409 0.4754 l
0.4418 0.4752 l
0.4426 0.4750 l
0.4435 0.4747 l
0.4443 0.4743 l
0.4452 0.4740 l
0.4460 0.4736 l
0.4469 0.4731 l
0.4478 0.4726 l
0.4486 0.4721 l
0.4495 0.4716 l
0.4503 0.4710 l
0.4512 0.4704 l
0.4520 0.4697 l
0.4529 0.4691 l
0.4537 0.4684 l
0.4546 0.4676 l
0.4555 0.4669 l
0.4563 0.4661 l
0.4572 0.4652 l
0.4580 0.4644 l
0.4589 0.4635 l
0.4597 0.4626 l
0.4606 0.4617 l
0.4614 0.4607 l
0.4623 0.4597 l
0.4632 0.4587 l
0.4640 0.4577 l
0.4649 0.4566 l
0.4657 0.4556 l
0.4666 0.4545 l
0.4674 0.4534 l
0.4683 0.4522 l
0.4692 0.4511 l
0.4700 0.4499 l
0.4709 0.4487 l
0.4717 0.4475 l
0.4726 0.4463 l
0.4734 0.4450 l
0.4743 0.4438 l
0.4751 0.4425 l
0.4760 0.4412 l
0.4769 0.4399 l
0.4777 0.4386 l
0.4786 0.4373 l
0.4794 0.4360 l
0.4803 0.4347 l
0.4811 0.4333 l
0.4820 0.4319 l
0.4828 0.4306 l
0.4837 0.4292 l
0.4846 0.4278 l
0.4854 0.4264 l
0.4863 0.4251 l
0.4871 0.4237 l
0.4880 0.4223 l
0.4888 0.4209 l
0.4897 0.4195 l
0.4906 0.4180 l
0.4914 0.4166 l
0.4923 0.4152 l
0.4931 0.4138 l
0.4940 0.4124 l
0.4948 0.4110 l
0.4957 0.4096 l
0.4965 0.4082 l
0.4974 0.4068 l
0.4983 0.4054 l
0.4991 0.4040 l
0.5000 0.4026 l
0.5008 0.4012 l
0.5017 0.3999 l
0.5025 0.3985 l
0.5034 0.3971 l
0.5042 0.3958 l
0.5051 0.3944 l
0.5060 0.3931 l
0.5068 0.3917 l
0.5077 0.3904 l
0.5085 0.3891 l
0.5094 0.3878 l
0.5102 0.3865 l
0.5111 0.3852 l
0.5120 0.3840 l
0.5128 0.3827 l
0.5137 0.3815 l
0.5145 0.3802 l
0.5154 0.3790 l
0.5162 0.3778 l
0.5171 0.3766 l
0.5179 0.3755 l
0.5188 0.3743 l
0.5197 0.3731 l
0.5205 0.3720 l
0.5214 0.3709 l
0.5222 0.3698 l
0.5231 0.3687 l
0.5239 0.3677 l
0.5248 0.3666 l
0.5256 0.3656 l
0.5265 0.3646 l
0.5274 0.3636 l
0.5282 0.3626 l
0.5291 0.3617 l
0.5299 0.3607 l
0.5308 0.3598 l
0.5316 0.3589 l
0.5325 0.3581 l
0.5334 0.3572 l
0.5342 0.3564 l
0.5351 0.3555 l
0.5359 0.3547 l
0.5368 0.3540 l
0.5376 0.3532 l
0.5385 0.3525 l
0.5393 0.3518 l
0.5402 0.3511 l
0.5411 0.3504 l
0.5419 0.3498 l
0.5428 0.3491 l
0.5436 0.3485 l
0.5445 0.3479 l
0.5453 0.3474 l
0.5462 0.3468 l
0.5471 0.3463 l
0.5479 0.3458 l
0.5488 0.3453 l
0.5496 0.3449 l
0.5505 0.3444 l
0.5513 0.3440 l
0.5522 0.3436 l
0.5530 0.3432 l
0.5539 0.3429 l
0.5548 0.3425 l
0.5556 0.3422 l
0.5565 0.3419 l
0.5573 0.3417 l
0.5582 0.3414 l
0.5590 0.3412 l
0.5599 0.3410 l
0.5607 0.3408 l
0.5616 0.3407 l
0.5625 0.3405 l
0.5633 0.3404 l
0.5642 0.3403 l
0.5650 0.3402 l
0.5659 0.3401 l
0.5667 0.3401 l
0.5676 0.3401 l
0.5684 0.3401 l
0.5693 0.3401 l
0.5702 0.3401 l
0.5710 0.3402 l
0.5719 0.3402 l
0.5727 0.3403 l
0.5736 0.3404 l
0.5744 0.3406 l
0.5753 0.3407 l
0.5762 0.3409 l
0.5770 0.3410 l
0.5779 0.3412 l
0.5787 0.3414 l
0.5796 0.3417 l
0.5804 0.3419 l
0.5813 0.3422 l
0.5821 0.3424 l
0.5830 0.3427 l
0.5839 0.3430 l
0.5847 0.3433 l
0.5856 0.3437 l
0.5864 0.3440 l
0.5873 0.3444 l
0.5881 0.3448 l
0.5890 0.3451 l
0.5899 0.3455 l
0.5907 0.3460 l
0.5916 0.3464 l
0.5924 0.3468 l
0.5933 0.3473 l
0.5941 0.3477 l
0.5950 0.3482 l
0.5958 0.3487 l
0.5967 0.3492 l
0.5976 0.3497 l
0.5984 0.3502 l
0.5993 0.3507 l
0.6001 0.3512 l
0.6010 0.3518 l
0.6018 0.3523 l
0.6027 0.3529 l
0.6035 0.3535 l
0.6044 0.3540 l
0.6053 0.3546 l
0.6061 0.3552 l
0.6070 0.3558 l
0.6078 0.3564 l
0.6087 0.3570 l
0.6095 0.3576 l
0.6104 0.3582 l
0.6112 0.3588 l
0.6121 0.3595 l
0.6130 0.3601 l
0.6138 0.3607 l
0.6147 0.3614 l
0.6155 0.3620 l
0.6164 0.3627 l
0.6172 0.3633 l
0.6181 0.3640 l
0.6190 0.3646 l
0.6198 0.3653 l
0.6207 0.3659 l
0.6215 0.3666 l
0.6224 0.3672 l
0.6232 0.3679 l
0.6241 0.3685 l
0.6249 0.3692 l
0.6258 0.3699 l
0.6267 0.3705 l
0.6275 0.3712 l
0.6284 0.3718 l
0.6292 0.3725 l
0.6301 0.3731 l
0.6309 0.3738 l
0.6318 0.3744 l
0.6327 0.3751 l
0.6335 0.3757 l
0.6344 0.3764 l
0.6352 0.3770 l
0.6361 0.3776 l
0.6369 0.3783 l
0.6378 0.3789 l
0.6386 0.3795 l
0.6395 0.3801 l
0.6404 0.3807 l
0.6412 0.3813 l
0.6421 0.3819 l
0.6429 0.3825 l
0.6438 0.3831 l
0.6446 0.3837 l
0.6455 0.3843 l
0.6463 0.3849 l
0.6472 0.3854 l
0.6481 0.3860 l
0.6489 0.3866 l
0.6498 0.3871 l
0.6506 0.3876 l
0.6515 0.3882 l
0.6523 0.3887 l
0.6532 0.3892 l
0.6540 0.3897 l
0.6549 0.3902 l
0.6558 0.3907 l
0.6566 0.3912 l
0.6575 0.3917 l
0.6583 0.3922 l
0.6592 0.3926 l
0.6600 0.3931 l
0.6609 0.3935 l
0.6618 0.3939 l
0.6626 0.3944 l
0.6635 0.3948 l
0.6643 0.3952 l
0.6652 0.3956 l
0.6660 0.3960 l
0.6669 0.3964 l
0.6677 0.3967 l
0.6686 0.3971 l
0.6695 0.3974 l
0.6703 0.3978 l
0.6712 0.3981 l
0.6720 0.3984 l
0.6729 0.3988 l
0.6737 0.3991 l
0.6746 0.3993 l
0.6755 0.3996 l
0.6763 0.3999 l
0.6772 0.4002 l
0.6780 0.4004 l
0.6789 0.4007 l
0.6797 0.4009 l
0.6806 0.4011 l
0.6814 0.4013 l
0.6823 0.4015 l
0.6832 0.4017 l
0.6840 0.4019 l
0.6849 0.4021 l
0.6857 0.4022 l
0.6866 0.4024 l
0.6874 0.4025 l
0.6883 0.4027 l
0.6891 0.4028 l
0.6900 0.4029 l
0.6909 0.4030 l
0.6917 0.4031 l
0.6926 0.4032 l
0.6934 0.4033 l
0.6943 0.4033 l
0.6951 0.4034 l
0.6960 0.4034 l
0.6969 0.4035 l
0.6977 0.4035 l
0.6986 0.4035 l
0.6994 0.4035 l
0.7003 0.4035 l
0.7011 0.4035 l
0.7020 0.4035 l
0.7028 0.4035 l
0.7037 0.4034 l
0.7046 0.4034 l
0.7054 0.4033 l
0.7063 0.4033 l
0.7071 0.4032 l
0.7080 0.4031 l
0.7088 0.4031 l
0.7097 0.4030 l
0.7105 0.4029 l
0.7114 0.4028 l
0.7123 0.4026 l
0.7131 0.4025 l
0.7140 0.4024 l
0.7148 0.4023 l
0.7157 0.4021 l
0.7165 0.4020 l
0.7174 0.4018 l
0.7183 0.4016 l
0.7191 0.4015 l
0.7200 0.4013 l
0.7208 0.4011 l
0.7217 0.4009 l
0.7225 0.4007 l
0.7234 0.4005 l
0.7242 0.4003 l
0.7251 0.4001 l
0.7260 0.3999 l
0.7268 0.3997 l
0.7277 0.3995 l
0.7285 0.3992 l
0.7294 0.3990 l
0.7302 0.3987 l
0.7311 0.3985 l
0.7319 0.3983 l
0.7328 0.3980 l
0.7337 0.3977 l
0.7345 0.3975 l
0.7354 0.3972 l
0.7362 0.3969 l
0.7371 0.3967 l
0.7379 0.3964 l
0.7388 0.3961 l
0.7397 0.3958 l
0.7405 0.3956 l
0.7414 0.3953 l
0.7422 0.3950 l
0.7431 0.3947 l
0.7439 0.3944 l
0.7448 0.3941 l
0.7456 0.3938 l
0.7465 0.3935 l
0.7474 0.3932 l
0.7482 0.3929 l
0.7491 0.3926 l
0.7499 0.3923 l
0.7508 0.3920 l
0.7516 0.3917 l
0.7525 0.3914 l
0.7533 0.3911 l
0.7542 0.3908 l
0.7551 0.3905 l
0.7559 0.3902 l
0.7568 0.3899 l
0.7576 0.3895 l
0.7585 0.3892 l
0.7593 0.3889 l
0.7602 0.3886 l
0.7611 0.3883 l
0.7619 0.3880 l
0.7628 0.3877 l
0.7636 0.3874 l
0.7645 0.3871 l
0.7653 0.3868 l
0.7662 0.3865 l
0.7670 0.3862 l
0.7679 0.3859 l
0.7688 0.3856 l
0.7696 0.3853 l
0.7705 0.3850 l
0.7713 0.3848 l
0.7722 0.3845 l
0.7730 0.3842 l
0.7739 0.3839 l
0.7747 0.3836 l
0.7756 0.3834 l
0.7765 0.3831 l
0.7773 0.3828 l
0.7782 0.3825 l
0.7790 0.3823 l
0.7799 0.3820 l
0.7807 0.3818 l
0.7816 0.3815 l
0.7825 0.3813 l
0.7833 0.3810 l
0.7842 0.3808 l
0.7850 0.3805 l
0.7859 0.3803 l
0.7867 0.3800 l
0.7876 0.3798 l
0.7884 0.3796 l
0.7893 0.3794 l
0.7902 0.3792 l
0.7910 0.3789 l
0.7919 0.3787 l
0.7927 0.3785 l
0.7936 0.3783 l
0.7944 0.3781 l
0.7953 0.3779 l
0.7961 0.3777 l
0.7970 0.3776 l
0.7979 0.3774 l
0.7987 0.3772 l
0.7996 0.3770 l
0.8004 0.3769 l
0.8013 0.3767 l
0.8021 0.3765 l
0.8030 0.3764 l
0.8039 0.3762 l
0.8047 0.3761 l
0.8056 0.3759 l
0.8064 0.3758 l
0.8073 0.3757 l
0.8081 0.3756 l
0.8090 0.3754 l
0.8098 0.3753 l
0.8107 0.3752 l
0.8116 0.3751 l
0.8124 0.3750 l
0.8133 0.3749 l
0.8141 0.3748 l
0.8150 0.3747 l
0.8158 0.3746 l
0.8167 0.3745 l
0.8175 0.3745 l
0.8184 0.3744 l
0.8193 0.3743 l
0.8201 0.3743 l
0.8210 0.3742 l
0.8218 0.3742 l
0.8227 0.3741 l
0.8235 0.3741 l
0.8244 0.3740 l
0.8253 0.3740 l
0.8261 0.3740 l
0.8270 0.3739 l
0.8278 0.3739 l
0.8287 0.3739 l
0.8295 0.3739 l
0.8304 0.3739 l
0.8312 0.3739 l
0.8321 0.3739 l
0.8330 0.3739 l
0.8338 0.3739 l
0.8347 0.3739 l
0.8355 0.3739 l
0.8364 0.3740 l
0.8372 0.3740 l
0.8381 0.3740 l
0.8389 0.3740 l
0.8398 0.3741 l
0.8407 0.3741 l
0.8415 0.3742 l
0.8424 0.3742 l
0.8432 0.3743 l
0.8441 0.3743 l
0.8449 0.3744 l
0.8458 0.3744 l
0.8467 0.3745 l
0.8475 0.3746 l
0.8484 0.3746 l
0.8492 0.3747 l
0.8501 0.3748 l
0.8509 0.3749 l
0.8518 0.3749 l
0.8526 0.3750 l
0.8535 0.3751 l
0.8544 0.3752 l
0.8552 0.3753 l
0.8561 0.3754 l
0.8569 0.3755 l
0.8578 0.3756 l
0.8586 0.3757 l
0.8595 0.3758 l
0.8603 0.3759 l
0.8612 0.3760 l
0.8621 0.3761 l
0.8629 0.3763 l
0.8638 0.3764 l
0.8646 0.3765 l
0.8655 0.3766 l
0.8663 0.3767 l
0.8672 0.3769 l
0.8681 0.3770 l
0.8689 0.3771 l
0.8698 0.3772 l
0.8706 0.3774 l
0.8715 0.3775 l
0.8723 0.3776 l
0.8732 0.3778 l
0.8740 0.3779 l
0.8749 0.3780 l
0.8758 0.3782 l
0.8766 0.3783 l
0.8775 0.3785 l
0.8783 0.3786 l
0.8792 0.3787 l
0.8800 0.3789 l
0.8809 0.3790 l
0.8817 0.3792 l
0.8826 0.3793 l
0.8835 0.3794 l
0.8843 0.3796 l
0.8852 0.3797 l
0.8860 0.3799 l
0.8869 0.3800 l
0.8877 0.3802 l
0.8886 0.3803 l
0.8895 0.3804 l
0.8903 0.3806 l
0.8912 0.3807 l
0.8920 0.3809 l
0.8929 0.3810 l
0.8937 0.3812 l
0.8946 0.3813 l
0.8954 0.3814 l
0.8963 0.3816 l
0.8972 0.3817 l
0.8980 0.3819 l
0.8989 0.3820 l
0.8997 0.3821 l
0.9006 0.3823 l
0.9014 0.3824 l
0.9023 0.3825 l
0.9031 0.3827 l
0.9040 0.3828 l
0.9049 0.3829 l
0.9057 0.3831 l
0.9066 0.3832 l
0.9074 0.3833 l
0.9083 0.3835 l
0.9091 0.3836 l
0.9100 0.3837 l
0.9109 0.3838 l
0.9117 0.3840 l
0.9126 0.3841 l
0.9134 0.3842 l
0.9143 0.3843 l
0.9151 0.3844 l
0.9160 0.3845 l
0.9168 0.3847 l
0.9177 0.3848 l
0.9186 0.3849 l
0.9194 0.3850 l
0.9203 0.3851 l
0.9211 0.3852 l
0.9220 0.3853 l
0.9228 0.3854 l
0.9237 0.3855 l
0.9245 0.3856 l
0.9254 0.3857 l
0.9263 0.3858 l
0.9271 0.3859 l
0.9280 0.3859 l
0.9288 0.3860 l
0.9297 0.3861 l
0.9305 0.3862 l
0.9314 0.3863 l
0.9323 0.3864 l
0.9331 0.3864 l
0.9340 0.3865 l
0.9348 0.3866 l
0.9357 0.3866 l
0.9365 0.3867 l
0.9374 0.3868 l
0.9382 0.3868 l
0.9391 0.3869 l
0.9400 0.3870 l
0.9408 0.3870 l
0.9417 0.3871 l
0.9425 0.3871 l
0.9434 0.3872 l
0.9442 0.3872 l
0.9451 0.3873 l
0.9459 0.3873 l
0.9468 0.3873 l
0.9477 0.3874 l
0.9485 0.3874 l
0.9494 0.3875 l
0.9502 0.3875 l
0.9511 0.3875 l
0.9519 0.3876 l
0.9528 0.3876 l
0.9537 0.3876 l
0.9545 0.3876 l
0.9554 0.3876 l
0.9562 0.3877 l
0.9571 0.3877 l
0.9579 0.3877 l
0.9588 0.3877 l
0.9596 0.3877 l
0.9605 0.3877 l
0.9614 0.3877 l
0.9622 0.3877 l
0.9631 0.3877 l
0.9639 0.3877 l
0.9648 0.3877 l
0.9656 0.3877 l
0.9665 0.3877 l
0.9673 0.3877 l
0.9682 0.3877 l
0.9691 0.3877 l
0.9699 0.3877 l
0.9708 0.3877 l
0.9716 0.3876 l
0.9725 0.3876 l
0.9733 0.3876 l
0.9742 0.3876 l
0.9751 0.3875 l
0.9759 0.3875 l
0.9768 0.3875 l
0.9776 0.3875 l
0.9785 0.3874 l
0.9793 0.3874 l
0.9802 0.3874 l
0.9810 0.3873 l
0.9819 0.3873 l
0.9828 0.3873 l
0.9836 0.3872 l
0.9845 0.3872 l
0.9853 0.3871 l
0.9862 0.3871 l
0.9870 0.3871 l
0.9879 0.3870 l
0.9887 0.3870 l
0.9896 0.3869 l
0.9905 0.3869 l
0.9913 0.3868 l
0.9922 0.3868 l
0.9930 0.3867 l
0.9939 0.3867 l
0.9947 0.3866 l
0.9956 0.3866 l
0.9965 0.3865 l
0.9973 0.3864 l
0.9982 0.3864 l
0.9990 0.3863 l
0.9999 0.3863 l
1.0007 0.3862 l
1.0016 0.3861 l
1.0024 0.3861 l
1.0033 0.3860 l
1.0042 0.3860 l
1.0050 0.3859 l
1.0059 0.3858 l
1.0067 0.3858 l
1.0076 0.3857 l
1.0084 0.3856 l
1.0093 0.3856 l
1.0101 0.3855 l
1.0110 0.3855 l
1.0119 0.3854 l
1.0127 0.3853 l
1.0136 0.3853 l
1.0144 0.3852 l
1.0153 0.3851 l
1.0161 0.3851 l
1.0170 0.3850 l
1.0179 0.3849 l
1.0187 0.3849 l
1.0196 0.3848 l
1.0204 0.3847 l
1.0213 0.3847 l
1.0221 0.3846 l
1.0230 0.3845 l
1.0238 0.3845 l
1.0247 0.3844 l
1.0256 0.3843 l
1.0264 0.3843 l
1.0273 0.3842 l
1.0281 0.3841 l
1.0290 0.3841 l
1.0298 0.3840 l
1.0307 0.3839 l
1.0315 0.3839 l
1.0324 0.3838 l
1.0333 0.3837 l
1.0341 0.3837 l
1.0350 0.3836 l
1.0358 0.3835 l
1.0367 0.3835 l
1.0375 0.3834 l
1.0384 0.3834 l
s
[/DeviceRGB] SCS
Color1 SC
[] 0 SD
0.0030 SLW
n
0.1832 0.7959 m
0.1841 0.7937 l
0.1850 0.7915 l
0.1858 0.7890 l
0.1867 0.7864 l
0.1875 0.7837 l
0.1884 0.7808 l
0.1892 0.7777 l
0.1901 0.7746 l
0.1910 0.7712 l
0.1918 0.7678 l
0.1927 0.7642 l
0.1935 0.7604 l
0.1944 0.7566 l
0.1952 0.7526 l
0.1961 0.7485 l
0.1969 0.7443 l
0.1978 0.7399 l
0.1987 0.7355 l
0.1995 0.7309 l
0.2004 0.7262 l
0.2012 0.7214 l
0.2021 0.7166 l
0.2029 0.7116 l
0.2038 0.7065 l
0.2046 0.7013 l
0.2055 0.6961 l
0.2064 0.6907 l
0.2072 0.6853 l
0.2081 0.6798 l
0.2089 0.6742 l
0.2098 0.6686 l
0.2106 0.6628 l
0.2115 0.6571 l
0.2124 0.6512 l
0.2132 0.6453 l
0.2141 0.6393 l
0.2149 0.6333 l
0.2158 0.6272 l
0.2166 0.6211 l
0.2175 0.6149 l
0.2183 0.6087 l
0.2192 0.6025 l
0.2201 0.5962 l
0.2209 0.5899 l
0.2218 0.5836 l
0.2226 0.5772 l
0.2235 0.5708 l
0.2243 0.5644 l
0.2252 0.5580 l
0.2260 0.5515 l
0.2269 0.5451 l
0.2278 0.5386 l
0.2286 0.5322 l
0.2295 0.5257 l
0.2303 0.5192 l
0.2312 0.5128 l
0.2320 0.5063 l
0.2329 0.4999 l
0.2338 0.4935 l
0.2346 0.4871 l
0.2355 0.4807 l
0.2363 0.4743 l
0.2372 0.4679 l
0.2380 0.4616 l
0.2389 0.4553 l
0.2397 0.4490 l
0.2406 0.4428 l
0.2415 0.4366 l
0.2423 0.4304 l
0.2432 0.4243 l
0.2440 0.4182 l
0.2449 0.4122 l
0.2457 0.4062 l
0.2466 0.4003 l
0.2474 0.3944 l
0.2483 0.3885 l
0.2492 0.3828 l
0.2500 0.3770 l
0.2509 0.3714 l
0.2517 0.3658 l
0.2526 0.3602 l
0.2534 0.3547 l
0.2543 0.3493 l
0.2552 0.3440 l
0.2560 0.3387 l
0.2569 0.3335 l
0.2577 0.3284 l
0.2586 0.3233 l
0.2594 0.3184 l
0.2603 0.3135 l
0.2611 0.3087 l
0.2620 0.3039 l
0.2629 0.2993 l
0.2637 0.2947 l
0.2646 0.2902 l
0.2654 0.2858 l
0.2663 0.2815 l
0.2671 0.2772 l
0.2680 0.2731 l
0.2688 0.2690 l
0.2697 0.2651 l
0.2706 0.2612 l
0.2714 0.2574 l
0.2723 0.2537 l
0.2731 0.2501 l
0.2740 0.2466 l
0.2748 0.2432 l
0.2757 0.2399 l
0.2766 0.2367 l
0.2774 0.2336 l
0.2783 0.2306 l
0.2791 0.2276 l
0.2800 0.2248 l
0.2808 0.2221 l
0.2817 0.2194 l
0.2825 0.2169 l
0.2834 0.2145 l
0.2843 0.2121 l
0.2851 0.2099 l
0.2860 0.2077 l
0.2868 0.2057 l
0.2877 0.2037 l
0.2885 0.2019 l
0.2894 0.2001 l
0.2902 0.1985 l
0.2911 0.1969 l
0.2920 0.1955 l
0.2928 0.1941 l
0.2937 0.1929 l
0.2945 0.1917 l
0.2954 0.1906 l
0.2962 0.1896 l
0.2971 0.1888 l
0.2980 0.1880 l
0.2988 0.1873 l
0.2997 0.1867 l
0.3005 0.1862 l
0.3014 0.1857 l
0.3022 0.1854 l
0.3031 0.1852 l
0.3039 0.1850 l
0.3048 0.1850 l
0.3057 0.1850 l
0.3065 0.1851 l
0.3074 0.1853 l
0.3082 0.1856 l
0.3091 0.1860 l
0.3099 0.1864 l
0.3108 0.1870 l
0.3116 0.1876 l
0.3125 0.1883 l
0.3134 0.1891 l
0.3142 0.1899 l
0.3151 0.1909 l
0.3159 0.1919 l
0.3168 0.1929 l
0.3176 0.1941 l
0.3185 0.1953 l
0.3194 0.1966 l
0.3202 0.1980 l
0.3211 0.1994 l
0.3219 0.2009 l
0.3228 0.2025 l
0.3236 0.2041 l
0.3245 0.2058 l
0.3253 0.2076 l
0.3262 0.2094 l
0.3271 0.2112 l
0.3279 0.2132 l
0.3288 0.2152 l
0.3296 0.2172 l
0.3305 0.2193 l
0.3313 0.2214 l
0.3322 0.2236 l
0.3330 0.2259 l
0.3339 0.2282 l
0.3348 0.2305 l
0.3356 0.2329 l
0.3365 0.2353 l
0.3373 0.2378 l
0.3382 0.2403 l
0.3390 0.2428 l
0.3399 0.2454 l
0.3408 0.2480 l
0.3416 0.2506 l
0.3425 0.2533 l
0.3433 0.2560 l
0.3442 0.2588 l
0.3450 0.2615 l
0.3459 0.2643 l
0.3467 0.2671 l
0.3476 0.2700 l
0.3485 0.2728 l
0.3493 0.2757 l
0.3502 0.2786 l
0.3510 0.2815 l
0.3519 0.2845 l
0.3527 0.2874 l
0.3536 0.2904 l
0.3544 0.2934 l
0.3553 0.2964 l
0.3562 0.2993 l
0.3570 0.3023 l
0.3579 0.3054 l
0.3587 0.3084 l
0.3596 0.3114 l
0.3604 0.3144 l
0.3613 0.3174 l
0.3622 0.3204 l
0.3630 0.3235 l
0.3639 0.3265 l
0.3647 0.3295 l
0.3656 0.3325 l
0.3664 0.3355 l
0.3673 0.3384 l
0.3681 0.3414 l
0.3690 0.3444 l
0.3699 0.3473 l
0.3707 0.3503 l
0.3716 0.3532 l
0.3724 0.3561 l
0.3733 0.3590 l
0.3741 0.3619 l
0.3750 0.3647 l
0.3758 0.3676 l
0.3767 0.3704 l
0.3776 0.3732 l
0.3784 0.3759 l
0.3793 0.3787 l
0.3801 0.3814 l
0.3810 0.3841 l
0.3818 0.3868 l
0.3827 0.3894 l
0.3836 0.3920 l
0.3844 0.3946 l
0.3853 0.3972 l
0.3861 0.3997 l
0.3870 0.4022 l
0.3878 0.4046 l
0.3887 0.4070 l
0.3895 0.4094 l
0.3904 0.4118 l
0.3913 0.4141 l
0.3921 0.4164 l
0.3930 0.4186 l
0.3938 0.4208 l
0.3947 0.4230 l
0.3955 0.4251 l
0.3964 0.4272 l
0.3972 0.4293 l
0.3981 0.4313 l
0.3990 0.4332 l
0.3998 0.4352 l
0.4007 0.4371 l
0.4015 0.4389 l
0.4024 0.4407 l
0.4032 0.4425 l
0.4041 0.4442 l
0.4050 0.4458 l
0.4058 0.4475 l
0.4067 0.4491 l
0.4075 0.4506 l
0.4084 0.4521 l
0.4092 0.4535 l
0.4101 0.4549 l
0.4109 0.4563 l
0.4118 0.4576 l
0.4127 0.4589 l
0.4135 0.4601 l
0.4144 0.4613 l
0.4152 0.4624 l
0.4161 0.4635 l
0.4169 0.4645 l
0.4178 0.4655 l
0.4186 0.4665 l
0.4195 0.4674 l
0.4204 0.4682 l
0.4212 0.4690 l
0.4221 0.4698 l
0.4229 0.4705 l
0.4238 0.4712 l
0.4246 0.4718 l
0.4255 0.4724 l
0.4264 0.4729 l
0.4272 0.4734 l
0.4281 0.4739 l
0.4289 0.4743 l
0.4298 0.4746 l
0.4306 0.4749 l
0.4315 0.4752 l
0.4323 0.4754 l
0.4332 0.4756 l
0.4341 0.4758 l
0.4349 0.4759 l
0.4358 0.4759 l
0.4366 0.4759 l
0.4375 0.4759 l
0.4383 0.4759 l
0.4392 0.4758 l
0.4400 0.4756 l
0.4409 0.4754 l
0.4418 0.4752 l
0.4426 0.4750 l
0.4435 0.4747 l
0.4443 0.4743 l
0.4452 0.4740 l
0.4460 0.4736 l
0.4469 0.4731 l
0.4478 0.4726 l
0.4486 0.4721 l
0.4495 0.4716 l
0.4503 0.4710 l
0.4512 0.4704 l
0.4520 0.4697 l
0.4529 0.4691 l
0.4537 0.4684 l
0.4546 0.4676 l
0.4555 0.4669 l
0.4563 0.4661 l
0.4572 0.4652 l
0.4580 0.4644 l
0.4589 0.4635 l
0.4597 0.4626 l
0.4606 0.4617 l
0.4614 0.4607 l
0.4623 0.4597 l
0.4632 0.4587 l
0.4640 0.4577 l
0.4649 0.4566 l
0.4657 0.4556 l
0.4666 0.4545 l
0.4674 0.4534 l
0.4683 0.4522 l
0.4692 0.4511 l
0.4700 0.4499 l
0.4709 0.4487 l
0.4717 0.4475 l
0.4726 0.4463 l
0.4734 0.4450 l
0.4743 0.4438 l
0.4751 0.4425 l
0.4760 0.4412 l
0.4769 0.4399 l
0.4777 0.4386 l
0.4786 0.4373 l
0.4794 0.4360 l
0.4803 0.4347 l
0.4811 0.4333 l
0.4820 0.4319 l
0.4828 0.4306 l
0.4837 0.4292 l
0.4846 0.4278 l
0.4854 0.4264 l
0.4863 0.4251 l
0.4871 0.4237 l
0.4880 0.4223 l
0.4888 0.4209 l
0.4897 0.4195 l
0.4906 0.4180 l
0.4914 0.4166 l
0.4923 0.4152 l
0.4931 0.4138 l
0.4940 0.4124 l
0.4948 0.4110 l
0.4957 0.4096 l
0.4965 0.4082 l
0.4974 0.4068 l
0.4983 0.4054 l
0.4991 0.4040 l
0.5000 0.4026 l
0.5008 0.4012 l
0.5017 0.3999 l
0.5025 0.3985 l
0.5034 0.3971 l
0.5042 0.3958 l
0.5051 0.3944 l
0.5060 0.3931 l
0.5068 0.3917 l
0.5077 0.3904 l
0.5085 0.3891 l
0.5094 0.3878 l
0.5102 0.3865 l
0.5111 0.3852 l
0.5120 0.3840 l
0.5128 0.3827 l
0.5137 0.3815 l
0.5145 0.3802 l
0.5154 0.3790 l
0.5162 0.3778 l
0.5171 0.3766 l
0.5179 0.3755 l
0.5188 0.3743 l
0.5197 0.3731 l
0.5205 0.3720 l
0.5214 0.3709 l
0.5222 0.3698 l
0.5231 0.3687 l
0.5239 0.3677 l
0.5248 0.3666 l
0.5256 0.3656 l
0.5265 0.3646 l
0.5274 0.3636 l
0.5282 0.3626 l
0.5291 0.3617 l
0.5299 0.3607 l
0.5308 0.3598 l
0.5316 0.3589 l
0.5325 0.3581 l
0.5334 0.3572 l
0.5342 0.3564 l
0.5351 0.3555 l
0.5359 0.3547 l
0.5368 0.3540 l
0.5376 0.3532 l
0.5385 0.3525 l
0.5393 0.3518 l
0.5402 0.3511 l
0.5411 0.3504 l
0.5419 0.3498 l
0.5428 0.3491 l
0.5436 0.3485 l
0.5445 0.3479 l
0.5453 0.3474 l
0.5462 0.3468 l
0.5471 0.3463 l
0.5479 0.3458 l
0.5488 0.3453 l
0.5496 0.3449 l
0.5505 0.3444 l
0.5513 0.3440 l
0.5522 0.3436 l
0.5530 0.3432 l
0.5539 0.3429 l
0.5548 0.3425 l
0.5556 0.3422 l
0.5565 0.3419 l
0.5573 0.3417 l
0.5582 0.3414 l
0.5590 0.3412 l
0.5599 0.3410 l
0.5607 0.3408 l
0.5616 0.3407 l
0.5625 0.3405 l
0.5633 0.3404 l
0.5642 0.3403 l
0.5650 0.3402 l
0.5659 0.3401 l
0.5667 0.3401 l
0.5676 0.3401 l
0.5684 0.3401 l
0.5693 0.3401 l
0.5702 0.3401 l
0.5710 0.3402 l
0.5719 0.3402 l
0.5727 0.3403 l
0.5736 0.3404 l
0.5744 0.3406 l
0.5753 0.3407 l
0.5762 0.3409 l
0.5770 0.3410 l
0.5779 0.3412 l
0.5787 0.3414 l
0.5796 0.3417 l
0.5804 0.3419 l
0.5813 0.3422 l
0.5821 0.3424 l
0.5830 0.3427 l
0.5839 0.3430 l
0.5847 0.3433 l
0.5856 0.3437 l
0.5864 0.3440 l
0.5873 0.3444 l
0.5881 0.3448 l
0.5890 0.3451 l
0.5899 0.3455 l
0.5907 0.3460 l
0.5916 0.3464 l
0.5924 0.3468 l
0.5933 0.3473 l
0.5941 0.3477 l
0.5950 0.3482 l
0.5958 0.3487 l
0.5967 0.3492 l
0.5976 0.3497 l
0.5984 0.3502 l
0.5993 0.3507 l
0.6001 0.3512 l
0.6010 0.3518 l
0.6018 0.3523 l
0.6027 0.3529 l
0.6035 0.3535 l
0.6044 0.3540 l
0.6053 0.3546 l
0.6061 0.3552 l
0.6070 0.3558 l
0.6078 0.3564 l
0.6087 0.3570 l
0.6095 0.3576 l
0.6104 0.3582 l
0.6112 0.3588 l
0.6121 0.3595 l
0.6130 0.3601 l
0.6138 0.3607 l
0.6147 0.3614 l
0.6155 0.3620 l
0.6164 0.3627 l
0.6172 0.3633 l
0.6181 0.3640 l
0.6190 0.3646 l
0.6198 0.3653 l
0.6207 0.3659 l
0.6215 0.3666 l
0.6224 0.3672 l
0.6232 0.3679 l
0.6241 0.3685 l
0.6249 0.3692 l
0.6258 0.3699 l
0.6267 0.3705 l
0.6275 0.3712 l
0.6284 0.3718 l
0.6292 0.3725 l
0.6301 0.3731 l
0.6309 0.3738 l
0.6318 0.3744 l
0.6327 0.3751 l
0.6335 0.3757 l
0.6344 0.3764 l
0.6352 0.3770 l
0.6361 0.3776 l
0.6369 0.3783 l
0.6378 0.3789 l
0.6386 0.3795 l
0.6395 0.3801 l
0.6404 0.3807 l
0.6412 0.3813 l
0.6421 0.3819 l
0.6429 0.3825 l
0.6438 0.3831 l
0.6446 0.3837 l
0.6455 0.3843 l
0.6463 0.3849 l
0.6472 0.3854 l
0.6481 0.3860 l
0.6489 0.3866 l
0.6498 0.3871 l
0.6506 0.3876 l
0.6515 0.3882 l
0.6523 0.3887 l
0.6532 0.3892 l
0.6540 0.3897 l
0.6549 0.3902 l
0.6558 0.3907 l
0.6566 0.3912 l
0.6575 0.3917 l
0.6583 0.3922 l
0.6592 0.3926 l
0.6600 0.3931 l
0.6609 0.3935 l
0.6618 0.3939 l
0.6626 0.3944 l
0.6635 0.3948 l
0.6643 0.3952 l
0.6652 0.3956 l
0.6660 0.3960 l
0.6669 0.3964 l
0.6677 0.3967 l
0.6686 0.3971 l
0.6695 0.3974 l
0.6703 0.3978 l
0.6712 0.3981 l
0.6720 0.3984 l
0.6729 0.3988 l
0.6737 0.3991 l
0.6746 0.3993 l
0.6755 0.3996 l
0.6763 0.3999 l
0.6772 0.4002 l
0.6780 0.4004 l
0.6789 0.4007 l
0.6797 0.4009 l
0.6806 0.4011 l
0.6814 0.4013 l
0.6823 0.4015 l
0.6832 0.4017 l
0.6840 0.4019 l
0.6849 0.4021 l
0.6857 0.4022 l
0.6866 0.4024 l
0.6874 0.4025 l
0.6883 0.4027 l
0.6891 0.4028 l
0.6900 0.4029 l
0.6909 0.4030 l
0.6917 0.4031 l
0.6926 0.4032 l
0.6934 0.4033 l
0.6943 0.4033 l
0.6951 0.4034 l
0.6960 0.4034 l
0.6969 0.4035 l
0.6977 0.4035 l
0.6986 0.4035 l
0.6994 0.4035 l
0.7003 0.4035 l
0.7011 0.4035 l
0.7020 0.4035 l
0.7028 0.4035 l
0.7037 0.4034 l
0.7046 0.4034 l
0.7054 0.4033 l
0.7063 0.4033 l
0.7071 0.4032 l
0.7080 0.4031 l
0.7088 0.4031 l
0.7097 0.4030 l
0.7105 0.4029 l
0.7114 0.4028 l
0.7123 0.4026 l
0.7131 0.4025 l
0.7140 0.4024 l
0.7148 0.4023 l
0.7157 0.4021 l
0.7165 0.4020 l
0.7174 0.4018 l
0.7183 0.4016 l
0.7191 0.4015 l
0.7200 0.4013 l
0.7208 0.4011 l
0.7217 0.4009 l
0.7225 0.4007 l
0.7234 0.4005 l
0.7242 0.4003 l
0.7251 0.4001 l
0.7260 0.3999 l
0.7268 0.3997 l
0.7277 0.3995 l
0.7285 0.3992 l
0.7294 0.3990 l
0.7302 0.3987 l
0.7311 0.3985 l
0.7319 0.3983 l
0.7328 0.3980 l
0.7337 0.3977 l
0.7345 0.3975 l
0.7354 0.3972 l
0.7362 0.3969 l
0.7371 0.3967 l
0.7379 0.3964 l
0.7388 0.3961 l
0.7397 0.3958 l
0.7405 0.3956 l
0.7414 0.3953 l
0.7422 0.3950 l
0.7431 0.3947 l
0.7439 0.3944 l
0.7448 0.3941 l
0.7456 0.3938 l
0.7465 0.3935 l
0.7474 0.3932 l
0.7482 0.3929 l
0.7491 0.3926 l
0.7499 0.3923 l
0.7508 0.3920 l
0.7516 0.3917 l
0.7525 0.3914 l
0.7533 0.3911 l
0.7542 0.3908 l
0.7551 0.3905 l
0.7559 0.3902 l
0.7568 0.3899 l
0.7576 0.3895 l
0.7585 0.3892 l
0.7593 0.3889 l
0.7602 0.3886 l
0.7611 0.3883 l
0.7619 0.3880 l
0.7628 0.3877 l
0.7636 0.3874 l
0.7645 0.3871 l
0.7653 0.3868 l
0.7662 0.3865 l
0.7670 0.3862 l
0.7679 0.3859 l
0.7688 0.3856 l
0.7696 0.3853 l
0.7705 0.3850 l
0.7713 0.3848 l
0.7722 0.3845 l
0.7730 0.3842 l
0.7739 0.3839 l
0.7747 0.3836 l
0.7756 0.3834 l
0.7765 0.3831 l
0.7773 0.3828 l
0.7782 0.3825 l
0.7790 0.3823 l
0.7799 0.3820 l
0.7807 0.3818 l
0.7816 0.3815 l
0.7825 0.3813 l
0.7833 0.3810 l
0.7842 0.3808 l
0.7850 0.3805 l
0.7859 0.3803 l
0.7867 0.3800 l
0.7876 0.3798 l
0.7884 0.3796 l
0.7893 0.3794 l
0.7902 0.3792 l
0.7910 0.3789 l
0.7919 0.3787 l
0.7927 0.3785 l
0.7936 0.3783 l
0.7944 0.3781 l
0.7953 0.3779 l
0.7961 0.3777 l
0.7970 0.3776 l
0.7979 0.3774 l
0.7987 0.3772 l
0.7996 0.3770 l
0.8004 0.3769 l
0.8013 0.3767 l
0.8021 0.3765 l
0.8030 0.3764 l
0.8039 0.3762 l
0.8047 0.3761 l
0.8056 0.3759 l
0.8064 0.3758 l
0.8073 0.3757 l
0.8081 0.3756 l
0.8090 0.3754 l
0.8098 0.3753 l
0.8107 0.3752 l
0.8116 0.3751 l
0.8124 0.3750 l
0.8133 0.3749 l
0.8141 0.3748 l
0.8150 0.3747 l
0.8158 0.3746 l
0.8167 0.3745 l
0.8175 0.3745 l
0.8184 0.3744 l
0.8193 0.3743 l
0.8201 0.3743 l
0.8210 0.3742 l
0.8218 0.3742 l
0.8227 0.3741 l
0.8235 0.3741 l
0.8244 0.3740 l
0.8253 0.3740 l
0.8261 0.3740 l
0.8270 0.3739 l
0.8278 0.3739 l
0.8287 0.3739 l
0.8295 0.3739 l
0.8304 0.3739 l
0.8312 0.3739 l
0.8321 0.3739 l
0.8330 0.3739 l
0.8338 0.3739 l
0.8347 0.3739 l
0.8355 0.3739 l
0.8364 0.3740 l
0.8372 0.3740 l
0.8381 0.3740 l
0.8389 0.3740 l
0.8398 0.3741 l
0.8407 0.3741 l
0.8415 0.3742 l
0.8424 0.3742 l
0.8432 0.3743 l
0.8441 0.3743 l
0.8449 0.3744 l
0.8458 0.3744 l
0.8467 0.3745 l
0.8475 0.3746 l
0.8484 0.3746 l
0.8492 0.3747 l
0.8501 0.3748 l
0.8509 0.3749 l
0.8518 0.3749 l
0.8526 0.3750 l
0.8535 0.3751 l
0.8544 0.3752 l
0.8552 0.3753 l
0.8561 0.3754 l
0.8569 0.3755 l
0.8578 0.3756 l
0.8586 0.3757 l
0.8595 0.3758 l
0.8603 0.3759 l
0.8612 0.3760 l
0.8621 0.3761 l
0.8629 0.3763 l
0.8638 0.3764 l
0.8646 0.3765 l
0.8655 0.3766 l
0.8663 0.3767 l
0.8672 0.3769 l
0.8681 0.3770 l
0.8689 0.3771 l
0.8698 0.3772 l
0.8706 0.3774 l
0.8715 0.3775 l
0.8723 0.3776 l
0.8732 0.3778 l
0.8740 0.3779 l
0.8749 0.3780 l
0.8758 0.3782 l
0.8766 0.3783 l
0.8775 0.3785 l
0.8783 0.3786 l
0.8792 0.3787 l
0.8800 0.3789 l
0.8809 0.3790 l
0.8817 0.3792 l
0.8826 0.3793 l
0.8835 0.3794 l
0.8843 0.3796 l
0.8852 0.3797 l
0.8860 0.3799 l
0.8869 0.3800 l
0.8877 0.3802 l
0.8886 0.3803 l
0.8895 0.3804 l
0.8903 0.3806 l
0.8912 0.3807 l
0.8920 0.3809 l
0.8929 0.3810 l
0.8937 0.3812 l
0.8946 0.3813 l
0.8954 0.3814 l
0.8963 0.3816 l
0.8972 0.3817 l
0.8980 0.3819 l
0.8989 0.3820 l
0.8997 0.3821 l
0.9006 0.3823 l
0.9014 0.3824 l
0.9023 0.3825 l
0.9031 0.3827 l
0.9040 0.3828 l
0.9049 0.3829 l
0.9057 0.3831 l
0.9066 0.3832 l
0.9074 0.3833 l
0.9083 0.3835 l
0.9091 0.3836 l
0.9100 0.3837 l
0.9109 0.3838 l
0.9117 0.3840 l
0.9126 0.3841 l
0.9134 0.3842 l
0.9143 0.3843 l
0.9151 0.3844 l
0.9160 0.3845 l
0.9168 0.3847 l
0.9177 0.3848 l
0.9186 0.3849 l
0.9194 0.3850 l
0.9203 0.3851 l
0.9211 0.3852 l
0.9220 0.3853 l
0.9228 0.3854 l
0.9237 0.3855 l
0.9245 0.3856 l
0.9254 0.3857 l
0.9263 0.3858 l
0.9271 0.3859 l
0.9280 0.3859 l
0.9288 0.3860 l
0.9297 0.3861 l
0.9305 0.3862 l
0.9314 0.3863 l
0.9323 0.3864 l
0.9331 0.3864 l
0.9340 0.3865 l
0.9348 0.3866 l
0.9357 0.3866 l
0.9365 0.3867 l
0.9374 0.3868 l
0.9382 0.3868 l
0.9391 0.3869 l
0.9400 0.3870 l
0.9408 0.3870 l
0.9417 0.3871 l
0.9425 0.3871 l
0.9434 0.3872 l
0.9442 0.3872 l
0.9451 0.3873 l
0.9459 0.3873 l
0.9468 0.3873 l
0.9477 0.3874 l
0.9485 0.3874 l
0.9494 0.3875 l
0.9502 0.3875 l
0.9511 0.3875 l
0.9519 0.3876 l
0.9528 0.3876 l
0.9537 0.3876 l
0.9545 0.3876 l
0.9554 0.3876 l
0.9562 0.3877 l
0.9571 0.3877 l
0.9579 0.3877 l
0.9588 0.3877 l
0.9596 0.3877 l
0.9605 0.3877 l
0.9614 0.3877 l
0.9622 0.3877 l
0.9631 0.3877 l
0.9639 0.3877 l
0.9648 0.3877 l
0.9656 0.3877 l
0.9665 0.3877 l
0.9673 0.3877 l
0.9682 0.3877 l
0.9691 0.3877 l
0.9699 0.3877 l
0.9708 0.3877 l
0.9716 0.3876 l
0.9725 0.3876 l
0.9733 0.3876 l
0.9742 0.3876 l
0.9751 0.3875 l
0.9759 0.3875 l
0.9768 0.3875 l
0.9776 0.3875 l
0.9785 0.3874 l
0.9793 0.3874 l
0.9802 0.3874 l
0.9810 0.3873 l
0.9819 0.3873 l
0.9828 0.3873 l
0.9836 0.3872 l
0.9845 0.3872 l
0.9853 0.3871 l
0.9862 0.3871 l
0.9870 0.3871 l
0.9879 0.3870 l
0.9887 0.3870 l
0.9896 0.3869 l
0.9905 0.3869 l
0.9913 0.3868 l
0.9922 0.3868 l
0.9930 0.3867 l
0.9939 0.3867 l
0.9947 0.3866 l
0.9956 0.3866 l
0.9965 0.3865 l
0.9973 0.3864 l
0.9982 0.3864 l
0.9990 0.3863 l
0.9999 0.3863 l
1.0007 0.3862 l
1.0016 0.3861 l
1.0024 0.3861 l
1.0033 0.3860 l
1.0042 0.3860 l
1.0050 0.3859 l
1.0059 0.3858 l
1.0067 0.3858 l
1.0076 0.3857 l
1.0084 0.3856 l
1.0093 0.3856 l
1.0101 0.3855 l
1.0110 0.3855 l
1.0119 0.3854 l
1.0127 0.3853 l
1.0136 0.3853 l
1.0144 0.3852 l
1.0153 0.3851 l
1.0161 0.3851 l
1.0170 0.3850 l
1.0179 0.3849 l
1.0187 0.3849 l
1.0196 0.3848 l
1.0204 0.3847 l
1.0213 0.3847 l
1.0221 0.3846 l
1.0230 0.3845 l
1.0238 0.3845 l
1.0247 0.3844 l
1.0256 0.3843 l
1.0264 0.3843 l
1.0273 0.3842 l
1.0281 0.3841 l
1.0290 0.3841 l
1.0298 0.3840 l
1.0307 0.3839 l
1.0315 0.3839 l
1.0324 0.3838 l
1.0333 0.3837 l
1.0341 0.3837 l
1.0350 0.3836 l
1.0358 0.3835 l
1.0367 0.3835 l
1.0375 0.3834 l
1.0384 0.3834 l
s
n
0.2688 0.1500 m
0.2688 0.1700 l
s
n
0.2688 0.8500 m
0.2688 0.8300 l
s
n
0.4398 0.1500 m
0.4398 0.1700 l
s
n
0.4398 0.8500 m
0.4398 0.8300 l
s
n
0.6108 0.1500 m
0.6108 0.1700 l
s
n
0.6108 0.8500 m
0.6108 0.8300 l
s
n
0.7819 0.1500 m
0.7819 0.1700 l
s
n
0.7819 0.8500 m
0.7819 0.8300 l
s
n
0.9529 0.1500 m
0.9529 0.1700 l
s
n
0.9529 0.8500 m
0.9529 0.8300 l
s
n
0.1832 0.1500 m
0.1832 0.1800 l
s
n
0.1832 0.8500 m
0.1832 0.8200 l
s
n
0.3543 0.1500 m
0.3543 0.1800 l
s
n
0.3543 0.8500 m
0.3543 0.8200 l
s
n
0.5253 0.1500 m
0.5253 0.1800 l
s
n
0.5253 0.8500 m
0.5253 0.8200 l
s
n
0.6963 0.1500 m
0.6963 0.1800 l
s
n
0.6963 0.8500 m
0.6963 0.8200 l
s
n
0.8674 0.1500 m
0.8674 0.1800 l
s
n
0.8674 0.8500 m
0.8674 0.8200 l
s
n
1.0384 0.1500 m
1.0384 0.1800 l
s
n
1.0384 0.8500 m
1.0384 0.8200 l
s
/Helvetica findfont
dup length dict begin
 {1 index /FID ne {def} {pop pop} ifelse} forall
 /Encoding DefEncoding def
 currentdict
end
/Font12 exch definefont pop
/Font12 FFSF
0.1724 0.1104 m
GS
[0.0420 0.0000 0.0000 0.0420 0 0] CC
(0) show
GR
/Font12 FFSF
0.3319 0.1104 m
GS
[0.0420 0.0000 0.0000 0.0420 0 0] CC
(10) show
GR
/Font12 FFSF
0.5029 0.1104 m
GS
[0.0420 0.0000 0.0000 0.0420 0 0] CC
(20) show
GR
/Font12 FFSF
0.6739 0.1104 m
GS
[0.0420 0.0000 0.0000 0.0420 0 0] CC
(30) show
GR
/Font12 FFSF
0.8450 0.1104 m
GS
[0.0420 0.0000 0.0000 0.0420 0 0] CC
(40) show
GR
/Font12 FFSF
1.0160 0.1104 m
GS
[0.0420 0.0000 0.0000 0.0420 0 0] CC
(50) show
GR
/Font12 FFSF
0.5762 0.0688 m
GS
[0.0420 0.0000 0.0000 0.0420 0 0] CC
(t \(s\)) show
GR
n
0.1832 0.2083 m
0.2032 0.2083 l
s
n
1.0384 0.2083 m
1.0184 0.2083 l
s
n
0.1832 0.3250 m
0.2032 0.3250 l
s
n
1.0384 0.3250 m
1.0184 0.3250 l
s
n
0.1832 0.4416 m
0.2032 0.4416 l
s
n
1.0384 0.4416 m
1.0184 0.4416 l
s
n
0.1832 0.5583 m
0.2032 0.5583 l
s
n
1.0384 0.5583 m
1.0184 0.5583 l
s
n
0.1832 0.6750 m
0.2032 0.6750 l
s
n
1.0384 0.6750 m
1.0184 0.6750 l
s
n
0.1832 0.7916 m
0.2032 0.7916 l
s
n
1.0384 0.7916 m
1.0184 0.7916 l
s
n
0.1832 0.1500 m
0.2132 0.1500 l
s
n
1.0384 0.1500 m
1.0084 0.1500 l
s
n
0.1832 0.2667 m
0.2132 0.2667 l
s
n
1.0384 0.2667 m
1.0084 0.2667 l
s
n
0.1832 0.3833 m
0.2132 0.3833 l
s
n
1.0384 0.3833 m
1.0084 0.3833 l
s
n
0.1832 0.5000 m
0.2132 0.5000 l
s
n
1.0384 0.5000 m
1.0084 0.5000 l
s
n
0.1832 0.6166 m
0.2132 0.6166 l
s
n
1.0384 0.6166 m
1.0084 0.6166 l
s
n
0.1832 0.7333 m
0.2132 0.7333 l
s
n
1.0384 0.7333 m
1.0084 0.7333 l
s
n
0.1832 0.8500 m
0.2132 0.8500 l
s
n
1.0384 0.8500 m
1.0084 0.8500 l
s
/Font12 FFSF
0.0560 0.1356 m
GS
[0.0420 0.0000 0.0000 0.0420 0 0] CC
(-0.100) show
GR
/Font12 FFSF
0.0560 0.2523 m
GS
[0.0420 0.0000 0.0000 0.0420 0 0] CC
(-0.050) show
GR
/Font12 FFSF
0.0700 0.3689 m
GS
[0.0420 0.0000 0.0000 0.0420 0 0] CC
(0.000) show
GR
/Font12 FFSF
0.0700 0.4856 m
GS
[0.0420 0.0000 0.0000 0.0420 0 0] CC
(0.050) show
GR
/Font12 FFSF
0.0700 0.6022 m
GS
[0.0420 0.0000 0.0000 0.0420 0 0] CC
(0.100) show
GR
/Font12 FFSF
0.0700 0.7189 m
GS
[0.0420 0.0000 0.0000 0.0420 0 0] CC
(0.150) show
GR
/Font12 FFSF
0.0700 0.8356 m
GS
[0.0420 0.0000 0.0000 0.0420 0 0] CC
(0.200) show
GR
/Font12 FFSF
0.0372 0.4526 m
GS
[0.0000 0.0420 -0.0420 0.0000 0 0] CC
(a \(m\)) show
GR
n
0.1832 0.1500 m
0.1832 0.8500 l
1.0384 0.8500 l
1.0384 0.1500 l
0.1832 0.1500 l
c
s
%%Trailer
%%BoundingBox: 2 34 638 521
%%DocumentNeededResources: font Helvetica
%%EOF
