%!PS-Adobe-3.0 EPSF-3.0
%%BoundingBox: (atend)
%%LanguageLevel: 2
%%Creator: Grace-5.1.22
%%CreationDate: Fri Nov  7 01:54:04 2014
%%DocumentData: Clean8Bit
%%Orientation: Portrait
%%Title: fit-gph.agr
%%For: wfr
%%DocumentNeededResources: (atend)
%%EndComments
%%BeginProlog
/m {moveto} def
/l {lineto} def
/s {stroke} def
/n {newpath} def
/c {closepath} def
/RL {rlineto} def
/SLW {setlinewidth} def
/GS {gsave} def
/GR {grestore} def
/SC {setcolor} def
/SGRY {setgray} def
/SRGB {setrgbcolor} def
/SD {setdash} def
/SLC {setlinecap} def
/SLJ {setlinejoin} def
/SCS {setcolorspace} def
/FFSF {findfont setfont} def
/CC {concat} def
/PXL {n m 0 0 RL s} def
/Color0 {1.0000 1.0000 1.0000} def
/Color1 {0.0000 0.0000 0.0000} def
/Color2 {1.0000 0.0000 0.0000} def
/Color3 {0.0000 1.0000 0.0000} def
/Color4 {0.0000 0.0000 1.0000} def
/Color5 {1.0000 1.0000 0.0000} def
/Color6 {0.7373 0.5608 0.5608} def
/Color7 {0.8627 0.8627 0.8627} def
/Color8 {0.5804 0.0000 0.8275} def
/Color9 {0.0000 1.0000 1.0000} def
/Color10 {1.0000 0.0000 1.0000} def
/Color11 {1.0000 0.6471 0.0000} def
/Color12 {0.4471 0.1294 0.7373} def
/Color13 {0.4039 0.0275 0.2824} def
/Color14 {0.2510 0.8784 0.8157} def
/Color15 {0.0000 0.5451 0.0000} def
/PTRN {
 /pat_bits exch def 
 <<
  /PaintType 2
  /PatternType 1 /TilingType 1
  /BBox[0 0 16 16]
  /XStep 16 /YStep 16
  /PaintProc {
   pop
   16 16 true [-1 0 0 -1 16 16] pat_bits imagemask
  }
 >>
 [0.0017 0 0 0.0017 0 0]
 makepattern
} def
/Pattern0 {<0000000000000000000000000000000000000000000000000000000000000000> PTRN} bind def
/Pattern1 {<ffffffffffffffffffffffffffffffffffffffffffffffffffffffffffffffff> PTRN} bind def
/Pattern2 {<eeeeffffbbbbffffeeeeffffbbbbffffeeeeffffbbbbffffeeeeffffbbbbffff> PTRN} bind def
/Pattern3 {<eeeebbbbeeeebbbbeeeebbbbeeeebbbbeeeebbbbeeeebbbbeeeebbbbeeeebbbb> PTRN} bind def
/Pattern4 {<5555aaaa5555aaaa5555aaaa5555aaaa5555aaaa5555aaaa5555aaaa5555aaaa> PTRN} bind def
/Pattern5 {<1111444411114444111144441111444411114444111144441111444411114444> PTRN} bind def
/Pattern6 {<1111000044440000111100004444000011110000444400001111000044440000> PTRN} bind def
/Pattern7 {<1010000000000000010100000000000010100000000000000101000000000000> PTRN} bind def
/Pattern8 {<0000000000000000000000000000000000000000000000000000000000000000> PTRN} bind def
/Pattern9 {<1e1e0f0f8787c3c3e1e1f0f078783c3c1e1e0f0f8787c3c3e1e1f0f078783c3c> PTRN} bind def
/Pattern10 {<7878f0f0e1e1c3c387870f0f1e1e3c3c7878f0f0e1e1c3c387870f0f1e1e3c3c> PTRN} bind def
/Pattern11 {<3333333333333333333333333333333333333333333333333333333333333333> PTRN} bind def
/Pattern12 {<ffffffff00000000ffffffff00000000ffffffff00000000ffffffff00000000> PTRN} bind def
/Pattern13 {<8181424224241818181824244242818181814242242418181818242442428181> PTRN} bind def
/Pattern14 {<8080404020201010080804040202010180804040202010100808040402020101> PTRN} bind def
/Pattern15 {<0101020204040808101020204040808001010202040408081010202040408080> PTRN} bind def
/Pattern16 {<2222222222222222222222222222222222222222222222222222222222222222> PTRN} bind def
/Pattern17 {<0000ffff000000000000ffff000000000000ffff000000000000ffff00000000> PTRN} bind def
/Pattern18 {<2222ffff222222222222ffff222222222222ffff222222222222ffff22222222> PTRN} bind def
/Pattern19 {<ffffffff33333333ffffffff33333333ffffffff33333333ffffffff33333333> PTRN} bind def
/Pattern20 {<0f0f0f0f0f0f0f0ff0f0f0f0f0f0f0f00f0f0f0f0f0f0f0ff0f0f0f0f0f0f0f0> PTRN} bind def
/Pattern21 {<ff00ff00ff00ff00ff00ff00ff00ff0000ff00ff00ff00ff00ff00ff00ff00ff> PTRN} bind def
/Pattern22 {<8001800180018001800180018001ffffffff8001800180018001800180018001> PTRN} bind def
/Pattern23 {<c003c003c003c003c003c003ffffffffffffffffc003c003c003c003c003c003> PTRN} bind def
/Pattern24 {<040404040404ffff404040404040ffff040404040404ffff404040404040ffff> PTRN} bind def
/Pattern25 {<180018001800180018001800ffffffff001800180018001800180018ffffffff> PTRN} bind def
/Pattern26 {<1111b8b87c7c3a3a1111a3a3c7c78b8b1111b8b87c7c3a3a1111a3a3c7c78b8b> PTRN} bind def
/Pattern27 {<101010102828c7c70101010182827c7c101010102828c7c70101010182827c7c> PTRN} bind def
/Pattern28 {<1c1c121211112121c1c12121111112121c1c121211112121c1c1212111111212> PTRN} bind def
/Pattern29 {<3e3e414180808080e3e31414080808083e3e414180808080e3e3141408080808> PTRN} bind def
/Pattern30 {<4848888884848383848488884848383848488888848483838484888848483838> PTRN} bind def
/Pattern31 {<03030404080808080c0c12122121c0c003030404080808080c0c12122121c0c0> PTRN} bind def
/ellipsedict 8 dict def
ellipsedict /mtrx matrix put
/EARC {
 ellipsedict begin
  /endangle exch def
  /startangle exch def
  /yrad exch def
  /xrad exch def
  /y exch def
  /x exch def
  /savematrix mtrx currentmatrix def
  x y translate
  xrad yrad scale
  0 0 1 startangle endangle arc
  savematrix setmatrix
 end
} def
/TL {
  /kcomp exch def
  /linewidth exch def
  /offset exch def
  GS
  0 offset rmoveto
  linewidth SLW
  dup stringwidth exch kcomp add exch RL s
  GR
} def
/KINIT
{
 /kvector exch def
 /kid 0 def
} def
/KPROC
{
 pop pop
 kvector kid get
 0 rmoveto
 /kid 1 kid add def
} def
/DefEncoding [
 /.notdef
 /.notdef
 /.notdef
 /.notdef
 /.notdef
 /.notdef
 /.notdef
 /.notdef
 /.notdef
 /.notdef
 /.notdef
 /.notdef
 /.notdef
 /.notdef
 /.notdef
 /.notdef
 /.notdef
 /.notdef
 /.notdef
 /.notdef
 /.notdef
 /.notdef
 /.notdef
 /.notdef
 /.notdef
 /.notdef
 /.notdef
 /.notdef
 /.notdef
 /.notdef
 /.notdef
 /.notdef
 /space
 /exclam
 /quotedbl
 /numbersign
 /dollar
 /percent
 /ampersand
 /quoteright
 /parenleft
 /parenright
 /asterisk
 /plus
 /comma
 /hyphen
 /period
 /slash
 /zero
 /one
 /two
 /three
 /four
 /five
 /six
 /seven
 /eight
 /nine
 /colon
 /semicolon
 /less
 /equal
 /greater
 /question
 /at
 /A
 /B
 /C
 /D
 /E
 /F
 /G
 /H
 /I
 /J
 /K
 /L
 /M
 /N
 /O
 /P
 /Q
 /R
 /S
 /T
 /U
 /V
 /W
 /X
 /Y
 /Z
 /bracketleft
 /backslash
 /bracketright
 /asciicircum
 /underscore
 /grave
 /a
 /b
 /c
 /d
 /e
 /f
 /g
 /h
 /i
 /j
 /k
 /l
 /m
 /n
 /o
 /p
 /q
 /r
 /s
 /t
 /u
 /v
 /w
 /x
 /y
 /z
 /braceleft
 /bar
 /braceright
 /asciitilde
 /.notdef
 /.notdef
 /.notdef
 /.notdef
 /.notdef
 /.notdef
 /.notdef
 /.notdef
 /.notdef
 /.notdef
 /.notdef
 /.notdef
 /.notdef
 /.notdef
 /.notdef
 /.notdef
 /.notdef
 /.notdef
 /.notdef
 /.notdef
 /.notdef
 /.notdef
 /.notdef
 /.notdef
 /.notdef
 /.notdef
 /.notdef
 /.notdef
 /.notdef
 /.notdef
 /.notdef
 /.notdef
 /.notdef
 /space
 /exclamdown
 /cent
 /sterling
 /currency
 /yen
 /brokenbar
 /section
 /dieresis
 /copyright
 /ordfeminine
 /guillemotleft
 /logicalnot
 /hyphen
 /registered
 /macron
 /degree
 /plusminus
 /twosuperior
 /threesuperior
 /acute
 /mu
 /paragraph
 /periodcentered
 /cedilla
 /onesuperior
 /ordmasculine
 /guillemotright
 /onequarter
 /onehalf
 /threequarters
 /questiondown
 /Agrave
 /Aacute
 /Acircumflex
 /Atilde
 /Adieresis
 /Aring
 /AE
 /Ccedilla
 /Egrave
 /Eacute
 /Ecircumflex
 /Edieresis
 /Igrave
 /Iacute
 /Icircumflex
 /Idieresis
 /Eth
 /Ntilde
 /Ograve
 /Oacute
 /Ocircumflex
 /Otilde
 /Odieresis
 /multiply
 /Oslash
 /Ugrave
 /Uacute
 /Ucircumflex
 /Udieresis
 /Yacute
 /Thorn
 /germandbls
 /agrave
 /aacute
 /acircumflex
 /atilde
 /adieresis
 /aring
 /ae
 /ccedilla
 /egrave
 /eacute
 /ecircumflex
 /edieresis
 /igrave
 /iacute
 /icircumflex
 /idieresis
 /eth
 /ntilde
 /ograve
 /oacute
 /ocircumflex
 /otilde
 /odieresis
 /divide
 /oslash
 /ugrave
 /uacute
 /ucircumflex
 /udieresis
 /yacute
 /thorn
 /ydieresis
] def
%%EndProlog
%%BeginSetup
%%EndSetup
600.00 600.00 scale
n
0.0000 0.0000 m
0.0000 1.0000 l
1.2884 1.0000 l
1.2884 0.0000 l
c
[/DeviceRGB] SCS
Color0 SC
fill
[/DeviceRGB] SCS
Color1 SC
[] 0 SD
0.0015 SLW
0 SLC
0 SLJ
n
0.2074 0.8302 m
0.2074 0.8312 l
s
n
0.1974 0.8312 m
0.2174 0.8312 l
s
n
0.2074 0.8302 m
0.2074 0.8291 l
s
n
0.2174 0.8291 m
0.1974 0.8291 l
s
n
0.2612 0.1698 m
0.2612 0.1708 l
s
n
0.2512 0.1708 m
0.2712 0.1708 l
s
n
0.2612 0.1698 m
0.2612 0.1687 l
s
n
0.2712 0.1687 m
0.2512 0.1687 l
s
n
0.3150 0.6835 m
0.3150 0.6846 l
s
n
0.3050 0.6846 m
0.3250 0.6846 l
s
n
0.3150 0.6835 m
0.3150 0.6825 l
s
n
0.3250 0.6825 m
0.3050 0.6825 l
s
n
0.3688 0.2822 m
0.3688 0.2833 l
s
n
0.3588 0.2833 m
0.3788 0.2833 l
s
n
0.3688 0.2822 m
0.3688 0.2812 l
s
n
0.3788 0.2812 m
0.3588 0.2812 l
s
n
0.4226 0.5957 m
0.4226 0.5967 l
s
n
0.4126 0.5967 m
0.4326 0.5967 l
s
n
0.4226 0.5957 m
0.4226 0.5946 l
s
n
0.4326 0.5946 m
0.4126 0.5946 l
s
n
0.4763 0.3389 m
0.4763 0.3399 l
s
n
0.4663 0.3399 m
0.4863 0.3399 l
s
n
0.4763 0.3389 m
0.4763 0.3378 l
s
n
0.4863 0.3378 m
0.4663 0.3378 l
s
n
0.5301 0.5410 m
0.5301 0.5421 l
s
n
0.5201 0.5421 m
0.5401 0.5421 l
s
n
0.5301 0.5410 m
0.5301 0.5400 l
s
n
0.5401 0.5400 m
0.5201 0.5400 l
s
n
0.5839 0.3915 m
0.5839 0.3925 l
s
n
0.5739 0.3925 m
0.5939 0.3925 l
s
n
0.5839 0.3915 m
0.5839 0.3904 l
s
n
0.5939 0.3904 m
0.5739 0.3904 l
s
n
0.6377 0.5095 m
0.6377 0.5105 l
s
n
0.6277 0.5105 m
0.6477 0.5105 l
s
n
0.6377 0.5095 m
0.6377 0.5084 l
s
n
0.6477 0.5084 m
0.6277 0.5084 l
s
n
0.6915 0.4157 m
0.6915 0.4167 l
s
n
0.6815 0.4167 m
0.7015 0.4167 l
s
n
0.6915 0.4157 m
0.6915 0.4146 l
s
n
0.7015 0.4146 m
0.6815 0.4146 l
s
n
0.7453 0.4884 m
0.7453 0.4894 l
s
n
0.7353 0.4894 m
0.7553 0.4894 l
s
n
0.7453 0.4884 m
0.7453 0.4873 l
s
n
0.7553 0.4873 m
0.7353 0.4873 l
s
n
0.7991 0.4315 m
0.7991 0.4325 l
s
n
0.7891 0.4325 m
0.8091 0.4325 l
s
n
0.7991 0.4315 m
0.7991 0.4304 l
s
n
0.8091 0.4304 m
0.7891 0.4304 l
s
n
0.8529 0.4768 m
0.8529 0.4779 l
s
n
0.8429 0.4779 m
0.8629 0.4779 l
s
n
0.8529 0.4768 m
0.8529 0.4757 l
s
n
0.8629 0.4757 m
0.8429 0.4757 l
s
n
0.9067 0.4410 m
0.9067 0.4420 l
s
n
0.8967 0.4420 m
0.9167 0.4420 l
s
n
0.9067 0.4410 m
0.9067 0.4399 l
s
n
0.9167 0.4399 m
0.8967 0.4399 l
s
n
0.9605 0.4673 m
0.9605 0.4684 l
s
n
0.9505 0.4684 m
0.9705 0.4684 l
s
n
0.9605 0.4673 m
0.9605 0.4663 l
s
n
0.9705 0.4663 m
0.9505 0.4663 l
s
n
1.0142 0.4473 m
1.0142 0.4484 l
s
n
1.0042 0.4484 m
1.0242 0.4484 l
s
n
1.0142 0.4473 m
1.0142 0.4462 l
s
n
1.0242 0.4462 m
1.0042 0.4462 l
s
[] 0 SD
0.0030 SLW
n 0.2074 0.8302 0.0100 0.0100 0 360 EARC s
n 0.2612 0.1698 0.0100 0.0100 0 360 EARC s
n 0.3150 0.6835 0.0100 0.0100 0 360 EARC s
n 0.3688 0.2822 0.0100 0.0100 0 360 EARC s
n 0.4226 0.5957 0.0100 0.0100 0 360 EARC s
n 0.4763 0.3389 0.0100 0.0100 0 360 EARC s
n 0.5301 0.5410 0.0100 0.0100 0 360 EARC s
n 0.5839 0.3915 0.0100 0.0100 0 360 EARC s
n 0.6377 0.5095 0.0100 0.0100 0 360 EARC s
n 0.6915 0.4157 0.0100 0.0100 0 360 EARC s
n 0.7453 0.4884 0.0100 0.0100 0 360 EARC s
n 0.7991 0.4315 0.0100 0.0100 0 360 EARC s
n 0.8529 0.4768 0.0100 0.0100 0 360 EARC s
n 0.9067 0.4410 0.0100 0.0100 0 360 EARC s
n 0.9605 0.4673 0.0100 0.0100 0 360 EARC s
n 1.0142 0.4473 0.0100 0.0100 0 360 EARC s
[/DeviceRGB] SCS
Color2 SC
[] 0 SD
0.0015 SLW
n
0.1832 0.5298 m
0.1919 0.7075 l
0.2005 0.8113 l
0.2092 0.8219 l
0.2178 0.7436 l
0.2264 0.6021 l
0.2351 0.4363 l
0.2437 0.2879 l
0.2523 0.1914 l
0.2610 0.1662 l
0.2696 0.2129 l
0.2783 0.3149 l
0.2869 0.4434 l
0.2955 0.5654 l
0.3042 0.6520 l
0.3128 0.6850 l
0.3215 0.6605 l
0.3301 0.5887 l
0.3387 0.4906 l
0.3474 0.3917 l
0.3560 0.3160 l
0.3646 0.2799 l
0.3733 0.2892 l
0.3819 0.3382 l
0.3906 0.4121 l
0.3992 0.4911 l
0.4078 0.5559 l
0.4165 0.5920 l
0.4251 0.5927 l
0.4337 0.5606 l
0.4424 0.5059 l
0.4510 0.4435 l
0.4597 0.3890 l
0.4683 0.3550 l
0.4769 0.3481 l
0.4856 0.3679 l
0.4942 0.4076 l
0.5028 0.4562 l
0.5115 0.5013 l
0.5201 0.5322 l
0.5288 0.5426 l
0.5374 0.5316 l
0.5460 0.5033 l
0.5547 0.4660 l
0.5633 0.4292 l
0.5720 0.4019 l
0.5806 0.3899 l
0.5892 0.3949 l
0.5979 0.4144 l
0.6065 0.4427 l
0.6151 0.4722 l
0.6238 0.4958 l
0.6324 0.5082 l
0.6411 0.5073 l
0.6497 0.4942 l
0.6583 0.4731 l
0.6670 0.4497 l
0.6756 0.4298 l
0.6842 0.4178 l
0.6929 0.4162 l
0.7015 0.4245 l
0.7102 0.4399 l
0.7188 0.4582 l
0.7274 0.4748 l
0.7361 0.4858 l
0.7447 0.4890 l
0.7533 0.4842 l
0.7620 0.4731 l
0.7706 0.4589 l
0.7793 0.4453 l
0.7879 0.4355 l
0.7965 0.4315 l
0.8052 0.4340 l
0.8138 0.4417 l
0.8224 0.4525 l
0.8311 0.4635 l
0.8397 0.4721 l
0.8484 0.4763 l
0.8570 0.4755 l
0.8656 0.4702 l
0.8743 0.4621 l
0.8829 0.4534 l
0.8916 0.4461 l
0.9002 0.4419 l
0.9088 0.4417 l
0.9175 0.4451 l
0.9261 0.4510 l
0.9347 0.4580 l
0.9434 0.4641 l
0.9520 0.4679 l
0.9607 0.4689 l
0.9693 0.4668 l
0.9779 0.4625 l
0.9866 0.4571 l
0.9952 0.4521 l
1.0038 0.4485 l
1.0125 0.4473 l
1.0211 0.4484 l
1.0298 0.4515 l
1.0384 0.4556 l
s
[/DeviceRGB] SCS
Color1 SC
[] 0 SD
0.0030 SLW
n
0.1832 0.5298 m
0.1919 0.7075 l
0.2005 0.8113 l
0.2092 0.8219 l
0.2178 0.7436 l
0.2264 0.6021 l
0.2351 0.4363 l
0.2437 0.2879 l
0.2523 0.1914 l
0.2610 0.1662 l
0.2696 0.2129 l
0.2783 0.3149 l
0.2869 0.4434 l
0.2955 0.5654 l
0.3042 0.6520 l
0.3128 0.6850 l
0.3215 0.6605 l
0.3301 0.5887 l
0.3387 0.4906 l
0.3474 0.3917 l
0.3560 0.3160 l
0.3646 0.2799 l
0.3733 0.2892 l
0.3819 0.3382 l
0.3906 0.4121 l
0.3992 0.4911 l
0.4078 0.5559 l
0.4165 0.5920 l
0.4251 0.5927 l
0.4337 0.5606 l
0.4424 0.5059 l
0.4510 0.4435 l
0.4597 0.3890 l
0.4683 0.3550 l
0.4769 0.3481 l
0.4856 0.3679 l
0.4942 0.4076 l
0.5028 0.4562 l
0.5115 0.5013 l
0.5201 0.5322 l
0.5288 0.5426 l
0.5374 0.5316 l
0.5460 0.5033 l
0.5547 0.4660 l
0.5633 0.4292 l
0.5720 0.4019 l
0.5806 0.3899 l
0.5892 0.3949 l
0.5979 0.4144 l
0.6065 0.4427 l
0.6151 0.4722 l
0.6238 0.4958 l
0.6324 0.5082 l
0.6411 0.5073 l
0.6497 0.4942 l
0.6583 0.4731 l
0.6670 0.4497 l
0.6756 0.4298 l
0.6842 0.4178 l
0.6929 0.4162 l
0.7015 0.4245 l
0.7102 0.4399 l
0.7188 0.4582 l
0.7274 0.4748 l
0.7361 0.4858 l
0.7447 0.4890 l
0.7533 0.4842 l
0.7620 0.4731 l
0.7706 0.4589 l
0.7793 0.4453 l
0.7879 0.4355 l
0.7965 0.4315 l
0.8052 0.4340 l
0.8138 0.4417 l
0.8224 0.4525 l
0.8311 0.4635 l
0.8397 0.4721 l
0.8484 0.4763 l
0.8570 0.4755 l
0.8656 0.4702 l
0.8743 0.4621 l
0.8829 0.4534 l
0.8916 0.4461 l
0.9002 0.4419 l
0.9088 0.4417 l
0.9175 0.4451 l
0.9261 0.4510 l
0.9347 0.4580 l
0.9434 0.4641 l
0.9520 0.4679 l
0.9607 0.4689 l
0.9693 0.4668 l
0.9779 0.4625 l
0.9866 0.4571 l
0.9952 0.4521 l
1.0038 0.4485 l
1.0125 0.4473 l
1.0211 0.4484 l
1.0298 0.4515 l
1.0384 0.4556 l
s
n
0.2806 0.1500 m
0.2806 0.1700 l
s
n
0.2806 0.8500 m
0.2806 0.8300 l
s
n
0.4269 0.1500 m
0.4269 0.1700 l
s
n
0.4269 0.8500 m
0.4269 0.8300 l
s
n
0.5733 0.1500 m
0.5733 0.1700 l
s
n
0.5733 0.8500 m
0.5733 0.8300 l
s
n
0.7197 0.1500 m
0.7197 0.1700 l
s
n
0.7197 0.8500 m
0.7197 0.8300 l
s
n
0.8660 0.1500 m
0.8660 0.1700 l
s
n
0.8660 0.8500 m
0.8660 0.8300 l
s
n
1.0124 0.1500 m
1.0124 0.1700 l
s
n
1.0124 0.8500 m
1.0124 0.8300 l
s
n
0.2074 0.1500 m
0.2074 0.1800 l
s
n
0.2074 0.8500 m
0.2074 0.8200 l
s
n
0.3538 0.1500 m
0.3538 0.1800 l
s
n
0.3538 0.8500 m
0.3538 0.8200 l
s
n
0.5001 0.1500 m
0.5001 0.1800 l
s
n
0.5001 0.8500 m
0.5001 0.8200 l
s
n
0.6465 0.1500 m
0.6465 0.1800 l
s
n
0.6465 0.8500 m
0.6465 0.8200 l
s
n
0.7929 0.1500 m
0.7929 0.1800 l
s
n
0.7929 0.8500 m
0.7929 0.8200 l
s
n
0.9392 0.1500 m
0.9392 0.1800 l
s
n
0.9392 0.8500 m
0.9392 0.8200 l
s
/Helvetica findfont
dup length dict begin
 {1 index /FID ne {def} {pop pop} ifelse} forall
 /Encoding DefEncoding def
 currentdict
end
/Font12 exch definefont pop
/Font12 FFSF
0.1966 0.1104 m
GS
[0.0420 0.0000 0.0000 0.0420 0 0] CC
(0) show
GR
/Font12 FFSF
0.3314 0.1104 m
GS
[0.0420 0.0000 0.0000 0.0420 0 0] CC
(20) show
GR
/Font12 FFSF
0.4777 0.1104 m
GS
[0.0420 0.0000 0.0000 0.0420 0 0] CC
(40) show
GR
/Font12 FFSF
0.6241 0.1104 m
GS
[0.0420 0.0000 0.0000 0.0420 0 0] CC
(60) show
GR
/Font12 FFSF
0.7705 0.1104 m
GS
[0.0420 0.0000 0.0000 0.0420 0 0] CC
(80) show
GR
/Font12 FFSF
0.9050 0.1104 m
GS
[0.0420 0.0000 0.0000 0.0420 0 0] CC
(100) show
GR
/Font12 FFSF
0.5168 0.0688 m
GS
[0.0420 0.0000 0.0000 0.0420 0 0] CC
(Tempo \(s\)) show
GR
n
0.1832 0.1907 m
0.2032 0.1907 l
s
n
1.0384 0.1907 m
1.0184 0.1907 l
s
n
0.1832 0.2971 m
0.2032 0.2971 l
s
n
1.0384 0.2971 m
1.0184 0.2971 l
s
n
0.1832 0.4036 m
0.2032 0.4036 l
s
n
1.0384 0.4036 m
1.0184 0.4036 l
s
n
0.1832 0.5100 m
0.2032 0.5100 l
s
n
1.0384 0.5100 m
1.0184 0.5100 l
s
n
0.1832 0.6164 m
0.2032 0.6164 l
s
n
1.0384 0.6164 m
1.0184 0.6164 l
s
n
0.1832 0.7229 m
0.2032 0.7229 l
s
n
1.0384 0.7229 m
1.0184 0.7229 l
s
n
0.1832 0.8293 m
0.2032 0.8293 l
s
n
1.0384 0.8293 m
1.0184 0.8293 l
s
n
0.1832 0.2439 m
0.2132 0.2439 l
s
n
1.0384 0.2439 m
1.0084 0.2439 l
s
n
0.1832 0.3503 m
0.2132 0.3503 l
s
n
1.0384 0.3503 m
1.0084 0.3503 l
s
n
0.1832 0.4568 m
0.2132 0.4568 l
s
n
1.0384 0.4568 m
1.0084 0.4568 l
s
n
0.1832 0.5632 m
0.2132 0.5632 l
s
n
1.0384 0.5632 m
1.0084 0.5632 l
s
n
0.1832 0.6697 m
0.2132 0.6697 l
s
n
1.0384 0.6697 m
1.0084 0.6697 l
s
n
0.1832 0.7761 m
0.2132 0.7761 l
s
n
1.0384 0.7761 m
1.0084 0.7761 l
s
/Font12 FFSF
0.0560 0.2295 m
GS
[0.0420 0.0000 0.0000 0.0420 0 0] CC
(-0.050) show
GR
/Font12 FFSF
0.0560 0.3359 m
GS
[0.0420 0.0000 0.0000 0.0420 0 0] CC
(-0.025) show
GR
/Font12 FFSF
0.0700 0.4424 m
GS
[0.0420 0.0000 0.0000 0.0420 0 0] CC
(0.000) show
GR
/Font12 FFSF
0.0700 0.5488 m
GS
[0.0420 0.0000 0.0000 0.0420 0 0] CC
(0.025) show
GR
/Font12 FFSF
0.0700 0.6553 m
GS
[0.0420 0.0000 0.0000 0.0420 0 0] CC
(0.050) show
GR
/Font12 FFSF
0.0700 0.7617 m
GS
[0.0420 0.0000 0.0000 0.0420 0 0] CC
(0.075) show
GR
/Symbol findfont
/Font28 exch definefont pop
/Font28 FFSF
0.0372 0.4382 m
GS
[0.0000 0.0420 -0.0420 0.0000 0 0] CC
(a) show
GR
/Font12 FFSF
0.0372 0.4646 m
GS
[0.0000 0.0420 -0.0420 0.0000 0 0] CC
( \(rad\)) show
GR
n
0.1832 0.1500 m
0.1832 0.8500 l
1.0384 0.8500 l
1.0384 0.1500 l
0.1832 0.1500 l
c
s
%%Trailer
%%BoundingBox: 2 34 625 512
%%DocumentNeededResources: font Helvetica
%%+ font Symbol
%%EOF
