           0    0.0877032  0.000247525
        7.35   -0.0674104  0.000247525
        14.7     0.053263  0.000247525
       22.05    -0.040997  0.000247525
        29.4    0.0326269  0.000247525
       36.75   -0.0276944  0.000247525
        44.1    0.0197916  0.000247525
       51.45   -0.0153417  0.000247525
        58.8    0.0123737  0.000247525
       66.15  -0.00965227  0.000247525
        73.5    0.0074252  0.000247525
       80.85  -0.00594031  0.000247525
        88.2   0.00470283  0.000247525
       95.55   -0.0037128  0.000247525
       102.9   0.00247523  0.000247525
      110.25  -0.00222771  0.000247525
